4553.63	3753.61
1331
40127.5	29479.6
15
0	3105	3106
1	1962	1965
2	2173	2193
3	0	-1
4	0	-1
5	3092	3105
6	3047	3047
7	2389	2397
8	1626	1753
9	2250	2270
10	0	-1
11	0	-1
12	0	-1
13	0	-1
14	0	-1
44
0	5	104.549510	108.004141	1.000000
0	6	99.969104	111.150425	1.000000
0	7	99.908946	122.684875	1.000000
1	2	42.362710	120.587353	1.000000
1	4	47.413472	118.489831	1.000000
1	5	71.712118	120.587353	1.000000
2	1	42.921058	120.587353	1.000000
2	4	33.306354	111.150425	1.000000
2	7	86.275422	106.955380	1.000000
3	4	14.647640	103.810058	1.000000
3	5	51.325016	95.421218	1.000000
4	1	47.148382	118.489831	1.000000
4	2	33.752312	111.150425	1.000000
4	3	14.002170	103.810058	1.000000
5	0	103.393160	108.004141	1.000000
5	1	71.223370	120.587353	1.000000
5	3	52.641460	95.421218	1.000000
5	12	96.377530	96.469691	1.000000
6	0	99.323388	111.150425	1.000000
6	9	81.048752	101.712535	1.000000
6	13	104.306880	115.344508	1.000000
7	0	101.610016	122.684875	1.000000
7	2	85.354712	106.955380	1.000000
7	8	76.599124	114.295747	1.000000
7	14	52.087744	118.489831	1.000000
8	7	77.206758	114.295747	1.000000
8	9	42.686116	111.150425	1.000000
8	11	28.447118	94.372649	1.000000
8	14	14.319722	100.663774	1.000000
9	6	79.847986	101.712535	1.000000
9	8	42.769784	111.150425	1.000000
9	11	38.574106	117.441070	1.000000
10	12	28.499850	111.150425	1.000000
10	13	38.144628	105.907580	1.000000
11	8	29.931460	94.372649	1.000000
11	9	37.516776	117.441070	1.000000
12	5	95.136318	96.469691	1.000000
12	10	28.889268	111.150425	1.000000
12	13	38.895730	102.761297	1.000000
13	6	105.609600	115.344508	1.000000
13	10	38.248972	105.907580	1.000000
13	12	37.382912	102.761297	1.000000
14	7	52.270942	118.489831	1.000000
14	8	14.122884	100.663774	1.000000
840
4	10	12	5	3	5	0	5	1	5	5	5	3	5	4	
3	14	7	2	7	0	2	1	2	5	2	3	2	4	
3	3	5	0	0	0	0	1	0	5	0	3	0	4	
2	8	9	9	0	9	1	9	2	9	3	9	4	
4	14	7	2	4	7	0	7	1	7	5	7	3	2	4	
3	2	7	14	7	0	7	1	7	2	7	5	7	4	
4	9	6	13	12	6	0	6	1	6	5	6	3	6	4	
2	12	5	5	0	5	1	5	2	5	1	5	0	
3	2	7	8	2	0	2	1	2	2	2	5	2	4	
3	5	1	2	1	0	1	1	1	2	1	1	1	0	
5	13	12	5	1	4	5	0	1	1	1	2	1	3	1	4	
3	0	7	2	0	0	0	1	0	2	0	1	0	0	
4	4	1	5	12	1	0	1	1	1	5	1	3	1	4	
2	6	13	6	0	6	1	6	2	6	3	6	4	
3	8	7	0	8	0	8	1	8	2	0	5	0	4	
3	1	2	7	1	0	1	1	1	2	1	5	1	4	
3	8	9	6	8	0	8	1	8	2	6	5	6	4	
5	3	5	0	7	14	5	0	5	1	5	2	5	5	5	4	
2	8	7	8	0	8	1	8	5	8	3	8	4	
4	10	12	5	12	5	0	5	1	5	2	5	3	5	4	
4	3	5	0	7	0	0	0	1	0	2	0	3	0	4	
4	7	0	6	13	6	0	6	1	6	5	6	3	6	4	
4	14	7	2	1	7	0	7	1	7	5	7	3	7	4	
5	11	9	6	0	5	9	0	9	1	9	2	9	1	9	0	
2	1	2	2	0	2	1	2	2	2	3	2	4	
4	4	1	5	12	5	0	5	1	5	2	5	1	5	0	
3	7	2	1	7	0	7	1	7	5	7	3	7	4	
3	2	1	5	5	0	5	1	5	5	5	3	5	4	
2	9	6	9	0	9	1	9	5	9	3	9	4	
5	1	2	7	8	11	8	0	8	1	8	2	8	5	8	4	
4	11	9	6	0	9	0	9	1	9	2	9	1	9	0	
6	14	7	0	6	13	10	7	0	7	1	7	2	7	3	7	4	
2	4	1	1	0	1	1	1	2	1	1	1	0	
4	12	5	0	7	0	0	0	1	0	2	0	3	0	4	
2	5	0	0	0	0	1	0	2	0	3	0	4	
4	0	5	1	4	5	0	5	1	5	2	5	5	5	4	
2	11	9	9	0	9	1	9	2	9	1	9	0	
4	10	13	6	9	9	0	9	1	9	2	9	5	9	4	
2	9	8	8	0	8	1	8	5	8	3	8	4	
5	11	9	6	13	12	6	0	6	1	6	2	6	5	6	4	
3	7	0	6	7	0	7	1	7	2	0	5	0	4	
2	14	7	7	0	7	1	7	2	7	5	7	4	
4	13	6	9	11	9	0	9	1	9	5	9	3	9	4	
4	2	7	8	11	2	0	2	1	2	5	2	3	2	4	
3	6	13	10	6	0	6	1	6	5	6	3	6	4	
3	13	12	5	5	0	5	1	5	5	5	3	5	4	
3	0	5	1	1	0	1	1	1	2	1	3	1	4	
5	3	5	0	6	9	9	0	9	1	9	2	9	1	9	0	
4	3	5	12	10	5	0	5	1	5	2	5	5	5	4	
3	1	5	0	1	0	1	1	1	5	1	3	1	4	
3	7	0	5	0	0	0	1	0	2	0	3	0	4	
5	5	0	6	9	11	9	0	9	1	9	5	9	3	9	4	
3	0	7	8	8	0	8	1	8	2	8	5	8	4	
3	0	7	14	0	0	0	1	0	2	0	5	7	4	
4	3	4	1	4	1	0	1	1	1	2	1	1	1	0	
4	11	8	7	2	2	0	2	1	2	2	2	3	2	4	
2	14	8	8	0	8	1	8	2	8	1	8	0	
4	4	1	4	3	1	0	1	1	1	2	1	3	1	4	
2	2	4	2	0	2	1	2	2	2	3	2	4	
3	10	13	6	6	0	6	1	6	2	6	1	6	0	
3	13	6	0	6	0	6	1	6	2	6	5	6	4	
4	0	6	13	10	0	0	0	1	0	2	0	5	6	4	
4	6	0	5	1	1	0	1	1	1	2	1	5	1	4	
3	9	8	7	9	0	9	1	9	5	9	3	9	4	
5	8	9	6	13	10	9	0	9	1	9	2	9	3	9	4	
5	12	5	0	7	8	0	0	0	1	0	5	0	3	8	4	
4	14	7	0	5	7	0	7	1	7	2	7	1	7	0	
3	5	0	7	5	0	5	1	5	5	5	3	7	4	
3	12	13	6	6	0	6	1	6	5	6	3	6	4	
2	6	0	0	0	0	1	0	2	0	5	0	4	
2	5	1	5	0	5	1	5	5	5	3	5	4	
4	10	13	6	13	6	0	6	1	6	2	6	5	6	4	
4	13	12	5	3	5	0	5	1	5	2	5	3	5	4	
2	11	8	8	0	8	1	8	2	8	5	8	4	
4	6	0	7	2	2	0	2	1	2	2	2	3	2	4	
4	4	2	7	8	2	0	2	1	2	5	2	3	2	4	
4	9	6	13	10	9	0	9	1	9	2	9	1	9	0	
4	13	6	13	12	6	0	6	1	6	2	6	5	6	4	
4	10	13	6	13	6	0	6	1	6	2	6	3	6	4	
4	3	5	0	6	5	0	5	1	0	2	0	3	0	4	
5	7	0	6	13	10	7	0	7	1	7	2	7	1	7	0	
5	9	6	0	5	3	9	0	9	1	9	2	9	1	9	0	
3	12	5	3	5	0	5	1	5	2	5	5	5	4	
2	5	12	5	0	5	1	5	2	5	5	5	4	
3	7	8	9	9	0	9	1	9	5	9	3	9	4	
4	11	9	6	13	9	0	9	1	9	5	9	3	9	4	
3	0	6	13	0	0	0	1	0	5	0	3	0	4	
5	8	7	0	5	12	8	0	8	1	8	2	8	1	5	0	
3	14	8	11	8	0	8	1	8	2	8	3	8	4	
2	4	2	2	0	2	1	2	5	2	3	2	4	
3	12	5	0	0	0	0	1	0	2	0	3	0	4	
2	2	7	2	0	2	1	2	2	2	1	2	0	
5	14	7	0	6	13	7	0	7	1	7	2	7	5	6	4	
4	13	12	5	1	1	0	1	1	1	2	1	1	1	0	
2	6	0	0	0	0	1	0	2	0	1	0	0	
5	14	7	0	5	3	7	0	7	1	7	5	7	3	5	4	
3	14	7	2	2	0	2	1	2	2	2	5	2	4	
2	8	9	9	0	9	1	9	2	9	1	9	0	
3	6	13	12	6	0	6	1	6	2	6	5	6	4	
3	2	7	14	7	0	7	1	7	2	7	1	7	0	
4	10	12	5	1	1	0	1	1	1	2	1	5	1	4	
4	3	5	12	10	5	0	5	1	5	5	5	3	5	4	
2	9	8	9	0	9	1	9	2	9	3	9	4	
2	3	5	5	0	5	1	5	2	5	5	5	4	
3	5	1	2	2	0	2	1	2	2	2	5	2	4	
5	13	12	5	1	4	1	0	1	1	1	2	1	1	1	0	
3	0	7	2	7	0	7	1	7	2	7	3	7	4	
2	6	13	6	0	6	1	6	2	6	1	6	0	
3	8	7	0	7	0	7	1	7	2	7	1	7	0	
3	11	9	6	9	0	9	1	9	2	9	5	9	4	
3	1	2	7	7	0	7	1	7	2	7	1	7	0	
3	7	2	4	7	0	7	1	7	2	7	3	7	4	
3	3	4	2	2	0	2	1	2	2	2	5	2	4	
5	10	12	5	1	2	1	0	1	1	1	5	1	3	1	4	
3	3	4	1	1	0	1	1	1	5	1	3	1	4	
4	10	12	5	12	5	0	5	1	5	5	5	3	5	4	
3	13	6	9	6	0	6	1	6	5	6	3	6	4	
4	7	0	6	13	7	0	7	1	7	2	7	5	7	4	
5	11	9	6	0	5	9	0	6	1	6	2	6	3	5	4	
2	1	2	1	0	1	1	1	2	1	1	1	0	
4	4	1	5	12	1	0	1	1	1	2	1	3	1	4	
4	12	5	1	2	1	0	1	1	1	2	1	1	1	0	
3	2	1	5	1	0	1	1	1	2	1	3	1	4	
3	5	12	13	5	0	5	1	5	2	5	1	5	0	
4	5	0	7	14	0	0	0	1	0	5	0	3	0	4	
5	11	9	6	13	10	6	0	6	1	6	2	6	5	6	4	
3	13	6	9	9	0	9	1	9	2	9	5	9	4	
5	1	2	7	8	11	7	0	7	1	7	2	7	1	7	0	
2	8	11	8	0	8	1	8	2	8	3	8	4	
2	4	1	1	0	1	1	1	2	1	5	1	4	
3	14	8	9	8	0	8	1	8	2	8	5	8	4	
4	12	5	0	7	0	0	0	1	0	2	0	1	0	0	
2	5	0	0	0	0	1	0	2	0	1	0	0	
5	13	6	0	7	2	0	0	0	1	0	2	0	3	0	4	
4	0	5	1	4	0	0	0	1	0	2	0	1	1	0	
3	7	8	11	7	0	7	1	7	5	7	3	7	4	
4	6	0	5	3	0	0	0	1	0	2	0	3	0	4	
2	11	9	9	0	9	1	9	2	9	3	9	4	
3	10	12	5	5	0	5	1	5	2	5	5	5	4	
3	7	0	6	7	0	7	1	7	5	7	3	7	4	
5	12	5	0	7	14	7	0	7	1	7	2	7	1	7	0	
2	14	7	7	0	7	1	7	5	7	3	7	4	
4	13	6	9	11	6	0	6	1	6	2	6	5	6	4	
3	6	13	10	6	0	6	1	6	2	6	5	6	4	
3	13	12	5	5	0	5	1	5	2	5	5	5	4	
3	0	5	1	0	0	0	1	0	2	0	1	0	0	
5	3	5	0	6	9	0	0	0	1	0	2	0	3	0	4	
3	11	8	7	7	0	7	1	7	2	7	1	7	0	
3	1	5	0	0	0	0	1	0	2	0	3	0	4	
4	4	2	7	14	7	0	7	1	7	2	7	1	7	0	
5	5	0	6	9	11	0	0	0	1	0	2	0	5	0	4	
5	13	6	0	7	14	6	0	6	1	6	2	6	3	7	4	
3	0	7	8	7	0	7	1	7	2	7	1	7	0	
4	3	4	1	4	1	0	1	1	1	2	1	5	1	4	
4	11	8	7	2	7	0	7	1	7	2	7	1	7	0	
2	14	8	8	0	8	1	8	2	8	3	8	4	
5	2	1	5	12	10	1	0	1	1	1	5	1	3	1	4	
4	4	1	4	3	1	0	1	1	1	2	1	1	1	0	
3	12	5	1	1	0	1	1	1	2	1	3	1	4	
2	2	4	2	0	2	1	2	5	2	3	2	4	
4	5	0	7	14	7	0	7	1	7	2	7	3	7	4	
3	10	13	6	6	0	6	1	6	2	6	3	6	4	
3	13	6	0	0	0	0	1	0	5	0	3	0	4	
4	6	0	5	1	0	0	0	1	0	5	0	3	0	4	
4	8	7	2	4	7	0	7	1	7	5	7	3	7	4	
4	14	7	0	5	7	0	7	1	7	2	7	5	0	4	
5	8	9	6	13	10	9	0	9	1	9	5	9	3	9	4	
5	12	5	0	7	8	0	0	0	1	0	2	0	5	8	4	
3	5	0	7	7	0	7	1	7	2	7	5	7	4	
3	12	13	6	6	0	6	1	6	2	6	5	6	4	
2	5	1	1	0	1	1	1	2	1	5	1	4	
5	10	13	6	9	8	9	0	9	1	9	2	9	1	9	0	
3	0	5	3	0	0	0	1	0	2	0	3	0	4	
6	3	5	0	6	9	11	5	0	5	1	5	2	5	1	9	0	
4	4	2	7	8	2	0	2	1	2	2	7	5	8	4	
4	12	13	6	13	6	0	6	1	6	2	6	3	6	4	
2	7	8	7	0	7	1	7	5	7	3	7	4	
2	2	1	2	0	2	1	2	2	2	5	2	4	
4	9	6	13	10	9	0	9	1	9	2	9	5	9	4	
4	13	6	13	12	6	0	6	1	6	5	6	3	6	4	
4	10	13	6	13	6	0	6	1	6	2	6	1	6	0	
4	3	5	0	6	0	0	0	1	0	2	0	1	0	0	
4	9	6	13	12	9	0	9	1	9	2	9	5	6	4	
5	11	8	7	2	4	7	0	7	1	7	2	7	3	7	4	
2	8	11	8	0	8	1	8	5	8	3	8	4	
5	4	1	5	12	13	1	0	1	1	1	2	1	3	1	4	
5	9	6	0	5	3	0	0	0	1	0	2	0	3	0	4	
3	12	5	3	5	0	5	1	5	5	5	3	5	4	
2	5	12	5	0	5	1	5	5	5	3	5	4	
5	10	12	5	1	4	5	0	1	1	1	2	1	1	1	0	
4	1	5	12	13	1	0	1	1	1	2	5	5	5	4	
4	11	9	6	13	9	0	9	1	6	2	6	5	6	4	
5	8	7	0	5	12	0	0	0	1	0	2	0	3	0	4	
3	14	8	11	8	0	8	1	8	2	8	1	8	0	
5	2	7	0	6	13	2	0	7	1	0	2	0	5	6	4	
2	4	2	2	0	2	1	2	2	2	5	2	4	
3	9	6	13	9	0	9	1	9	2	9	1	9	0	
2	2	7	7	0	7	1	7	2	7	5	7	4	
4	13	12	5	1	1	0	1	1	1	2	1	3	1	4	
2	6	0	0	0	0	1	0	2	0	3	0	4	
2	11	8	8	0	8	1	8	2	8	3	8	4	
3	14	7	2	7	0	7	1	7	2	7	1	7	0	
4	6	0	7	2	0	0	0	1	0	5	0	3	0	4	
2	1	4	1	0	1	1	1	2	1	5	1	4	
3	7	2	1	7	0	7	1	7	2	7	1	7	0	
3	2	7	14	7	0	7	1	7	2	7	3	7	4	
2	9	8	8	0	8	1	8	2	8	1	8	0	
3	0	5	12	0	0	0	1	0	5	0	3	0	4	
3	5	1	2	5	0	5	1	5	5	5	3	5	4	
5	10	13	6	9	11	9	0	9	1	9	2	9	3	9	4	
3	0	7	2	0	0	0	1	0	5	0	3	0	4	
5	3	5	0	7	8	0	0	0	1	0	2	0	3	0	4	
3	8	7	0	0	0	0	1	0	2	0	3	0	4	
3	11	9	6	9	0	9	1	9	5	9	3	9	4	
3	3	5	12	5	0	5	1	5	5	5	3	5	4	
3	1	2	7	7	0	7	1	7	2	7	3	7	4	
3	7	2	4	7	0	7	1	7	2	7	1	7	0	
5	9	8	7	2	1	8	0	8	1	8	2	8	1	8	0	
3	2	7	0	0	0	0	1	0	2	0	1	0	0	
2	12	5	5	0	5	1	5	5	5	3	5	4	
5	10	12	5	1	2	2	0	2	1	2	2	2	5	2	4	
2	9	8	8	0	8	1	8	2	8	5	8	4	
4	10	12	5	12	5	0	5	1	5	2	5	5	5	4	
4	1	2	7	8	7	0	7	1	7	2	7	5	7	4	
4	3	5	0	7	0	0	0	1	0	2	0	5	0	4	
4	7	0	6	13	0	0	0	1	0	2	0	1	0	0	
2	8	14	8	0	8	1	8	2	8	1	8	0	
3	14	8	9	9	0	9	1	9	2	9	3	9	4	
5	1	2	7	8	9	7	0	9	1	9	2	9	5	9	4	
4	12	5	1	2	2	0	2	1	2	2	2	3	2	4	
3	2	1	5	2	0	2	1	2	2	2	1	2	0	
3	5	12	13	5	0	5	1	5	2	5	3	5	4	
5	10	13	6	0	7	0	0	0	1	0	2	0	3	0	4	
2	0	7	0	0	0	1	0	2	0	5	0	4	
5	11	9	6	13	10	9	0	9	1	9	5	9	3	9	4	
5	1	2	7	8	11	2	0	2	1	2	2	2	3	2	4	
2	8	11	8	0	8	1	8	2	8	1	8	0	
4	2	1	5	12	2	0	2	1	2	2	2	1	1	0	
2	4	1	1	0	1	1	1	5	1	3	1	4	
3	9	8	14	9	0	9	1	9	2	9	3	9	4	
5	9	8	7	2	4	9	0	9	1	9	5	9	3	9	4	
5	13	6	0	7	2	7	0	2	1	2	2	2	1	2	0	
4	0	5	1	4	0	0	0	1	0	2	0	3	1	4	
4	6	0	5	3	6	0	6	1	6	2	6	1	6	0	
3	8	7	2	8	0	8	1	8	2	8	1	8	0	
2	1	5	1	0	1	1	1	2	1	1	1	0	
3	7	0	6	6	0	6	1	6	2	6	3	6	4	
5	12	5	0	7	14	0	0	0	1	0	2	0	3	0	4	
4	13	6	9	11	9	0	9	1	9	2	9	1	9	0	
4	0	6	9	11	6	0	6	1	6	2	6	5	6	4	
3	6	13	10	6	0	6	1	6	2	6	1	6	0	
3	0	5	1	0	0	0	1	0	2	0	5	0	4	
2	7	0	7	0	7	1	7	2	7	5	7	4	
3	11	8	7	8	0	8	1	8	2	8	3	8	4	
3	1	5	0	1	0	1	1	1	2	1	1	1	0	
4	4	2	7	14	2	0	2	1	2	2	2	3	2	4	
4	9	8	7	2	9	0	9	1	9	2	9	3	9	4	
5	9	8	7	2	4	9	0	9	1	9	2	9	5	9	4	
3	2	4	3	2	0	2	1	2	2	2	3	2	4	
5	8	7	0	5	3	8	0	8	1	8	5	8	3	5	4	
5	5	0	6	9	11	5	0	0	1	0	2	0	1	9	0	
5	13	6	0	7	14	7	0	7	1	7	2	7	1	7	0	
3	0	7	8	8	0	8	1	8	2	8	3	8	4	
4	2	1	5	12	1	0	1	1	1	5	1	3	1	4	
5	1	2	7	8	9	1	0	1	1	1	2	1	1	2	0	
3	6	0	7	6	0	6	1	6	5	6	3	6	4	
4	8	9	6	13	6	0	6	1	6	2	6	3	6	4	
2	14	8	8	0	8	1	8	5	8	3	8	4	
5	2	1	5	12	10	2	0	2	1	2	2	2	5	2	4	
3	12	5	1	5	0	5	1	5	2	5	1	5	0	
2	2	4	2	0	2	1	2	2	2	5	2	4	
4	5	0	7	14	5	0	5	1	5	2	5	1	5	0	
3	13	6	0	6	0	6	1	6	2	6	3	6	4	
2	0	6	6	0	6	1	6	2	6	1	6	0	
6	11	9	6	0	5	3	9	0	9	1	9	2	9	5	9	4	
4	6	0	5	1	5	0	5	1	5	2	5	3	5	4	
4	8	7	2	4	8	0	8	1	8	2	7	5	7	4	
2	8	9	9	0	9	1	9	5	9	3	9	4	
5	8	9	6	13	10	9	0	9	1	9	2	6	5	6	4	
5	12	5	0	7	8	0	0	0	1	0	2	0	1	8	0	
3	5	0	7	5	0	0	1	0	2	0	1	0	0	
5	10	13	6	9	8	9	0	9	1	9	2	9	3	9	4	
3	0	5	3	5	0	5	1	5	2	5	1	5	0	
6	3	5	0	6	9	11	5	0	5	1	5	2	5	3	9	4	
4	8	7	2	1	1	0	1	1	1	2	1	3	1	4	
4	12	5	12	10	5	0	5	1	5	2	5	5	5	4	
4	1	5	0	6	0	0	0	1	0	2	0	3	0	4	
2	6	9	9	0	9	1	9	5	9	3	9	4	
4	4	2	7	8	8	0	8	1	8	2	8	1	8	0	
4	12	13	6	13	6	0	6	1	6	2	6	1	6	0	
2	2	1	1	0	1	1	1	5	1	3	1	4	
4	9	6	13	10	9	0	9	1	9	5	9	3	9	4	
4	13	6	13	12	6	0	6	1	6	2	6	3	6	4	
4	0	6	13	10	0	0	0	1	0	2	0	1	0	0	
5	13	6	0	7	2	0	0	0	1	0	5	0	3	0	4	
3	6	13	12	6	0	6	1	6	5	6	3	6	4	
5	11	8	7	2	4	8	0	8	1	8	2	8	1	8	0	
5	4	1	5	12	13	1	0	1	1	1	2	1	1	1	0	
3	12	5	3	5	0	5	1	5	2	5	3	5	4	
2	5	12	5	0	5	1	5	2	5	3	5	4	
5	10	12	5	1	4	5	0	1	1	1	2	1	3	1	4	
4	6	0	5	3	0	0	0	1	0	5	0	3	0	4	
4	11	9	6	13	9	0	9	1	9	2	9	1	9	0	
4	1	5	12	10	1	0	1	1	1	2	1	3	1	4	
2	7	2	2	0	2	1	2	2	2	5	2	4	
3	14	8	11	8	0	8	1	8	2	8	5	8	4	
5	2	1	5	12	13	1	0	1	1	1	5	1	3	1	4	
3	9	6	13	9	0	9	1	9	2	9	3	9	4	
4	13	6	0	7	0	0	0	1	0	5	0	3	0	4	
2	2	7	7	0	7	1	7	5	7	3	7	4	
4	7	0	5	12	0	0	0	1	0	5	0	3	0	4	
4	6	0	7	14	6	0	6	1	6	5	6	3	7	4	
4	8	7	0	5	0	0	0	1	0	5	0	3	0	4	
4	13	12	5	1	1	0	1	1	1	5	1	3	1	4	
2	0	5	0	0	0	1	0	2	0	3	0	4	
4	3	5	12	13	5	0	5	1	5	2	5	1	5	0	
2	11	8	8	0	8	1	8	2	8	1	8	0	
3	14	7	2	7	0	7	1	7	2	7	3	7	4	
2	1	4	1	0	1	1	1	5	1	3	1	4	
3	7	2	1	1	0	1	1	1	2	1	3	1	4	
2	7	0	0	0	0	1	0	5	0	3	0	4	
3	0	5	12	0	0	0	1	0	2	0	5	0	4	
3	7	8	11	7	0	7	1	7	2	7	5	7	4	
5	12	5	0	7	14	5	0	5	1	5	2	5	5	0	4	
5	10	13	6	9	11	9	0	9	1	9	2	9	1	9	0	
3	0	7	2	0	0	0	1	0	2	0	5	0	4	
5	3	5	0	7	8	5	0	5	1	5	2	5	1	8	0	
2	7	14	7	0	7	1	7	2	7	5	7	4	
3	11	9	6	9	0	9	1	9	2	9	3	9	4	
5	14	7	0	5	12	5	0	5	1	5	2	5	1	5	0	
3	7	2	4	2	0	2	1	2	2	2	5	2	4	
5	9	8	7	2	1	9	0	9	1	9	2	9	3	9	4	
2	13	6	6	0	6	1	6	5	6	3	6	4	
3	2	7	0	0	0	0	1	0	2	0	3	0	4	
4	4	1	5	12	1	0	1	1	1	2	1	5	5	4	
5	10	12	5	1	2	1	0	1	1	1	2	1	1	1	0	
3	6	9	8	6	0	6	1	6	5	6	3	6	4	
3	0	6	9	6	0	6	1	6	2	6	3	6	4	
3	3	4	1	1	0	1	1	1	2	1	1	1	0	
3	6	0	5	6	0	6	1	6	2	6	5	6	4	
3	7	0	5	5	0	5	1	5	5	5	3	5	4	
4	7	0	6	13	6	0	6	1	6	2	6	3	6	4	
2	8	14	8	0	8	1	8	2	8	3	8	4	
4	12	5	1	4	5	0	5	1	1	5	1	3	1	4	
3	14	8	9	9	0	9	1	9	2	9	1	9	0	
2	5	3	5	0	5	1	5	5	5	3	5	4	
4	12	5	1	2	1	0	1	1	1	5	1	3	1	4	
3	5	12	13	5	0	5	1	5	5	5	3	5	4	
5	10	13	6	0	7	6	0	6	1	6	2	6	1	6	0	
2	0	7	0	0	0	1	0	5	0	3	0	4	
5	11	9	6	13	10	9	0	9	1	9	2	9	3	9	4	
3	14	7	0	0	0	0	1	0	2	0	1	0	0	
4	7	0	5	3	5	0	5	1	5	2	5	1	5	0	
4	2	1	5	12	2	0	2	1	2	2	2	3	2	4	
4	8	7	2	1	1	0	1	1	1	5	1	3	1	4	
3	9	8	14	9	0	9	1	9	2	9	1	9	0	
4	13	6	9	8	9	0	9	1	9	2	9	5	9	4	
2	5	0	5	0	5	1	5	5	5	3	5	4	
2	6	9	6	0	6	1	6	2	6	5	6	4	
4	10	13	6	9	9	0	9	1	9	2	9	3	9	4	
4	3	5	12	10	5	0	5	1	5	2	5	3	5	4	
3	8	7	2	8	0	8	1	8	2	8	3	8	4	
2	1	5	1	0	1	1	1	2	1	3	1	4	
3	7	0	6	0	0	0	1	0	2	0	1	0	0	
3	9	8	7	9	0	9	1	9	2	9	1	9	0	
4	1	5	0	6	1	0	1	1	5	5	5	3	5	4	
4	5	0	7	8	5	0	5	1	5	2	5	5	0	4	
4	13	6	9	11	9	0	9	1	9	2	9	3	9	4	
4	0	6	9	11	6	0	6	1	6	5	6	3	6	4	
3	6	13	10	6	0	6	1	6	2	6	3	6	4	
5	11	8	7	2	1	1	0	1	1	1	5	1	3	1	4	
3	6	9	8	9	0	9	1	9	2	9	5	9	4	
4	4	1	5	0	1	0	0	1	0	5	0	3	0	4	
4	13	6	13	10	6	0	6	1	6	5	6	3	6	4	
3	11	8	7	8	0	8	1	8	5	8	3	8	4	
4	4	2	7	14	2	0	2	1	2	5	2	3	2	4	
4	9	8	7	2	8	0	8	1	8	2	8	1	8	0	
3	2	4	3	2	0	2	1	2	2	2	1	2	0	
5	5	0	6	9	11	5	0	5	1	5	2	5	3	5	4	
3	10	12	5	5	0	5	1	5	2	5	3	5	4	
5	6	0	5	1	4	1	0	1	1	1	2	1	1	1	0	
5	1	2	7	8	9	1	0	1	1	1	2	1	3	1	4	
3	6	9	11	6	0	6	1	6	5	6	3	6	4	
4	8	9	6	13	8	0	8	1	8	2	8	1	8	0	
5	12	13	6	9	11	6	0	6	1	6	2	6	5	6	4	
2	14	8	8	0	8	1	8	2	8	5	8	4	
5	2	1	5	12	10	1	0	1	1	1	2	1	1	1	0	
3	5	1	4	5	0	1	1	1	2	1	5	1	4	
4	9	6	13	12	6	0	6	1	6	2	6	3	6	4	
4	1	2	7	8	1	0	1	1	1	5	1	3	1	4	
4	5	0	7	14	0	0	0	1	0	2	0	5	0	4	
3	13	6	0	0	0	0	1	0	2	0	1	0	0	
2	0	6	0	0	0	1	0	2	0	3	0	4	
4	6	0	5	1	1	0	1	1	1	2	1	1	1	0	
4	8	7	2	4	2	0	2	1	2	2	2	1	2	0	
5	14	7	0	5	3	7	0	7	1	7	2	7	3	5	4	
2	7	0	7	0	7	1	7	2	7	3	7	4	
5	12	5	0	7	8	0	0	0	1	0	2	0	3	8	4	
4	1	5	12	13	1	0	1	1	1	5	1	3	1	4	
3	5	0	7	7	0	7	1	7	2	7	3	7	4	
3	13	6	9	6	0	6	1	6	2	6	1	6	0	
3	6	9	8	6	0	9	1	9	2	9	1	9	0	
4	3	5	12	13	5	0	5	1	5	2	5	5	5	4	
6	3	5	0	6	9	11	9	0	9	1	9	5	9	3	9	4	
4	8	7	2	1	1	0	1	1	1	2	1	1	1	0	
2	1	2	1	0	1	1	1	5	1	3	1	4	
4	1	5	0	6	1	0	1	1	1	2	1	1	1	0	
4	4	2	7	8	2	0	2	1	2	2	2	3	2	4	
3	9	6	0	0	0	0	1	0	2	0	3	0	4	
2	2	1	2	0	2	1	2	2	2	3	2	4	
4	5	0	6	9	6	0	6	1	6	2	6	1	6	0	
4	13	6	13	12	6	0	6	1	6	2	6	1	6	0	
4	0	6	13	10	0	0	0	1	0	2	0	3	0	4	
5	13	6	9	8	14	9	0	9	1	9	5	9	3	9	4	
3	11	8	14	8	0	8	1	8	2	8	5	8	4	
4	7	0	5	12	7	0	7	1	7	2	7	3	7	4	
5	11	8	7	2	4	2	0	2	1	2	2	2	5	2	4	
5	4	1	5	12	13	1	0	1	1	1	2	1	5	1	4	
3	12	5	3	5	0	5	1	5	2	5	1	5	0	
2	5	12	5	0	5	1	5	2	5	1	5	0	
5	10	12	5	1	4	1	0	1	1	1	5	1	3	1	4	
4	7	0	5	12	0	0	0	1	0	2	0	5	0	4	
3	6	0	7	6	0	6	1	6	2	6	3	6	4	
4	11	9	6	13	9	0	9	1	9	2	9	3	9	4	
4	1	5	12	10	5	0	5	1	5	2	5	1	5	0	
2	7	2	7	0	7	1	7	5	7	3	7	4	
4	12	5	12	10	5	0	5	1	5	2	5	1	5	0	
3	14	8	11	8	0	8	1	8	5	8	3	8	4	
5	2	7	0	6	13	6	0	6	1	6	2	6	3	6	4	
3	9	6	13	9	0	9	1	9	5	9	3	9	4	
4	13	6	0	7	7	0	7	1	7	2	7	5	7	4	
4	6	0	7	14	6	0	6	1	6	2	6	5	7	4	
4	13	12	5	1	5	0	5	1	5	2	5	5	1	4	
2	0	5	0	0	0	1	0	2	0	1	0	0	
4	3	5	12	13	5	0	5	1	5	2	5	3	5	4	
5	8	7	0	5	3	8	0	8	1	8	2	8	3	5	4	
5	1	2	7	8	9	9	0	9	1	9	5	9	3	9	4	
2	1	4	1	0	1	1	1	2	1	3	1	4	
5	4	1	5	12	10	1	0	5	1	5	2	5	1	5	0	
4	13	6	13	10	6	0	6	1	6	2	6	3	6	4	
3	0	5	12	0	0	0	1	0	2	0	1	0	0	
3	6	9	11	6	0	6	1	6	2	6	3	6	4	
4	1	2	7	14	2	0	2	1	2	5	2	3	2	4	
5	10	13	6	9	11	9	0	9	1	9	2	9	5	9	4	
5	3	5	0	7	8	5	0	5	1	5	2	5	5	8	4	
2	7	14	7	0	7	1	7	5	7	3	7	4	
3	11	9	6	6	0	6	1	6	2	6	1	6	0	
5	14	7	0	5	12	0	0	0	1	0	2	0	3	0	4	
4	2	7	0	6	6	0	6	1	6	5	6	3	6	4	
3	7	2	4	2	0	2	1	2	5	2	3	2	4	
5	9	8	7	2	1	1	0	1	1	1	5	1	3	1	4	
3	2	7	0	0	0	0	1	0	5	0	3	0	4	
3	5	12	10	5	0	5	1	5	2	5	3	5	4	
5	10	12	5	1	2	2	0	2	1	2	2	2	3	2	4	
3	0	6	9	6	0	6	1	6	2	6	1	6	0	
3	3	4	1	1	0	1	1	1	2	1	3	1	4	
3	6	0	5	6	0	0	1	0	5	0	3	0	4	
4	1	2	7	8	2	0	7	1	7	2	7	3	7	4	
5	4	1	5	0	6	1	0	0	1	0	2	0	1	6	0	
2	8	14	8	0	8	1	8	5	8	3	8	4	
4	12	5	1	4	5	0	5	1	5	2	5	5	1	4	
3	5	1	4	5	0	1	1	1	5	1	3	1	4	
2	5	3	5	0	5	1	5	2	5	5	5	4	
4	12	5	1	2	2	0	2	1	2	2	2	5	2	4	
3	5	12	13	5	0	5	1	5	2	5	5	5	4	
5	10	13	6	0	7	0	0	0	1	0	2	0	5	0	4	
3	12	5	1	1	0	1	1	1	5	1	3	1	4	
2	0	7	7	0	7	1	7	2	7	3	7	4	
5	11	9	6	13	10	6	0	6	1	6	2	6	1	6	0	
3	14	7	0	0	0	0	1	0	2	0	3	0	4	
4	7	0	5	3	7	0	7	1	7	2	7	3	5	4	
4	12	13	6	9	6	0	6	1	6	2	6	3	6	4	
3	9	6	0	6	0	6	1	6	2	6	5	6	4	
3	5	0	6	0	0	0	1	0	2	0	3	6	4	
3	9	8	14	9	0	9	1	9	2	9	5	8	4	
4	13	6	9	8	6	0	6	1	6	5	6	3	6	4	
3	6	0	7	0	0	0	1	0	2	0	5	7	4	
4	10	13	6	9	6	0	6	1	6	2	6	1	6	0	
3	1	4	3	1	0	1	1	1	5	1	3	1	4	
4	3	5	12	10	5	0	5	1	5	2	5	1	5	0	
3	8	7	2	8	0	8	1	8	5	8	3	8	4	
2	1	5	1	0	1	1	1	5	1	3	1	4	
5	4	2	7	8	9	9	0	9	1	9	2	9	3	9	4	
3	9	8	7	8	0	8	1	8	2	8	3	8	4	
2	9	11	9	0	9	1	9	5	9	3	9	4	
4	1	5	12	10	1	0	1	1	1	5	1	3	1	4	
4	5	0	7	8	0	0	0	1	0	5	0	3	0	4	
4	10	13	6	0	6	0	6	1	6	2	6	1	6	0	
4	0	6	9	11	9	0	9	1	9	2	9	3	9	4	
2	8	9	9	0	9	1	9	2	9	5	9	4	
5	11	8	7	2	1	7	0	7	1	7	2	7	5	2	4	
4	4	1	5	0	5	0	5	1	5	2	5	5	5	4	
4	10	13	6	13	6	0	6	1	6	5	6	3	6	4	
3	11	8	7	8	0	8	1	8	2	8	5	7	4	
4	2	7	8	9	2	0	2	1	2	2	2	5	9	4	
4	4	2	7	14	7	0	7	1	7	2	7	5	7	4	
4	9	8	7	2	8	0	8	1	8	2	8	5	2	4	
3	2	4	3	2	0	2	1	2	2	2	5	2	4	
3	10	12	5	5	0	5	1	5	2	5	1	5	0	
4	12	5	12	10	5	0	5	1	5	5	5	3	5	4	
5	6	0	5	1	4	6	0	6	1	6	2	6	3	1	4	
5	11	9	6	13	12	6	0	6	1	6	2	6	3	6	4	
5	4	2	7	8	11	8	0	8	1	8	2	8	5	8	4	
4	14	7	0	6	6	0	6	1	6	2	6	1	6	0	
3	4	1	5	1	0	1	1	1	2	1	3	1	4	
4	8	9	6	13	6	0	6	1	6	2	6	5	6	4	
5	12	13	6	9	11	6	0	6	1	6	5	6	3	6	4	
5	2	1	5	12	10	1	0	1	1	1	2	1	3	1	4	
5	13	6	0	7	2	6	0	2	1	2	2	2	5	2	4	
4	9	6	13	12	6	0	6	1	6	2	6	1	6	0	
5	3	5	0	6	9	0	0	0	1	0	2	0	5	6	4	
2	0	6	0	0	0	1	0	5	0	3	0	4	
3	3	5	12	5	0	5	1	5	2	5	3	5	4	
4	8	7	2	4	7	0	7	1	7	2	7	3	7	4	
5	14	7	0	5	3	0	0	0	1	0	2	0	1	0	0	
3	7	2	1	1	0	1	1	1	2	1	5	1	4	
2	7	0	0	0	0	1	0	2	0	1	0	0	
4	9	6	0	5	5	0	5	1	5	2	5	1	5	0	
5	4	2	7	8	11	7	0	7	1	7	5	7	3	7	4	
4	6	0	5	3	0	0	5	1	5	2	5	5	5	4	
3	13	6	9	6	0	6	1	6	2	6	3	6	4	
3	6	9	8	6	0	6	1	6	2	6	3	6	4	
5	10	13	6	9	8	9	0	9	1	9	2	9	5	9	4	
3	1	5	12	5	0	5	1	5	2	5	5	5	4	
6	3	5	0	6	9	11	9	0	9	1	9	2	9	5	9	4	
3	7	8	9	9	0	9	1	9	2	9	1	9	0	
5	14	7	0	6	13	0	0	0	1	0	2	0	3	0	4	
3	9	6	0	0	0	0	1	0	2	0	1	0	0	
4	8	7	0	5	0	0	0	1	0	2	0	5	0	4	
3	0	5	3	0	0	0	1	0	5	0	3	0	4	
2	2	1	2	0	2	1	2	2	2	1	2	0	
2	8	11	8	0	8	1	8	2	8	5	8	4	
4	5	0	6	9	6	0	6	1	6	2	6	3	6	4	
4	10	12	5	3	5	0	5	1	5	2	5	3	5	4	
4	0	6	13	10	6	0	6	1	6	5	6	3	6	4	
3	3	5	0	0	0	0	1	0	2	0	3	0	4	
3	11	8	14	8	0	8	1	8	5	8	3	8	4	
4	7	0	5	12	0	0	0	1	0	2	0	1	0	0	
5	11	8	7	2	4	2	0	2	1	2	5	2	3	2	4	
3	2	7	8	2	0	2	1	2	2	2	1	2	0	
6	10	13	6	0	7	14	6	0	6	1	6	2	6	5	6	4	
5	12	5	0	7	14	0	0	0	1	0	5	0	3	0	4	
5	10	12	5	1	4	1	0	1	1	1	2	1	5	1	4	
3	5	0	6	0	0	6	1	6	5	6	3	6	4	
3	6	0	7	0	0	0	1	0	2	0	1	0	0	
3	8	9	6	9	0	6	1	6	2	6	1	6	0	
4	14	7	2	1	2	0	2	1	2	2	2	3	2	4	
2	13	6	6	0	6	1	6	2	6	5	6	4	
4	12	13	6	9	9	0	9	1	9	5	9	3	9	4	
2	7	2	2	0	2	1	2	2	2	3	2	4	
4	12	5	12	10	5	0	5	1	5	2	5	3	5	4	
5	2	7	0	6	13	2	0	7	1	0	2	0	1	6	0	
4	14	7	2	1	7	0	7	1	7	2	7	5	2	4	
3	9	6	13	9	0	9	1	9	2	9	5	9	4	
4	13	6	0	7	0	0	0	1	0	2	0	1	0	0	
4	6	0	7	14	0	0	0	1	0	2	0	1	0	0	
2	0	5	0	0	0	1	0	2	0	5	0	4	
5	8	7	0	5	3	8	0	8	1	8	2	8	1	7	0	
2	1	4	1	0	1	1	1	2	1	1	1	0	
5	4	1	5	12	10	5	0	5	1	5	2	5	3	5	4	
2	9	6	6	0	6	1	6	2	6	3	6	4	
6	14	7	0	6	13	10	0	0	0	1	0	5	0	3	0	4	
4	13	6	13	10	6	0	6	1	6	2	6	1	6	0	
3	0	5	12	5	0	5	1	5	2	5	3	5	4	
3	6	9	11	6	0	6	1	6	2	6	1	6	0	
5	10	13	6	9	11	6	0	6	1	6	5	6	3	6	4	
4	1	5	12	13	5	0	5	1	5	2	5	1	5	0	
5	3	5	0	7	8	5	0	5	1	5	5	5	3	8	4	
2	7	14	7	0	7	1	7	2	7	3	7	4	
4	8	7	2	1	2	0	2	1	2	2	2	5	1	4	
5	14	7	0	5	12	0	0	5	1	5	5	5	3	5	4	
4	2	7	0	6	0	0	0	1	0	2	0	5	6	4	
5	9	8	7	2	1	9	0	9	1	9	2	9	5	7	4	
3	2	7	0	0	0	0	1	0	2	0	5	0	4	
3	5	12	10	5	0	5	1	5	2	5	1	5	0	
3	0	6	9	6	0	6	1	6	2	6	5	9	4	
3	6	0	5	5	0	5	1	5	2	5	3	5	4	
4	1	2	7	8	8	0	8	1	8	2	8	1	8	0	
5	4	1	5	0	6	5	0	5	1	5	2	5	3	5	4	
2	8	14	8	0	8	1	8	2	8	5	8	4	
4	12	5	1	4	5	0	5	1	1	2	1	1	1	0	
4	2	7	8	11	2	0	2	1	2	2	2	3	2	4	
2	5	3	5	0	5	1	5	2	5	1	5	0	
5	10	13	6	0	7	7	0	7	1	7	5	7	3	7	4	
4	13	6	13	10	6	0	6	1	6	2	6	5	6	4	
2	0	7	7	0	7	1	7	2	7	1	7	0	
4	8	7	0	5	8	0	8	1	8	2	8	3	7	4	
3	3	4	1	1	0	1	1	1	2	1	5	1	4	
3	14	7	0	7	0	7	1	7	5	7	3	7	4	
4	7	0	5	3	7	0	7	1	7	5	7	3	5	4	
4	12	13	6	9	9	0	9	1	9	2	9	1	9	0	
4	2	1	5	12	2	0	2	1	2	2	2	5	2	4	
3	5	0	6	0	0	0	1	0	2	0	1	0	0	
3	9	8	14	9	0	9	1	9	5	9	3	9	4	
4	13	6	9	8	9	0	9	1	9	2	9	3	9	4	
3	0	7	14	7	0	7	1	7	2	7	1	7	0	
4	4	1	4	3	1	0	1	1	1	5	1	3	1	4	
2	6	9	9	0	9	1	9	2	9	3	9	4	
3	6	9	11	6	0	6	1	6	2	6	5	9	4	
3	1	4	3	1	0	1	1	1	2	1	5	1	4	
3	8	7	2	2	0	2	1	2	2	2	5	2	4	
2	1	5	5	0	5	1	5	2	5	5	5	4	
5	4	2	7	8	9	7	0	7	1	7	2	7	1	7	0	
4	5	0	7	8	0	0	0	1	0	2	0	3	0	4	
4	10	13	6	0	0	0	0	1	0	2	0	3	0	4	
4	0	6	9	11	9	0	9	1	9	2	9	1	9	0	
5	11	8	7	2	1	7	0	7	1	7	2	7	1	7	0	
4	1	2	7	14	7	0	7	1	7	2	7	3	7	4	
6	14	7	0	6	13	10	0	0	0	1	0	2	0	5	0	4	
4	4	1	5	0	5	0	5	1	5	2	5	1	5	0	
4	2	7	8	9	7	0	7	1	7	5	7	3	7	4	
4	9	8	7	2	7	0	7	1	7	5	7	3	7	4	
4	13	12	5	3	5	0	5	1	5	5	5	3	5	4	
3	2	4	3	2	0	2	1	2	5	2	3	2	4	
2	6	0	6	0	6	1	6	5	6	3	6	4	
2	1	2	2	0	2	1	2	2	2	5	2	4	
5	6	0	5	1	4	6	0	6	1	6	5	6	3	1	4	
5	11	9	6	13	12	6	0	6	1	6	2	6	1	6	0	
4	14	7	0	6	7	0	7	1	7	2	7	3	7	4	
3	4	1	5	1	0	5	1	5	2	5	1	5	0	
4	8	9	6	13	8	0	8	1	8	5	8	3	6	4	
5	12	13	6	9	11	6	0	6	1	6	2	6	3	6	4	
3	5	1	4	5	0	5	1	5	2	5	3	5	4	
5	13	6	0	7	14	7	0	7	1	7	2	7	5	7	4	
2	0	6	0	0	0	1	0	2	0	5	0	4	
3	3	5	12	5	0	5	1	5	2	5	1	5	0	
5	7	0	6	13	10	0	0	0	1	0	2	0	5	6	4	
5	14	7	0	5	3	7	0	7	1	7	2	7	5	5	4	
6	11	9	6	0	5	3	9	0	9	1	9	5	9	3	9	4	
5	4	2	7	8	11	8	0	8	1	8	2	8	3	8	4	
4	9	6	0	5	9	0	9	1	9	2	9	3	9	4	
3	4	2	7	2	0	2	1	2	5	2	3	2	4	
6	10	13	6	0	7	14	7	0	7	1	7	2	7	1	7	0	
3	0	6	13	0	0	0	1	0	2	0	3	0	4	
2	3	5	5	0	5	1	5	2	5	1	5	0	
3	1	5	12	5	0	5	1	5	5	5	3	5	4	
3	7	8	9	8	0	8	1	8	2	8	3	9	4	
3	12	5	0	5	0	5	1	5	5	5	3	5	4	
5	14	7	0	6	13	7	0	7	1	7	2	7	1	7	0	
4	5	0	6	9	5	0	5	1	5	5	5	3	9	4	
4	10	12	5	3	5	0	5	1	5	2	5	1	5	0	
4	14	7	0	6	7	0	7	1	7	2	7	5	6	4	
3	3	5	0	5	0	5	1	5	2	5	1	5	0	
5	4	1	5	12	13	5	0	5	1	5	5	5	3	5	4	
3	11	8	14	8	0	8	1	8	2	8	3	8	4	
4	14	7	2	4	2	0	2	1	2	2	2	1	2	0	
3	4	2	7	2	0	2	1	2	2	2	3	2	4	
3	2	7	8	8	0	8	1	8	2	8	3	8	4	
4	1	2	7	14	1	0	1	1	1	2	1	5	2	4	
5	13	12	5	1	4	5	0	1	1	1	2	1	5	1	4	
2	6	13	6	0	6	1	6	2	6	5	6	4	
5	3	5	0	7	14	7	0	7	1	7	2	7	3	7	4	
3	8	9	6	8	0	9	1	9	2	9	3	9	4	
4	14	7	2	1	7	0	7	1	7	2	7	1	7	0	
2	7	2	7	0	7	1	7	2	7	1	7	0	
2	9	11	9	0	9	1	9	2	9	1	9	0	
4	13	6	0	7	0	0	0	1	0	2	0	3	0	4	
4	6	0	7	14	6	0	6	1	6	2	6	3	7	4	
5	11	9	6	0	5	9	0	9	1	9	5	9	3	9	4	
2	0	5	0	0	0	1	0	5	0	3	0	4	
3	7	8	11	8	0	8	1	8	2	8	1	8	0	
5	4	1	5	12	10	5	0	5	1	5	5	5	3	5	4	
2	9	6	9	0	9	1	9	2	9	1	9	0	
3	12	5	1	5	0	5	1	5	2	5	5	5	4	
4	11	9	6	0	9	0	0	1	0	5	0	3	0	4	
4	10	12	5	1	1	0	1	1	1	2	1	3	1	4	
4	3	5	12	13	5	0	5	1	5	5	5	3	5	4	
3	3	4	2	2	0	2	1	2	2	2	3	2	4	
4	1	5	12	13	1	0	1	1	1	2	1	3	1	4	
2	7	14	7	0	7	1	7	2	7	1	7	0	
4	12	5	0	7	0	0	0	1	0	2	0	5	0	4	
5	14	7	0	5	12	7	0	7	1	7	2	0	5	5	4	
4	2	7	0	6	7	0	7	1	7	2	6	1	6	0	
2	5	0	0	0	0	1	0	2	0	5	0	4	
5	3	5	0	7	14	7	0	7	1	7	5	7	3	7	4	
3	5	12	10	5	0	5	1	5	2	5	5	5	4	
2	11	9	9	0	9	1	9	5	9	3	9	4	
3	0	6	9	9	0	9	1	9	5	9	3	9	4	
3	6	0	5	6	0	6	1	6	2	6	1	6	0	
2	14	7	7	0	7	1	7	2	7	3	7	4	
5	4	1	5	0	6	6	0	6	1	6	5	6	3	6	4	
4	1	5	12	10	1	0	1	1	1	2	1	5	1	4	
4	12	5	1	4	5	0	5	1	5	2	5	3	5	4	
4	2	7	8	11	8	0	8	1	8	2	8	1	8	0	
2	5	3	5	0	5	1	5	2	5	3	5	4	
3	13	12	5	5	0	5	1	5	2	5	1	5	0	
3	6	13	12	6	0	6	1	6	2	6	1	6	0	
4	14	7	2	4	2	0	2	1	2	2	2	5	2	4	
4	8	7	0	5	8	0	8	1	8	2	8	1	8	0	
3	14	7	0	7	0	7	1	7	2	7	5	7	4	
4	7	0	5	3	7	0	7	1	7	2	7	5	5	4	
5	9	8	7	2	4	9	0	9	1	9	2	9	3	9	4	
2	9	11	9	0	9	1	9	2	9	5	9	4	
3	5	0	6	6	0	6	1	6	2	6	5	6	4	
4	13	6	9	8	8	0	8	1	8	2	8	1	8	0	
3	0	7	14	0	0	0	1	0	2	0	3	0	4	
2	6	9	9	0	9	1	9	2	9	1	9	0	
4	11	8	7	2	8	0	8	1	8	2	8	5	8	4	
3	1	4	3	1	0	1	1	1	2	1	1	1	0	
2	7	8	8	0	8	1	8	2	8	3	8	4	
4	10	13	6	9	9	0	9	1	9	5	9	3	9	4	
2	12	5	5	0	5	1	5	2	5	5	5	4	
5	11	9	6	13	12	9	0	9	1	9	5	9	3	9	4	
5	4	2	7	8	9	9	0	9	1	9	2	9	5	9	4	
5	3	5	0	6	9	6	0	6	1	6	5	6	3	6	4	
3	10	13	6	6	0	6	1	6	5	6	3	6	4	
4	5	0	7	8	0	0	0	1	0	2	8	1	8	0	
4	10	13	6	0	6	0	6	1	6	5	6	3	6	4	
5	11	8	7	2	1	8	0	8	1	7	2	7	3	7	4	
4	1	2	7	14	7	0	7	1	7	2	7	1	7	0	
4	4	1	5	0	0	0	0	1	0	2	0	3	0	4	
3	12	13	6	6	0	6	1	6	2	6	1	6	0	
4	2	7	8	9	8	0	8	1	8	2	8	3	8	4	
2	5	1	1	0	1	1	1	2	1	1	1	0	
4	13	12	5	3	5	0	5	1	5	2	5	5	5	4	
4	6	0	7	2	6	0	6	1	6	2	6	5	0	4	
5	6	0	5	1	4	5	0	5	1	5	2	5	5	5	4	
2	8	7	7	0	7	1	7	2	7	3	7	4	
3	7	0	5	7	0	7	1	7	2	7	5	0	4	
3	4	1	5	1	0	1	1	1	2	1	5	1	4	
5	12	13	6	9	11	6	0	6	1	6	2	6	1	9	0	
3	5	1	4	1	0	1	1	1	2	1	1	1	0	
6	10	13	6	9	8	14	8	0	8	1	8	5	8	3	8	4	
2	13	6	6	0	6	1	6	2	6	3	6	4	
3	0	5	1	0	0	0	1	0	5	0	3	0	4	
4	3	5	0	6	6	0	6	1	6	2	6	5	6	4	
3	3	5	12	5	0	5	1	5	2	5	5	5	4	
5	7	0	6	13	10	7	0	7	1	7	5	7	3	7	4	
5	9	6	0	5	3	9	0	9	1	9	5	9	3	9	4	
3	9	8	7	8	0	8	1	8	2	8	5	7	4	
5	4	2	7	8	11	2	0	2	1	8	2	8	1	8	0	
4	9	6	0	5	9	0	9	1	9	5	9	3	9	4	
6	10	13	6	0	7	14	7	0	7	1	7	2	7	3	7	4	
3	0	6	13	0	0	0	1	0	2	0	1	0	0	
2	3	5	5	0	5	1	5	2	5	3	5	4	
4	12	13	6	9	9	0	9	1	9	2	9	5	9	4	
6	11	9	6	0	5	3	0	0	0	1	0	2	0	1	0	0	
2	11	8	8	0	8	1	8	5	8	3	8	4	
3	1	5	12	1	0	1	1	1	2	5	3	5	4	
2	3	5	5	0	5	1	5	5	5	3	5	4	
2	4	2	2	0	2	1	2	2	2	1	2	0	
3	12	5	0	0	0	0	1	0	2	0	5	0	4	
5	10	13	6	9	8	8	0	8	1	8	5	8	3	8	4	
4	5	0	6	9	6	0	6	1	6	2	6	5	6	4	
4	10	12	5	3	5	0	5	1	5	2	5	5	5	4	
3	3	5	0	0	0	0	1	0	2	0	5	0	4	
3	11	8	14	8	0	8	1	8	2	8	1	8	0	
4	14	7	2	4	2	0	2	1	2	2	2	3	2	4	
3	2	7	14	2	0	2	1	2	5	2	3	2	4	
3	4	2	7	2	0	2	1	2	2	2	1	7	0	
2	12	5	5	0	5	1	5	2	5	3	5	4	
3	2	7	8	8	0	8	1	8	5	8	3	8	4	
3	5	1	2	2	0	2	1	2	2	2	3	2	4	
5	13	12	5	1	4	1	0	1	1	1	5	1	3	1	4	
2	6	13	6	0	6	1	6	5	6	3	6	4	
3	8	7	0	7	0	7	1	7	5	7	3	7	4	
3	7	8	9	7	0	7	1	7	2	7	5	7	4	
3	1	2	7	2	0	2	1	2	5	2	3	2	4	
5	3	4	2	7	14	2	0	2	1	2	2	2	1	2	0	
3	8	9	6	8	0	8	1	8	5	8	3	8	4	
2	9	11	9	0	9	1	9	2	9	3	9	4	
4	10	12	5	12	5	0	5	1	5	2	5	1	5	0	
4	3	5	0	7	5	0	0	1	0	2	0	1	7	0	
5	14	7	0	6	13	7	0	7	1	7	5	7	3	6	4	
5	11	9	6	0	5	9	0	9	1	9	2	9	5	6	4	
3	7	8	11	8	0	8	1	8	2	8	3	8	4	
3	2	1	5	2	0	2	1	2	2	2	5	2	4	
5	4	1	5	12	10	1	0	5	1	5	2	5	5	5	4	
2	9	6	9	0	9	1	9	2	9	5	9	4	
4	10	12	5	1	1	0	1	1	1	5	1	3	1	4	
4	12	13	6	13	6	0	6	1	6	2	6	5	6	4	
4	10	12	5	1	1	0	1	1	1	2	1	1	1	0	
5	1	2	7	8	11	2	0	2	1	2	5	8	3	8	4	
3	3	4	2	2	0	2	1	2	2	2	1	2	0	
4	11	8	7	0	8	0	8	1	8	2	8	3	8	4	
6	14	7	0	6	13	10	7	0	7	1	7	2	7	1	7	0	
2	4	1	1	0	1	1	1	2	1	3	1	4	
4	12	5	0	7	7	0	7	1	7	5	7	3	7	4	
4	2	7	0	6	2	0	2	1	2	2	2	3	2	4	
4	4	1	4	3	1	0	1	1	1	2	1	5	1	4	
3	3	4	2	2	0	2	1	2	5	2	3	2	4	
4	0	5	1	4	0	0	0	1	0	5	0	3	0	4	
3	5	12	10	5	0	5	1	5	5	5	3	5	4	
2	11	9	9	0	9	1	9	2	9	5	9	4	
4	11	9	6	0	9	0	0	1	0	2	0	5	0	4	
2	14	7	7	0	7	1	7	2	7	1	7	0	
5	4	1	5	0	6	0	0	0	1	0	2	0	5	0	4	
4	3	5	0	7	7	0	7	1	7	5	7	3	7	4	
4	2	7	8	11	2	0	2	1	2	2	2	5	2	4	
3	13	12	5	5	0	5	1	5	2	5	3	5	4	
3	9	6	0	0	0	0	1	0	5	0	3	0	4	
3	6	13	12	6	0	6	1	6	2	6	3	6	4	
3	1	5	0	0	0	0	1	0	2	0	5	0	4	
3	7	0	5	7	0	7	1	7	2	7	1	7	0	
4	12	13	6	13	6	0	6	1	6	5	6	3	6	4	
5	9	8	7	2	4	8	0	8	1	8	2	8	1	8	0	
3	0	7	8	8	0	8	1	8	5	8	3	8	4	
3	14	8	9	8	0	8	1	8	5	8	3	8	4	
3	0	7	14	7	0	7	1	7	5	7	3	7	4	
4	3	4	1	4	1	0	1	1	1	2	1	3	1	4	
2	8	7	8	0	7	1	7	2	7	5	7	4	
4	11	8	7	2	8	0	8	1	8	5	8	3	8	4	
3	1	4	3	1	0	1	1	1	2	1	3	1	4	
2	7	8	8	0	8	1	8	2	8	1	8	0	
3	10	12	5	5	0	5	1	5	5	5	3	5	4	
2	2	4	2	0	2	1	2	2	2	1	2	0	
5	4	2	7	8	9	2	0	8	1	8	5	8	3	8	4	
3	10	13	6	6	0	6	1	6	2	6	5	6	4	
4	10	13	6	0	0	0	0	1	0	2	0	5	0	4	
4	1	5	0	6	5	0	5	1	5	2	5	5	5	4	
5	8	7	0	5	12	8	0	8	1	8	2	8	5	5	4	
5	8	7	0	5	12	8	0	8	1	8	5	8	3	5	4	
5	8	9	6	13	10	9	0	9	1	9	2	9	1	9	0	
4	14	7	0	5	7	0	7	1	7	2	7	3	7	4	
3	4	2	7	2	0	2	1	2	2	2	5	2	4	
3	12	13	6	6	0	6	1	6	2	6	3	6	4	
4	2	7	8	9	7	0	7	1	7	2	7	1	7	0	
2	5	1	5	0	5	1	5	2	5	3	5	4	
4	13	12	5	3	5	0	5	1	5	2	5	1	5	0	
3	0	5	3	5	0	5	1	5	2	5	5	5	4	
4	6	0	7	2	7	0	2	1	2	2	2	1	2	0	
2	8	7	7	0	7	1	7	2	7	1	7	0	
3	4	1	5	1	0	1	1	1	5	1	3	1	4	
4	9	6	13	10	9	0	9	1	9	2	9	3	9	4	
4	14	7	0	6	7	0	7	1	7	5	7	3	7	4	
2	13	6	6	0	6	1	6	2	6	1	6	0	
2	7	8	7	0	7	1	7	2	7	5	7	4	
4	3	4	1	4	1	0	1	1	1	5	1	3	1	4	
4	3	5	0	6	0	0	0	1	0	5	0	3	0	4	
5	8	7	0	5	3	8	0	8	1	8	2	8	5	5	4	
5	7	0	6	13	10	0	0	0	1	0	2	0	3	0	4	
5	9	6	0	5	3	9	0	9	1	9	2	9	5	6	4	
4	14	7	0	5	7	0	7	1	7	5	0	3	0	4	
4	9	6	0	5	0	0	0	1	0	2	0	5	5	4	
3	0	6	13	0	0	0	1	0	2	0	5	6	4	
6	11	9	6	0	5	3	9	0	9	1	9	2	9	3	9	4	
3	1	5	12	1	0	1	1	1	2	5	1	5	0	
2	4	2	2	0	2	1	2	2	2	3	2	4	
3	12	5	0	5	0	5	1	5	2	5	1	0	0	
2	2	7	7	0	7	1	7	2	7	3	7	4	
