27274.5	-1
840
32.992	34.8794
15
0	0	320
1	24	320
2	6	320
3	0	320
4	0	320
5	0	320
6	4	320
7	53	320
8	0	320
9	2	320
10	0	320
11	0	320
12	0	320
13	0	320
14	0	320
44
0	5	0.000000	162195.900000	0.000000
0	6	14868.000000	110170.800000	1.000000
0	7	20379.000000	66306.500000	1.000000
1	2	33392.000000	136693.400000	1.000000
1	4	876.000000	44884.400000	1.000000
1	5	13418.000000	216261.200000	1.000000
2	1	30407.000000	136693.400000	1.000000
2	4	5546.000000	17341.700000	1.000000
2	7	32935.000000	136693.400000	1.000000
3	4	982.000000	38763.800000	1.000000
3	5	7347.000000	51005.000000	1.000000
4	1	2412.000000	44884.400000	1.000000
4	2	0.000000	17341.700000	1.000000
4	3	5294.000000	38763.800000	1.000000
5	0	0.000000	162195.900000	0.000000
5	1	18629.000000	216261.200000	1.000000
5	3	3345.000000	51005.000000	1.000000
5	12	0.000000	70386.900000	0.000000
6	0	13827.000000	110170.800000	1.000000
6	9	8599.000000	91809.000000	1.000000
6	13	11115.000000	64266.300000	1.000000
7	0	24344.000000	66306.500000	1.000000
7	2	35426.000000	136693.400000	1.000000
7	8	0.000000	38763.800000	1.000000
7	14	7673.000000	57125.600000	1.000000
8	7	7321.000000	38763.800000	1.000000
8	9	0.000000	19381.900000	1.000000
8	11	4714.000000	31623.100000	1.000000
8	14	1856.000000	23462.300000	1.000000
9	6	5333.000000	91809.000000	1.000000
9	8	5199.000000	19381.900000	1.000000
9	11	2445.000000	32643.200000	1.000000
10	12	612.000000	25502.500000	1.000000
10	13	3372.000000	14281.400000	1.000000
11	8	3368.000000	31623.100000	1.000000
11	9	4401.000000	32643.200000	1.000000
12	5	0.000000	70386.900000	0.000000
12	10	0.000000	25502.500000	1.000000
12	13	6067.000000	25502.500000	1.000000
13	6	13031.000000	64266.300000	1.000000
13	10	3821.000000	14281.400000	1.000000
13	12	4620.000000	25502.500000	1.000000
14	7	5598.000000	57125.600000	1.000000
14	8	5209.000000	23462.300000	1.000000
840
6	1	2	7	14	8	11	7	0	7	1	7	2	7	3	7	4	
6	1	2	7	0	6	9	7	0	7	1	7	2	7	5	7	4	
5	7	0	6	13	12	7	0	7	1	7	2	7	3	7	4	
2	3	5	5	0	5	1	5	2	5	5	5	4	
4	7	2	4	3	7	0	7	1	7	5	7	3	7	4	
6	11	8	7	2	4	3	7	0	7	1	7	5	7	3	7	4	
8	3	5	1	2	7	0	6	13	7	0	7	1	7	2	7	5	7	4	
2	6	13	6	0	6	1	6	5	6	3	6	4	
5	10	13	6	0	7	7	0	7	1	7	2	7	3	7	4	
7	3	5	1	2	7	0	6	7	0	7	1	7	5	7	3	7	4	
4	4	1	2	7	7	0	7	1	7	2	7	5	7	4	
5	1	2	7	14	8	7	0	7	1	7	2	7	1	7	0	
6	14	7	0	6	13	12	7	0	7	1	7	2	7	1	7	0	
3	7	2	4	7	0	7	1	7	2	7	3	7	4	
6	2	7	0	6	13	12	7	0	7	1	7	2	7	5	7	4	
3	0	7	2	7	0	7	1	7	2	7	5	7	4	
6	13	6	0	7	2	1	7	0	7	1	7	2	7	5	7	4	
4	7	2	4	3	7	0	7	1	7	2	7	1	7	0	
8	5	1	2	7	0	6	13	10	7	0	7	1	7	5	7	3	7	4	
8	12	13	6	0	7	2	1	5	7	0	7	1	7	2	7	1	7	0	
3	5	1	2	2	0	2	1	2	2	2	5	2	4	
4	8	7	2	1	7	0	7	1	7	2	7	1	7	0	
2	8	7	7	0	7	1	7	2	7	3	7	4	
4	10	13	6	9	6	0	6	1	6	2	6	3	6	4	
2	6	0	6	0	6	1	6	5	6	3	6	4	
3	14	7	0	7	0	7	1	7	5	7	3	7	4	
8	4	1	2	7	0	6	13	12	7	0	7	1	7	2	7	1	7	0	
3	2	1	5	2	0	2	1	2	5	2	3	2	4	
4	7	2	1	5	7	0	7	1	7	2	7	5	7	4	
3	0	7	14	7	0	7	1	7	5	7	3	7	4	
4	5	1	2	7	7	0	7	1	7	2	7	1	7	0	
3	8	11	9	8	0	8	1	8	5	8	3	8	4	
8	4	1	2	7	0	6	13	10	7	0	7	1	7	2	7	5	7	4	
8	5	1	2	7	0	6	13	10	7	0	7	1	7	2	7	5	7	4	
3	14	7	0	7	0	7	1	7	2	7	3	7	4	
8	3	5	1	2	7	14	8	11	7	0	7	1	7	5	7	3	7	4	
2	6	13	6	0	6	1	6	2	6	1	6	0	
6	8	11	9	6	13	10	6	0	6	1	6	2	6	1	6	0	
7	10	13	6	0	7	2	1	7	0	7	1	7	2	7	5	7	4	
5	0	7	2	1	5	7	0	7	1	7	2	7	3	7	4	
4	3	5	1	2	2	0	2	1	2	2	2	5	2	4	
5	7	0	6	13	12	7	0	7	1	7	2	7	1	7	0	
3	1	2	7	7	0	7	1	7	5	7	3	7	4	
6	10	13	6	0	7	14	7	0	7	1	7	2	7	3	7	4	
4	8	7	2	4	7	0	7	1	7	5	7	3	7	4	
6	2	7	0	6	13	10	7	0	7	1	7	5	7	3	7	4	
3	2	4	3	2	0	2	1	2	2	2	5	2	4	
2	4	1	1	0	1	1	1	5	1	3	1	4	
6	9	8	7	2	4	3	7	0	7	1	7	2	7	3	7	4	
5	7	0	6	13	12	7	0	7	1	7	2	7	5	7	4	
5	0	7	2	4	3	7	0	7	1	7	2	7	1	7	0	
6	9	8	7	2	4	3	7	0	7	1	7	2	7	5	7	4	
2	6	13	6	0	6	1	6	2	6	5	6	4	
4	12	13	6	0	6	0	6	1	6	2	6	3	6	4	
4	11	9	6	0	6	0	6	1	6	2	6	3	6	4	
6	10	13	6	0	7	2	7	0	7	1	7	2	7	3	7	4	
4	13	6	9	11	6	0	6	1	6	5	6	3	6	4	
3	7	2	4	7	0	7	1	7	2	7	1	7	0	
8	12	13	6	0	7	2	4	3	7	0	7	1	7	5	7	3	7	4	
5	12	13	6	0	7	7	0	7	1	7	2	7	3	7	4	
6	6	0	7	2	4	3	7	0	7	1	7	2	7	3	7	4	
6	9	8	7	2	1	5	7	0	7	1	7	5	7	3	7	4	
2	11	8	8	0	8	1	8	5	8	3	8	4	
3	12	13	10	13	0	13	1	13	2	13	1	13	0	
5	4	1	2	7	0	7	0	7	1	7	2	7	5	7	4	
4	0	6	9	11	6	0	6	1	6	2	6	1	6	0	
3	12	13	10	13	0	13	1	13	5	13	3	13	4	
3	9	6	13	6	0	6	1	6	2	6	5	6	4	
2	2	7	7	0	7	1	7	2	7	3	7	4	
4	14	7	0	6	7	0	7	1	7	2	7	1	7	0	
2	8	11	8	0	8	1	8	2	8	5	8	4	
2	5	1	1	0	1	1	1	2	1	5	1	4	
5	10	13	6	9	8	6	0	6	1	6	2	6	5	6	4	
5	3	5	1	2	7	7	0	7	1	7	2	7	1	7	0	
3	6	0	7	7	0	7	1	7	5	7	3	7	4	
5	2	7	0	6	13	7	0	7	1	7	2	7	3	7	4	
6	12	13	6	0	7	2	7	0	7	1	7	2	7	1	7	0	
2	3	4	4	0	4	1	4	2	4	1	4	0	
3	13	6	0	6	0	6	1	6	2	6	1	6	0	
6	5	1	2	7	14	8	7	0	7	1	7	2	7	1	7	0	
2	9	11	9	0	9	1	9	2	9	5	9	4	
2	9	8	8	0	8	1	8	2	8	5	8	4	
8	3	5	1	2	7	0	6	13	7	0	7	1	7	2	7	1	7	0	
4	1	2	7	0	7	0	7	1	7	5	7	3	7	4	
3	1	5	3	1	0	1	1	1	2	1	1	1	0	
6	2	7	0	6	13	10	7	0	7	1	7	2	7	1	7	0	
6	8	11	9	6	13	12	6	0	6	1	6	5	6	3	6	4	
5	8	11	9	6	13	6	0	6	1	6	2	6	3	6	4	
6	13	6	0	7	2	4	7	0	7	1	7	2	7	5	7	4	
3	1	5	3	1	0	1	1	1	2	1	3	1	4	
5	10	13	6	9	11	6	0	6	1	6	2	6	1	6	0	
4	4	1	2	7	7	0	7	1	7	2	7	3	7	4	
5	13	6	0	7	2	7	0	7	1	7	5	7	3	7	4	
2	9	11	9	0	9	1	9	2	9	3	9	4	
5	11	9	6	13	10	6	0	6	1	6	2	6	3	6	4	
8	4	1	2	7	0	6	13	12	7	0	7	1	7	5	7	3	7	4	
4	12	13	6	9	6	0	6	1	6	2	6	5	6	4	
5	14	7	2	1	5	7	0	7	1	7	2	7	5	7	4	
6	12	13	6	0	7	14	7	0	7	1	7	2	7	5	7	4	
9	3	5	1	2	7	0	6	13	12	7	0	7	1	7	2	7	3	7	4	
4	0	6	13	10	6	0	6	1	6	2	6	5	6	4	
6	14	7	0	6	13	10	7	0	7	1	7	2	7	3	7	4	
6	5	1	2	7	14	8	7	0	7	1	7	2	7	5	7	4	
3	8	7	2	7	0	7	1	7	2	7	5	7	4	
3	14	8	11	8	0	8	1	8	5	8	3	8	4	
2	14	7	7	0	7	1	7	5	7	3	7	4	
2	6	9	6	0	6	1	6	2	6	3	6	4	
4	14	8	11	9	8	0	8	1	8	5	8	3	8	4	
2	6	0	6	0	6	1	6	2	6	1	6	0	
5	14	7	2	1	5	7	0	7	1	7	5	7	3	7	4	
7	1	2	7	0	6	13	12	7	0	7	1	7	2	7	5	7	4	
6	5	1	2	7	0	6	7	0	7	1	7	2	7	3	7	4	
5	3	5	1	2	7	7	0	7	1	7	2	7	5	7	4	
4	0	6	13	12	6	0	6	1	6	2	6	3	6	4	
5	11	8	7	2	1	7	0	7	1	7	5	7	3	7	4	
5	9	8	7	2	1	7	0	7	1	7	2	7	5	7	4	
7	5	1	2	7	0	6	13	7	0	7	1	7	2	7	1	7	0	
4	11	9	6	0	6	0	6	1	6	5	6	3	6	4	
4	10	13	6	0	6	0	6	1	6	2	6	1	6	0	
6	10	13	6	0	7	14	7	0	7	1	7	2	7	5	7	4	
3	11	9	6	6	0	6	1	6	2	6	5	6	4	
3	7	2	1	7	0	7	1	7	2	7	1	7	0	
2	8	7	7	0	7	1	7	5	7	3	7	4	
9	3	5	1	2	7	0	6	13	10	7	0	7	1	7	2	7	5	7	4	
2	3	4	4	0	4	1	4	2	4	5	4	4	
2	9	6	6	0	6	1	6	5	6	3	6	4	
4	2	7	0	6	7	0	7	1	7	2	7	3	7	4	
5	8	7	2	1	5	7	0	7	1	7	2	7	3	7	4	
2	3	4	4	0	4	1	4	5	4	3	4	4	
5	14	7	2	1	5	7	0	7	1	7	2	7	3	7	4	
2	12	13	13	0	13	1	13	5	13	3	13	4	
3	7	0	6	7	0	7	1	7	2	7	3	7	4	
4	0	7	2	1	7	0	7	1	7	5	7	3	7	4	
7	5	1	2	7	0	6	13	7	0	7	1	7	5	7	3	7	4	
3	9	8	14	8	0	8	1	8	5	8	3	8	4	
2	10	12	10	0	10	1	10	5	10	3	10	4	
7	13	6	0	7	2	4	3	7	0	7	1	7	2	7	1	7	0	
7	4	1	2	7	0	6	13	7	0	7	1	7	2	7	1	7	0	
4	6	0	7	2	7	0	7	1	7	5	7	3	7	4	
4	14	7	2	4	7	0	7	1	7	2	7	1	7	0	
4	14	7	0	6	7	0	7	1	7	5	7	3	7	4	
2	1	2	2	0	2	1	2	2	2	1	2	0	
8	10	13	6	0	7	2	4	3	7	0	7	1	7	2	7	5	7	4	
3	10	13	6	6	0	6	1	6	5	6	3	6	4	
3	1	5	3	1	0	1	1	1	2	1	5	1	4	
4	1	2	7	0	7	0	7	1	7	2	7	3	7	4	
2	1	5	1	0	1	1	1	5	1	3	1	4	
6	4	1	2	7	0	6	7	0	7	1	7	2	7	3	7	4	
7	5	1	2	7	14	8	11	7	0	7	1	7	2	7	5	7	4	
4	8	11	9	6	6	0	6	1	6	5	6	3	6	4	
4	7	0	6	9	7	0	7	1	7	5	7	3	7	4	
2	2	1	2	0	2	1	2	2	2	5	2	4	
9	3	5	1	2	7	0	6	13	10	7	0	7	1	7	5	7	3	7	4	
3	6	13	10	6	0	6	1	6	2	6	1	6	0	
2	4	3	4	0	4	1	4	5	4	3	4	4	
4	0	7	2	4	7	0	7	1	7	2	7	5	7	4	
7	3	5	1	2	7	14	8	7	0	7	1	7	2	7	3	7	4	
5	2	7	14	8	11	7	0	7	1	7	5	7	3	7	4	
4	13	6	9	8	6	0	6	1	6	2	6	3	6	4	
2	9	6	6	0	6	1	6	2	6	5	6	4	
4	10	13	6	0	6	0	6	1	6	2	6	3	6	4	
4	7	0	6	13	7	0	7	1	7	2	7	5	7	4	
2	6	9	6	0	6	1	6	2	6	1	6	0	
5	14	7	2	4	3	7	0	7	1	7	2	7	3	7	4	
3	3	5	1	1	0	1	1	1	2	1	1	1	0	
5	1	2	7	14	8	7	0	7	1	7	2	7	5	7	4	
3	6	13	12	6	0	6	1	6	2	6	5	6	4	
3	3	5	1	1	0	1	1	1	5	1	3	1	4	
6	14	7	0	6	13	12	7	0	7	1	7	2	7	3	7	4	
3	4	1	2	2	0	2	1	2	2	2	1	2	0	
3	14	7	0	7	0	7	1	7	2	7	5	7	4	
2	13	10	13	0	13	1	13	5	13	3	13	4	
2	2	1	2	0	2	1	2	2	2	3	2	4	
4	0	7	14	8	7	0	7	1	7	2	7	3	7	4	
8	5	1	2	7	0	6	13	12	7	0	7	1	7	2	7	3	7	4	
4	11	8	7	2	7	0	7	1	7	5	7	3	7	4	
6	5	1	2	7	14	8	7	0	7	1	7	5	7	3	7	4	
5	12	13	6	9	11	6	0	6	1	6	2	6	1	6	0	
4	0	6	13	12	6	0	6	1	6	2	6	1	6	0	
4	1	2	7	14	7	0	7	1	7	2	7	1	7	0	
6	4	1	2	7	0	6	7	0	7	1	7	2	7	5	7	4	
7	4	1	2	7	0	6	9	7	0	7	1	7	2	7	3	7	4	
7	12	13	6	0	7	2	4	7	0	7	1	7	2	7	1	7	0	
4	0	7	14	8	7	0	7	1	7	2	7	1	7	0	
6	8	11	9	6	13	10	6	0	6	1	6	2	6	5	6	4	
2	13	6	6	0	6	1	6	2	6	3	6	4	
4	11	8	7	2	7	0	7	1	7	2	7	1	7	0	
2	7	2	7	0	7	1	7	2	7	1	7	0	
2	2	4	2	0	2	1	2	5	2	3	2	4	
6	5	1	2	7	14	8	7	0	7	1	7	2	7	3	7	4	
6	2	7	0	6	13	12	7	0	7	1	7	2	7	3	7	4	
4	8	11	9	6	6	0	6	1	6	2	6	3	6	4	
3	9	8	7	7	0	7	1	7	2	7	1	7	0	
8	3	5	1	2	7	0	6	9	7	0	7	1	7	2	7	5	7	4	
5	6	0	7	2	1	7	0	7	1	7	2	7	5	7	4	
4	9	6	13	12	6	0	6	1	6	2	6	5	6	4	
2	7	2	7	0	7	1	7	2	7	5	7	4	
9	3	5	1	2	7	0	6	13	12	7	0	7	1	7	2	7	1	7	0	
5	2	7	14	8	11	7	0	7	1	7	2	7	1	7	0	
5	8	11	9	6	13	6	0	6	1	6	5	6	3	6	4	
2	14	7	7	0	7	1	7	2	7	5	7	4	
6	8	11	9	6	13	12	6	0	6	1	6	2	6	3	6	4	
7	3	5	1	2	7	14	8	7	0	7	1	7	2	7	1	7	0	
2	9	6	6	0	6	1	6	2	6	3	6	4	
4	5	1	2	7	7	0	7	1	7	2	7	5	7	4	
4	8	11	9	6	6	0	6	1	6	2	6	1	6	0	
6	10	13	6	0	7	2	7	0	7	1	7	2	7	5	7	4	
3	11	8	14	8	0	8	1	8	5	8	3	8	4	
4	2	7	14	8	7	0	7	1	7	2	7	3	7	4	
5	14	7	0	6	13	7	0	7	1	7	2	7	3	7	4	
8	3	5	1	2	7	0	6	13	7	0	7	1	7	2	7	3	7	4	
5	4	1	2	7	0	7	0	7	1	7	5	7	3	7	4	
3	11	8	14	8	0	8	1	8	2	8	3	8	4	
6	11	8	7	2	1	5	7	0	7	1	7	2	7	5	7	4	
2	6	9	6	0	6	1	6	5	6	3	6	4	
3	14	8	11	8	0	8	1	8	2	8	1	8	0	
5	11	8	7	2	4	7	0	7	1	7	2	7	1	7	0	
3	2	7	14	7	0	7	1	7	2	7	5	7	4	
6	13	6	0	7	2	4	7	0	7	1	7	5	7	3	7	4	
6	14	7	0	6	13	10	7	0	7	1	7	2	7	1	7	0	
3	9	8	7	7	0	7	1	7	2	7	5	7	4	
8	10	13	6	0	7	2	4	3	7	0	7	1	7	2	7	3	7	4	
8	12	13	6	0	7	2	1	5	7	0	7	1	7	2	7	3	7	4	
6	1	2	7	0	6	13	7	0	7	1	7	2	7	5	7	4	
5	11	9	6	13	10	6	0	6	1	6	2	6	1	6	0	
4	11	9	6	0	6	0	6	1	6	2	6	1	6	0	
4	12	13	6	9	6	0	6	1	6	2	6	3	6	4	
2	0	6	6	0	6	1	6	2	6	5	6	4	
3	6	9	8	6	0	6	1	6	2	6	5	6	4	
5	4	1	2	7	14	7	0	7	1	7	2	7	1	7	0	
2	4	3	4	0	4	1	4	2	4	1	4	0	
8	5	1	2	7	0	6	13	12	7	0	7	1	7	2	7	1	7	0	
2	10	13	13	0	13	1	13	2	13	5	13	4	
2	2	1	2	0	2	1	2	5	2	3	2	4	
5	0	7	2	4	3	7	0	7	1	7	5	7	3	7	4	
8	3	5	1	2	7	14	8	11	7	0	7	1	7	2	7	5	7	4	
2	1	5	1	0	1	1	1	2	1	5	1	4	
4	14	7	2	4	7	0	7	1	7	2	7	5	7	4	
6	12	13	6	0	7	14	7	0	7	1	7	5	7	3	7	4	
6	6	0	7	2	1	5	7	0	7	1	7	2	7	3	7	4	
8	5	1	2	7	0	6	13	12	7	0	7	1	7	5	7	3	7	4	
3	11	9	6	6	0	6	1	6	2	6	1	6	0	
2	7	0	7	0	7	1	7	2	7	3	7	4	
4	0	7	2	1	7	0	7	1	7	2	7	3	7	4	
2	11	9	9	0	9	1	9	2	9	3	9	4	
5	10	13	6	9	8	6	0	6	1	6	5	6	3	6	4	
2	3	5	5	0	5	1	5	2	5	3	5	4	
6	4	1	2	7	14	8	7	0	7	1	7	2	7	1	7	0	
4	6	0	7	14	7	0	7	1	7	2	7	3	7	4	
3	1	5	3	1	0	1	1	1	5	1	3	1	4	
6	5	1	2	7	0	6	7	0	7	1	7	2	7	5	7	4	
4	9	6	13	12	6	0	6	1	6	2	6	3	6	4	
4	0	6	13	12	6	0	6	1	6	5	6	3	6	4	
6	5	1	2	7	0	6	7	0	7	1	7	5	7	3	7	4	
5	2	7	0	6	9	7	0	7	1	7	2	7	1	7	0	
5	4	1	2	7	14	7	0	7	1	7	5	7	3	7	4	
3	9	8	7	7	0	7	1	7	2	7	3	7	4	
3	7	2	1	7	0	7	1	7	2	7	5	7	4	
2	5	3	5	0	5	1	5	2	5	1	5	0	
2	9	8	8	0	8	1	8	5	8	3	8	4	
8	5	1	2	7	0	6	13	12	7	0	7	1	7	2	7	5	7	4	
5	0	7	2	1	5	7	0	7	1	7	5	7	3	7	4	
5	4	1	2	7	0	7	0	7	1	7	2	7	3	7	4	
3	6	9	11	6	0	6	1	6	2	6	1	6	0	
2	7	0	7	0	7	1	7	2	7	1	7	0	
4	2	7	0	6	7	0	7	1	7	2	7	1	7	0	
3	9	8	14	8	0	8	1	8	2	8	1	8	0	
3	6	9	8	6	0	6	1	6	5	6	3	6	4	
7	12	13	6	0	7	2	1	7	0	7	1	7	5	7	3	7	4	
6	1	2	7	0	6	13	7	0	7	1	7	2	7	1	7	0	
2	1	4	1	0	1	1	1	2	1	1	1	0	
5	11	8	7	2	1	7	0	7	1	7	2	7	5	7	4	
6	2	7	0	6	13	12	7	0	7	1	7	5	7	3	7	4	
4	13	6	9	11	6	0	6	1	6	2	6	1	6	0	
7	3	5	1	2	7	0	6	7	0	7	1	7	2	7	5	7	4	
3	2	4	3	2	0	2	1	2	2	2	3	2	4	
4	12	13	6	9	6	0	6	1	6	2	6	1	6	0	
5	7	0	6	13	10	7	0	7	1	7	2	7	5	7	4	
4	5	1	2	7	7	0	7	1	7	2	7	3	7	4	
4	14	8	11	9	8	0	8	1	8	2	8	5	8	4	
6	1	2	7	14	8	11	7	0	7	1	7	5	7	3	7	4	
3	4	1	5	1	0	1	1	1	5	1	3	1	4	
7	4	1	2	7	14	8	11	7	0	7	1	7	2	7	3	7	4	
2	0	7	7	0	7	1	7	2	7	1	7	0	
7	5	1	2	7	0	6	13	7	0	7	1	7	2	7	3	7	4	
3	12	13	6	6	0	6	1	6	2	6	1	6	0	
2	7	2	7	0	7	1	7	5	7	3	7	4	
3	13	6	0	6	0	6	1	6	2	6	5	6	4	
2	13	10	13	0	13	1	13	2	13	3	13	4	
5	13	6	0	7	14	7	0	7	1	7	2	7	5	7	4	
3	0	6	13	6	0	6	1	6	2	6	1	6	0	
4	0	7	2	1	7	0	7	1	7	2	7	5	7	4	
4	2	7	14	8	7	0	7	1	7	2	7	5	7	4	
2	6	0	6	0	6	1	6	2	6	3	6	4	
7	12	13	6	0	7	2	4	7	0	7	1	7	5	7	3	7	4	
3	14	7	2	7	0	7	1	7	2	7	1	7	0	
6	11	8	7	2	1	5	7	0	7	1	7	5	7	3	7	4	
5	2	7	14	8	11	7	0	7	1	7	2	7	3	7	4	
4	2	7	0	6	7	0	7	1	7	5	7	3	7	4	
5	11	8	7	2	4	7	0	7	1	7	2	7	5	7	4	
4	8	7	2	4	7	0	7	1	7	2	7	1	7	0	
7	10	13	6	0	7	2	4	7	0	7	1	7	2	7	5	7	4	
4	9	6	13	10	6	0	6	1	6	5	6	3	6	4	
6	6	0	7	2	4	3	7	0	7	1	7	5	7	3	7	4	
5	11	9	6	13	12	6	0	6	1	6	2	6	5	6	4	
4	8	11	9	6	6	0	6	1	6	2	6	5	6	4	
4	1	2	7	14	7	0	7	1	7	2	7	5	7	4	
6	8	11	9	6	13	10	6	0	6	1	6	5	6	3	6	4	
6	13	6	0	7	2	4	7	0	7	1	7	2	7	1	7	0	
3	5	1	4	1	0	1	1	1	2	1	1	1	0	
5	10	13	6	0	7	7	0	7	1	7	5	7	3	7	4	
3	4	1	2	2	0	2	1	2	5	2	3	2	4	
4	13	6	9	8	6	0	6	1	6	2	6	1	6	0	
5	9	8	7	2	4	7	0	7	1	7	2	7	3	7	4	
3	5	1	2	2	0	2	1	2	2	2	3	2	4	
4	7	0	6	13	7	0	7	1	7	5	7	3	7	4	
4	1	2	7	14	7	0	7	1	7	2	7	3	7	4	
2	4	3	4	0	4	1	4	2	4	3	4	4	
2	13	6	6	0	6	1	6	5	6	3	6	4	
6	3	5	1	2	7	14	7	0	7	1	7	2	7	3	7	4	
3	0	7	2	7	0	7	1	7	2	7	1	7	0	
6	9	8	7	2	1	5	7	0	7	1	7	2	7	5	7	4	
7	10	13	6	0	7	2	1	7	0	7	1	7	2	7	3	7	4	
3	11	8	14	8	0	8	1	8	2	8	1	8	0	
3	9	6	0	6	0	6	1	6	2	6	5	6	4	
4	7	2	1	5	7	0	7	1	7	2	7	1	7	0	
3	12	13	6	6	0	6	1	6	2	6	5	6	4	
2	4	1	1	0	1	1	1	2	1	1	1	0	
4	10	13	6	9	6	0	6	1	6	2	6	1	6	0	
4	14	7	0	6	7	0	7	1	7	2	7	3	7	4	
3	7	14	8	7	0	7	1	7	2	7	5	7	4	
7	5	1	2	7	0	6	9	7	0	7	1	7	5	7	3	7	4	
2	4	1	1	0	1	1	1	2	1	5	1	4	
2	8	11	8	0	8	1	8	2	8	1	8	0	
2	7	14	7	0	7	1	7	5	7	3	7	4	
3	0	7	14	7	0	7	1	7	2	7	3	7	4	
4	3	5	1	2	2	0	2	1	2	2	2	1	2	0	
7	5	1	2	7	14	8	11	7	0	7	1	7	2	7	1	7	0	
3	9	6	0	6	0	6	1	6	2	6	1	6	0	
3	14	8	11	8	0	8	1	8	2	8	3	8	4	
5	12	13	6	9	8	6	0	6	1	6	5	6	3	6	4	
2	8	14	8	0	8	1	8	2	8	5	8	4	
2	10	12	10	0	10	1	10	2	10	5	10	4	
8	12	13	6	0	7	2	1	5	7	0	7	1	7	5	7	3	7	4	
4	14	7	2	1	7	0	7	1	7	2	7	3	7	4	
7	10	13	6	0	7	2	4	7	0	7	1	7	2	7	1	7	0	
3	14	7	2	7	0	7	1	7	2	7	5	7	4	
6	12	13	6	0	7	14	7	0	7	1	7	2	7	3	7	4	
7	5	1	2	7	0	6	9	7	0	7	1	7	2	7	1	7	0	
4	13	6	0	7	7	0	7	1	7	2	7	5	7	4	
7	3	5	1	2	7	14	8	7	0	7	1	7	2	7	5	7	4	
5	0	7	2	1	5	7	0	7	1	7	2	7	5	7	4	
3	9	6	13	6	0	6	1	6	2	6	1	6	0	
3	5	1	4	1	0	1	1	1	5	1	3	1	4	
3	8	11	9	8	0	8	1	8	2	8	3	8	4	
8	10	13	6	0	7	2	1	5	7	0	7	1	7	5	7	3	7	4	
7	3	5	1	2	7	14	8	7	0	7	1	7	5	7	3	7	4	
8	10	13	6	0	7	2	1	5	7	0	7	1	7	2	7	3	7	4	
2	7	2	7	0	7	1	7	2	7	3	7	4	
2	6	13	6	0	6	1	6	2	6	3	6	4	
7	4	1	2	7	14	8	11	7	0	7	1	7	5	7	3	7	4	
3	0	6	13	6	0	6	1	6	5	6	3	6	4	
6	13	6	0	7	2	1	7	0	7	1	7	5	7	3	7	4	
3	11	9	6	6	0	6	1	6	2	6	3	6	4	
4	13	6	0	7	7	0	7	1	7	2	7	1	7	0	
6	8	11	9	6	13	12	6	0	6	1	6	2	6	1	6	0	
5	6	0	7	2	4	7	0	7	1	7	2	7	3	7	4	
5	10	13	6	9	11	6	0	6	1	6	2	6	3	6	4	
7	5	1	2	7	0	6	13	7	0	7	1	7	2	7	5	7	4	
4	0	7	2	1	7	0	7	1	7	2	7	1	7	0	
7	12	13	6	0	7	2	1	7	0	7	1	7	2	7	5	7	4	
2	12	13	13	0	13	1	13	2	13	5	13	4	
5	7	0	6	13	10	7	0	7	1	7	2	7	3	7	4	
5	8	11	9	6	13	6	0	6	1	6	2	6	1	6	0	
6	4	1	2	7	0	6	7	0	7	1	7	2	7	1	7	0	
3	4	1	2	2	0	2	1	2	2	2	3	2	4	
4	8	7	2	1	7	0	7	1	7	2	7	5	7	4	
2	5	1	1	0	1	1	1	2	1	3	1	4	
7	1	2	7	0	6	13	12	7	0	7	1	7	2	7	1	7	0	
4	4	1	2	7	7	0	7	1	7	5	7	3	7	4	
5	2	7	0	6	13	7	0	7	1	7	5	7	3	7	4	
6	9	8	7	2	4	3	7	0	7	1	7	5	7	3	7	4	
6	11	8	7	2	1	5	7	0	7	1	7	2	7	1	7	0	
5	14	7	0	6	13	7	0	7	1	7	2	7	5	7	4	
4	14	7	2	1	7	0	7	1	7	2	7	5	7	4	
4	7	14	8	11	7	0	7	1	7	2	7	5	7	4	
4	7	0	6	9	7	0	7	1	7	2	7	3	7	4	
7	1	2	7	0	6	13	10	7	0	7	1	7	5	7	3	7	4	
5	13	6	0	7	2	7	0	7	1	7	2	7	5	7	4	
8	4	1	2	7	0	6	13	10	7	0	7	1	7	2	7	3	7	4	
3	7	0	6	7	0	7	1	7	2	7	1	7	0	
6	1	2	7	0	6	9	7	0	7	1	7	2	7	1	7	0	
3	2	7	0	7	0	7	1	7	5	7	3	7	4	
2	3	5	5	0	5	1	5	2	5	1	5	0	
8	5	1	2	7	0	6	13	10	7	0	7	1	7	2	7	3	7	4	
6	6	0	7	2	1	5	7	0	7	1	7	5	7	3	7	4	
2	1	4	1	0	1	1	1	2	1	5	1	4	
2	3	5	5	0	5	1	5	5	5	3	5	4	
4	13	6	9	11	6	0	6	1	6	2	6	3	6	4	
2	7	0	7	0	7	1	7	5	7	3	7	4	
3	0	7	14	7	0	7	1	7	2	7	1	7	0	
3	9	6	0	6	0	6	1	6	5	6	3	6	4	
3	9	8	14	8	0	8	1	8	2	8	3	8	4	
3	8	7	2	7	0	7	1	7	2	7	1	7	0	
6	12	13	6	0	7	2	7	0	7	1	7	2	7	3	7	4	
3	11	9	6	6	0	6	1	6	5	6	3	6	4	
2	3	4	4	0	4	1	4	2	4	3	4	4	
3	4	1	5	1	0	1	1	1	2	1	3	1	4	
7	4	1	2	7	0	6	9	7	0	7	1	7	5	7	3	7	4	
2	7	14	7	0	7	1	7	2	7	3	7	4	
6	2	7	0	6	13	10	7	0	7	1	7	2	7	3	7	4	
4	5	1	2	7	7	0	7	1	7	5	7	3	7	4	
4	2	7	14	8	7	0	7	1	7	2	7	1	7	0	
4	14	7	2	1	7	0	7	1	7	2	7	1	7	0	
5	11	9	6	13	10	6	0	6	1	6	5	6	3	6	4	
3	9	6	13	6	0	6	1	6	5	6	3	6	4	
6	6	0	7	2	1	5	7	0	7	1	7	2	7	1	7	0	
6	3	5	1	2	7	14	7	0	7	1	7	2	7	1	7	0	
4	2	7	0	6	7	0	7	1	7	2	7	5	7	4	
2	8	11	8	0	8	1	8	5	8	3	8	4	
2	8	14	8	0	8	1	8	2	8	3	8	4	
2	9	8	8	0	8	1	8	2	8	1	8	0	
4	0	7	2	4	7	0	7	1	7	2	7	3	7	4	
5	7	0	6	13	12	7	0	7	1	7	5	7	3	7	4	
4	11	9	6	0	6	0	6	1	6	2	6	5	6	4	
6	11	8	7	2	1	5	7	0	7	1	7	2	7	3	7	4	
8	12	13	6	0	7	2	4	3	7	0	7	1	7	2	7	3	7	4	
4	4	1	2	7	7	0	7	1	7	2	7	1	7	0	
3	6	9	8	6	0	6	1	6	2	6	1	6	0	
2	13	12	13	0	13	1	13	2	13	3	13	4	
5	12	13	6	9	8	6	0	6	1	6	2	6	1	6	0	
3	2	1	5	2	0	2	1	2	2	2	1	2	0	
2	12	13	13	0	13	1	13	2	13	3	13	4	
7	10	13	6	0	7	2	1	7	0	7	1	7	5	7	3	7	4	
5	12	13	6	9	8	6	0	6	1	6	2	6	5	6	4	
2	0	7	7	0	7	1	7	5	7	3	7	4	
4	8	7	2	1	7	0	7	1	7	5	7	3	7	4	
3	5	1	4	1	0	1	1	1	2	1	3	1	4	
5	5	1	2	7	14	7	0	7	1	7	5	7	3	7	4	
6	1	2	7	0	6	9	7	0	7	1	7	2	7	3	7	4	
3	12	13	6	6	0	6	1	6	5	6	3	6	4	
5	9	8	7	2	4	7	0	7	1	7	5	7	3	7	4	
4	13	6	9	8	6	0	6	1	6	5	6	3	6	4	
8	12	13	6	0	7	2	4	3	7	0	7	1	7	2	7	5	7	4	
6	10	13	6	0	7	2	7	0	7	1	7	2	7	1	7	0	
3	13	6	9	6	0	6	1	6	2	6	3	6	4	
8	5	1	2	7	0	6	13	10	7	0	7	1	7	2	7	1	7	0	
4	10	13	6	9	6	0	6	1	6	2	6	5	6	4	
2	14	7	7	0	7	1	7	2	7	1	7	0	
3	3	5	1	1	0	1	1	1	2	1	3	1	4	
5	1	2	7	0	6	7	0	7	1	7	2	7	3	7	4	
5	10	13	6	9	11	6	0	6	1	6	2	6	5	6	4	
2	9	6	6	0	6	1	6	2	6	1	6	0	
6	13	6	0	7	2	1	7	0	7	1	7	2	7	1	7	0	
2	2	4	2	0	2	1	2	2	2	3	2	4	
4	9	8	7	2	7	0	7	1	7	2	7	1	7	0	
4	9	6	13	12	6	0	6	1	6	2	6	1	6	0	
2	13	12	13	0	13	1	13	2	13	1	13	0	
7	13	6	0	7	2	4	3	7	0	7	1	7	5	7	3	7	4	
5	11	9	6	13	10	6	0	6	1	6	2	6	5	6	4	
5	10	13	6	9	11	6	0	6	1	6	5	6	3	6	4	
3	6	13	12	6	0	6	1	6	2	6	3	6	4	
4	14	8	11	9	8	0	8	1	8	2	8	3	8	4	
4	1	2	7	0	7	0	7	1	7	2	7	1	7	0	
4	0	6	13	10	6	0	6	1	6	5	6	3	6	4	
6	4	1	2	7	14	8	7	0	7	1	7	2	7	5	7	4	
7	10	13	6	0	7	2	4	7	0	7	1	7	5	7	3	7	4	
5	4	1	2	7	14	7	0	7	1	7	2	7	5	7	4	
5	6	0	7	2	4	7	0	7	1	7	2	7	5	7	4	
5	8	7	2	4	3	7	0	7	1	7	2	7	5	7	4	
2	5	3	5	0	5	1	5	2	5	3	5	4	
3	5	1	2	2	0	2	1	2	5	2	3	2	4	
6	10	13	6	0	7	2	7	0	7	1	7	5	7	3	7	4	
5	5	1	2	7	14	7	0	7	1	7	2	7	5	7	4	
2	14	8	8	0	8	1	8	5	8	3	8	4	
7	5	1	2	7	0	6	9	7	0	7	1	7	2	7	5	7	4	
4	7	14	8	11	7	0	7	1	7	2	7	3	7	4	
2	8	14	8	0	8	1	8	2	8	1	8	0	
6	12	13	6	0	7	14	7	0	7	1	7	2	7	1	7	0	
6	1	2	7	14	8	11	7	0	7	1	7	2	7	1	7	0	
3	7	0	6	7	0	7	1	7	5	7	3	7	4	
6	11	8	7	2	4	3	7	0	7	1	7	2	7	1	7	0	
3	2	7	14	7	0	7	1	7	5	7	3	7	4	
6	14	7	0	6	13	12	7	0	7	1	7	2	7	5	7	4	
5	11	9	6	13	12	6	0	6	1	6	2	6	1	6	0	
4	0	7	2	4	7	0	7	1	7	5	7	3	7	4	
3	8	7	0	7	0	7	1	7	2	7	3	7	4	
6	1	2	7	0	6	13	7	0	7	1	7	5	7	3	7	4	
7	4	1	2	7	0	6	13	7	0	7	1	7	2	7	3	7	4	
2	14	8	8	0	8	1	8	2	8	1	8	0	
3	11	8	14	8	0	8	1	8	2	8	5	8	4	
7	5	1	2	7	14	8	11	7	0	7	1	7	2	7	3	7	4	
3	2	7	14	7	0	7	1	7	2	7	1	7	0	
3	8	7	0	7	0	7	1	7	2	7	1	7	0	
5	11	8	7	2	4	7	0	7	1	7	5	7	3	7	4	
3	6	13	10	6	0	6	1	6	2	6	5	6	4	
5	1	2	7	0	6	7	0	7	1	7	2	7	5	7	4	
3	7	2	4	7	0	7	1	7	2	7	5	7	4	
2	11	8	8	0	8	1	8	2	8	3	8	4	
4	14	7	2	1	7	0	7	1	7	5	7	3	7	4	
4	13	6	9	8	6	0	6	1	6	2	6	5	6	4	
2	9	8	8	0	8	1	8	2	8	3	8	4	
3	6	0	7	7	0	7	1	7	2	7	1	7	0	
3	0	7	14	7	0	7	1	7	2	7	5	7	4	
2	2	4	2	0	2	1	2	2	2	5	2	4	
7	3	5	1	2	7	0	6	7	0	7	1	7	2	7	3	7	4	
5	9	8	7	2	1	7	0	7	1	7	2	7	1	7	0	
4	7	2	4	3	7	0	7	1	7	2	7	3	7	4	
4	9	6	13	12	6	0	6	1	6	5	6	3	6	4	
2	14	7	7	0	7	1	7	2	7	3	7	4	
5	10	13	6	9	8	6	0	6	1	6	2	6	1	6	0	
3	11	8	7	7	0	7	1	7	2	7	3	7	4	
2	13	12	13	0	13	1	13	2	13	5	13	4	
4	10	13	6	0	6	0	6	1	6	2	6	5	6	4	
4	7	0	6	9	7	0	7	1	7	2	7	1	7	0	
3	4	1	5	1	0	1	1	1	2	1	1	1	0	
4	13	6	0	7	7	0	7	1	7	2	7	3	7	4	
3	6	0	7	7	0	7	1	7	2	7	5	7	4	
2	2	7	7	0	7	1	7	2	7	1	7	0	
2	0	6	6	0	6	1	6	2	6	3	6	4	
4	7	14	8	11	7	0	7	1	7	5	7	3	7	4	
8	10	13	6	0	7	2	4	3	7	0	7	1	7	5	7	3	7	4	
7	1	2	7	0	6	13	12	7	0	7	1	7	2	7	3	7	4	
5	1	2	7	14	8	7	0	7	1	7	5	7	3	7	4	
3	0	6	9	6	0	6	1	6	5	6	3	6	4	
4	11	8	7	2	7	0	7	1	7	2	7	5	7	4	
5	8	7	2	4	3	7	0	7	1	7	5	7	3	7	4	
3	6	13	10	6	0	6	1	6	5	6	3	6	4	
3	13	6	0	6	0	6	1	6	2	6	3	6	4	
2	13	10	13	0	13	1	13	2	13	1	13	0	
2	0	6	6	0	6	1	6	2	6	1	6	0	
5	2	7	14	8	11	7	0	7	1	7	2	7	5	7	4	
3	8	11	9	8	0	8	1	8	2	8	1	8	0	
5	14	7	0	6	13	7	0	7	1	7	2	7	1	7	0	
5	8	7	2	4	3	7	0	7	1	7	2	7	1	7	0	
5	14	7	2	1	5	7	0	7	1	7	2	7	1	7	0	
5	5	1	2	7	0	7	0	7	1	7	2	7	5	7	4	
3	14	7	2	7	0	7	1	7	2	7	3	7	4	
3	7	2	1	7	0	7	1	7	5	7	3	7	4	
5	2	7	0	6	9	7	0	7	1	7	2	7	5	7	4	
7	12	13	6	0	7	2	4	7	0	7	1	7	2	7	3	7	4	
5	6	0	7	2	1	7	0	7	1	7	2	7	3	7	4	
2	7	14	7	0	7	1	7	2	7	1	7	0	
7	4	1	2	7	0	6	13	7	0	7	1	7	5	7	3	7	4	
7	4	1	2	7	0	6	13	7	0	7	1	7	2	7	5	7	4	
7	3	5	1	2	7	0	6	7	0	7	1	7	2	7	1	7	0	
5	9	8	7	2	4	7	0	7	1	7	2	7	1	7	0	
6	3	5	1	2	7	14	7	0	7	1	7	2	7	5	7	4	
5	10	13	6	9	8	6	0	6	1	6	2	6	3	6	4	
2	11	9	9	0	9	1	9	5	9	3	9	4	
2	9	11	9	0	9	1	9	2	9	1	9	0	
8	3	5	1	2	7	0	6	9	7	0	7	1	7	2	7	1	7	0	
2	2	7	7	0	7	1	7	5	7	3	7	4	
4	7	2	4	3	7	0	7	1	7	2	7	5	7	4	
4	7	14	8	11	7	0	7	1	7	2	7	1	7	0	
2	10	13	13	0	13	1	13	2	13	3	13	4	
4	9	8	7	2	7	0	7	1	7	2	7	5	7	4	
4	6	0	7	14	7	0	7	1	7	5	7	3	7	4	
4	6	0	7	14	7	0	7	1	7	2	7	5	7	4	
5	2	7	0	6	9	7	0	7	1	7	2	7	3	7	4	
7	12	13	6	0	7	2	1	7	0	7	1	7	2	7	3	7	4	
2	8	7	7	0	7	1	7	2	7	1	7	0	
3	6	9	11	6	0	6	1	6	2	6	3	6	4	
5	5	1	2	7	0	7	0	7	1	7	5	7	3	7	4	
4	0	6	9	11	6	0	6	1	6	5	6	3	6	4	
3	11	8	7	7	0	7	1	7	2	7	5	7	4	
7	13	6	0	7	2	1	5	7	0	7	1	7	2	7	5	7	4	
2	0	7	7	0	7	1	7	2	7	3	7	4	
4	14	8	11	9	8	0	8	1	8	2	8	1	8	0	
2	10	12	10	0	10	1	10	2	10	1	10	0	
7	13	6	0	7	2	1	5	7	0	7	1	7	5	7	3	7	4	
3	9	8	14	8	0	8	1	8	2	8	5	8	4	
4	11	8	7	2	7	0	7	1	7	2	7	3	7	4	
2	10	13	13	0	13	1	13	5	13	3	13	4	
2	2	4	2	0	2	1	2	2	2	1	2	0	
7	12	13	6	0	7	2	4	7	0	7	1	7	2	7	5	7	4	
6	3	5	1	2	7	14	7	0	7	1	7	5	7	3	7	4	
4	6	0	7	14	7	0	7	1	7	2	7	1	7	0	
2	0	6	6	0	6	1	6	5	6	3	6	4	
5	9	8	7	2	1	7	0	7	1	7	2	7	3	7	4	
5	0	7	2	1	5	7	0	7	1	7	2	7	1	7	0	
7	1	2	7	0	6	13	10	7	0	7	1	7	2	7	1	7	0	
2	11	9	9	0	9	1	9	2	9	1	9	0	
2	6	9	6	0	6	1	6	2	6	5	6	4	
5	5	1	2	7	0	7	0	7	1	7	2	7	1	7	0	
5	1	2	7	14	8	7	0	7	1	7	2	7	3	7	4	
3	0	7	2	7	0	7	1	7	5	7	3	7	4	
3	11	8	7	7	0	7	1	7	2	7	1	7	0	
3	7	2	4	7	0	7	1	7	5	7	3	7	4	
3	14	8	11	8	0	8	1	8	2	8	5	8	4	
5	12	13	6	9	11	6	0	6	1	6	2	6	5	6	4	
2	8	7	7	0	7	1	7	2	7	5	7	4	
7	10	13	6	0	7	2	1	7	0	7	1	7	2	7	1	7	0	
7	13	6	0	7	2	4	3	7	0	7	1	7	2	7	3	7	4	
3	9	8	7	7	0	7	1	7	5	7	3	7	4	
6	4	1	2	7	0	6	7	0	7	1	7	5	7	3	7	4	
5	0	7	2	4	3	7	0	7	1	7	2	7	5	7	4	
7	1	2	7	0	6	13	12	7	0	7	1	7	5	7	3	7	4	
6	3	5	1	2	7	0	7	0	7	1	7	2	7	3	7	4	
8	4	1	2	7	0	6	13	12	7	0	7	1	7	2	7	3	7	4	
4	6	0	7	2	7	0	7	1	7	2	7	3	7	4	
4	7	2	1	5	7	0	7	1	7	2	7	3	7	4	
5	13	6	0	7	14	7	0	7	1	7	5	7	3	7	4	
2	13	6	6	0	6	1	6	2	6	5	6	4	
4	12	13	6	0	6	0	6	1	6	2	6	5	6	4	
5	14	7	0	6	13	7	0	7	1	7	5	7	3	7	4	
5	6	0	7	2	1	7	0	7	1	7	2	7	1	7	0	
4	0	7	14	8	7	0	7	1	7	2	7	5	7	4	
5	6	0	7	2	1	7	0	7	1	7	5	7	3	7	4	
4	1	2	7	0	7	0	7	1	7	2	7	5	7	4	
2	1	5	1	0	1	1	1	2	1	3	1	4	
8	3	5	1	2	7	0	6	9	7	0	7	1	7	5	7	3	7	4	
3	9	6	0	6	0	6	1	6	2	6	3	6	4	
5	13	6	0	7	2	7	0	7	1	7	2	7	1	7	0	
6	5	1	2	7	0	6	7	0	7	1	7	2	7	1	7	0	
3	0	6	13	6	0	6	1	6	2	6	5	6	4	
2	11	8	8	0	8	1	8	2	8	1	8	0	
4	14	7	2	4	7	0	7	1	7	5	7	3	7	4	
3	12	13	6	6	0	6	1	6	2	6	3	6	4	
6	14	7	0	6	13	12	7	0	7	1	7	5	7	3	7	4	
2	4	1	1	0	1	1	1	2	1	3	1	4	
3	8	11	9	8	0	8	1	8	2	8	5	8	4	
2	5	3	5	0	5	1	5	5	5	3	5	4	
5	1	2	7	0	6	7	0	7	1	7	5	7	3	7	4	
2	1	5	1	0	1	1	1	2	1	1	1	0	
3	14	7	0	7	0	7	1	7	2	7	1	7	0	
5	8	7	2	1	5	7	0	7	1	7	5	7	3	7	4	
5	5	1	2	7	0	7	0	7	1	7	2	7	3	7	4	
4	0	6	9	11	6	0	6	1	6	2	6	3	6	4	
3	3	5	1	1	0	1	1	1	2	1	5	1	4	
6	12	13	6	0	7	2	7	0	7	1	7	5	7	3	7	4	
5	7	0	6	13	10	7	0	7	1	7	5	7	3	7	4	
6	1	2	7	0	6	13	7	0	7	1	7	2	7	3	7	4	
5	12	13	6	0	7	7	0	7	1	7	2	7	5	7	4	
4	3	5	1	2	2	0	2	1	2	5	2	3	2	4	
2	4	3	4	0	4	1	4	2	4	5	4	4	
3	7	14	8	7	0	7	1	7	2	7	3	7	4	
6	3	5	1	2	7	0	7	0	7	1	7	2	7	1	7	0	
3	0	6	9	6	0	6	1	6	2	6	3	6	4	
5	11	8	7	2	1	7	0	7	1	7	2	7	3	7	4	
3	6	9	11	6	0	6	1	6	5	6	3	6	4	
2	14	8	8	0	8	1	8	2	8	5	8	4	
5	12	13	6	9	11	6	0	6	1	6	2	6	3	6	4	
8	10	13	6	0	7	2	4	3	7	0	7	1	7	2	7	1	7	0	
6	2	7	0	6	13	10	7	0	7	1	7	2	7	5	7	4	
3	2	7	0	7	0	7	1	7	2	7	3	7	4	
5	8	7	2	4	3	7	0	7	1	7	2	7	3	7	4	
5	6	0	7	2	4	7	0	7	1	7	5	7	3	7	4	
2	2	1	2	0	2	1	2	2	2	1	2	0	
2	11	8	8	0	8	1	8	2	8	5	8	4	
6	4	1	2	7	14	8	7	0	7	1	7	5	7	3	7	4	
6	4	1	2	7	14	8	7	0	7	1	7	2	7	3	7	4	
8	4	1	2	7	0	6	13	10	7	0	7	1	7	2	7	1	7	0	
3	10	13	6	6	0	6	1	6	2	6	5	6	4	
3	11	8	7	7	0	7	1	7	5	7	3	7	4	
3	12	13	10	13	0	13	1	13	2	13	5	13	4	
8	4	1	2	7	0	6	13	10	7	0	7	1	7	5	7	3	7	4	
8	4	1	2	7	0	6	13	12	7	0	7	1	7	2	7	5	7	4	
3	10	13	6	6	0	6	1	6	2	6	1	6	0	
2	11	9	9	0	9	1	9	2	9	5	9	4	
8	10	13	6	0	7	2	1	5	7	0	7	1	7	2	7	5	7	4	
5	14	7	2	4	3	7	0	7	1	7	2	7	1	7	0	
2	1	2	2	0	2	1	2	2	2	3	2	4	
2	6	0	6	0	6	1	6	2	6	5	6	4	
8	3	5	1	2	7	0	6	13	7	0	7	1	7	5	7	3	7	4	
7	12	13	6	0	7	2	1	7	0	7	1	7	2	7	1	7	0	
5	6	0	7	2	4	7	0	7	1	7	2	7	1	7	0	
5	8	7	2	1	5	7	0	7	1	7	2	7	1	7	0	
7	13	6	0	7	2	1	5	7	0	7	1	7	2	7	1	7	0	
4	9	6	13	10	6	0	6	1	6	2	6	1	6	0	
2	2	7	7	0	7	1	7	2	7	5	7	4	
5	7	0	6	13	10	7	0	7	1	7	2	7	1	7	0	
2	10	12	10	0	10	1	10	2	10	3	10	4	
5	2	7	0	6	9	7	0	7	1	7	5	7	3	7	4	
3	6	13	10	6	0	6	1	6	2	6	3	6	4	
4	11	9	6	13	6	0	6	1	6	2	6	1	6	0	
4	13	6	0	7	7	0	7	1	7	5	7	3	7	4	
3	7	14	8	7	0	7	1	7	2	7	1	7	0	
2	7	14	7	0	7	1	7	2	7	5	7	4	
5	9	8	7	2	4	7	0	7	1	7	2	7	5	7	4	
7	13	6	0	7	2	4	3	7	0	7	1	7	2	7	5	7	4	
3	6	9	11	6	0	6	1	6	2	6	5	6	4	
3	0	6	9	6	0	6	1	6	2	6	5	6	4	
2	10	13	13	0	13	1	13	2	13	1	13	0	
3	6	9	8	6	0	6	1	6	2	6	3	6	4	
4	10	13	6	0	6	0	6	1	6	5	6	3	6	4	
5	4	1	2	7	0	7	0	7	1	7	2	7	1	7	0	
5	11	8	7	2	1	7	0	7	1	7	2	7	1	7	0	
4	7	0	6	13	7	0	7	1	7	2	7	3	7	4	
3	8	7	0	7	0	7	1	7	5	7	3	7	4	
5	9	8	7	2	1	7	0	7	1	7	5	7	3	7	4	
5	12	13	6	9	8	6	0	6	1	6	2	6	3	6	4	
4	0	7	14	8	7	0	7	1	7	5	7	3	7	4	
4	7	0	6	9	7	0	7	1	7	2	7	5	7	4	
5	3	5	1	2	7	7	0	7	1	7	5	7	3	7	4	
7	13	6	0	7	2	1	5	7	0	7	1	7	2	7	3	7	4	
5	12	13	6	0	7	7	0	7	1	7	2	7	1	7	0	
4	12	13	6	9	6	0	6	1	6	5	6	3	6	4	
3	10	13	6	6	0	6	1	6	2	6	3	6	4	
4	6	0	7	2	7	0	7	1	7	2	7	1	7	0	
6	6	0	7	2	4	3	7	0	7	1	7	2	7	1	7	0	
4	8	7	2	4	7	0	7	1	7	2	7	3	7	4	
4	3	5	1	2	2	0	2	1	2	2	2	3	2	4	
3	1	2	7	7	0	7	1	7	2	7	3	7	4	
8	3	5	1	2	7	14	8	11	7	0	7	1	7	2	7	1	7	0	
5	11	9	6	13	12	6	0	6	1	6	5	6	3	6	4	
6	9	8	7	2	1	5	7	0	7	1	7	2	7	1	7	0	
6	2	7	0	6	13	12	7	0	7	1	7	2	7	1	7	0	
5	13	6	0	7	14	7	0	7	1	7	2	7	1	7	0	
2	8	14	8	0	8	1	8	5	8	3	8	4	
2	8	11	8	0	8	1	8	2	8	3	8	4	
5	13	6	0	7	14	7	0	7	1	7	2	7	3	7	4	
4	8	7	2	4	7	0	7	1	7	2	7	5	7	4	
5	10	13	6	0	7	7	0	7	1	7	2	7	1	7	0	
3	9	6	13	6	0	6	1	6	2	6	3	6	4	
5	11	9	6	13	12	6	0	6	1	6	2	6	3	6	4	
4	11	9	6	13	6	0	6	1	6	5	6	3	6	4	
4	11	9	6	13	6	0	6	1	6	2	6	5	6	4	
2	1	2	2	0	2	1	2	2	2	5	2	4	
7	4	1	2	7	0	6	9	7	0	7	1	7	2	7	1	7	0	
6	6	0	7	2	4	3	7	0	7	1	7	2	7	5	7	4	
9	3	5	1	2	7	0	6	13	10	7	0	7	1	7	2	7	3	7	4	
2	7	0	7	0	7	1	7	2	7	5	7	4	
4	0	6	13	12	6	0	6	1	6	2	6	5	6	4	
2	5	1	1	0	1	1	1	5	1	3	1	4	
3	0	7	2	7	0	7	1	7	2	7	3	7	4	
7	4	1	2	7	0	6	9	7	0	7	1	7	2	7	5	7	4	
4	14	7	2	4	7	0	7	1	7	2	7	3	7	4	
2	1	4	1	0	1	1	1	5	1	3	1	4	
3	1	2	7	7	0	7	1	7	2	7	1	7	0	
5	13	6	0	7	2	7	0	7	1	7	2	7	3	7	4	
3	4	1	5	1	0	1	1	1	2	1	5	1	4	
3	2	7	0	7	0	7	1	7	2	7	5	7	4	
4	12	13	6	0	6	0	6	1	6	5	6	3	6	4	
7	1	2	7	0	6	13	10	7	0	7	1	7	2	7	5	7	4	
2	13	10	13	0	13	1	13	2	13	5	13	4	
8	12	13	6	0	7	2	1	5	7	0	7	1	7	2	7	5	7	4	
2	13	6	6	0	6	1	6	2	6	1	6	0	
4	0	6	13	10	6	0	6	1	6	2	6	3	6	4	
6	11	8	7	2	4	3	7	0	7	1	7	2	7	3	7	4	
5	11	8	7	2	4	7	0	7	1	7	2	7	3	7	4	
7	1	2	7	0	6	13	10	7	0	7	1	7	2	7	3	7	4	
4	9	8	7	2	7	0	7	1	7	5	7	3	7	4	
4	7	2	1	5	7	0	7	1	7	5	7	3	7	4	
4	8	7	2	1	7	0	7	1	7	2	7	3	7	4	
3	2	4	3	2	0	2	1	2	2	2	1	2	0	
6	3	5	1	2	7	0	7	0	7	1	7	5	7	3	7	4	
9	3	5	1	2	7	0	6	13	12	7	0	7	1	7	2	7	5	7	4	
3	6	0	7	7	0	7	1	7	2	7	3	7	4	
3	6	13	12	6	0	6	1	6	5	6	3	6	4	
3	12	13	10	13	0	13	1	13	2	13	3	13	4	
5	2	7	0	6	13	7	0	7	1	7	2	7	5	7	4	
5	12	13	6	9	11	6	0	6	1	6	5	6	3	6	4	
7	5	1	2	7	14	8	11	7	0	7	1	7	5	7	3	7	4	
2	9	11	9	0	9	1	9	5	9	3	9	4	
3	14	7	2	7	0	7	1	7	5	7	3	7	4	
3	7	14	8	7	0	7	1	7	5	7	3	7	4	
3	2	4	3	2	0	2	1	2	5	2	3	2	4	
6	10	13	6	0	7	14	7	0	7	1	7	5	7	3	7	4	
3	0	6	9	6	0	6	1	6	2	6	1	6	0	
5	10	13	6	0	7	7	0	7	1	7	2	7	5	7	4	
7	4	1	2	7	14	8	11	7	0	7	1	7	2	7	1	7	0	
3	1	2	7	7	0	7	1	7	2	7	5	7	4	
2	1	4	1	0	1	1	1	2	1	3	1	4	
8	12	13	6	0	7	2	4	3	7	0	7	1	7	2	7	1	7	0	
3	5	1	4	1	0	1	1	1	2	1	5	1	4	
7	5	1	2	7	0	6	9	7	0	7	1	7	2	7	3	7	4	
7	4	1	2	7	14	8	11	7	0	7	1	7	2	7	5	7	4	
3	2	1	5	2	0	2	1	2	2	2	5	2	4	
6	13	6	0	7	2	1	7	0	7	1	7	2	7	3	7	4	
5	0	7	2	4	3	7	0	7	1	7	2	7	3	7	4	
9	3	5	1	2	7	0	6	13	12	7	0	7	1	7	5	7	3	7	4	
3	6	13	12	6	0	6	1	6	2	6	1	6	0	
5	3	5	1	2	7	7	0	7	1	7	2	7	3	7	4	
4	6	0	7	2	7	0	7	1	7	2	7	5	7	4	
4	7	0	6	13	7	0	7	1	7	2	7	1	7	0	
5	8	11	9	6	13	6	0	6	1	6	2	6	5	6	4	
6	14	7	0	6	13	10	7	0	7	1	7	2	7	5	7	4	
5	1	2	7	0	6	7	0	7	1	7	2	7	1	7	0	
6	9	8	7	2	1	5	7	0	7	1	7	2	7	3	7	4	
2	5	1	1	0	1	1	1	2	1	1	1	0	
6	13	6	0	7	2	4	7	0	7	1	7	2	7	3	7	4	
6	3	5	1	2	7	0	7	0	7	1	7	2	7	5	7	4	
6	1	2	7	0	6	9	7	0	7	1	7	5	7	3	7	4	
3	13	6	9	6	0	6	1	6	2	6	5	6	4	
3	8	7	2	7	0	7	1	7	5	7	3	7	4	
5	4	1	2	7	14	7	0	7	1	7	2	7	3	7	4	
6	10	13	6	0	7	14	7	0	7	1	7	2	7	1	7	0	
2	13	12	13	0	13	1	13	5	13	3	13	4	
2	0	7	7	0	7	1	7	2	7	5	7	4	
6	11	8	7	2	4	3	7	0	7	1	7	2	7	5	7	4	
3	4	1	2	2	0	2	1	2	2	2	5	2	4	
6	9	8	7	2	4	3	7	0	7	1	7	2	7	1	7	0	
2	12	13	13	0	13	1	13	2	13	1	13	0	
3	13	6	9	6	0	6	1	6	5	6	3	6	4	
4	0	6	13	10	6	0	6	1	6	2	6	1	6	0	
3	2	7	0	7	0	7	1	7	2	7	1	7	0	
7	10	13	6	0	7	2	4	7	0	7	1	7	2	7	3	7	4	
5	12	13	6	0	7	7	0	7	1	7	5	7	3	7	4	
6	8	11	9	6	13	12	6	0	6	1	6	2	6	5	6	4	
3	8	7	2	7	0	7	1	7	2	7	3	7	4	
3	7	0	6	7	0	7	1	7	2	7	5	7	4	
6	12	13	6	0	7	2	7	0	7	1	7	2	7	5	7	4	
3	2	1	5	2	0	2	1	2	2	2	3	2	4	
4	1	2	7	14	7	0	7	1	7	5	7	3	7	4	
5	14	7	2	4	3	7	0	7	1	7	5	7	3	7	4	
5	14	7	2	4	3	7	0	7	1	7	2	7	5	7	4	
8	10	13	6	0	7	2	1	5	7	0	7	1	7	2	7	1	7	0	
4	9	6	13	10	6	0	6	1	6	2	6	5	6	4	
2	5	3	5	0	5	1	5	2	5	5	5	4	
9	3	5	1	2	7	0	6	13	10	7	0	7	1	7	2	7	1	7	0	
5	5	1	2	7	14	7	0	7	1	7	2	7	3	7	4	
5	2	7	0	6	13	7	0	7	1	7	2	7	1	7	0	
6	8	11	9	6	13	10	6	0	6	1	6	2	6	3	6	4	
4	12	13	6	0	6	0	6	1	6	2	6	1	6	0	
3	7	2	1	7	0	7	1	7	2	7	3	7	4	
4	10	13	6	9	6	0	6	1	6	5	6	3	6	4	
4	9	6	13	10	6	0	6	1	6	2	6	3	6	4	
4	11	9	6	13	6	0	6	1	6	2	6	3	6	4	
2	1	2	2	0	2	1	2	5	2	3	2	4	
4	2	7	14	8	7	0	7	1	7	5	7	3	7	4	
4	14	7	0	6	7	0	7	1	7	2	7	5	7	4	
8	3	5	1	2	7	14	8	11	7	0	7	1	7	2	7	3	7	4	
4	0	6	9	11	6	0	6	1	6	2	6	5	6	4	
2	14	8	8	0	8	1	8	2	8	3	8	4	
6	6	0	7	2	1	5	7	0	7	1	7	2	7	5	7	4	
3	13	6	0	6	0	6	1	6	5	6	3	6	4	
3	2	7	14	7	0	7	1	7	2	7	3	7	4	
3	5	1	2	2	0	2	1	2	2	2	1	2	0	
6	14	7	0	6	13	10	7	0	7	1	7	5	7	3	7	4	
5	8	7	2	1	5	7	0	7	1	7	2	7	5	7	4	
4	9	8	7	2	7	0	7	1	7	2	7	3	7	4	
8	3	5	1	2	7	0	6	9	7	0	7	1	7	2	7	3	7	4	
6	1	2	7	14	8	11	7	0	7	1	7	2	7	5	7	4	
4	13	6	9	11	6	0	6	1	6	2	6	5	6	4	
3	13	6	9	6	0	6	1	6	2	6	1	6	0	
3	8	7	0	7	0	7	1	7	2	7	5	7	4	
4	0	7	2	4	7	0	7	1	7	2	7	1	7	0	
3	0	6	13	6	0	6	1	6	2	6	3	6	4	
5	5	1	2	7	14	7	0	7	1	7	2	7	1	7	0	
