4834.29	4050.63
1759
75482.6	50734.9
15
0	2646	2661
1	1585	1597
2	1958	1968
3	0	-1
4	0	-1
5	2299	2301
6	2186	2295
7	1977	1988
8	1960	1965
9	2255	2301
10	0	-1
11	0	-1
12	2778	2798
13	0	-1
14	0	-1
44
0	5	94.753934	94.804088	1.000000
0	6	93.693392	97.565395	1.000000
0	7	97.612548	107.690380	1.000000
1	2	42.362710	105.849121	1.000000
1	4	45.998108	104.008832	1.000000
1	5	67.861594	105.849121	1.000000
2	1	42.913158	105.849121	1.000000
2	4	39.681770	97.565395	1.000000
2	7	93.453590	93.883653	1.000000
3	4	23.233272	91.122346	1.000000
3	5	47.997372	83.758958	1.000000
4	1	43.305758	104.008832	1.000000
4	2	40.922580	97.565395	1.000000
4	3	24.220210	91.122346	1.000000
5	0	94.799000	94.804088	1.000000
5	1	69.808006	105.849121	1.000000
5	3	47.681408	83.758958	1.000000
5	12	83.501514	84.679394	1.000000
6	0	97.130746	97.565395	1.000000
6	9	76.174882	89.281475	1.000000
6	13	88.811278	101.246943	1.000000
7	0	94.029132	107.690380	1.000000
7	2	91.730128	93.883653	1.000000
7	8	81.458844	100.326314	1.000000
7	14	52.101894	104.008832	1.000000
8	7	75.993390	100.326314	1.000000
8	9	46.106276	97.565395	1.000000
8	11	34.730730	82.838523	1.000000
8	14	14.305572	88.361136	1.000000
9	6	81.061354	89.281475	1.000000
9	8	44.179526	97.565395	1.000000
9	11	32.290494	103.088203	1.000000
10	12	33.218652	97.565395	1.000000
10	13	33.425826	92.963217	1.000000
11	8	32.138252	82.838523	1.000000
11	9	35.309984	103.088203	1.000000
12	5	84.264470	84.679394	1.000000
12	10	33.577412	97.565395	1.000000
12	13	45.030524	90.201910	1.000000
13	6	88.109830	101.246943	1.000000
13	10	33.560828	92.963217	1.000000
13	12	45.491216	90.201910	1.000000
14	7	52.270942	104.008832	1.000000
14	8	14.122884	88.361136	1.000000
840
4	10	12	5	3	12	0	5	1	5	5	5	3	5	4	
3	14	7	2	7	0	2	1	2	5	2	3	2	4	
3	3	5	0	0	0	0	1	0	5	0	3	0	4	
2	8	9	9	0	9	1	9	2	9	3	9	4	
4	14	7	2	4	7	0	7	1	7	5	7	3	2	4	
3	2	7	14	7	0	7	1	7	2	7	5	7	4	
4	9	6	13	12	9	0	12	1	12	5	12	3	12	4	
2	12	5	12	0	5	1	5	2	5	1	5	0	
3	2	7	8	8	0	8	1	8	2	8	5	8	4	
3	5	1	2	1	0	1	1	1	2	1	1	2	0	
5	13	12	5	3	4	12	0	12	1	12	2	12	3	12	4	
3	0	7	2	0	0	0	1	0	2	0	1	2	0	
4	4	1	5	12	1	0	1	1	5	5	5	3	5	4	
2	6	13	6	0	6	1	6	2	6	3	6	4	
3	8	7	0	0	0	0	1	0	2	0	5	0	4	
3	1	2	7	2	0	2	1	2	2	2	5	2	4	
3	8	9	6	9	0	9	1	6	2	6	5	6	4	
5	3	5	0	7	14	7	0	7	1	7	2	7	5	7	4	
2	8	7	8	0	8	1	8	5	8	3	8	4	
2	10	12	12	0	12	1	12	2	12	3	12	4	
4	3	5	0	7	7	0	7	1	7	2	7	3	7	4	
4	7	0	6	13	7	0	7	1	7	5	7	3	7	4	
4	14	7	2	1	7	0	7	1	7	5	7	3	2	4	
5	11	9	6	0	5	9	0	9	1	9	2	9	1	9	0	
2	1	2	1	0	1	1	1	2	1	3	1	4	
4	4	1	5	12	12	0	12	1	12	2	12	1	12	0	
3	7	2	1	7	0	7	1	7	5	7	3	2	4	
3	2	1	5	1	0	1	1	1	5	1	3	1	4	
2	9	6	9	0	9	1	9	5	9	3	9	4	
5	1	2	7	8	11	2	0	7	1	7	2	7	5	7	4	
4	11	9	6	0	9	0	9	1	9	2	9	1	9	0	
6	14	7	0	6	13	10	0	0	6	1	6	2	6	3	6	4	
2	4	1	1	0	1	1	1	2	1	1	1	0	
4	12	5	0	7	12	0	12	1	12	2	12	3	12	4	
2	5	0	5	0	5	1	5	2	5	3	5	4	
4	0	5	1	4	0	0	0	1	0	2	0	5	5	4	
2	11	9	9	0	9	1	9	2	9	1	9	0	
4	10	13	6	9	9	0	9	1	9	2	9	5	9	4	
2	9	8	9	0	9	1	9	5	9	3	9	4	
5	11	9	6	13	12	12	0	12	1	12	2	12	5	12	4	
3	7	0	6	7	0	7	1	7	2	7	5	7	4	
2	14	7	7	0	7	1	7	2	7	5	7	4	
4	13	6	9	11	9	0	9	1	9	5	9	3	9	4	
4	2	7	8	11	2	0	2	1	2	5	2	3	2	4	
3	6	13	10	6	0	6	1	6	5	6	3	6	4	
3	13	12	5	12	0	12	1	12	5	12	3	12	4	
3	0	5	1	1	0	1	1	1	2	1	3	1	4	
5	3	5	0	6	9	9	0	9	1	9	2	9	1	9	0	
4	3	5	12	10	12	0	12	1	12	2	12	5	12	4	
3	1	5	0	0	0	0	1	0	5	0	3	0	4	
3	7	0	5	0	0	5	1	5	2	5	3	5	4	
5	5	0	6	9	11	9	0	9	1	9	5	9	3	9	4	
3	0	7	8	7	0	7	1	7	2	7	5	7	4	
3	0	7	14	0	0	0	1	0	2	0	5	0	4	
4	3	4	1	4	1	0	1	1	1	2	1	1	1	0	
4	11	8	7	2	2	0	2	1	2	2	2	3	2	4	
2	14	8	8	0	8	1	8	2	8	1	8	0	
4	4	1	4	3	1	0	1	1	1	2	1	3	1	4	
2	2	4	2	0	2	1	2	2	2	3	2	4	
3	10	13	6	6	0	6	1	6	2	6	1	6	0	
3	13	6	0	6	0	6	1	6	2	6	5	6	4	
4	0	6	13	10	6	0	6	1	6	2	6	5	6	4	
4	6	0	5	1	1	0	1	1	1	2	1	5	1	4	
3	9	8	7	9	0	9	1	9	5	9	3	9	4	
5	8	9	6	13	10	9	0	9	1	9	2	9	3	9	4	
5	12	5	0	7	8	12	0	7	1	7	5	7	3	7	4	
4	14	7	0	5	5	0	5	1	5	2	5	1	5	0	
3	5	0	7	7	0	7	1	7	5	7	3	7	4	
3	12	13	6	12	0	12	1	12	5	12	3	12	4	
2	6	0	6	0	6	1	6	2	6	5	6	4	
2	5	1	5	0	5	1	5	5	5	3	5	4	
3	10	12	13	12	0	12	1	12	2	12	5	12	4	
4	13	12	5	3	5	0	5	1	5	2	5	3	5	4	
2	11	8	8	0	8	1	8	2	8	5	8	4	
4	6	0	7	2	2	0	2	1	2	2	2	3	2	4	
4	4	2	7	8	2	0	2	1	2	5	2	3	2	4	
4	9	6	13	10	9	0	9	1	9	2	9	1	9	0	
2	13	12	12	0	12	1	12	2	12	5	12	4	
3	10	12	13	12	0	12	1	12	2	12	3	12	4	
4	3	5	0	6	5	0	5	1	5	2	5	3	5	4	
5	7	0	6	13	10	0	0	6	1	6	2	6	1	6	0	
5	9	6	0	5	3	9	0	9	1	9	2	9	1	9	0	
3	12	5	3	5	0	5	1	5	2	5	5	5	4	
2	5	12	5	0	5	1	5	2	5	5	12	4	
3	7	8	9	9	0	9	1	9	5	9	3	9	4	
4	11	9	6	13	9	0	9	1	9	5	9	3	9	4	
3	0	6	13	6	0	6	1	6	5	6	3	6	4	
5	8	7	0	5	12	8	0	8	1	8	2	8	1	12	0	
3	14	8	11	8	0	8	1	8	2	8	3	8	4	
2	4	2	2	0	2	1	2	5	2	3	2	4	
3	12	5	0	12	0	12	1	12	2	12	3	12	4	
2	2	7	2	0	2	1	2	2	2	1	2	0	
5	14	7	0	6	13	0	0	0	1	0	2	0	5	6	4	
4	13	12	5	1	12	0	12	1	12	2	12	1	12	0	
2	6	0	6	0	6	1	6	2	6	1	6	0	
5	14	7	0	5	3	0	0	0	1	0	5	0	3	5	4	
3	14	7	2	2	0	2	1	2	2	2	5	2	4	
2	8	9	9	0	9	1	9	2	9	1	9	0	
3	6	13	12	6	0	6	1	6	2	6	5	6	4	
3	2	7	14	7	0	7	1	7	2	7	1	7	0	
4	10	12	5	1	1	0	1	1	1	2	1	5	1	4	
4	3	5	12	10	5	0	5	1	5	5	5	3	5	4	
2	9	8	9	0	9	1	9	2	9	3	9	4	
2	3	5	5	0	5	1	5	2	5	5	5	4	
3	5	1	2	2	0	2	1	2	2	2	5	2	4	
5	13	12	5	3	4	12	0	12	1	12	2	12	1	12	0	
3	0	7	2	0	0	0	1	0	2	0	3	0	4	
2	6	13	6	0	6	1	6	2	6	1	6	0	
3	8	7	0	8	0	0	1	0	2	0	1	0	0	
3	11	9	6	9	0	9	1	9	2	9	5	9	4	
3	1	2	7	7	0	7	1	7	2	7	1	7	0	
3	7	2	4	7	0	7	1	7	2	7	3	7	4	
3	3	4	2	2	0	2	1	2	2	2	5	2	4	
5	10	12	5	1	2	12	0	2	1	2	5	2	3	2	4	
3	3	4	1	1	0	1	1	1	5	1	3	1	4	
2	10	12	12	0	12	1	12	5	12	3	12	4	
3	13	6	9	6	0	6	1	6	5	6	3	9	4	
4	7	0	6	13	0	0	0	1	0	2	0	5	0	4	
5	11	9	6	0	5	9	0	0	1	0	2	0	3	5	4	
2	1	2	1	0	1	1	1	2	1	1	1	0	
4	4	1	5	12	12	0	12	1	12	2	12	3	12	4	
4	12	5	1	2	12	0	2	1	2	2	2	1	2	0	
3	2	1	5	1	0	1	1	1	2	1	3	1	4	
3	5	12	13	12	0	12	1	12	2	12	1	12	0	
4	5	0	7	14	5	0	5	1	5	5	5	3	0	4	
5	11	9	6	13	10	6	0	6	1	6	2	6	5	6	4	
3	13	6	9	9	0	9	1	9	2	9	5	9	4	
5	1	2	7	8	11	2	0	7	1	7	2	7	1	7	0	
2	8	11	8	0	8	1	8	2	8	3	8	4	
2	4	1	1	0	1	1	1	2	1	5	1	4	
3	14	8	9	8	0	8	1	8	2	8	5	8	4	
4	12	5	0	7	7	0	7	1	7	2	7	1	7	0	
2	5	0	0	0	0	1	0	2	0	1	0	0	
5	13	6	0	7	2	6	0	6	1	6	2	6	3	0	4	
4	0	5	1	4	0	0	0	1	0	2	0	1	1	0	
3	7	8	11	7	0	7	1	7	5	7	3	7	4	
4	6	0	5	3	5	0	5	1	5	2	5	3	5	4	
2	11	9	9	0	9	1	9	2	9	3	9	4	
3	10	12	5	12	0	12	1	12	2	12	5	5	4	
3	7	0	6	0	0	0	1	0	5	0	3	6	4	
5	12	5	0	7	14	7	0	7	1	7	2	7	1	7	0	
2	14	7	7	0	7	1	7	5	7	3	7	4	
4	13	6	9	11	6	0	6	1	6	2	6	5	9	4	
3	6	13	10	6	0	6	1	6	2	6	5	6	4	
3	13	12	5	12	0	12	1	12	2	12	5	12	4	
3	0	5	1	0	0	0	1	0	2	0	1	0	0	
5	3	5	0	6	9	9	0	9	1	9	2	9	3	9	4	
3	11	8	7	8	0	8	1	8	2	8	1	8	0	
3	1	5	0	0	0	0	1	0	2	0	3	0	4	
4	4	2	7	14	7	0	7	1	7	2	7	1	7	0	
5	5	0	6	9	11	0	0	0	1	0	2	0	5	0	4	
5	13	6	0	7	14	6	0	0	1	0	2	0	3	0	4	
3	0	7	8	0	0	8	1	8	2	8	1	8	0	
4	3	4	1	4	1	0	1	1	1	2	1	5	1	4	
4	11	8	7	2	8	0	8	1	8	2	8	1	8	0	
2	14	8	8	0	8	1	8	2	8	3	8	4	
5	2	1	5	12	10	5	0	5	1	5	5	5	3	5	4	
4	4	1	4	3	1	0	1	1	1	2	1	1	1	0	
3	12	5	1	5	0	5	1	5	2	5	3	5	4	
2	2	4	2	0	2	1	2	5	2	3	2	4	
4	5	0	7	14	5	0	5	1	5	2	5	3	0	4	
3	10	13	6	6	0	6	1	6	2	6	3	6	4	
3	13	6	0	0	0	0	1	0	5	0	3	0	4	
4	6	0	5	1	0	0	0	1	0	5	0	3	0	4	
4	8	7	2	4	8	0	8	1	8	5	8	3	8	4	
4	14	7	0	5	0	0	0	1	0	2	0	5	5	4	
5	8	9	6	13	10	8	0	8	1	8	5	8	3	8	4	
5	12	5	0	7	8	12	0	12	1	12	2	12	5	12	4	
3	5	0	7	7	0	7	1	7	2	7	5	7	4	
3	12	13	6	12	0	12	1	12	2	12	5	12	4	
2	5	1	5	0	5	1	5	2	5	5	1	4	
5	10	13	6	9	8	9	0	9	1	9	2	9	1	9	0	
3	0	5	3	5	0	5	1	5	2	5	3	5	4	
6	3	5	0	7	8	11	5	0	8	1	8	2	8	1	8	0	
4	4	2	7	8	2	0	2	1	8	2	8	5	8	4	
2	12	13	12	0	12	1	12	2	12	3	12	4	
2	7	8	8	0	8	1	8	5	8	3	8	4	
2	2	1	2	0	2	1	2	2	2	5	1	4	
4	9	6	13	10	9	0	9	1	9	2	9	5	9	4	
2	13	12	12	0	12	1	12	5	12	3	12	4	
3	10	12	13	12	0	12	1	12	2	12	1	12	0	
4	3	5	0	6	0	0	0	1	0	2	0	1	0	0	
4	9	6	13	12	6	0	6	1	6	2	6	5	12	4	
5	11	8	7	2	4	8	0	8	1	8	2	8	3	8	4	
2	8	11	8	0	8	1	8	5	8	3	8	4	
5	4	1	5	12	13	5	0	5	1	5	2	5	3	5	4	
5	9	6	0	5	3	9	0	9	1	9	2	9	3	9	4	
3	12	5	3	5	0	5	1	5	5	5	3	5	4	
2	5	12	5	0	5	1	5	5	5	3	5	4	
5	10	12	5	1	4	12	0	1	1	1	2	1	1	1	0	
4	1	5	12	13	5	0	5	1	5	2	5	5	12	4	
4	11	9	6	13	9	0	9	1	9	2	9	5	6	4	
5	8	7	0	5	12	0	0	0	1	0	2	0	3	0	4	
3	14	8	11	8	0	8	1	8	2	8	1	8	0	
5	2	7	0	6	13	2	0	2	1	0	2	0	5	6	4	
2	4	2	2	0	2	1	2	2	2	5	2	4	
3	9	6	13	9	0	9	1	9	2	9	1	9	0	
2	2	7	7	0	7	1	7	2	7	5	7	4	
4	13	12	5	1	1	0	1	1	1	2	1	3	1	4	
2	6	0	6	0	6	1	6	2	6	3	6	4	
2	11	8	8	0	8	1	8	2	8	3	8	4	
3	14	7	2	7	0	7	1	7	2	7	1	7	0	
4	6	0	7	2	0	0	0	1	0	5	0	3	0	4	
2	1	4	1	0	1	1	1	2	1	5	1	4	
3	7	2	1	7	0	7	1	7	2	7	1	7	0	
3	2	7	14	7	0	7	1	7	2	7	3	7	4	
2	9	8	9	0	9	1	8	2	8	1	8	0	
3	0	5	12	0	0	0	1	0	5	0	3	0	4	
3	5	1	2	5	0	5	1	5	5	5	3	5	4	
5	10	13	6	9	11	9	0	9	1	9	2	9	3	9	4	
3	0	7	2	0	0	0	1	0	5	0	3	0	4	
5	3	5	0	7	8	5	0	8	1	8	2	8	3	8	4	
3	8	7	0	7	0	7	1	7	2	7	3	7	4	
3	11	9	6	9	0	9	1	9	5	9	3	9	4	
3	3	5	12	12	0	12	1	12	5	12	3	12	4	
3	1	2	7	7	0	7	1	7	2	7	3	7	4	
3	7	2	4	7	0	7	1	7	2	7	1	7	0	
5	9	8	7	2	1	9	0	2	1	2	2	2	1	2	0	
3	2	7	0	0	0	0	1	0	2	0	1	0	0	
2	12	5	12	0	12	1	12	5	12	3	12	4	
5	10	12	5	1	2	12	0	12	1	12	2	12	5	5	4	
2	9	8	9	0	9	1	9	2	9	5	8	4	
2	10	12	12	0	12	1	12	2	12	5	12	4	
4	1	2	7	8	8	0	8	1	8	2	8	5	8	4	
4	3	5	0	7	7	0	7	1	7	2	7	5	7	4	
4	7	0	6	13	7	0	7	1	7	2	7	1	7	0	
2	8	14	8	0	8	1	8	2	8	1	8	0	
3	14	8	9	9	0	9	1	9	2	9	3	9	4	
5	1	2	7	8	9	1	0	1	1	1	2	2	5	9	4	
4	12	5	1	2	5	0	5	1	5	2	5	3	5	4	
3	2	1	5	5	0	5	1	5	2	5	1	5	0	
3	5	12	13	5	0	5	1	5	2	5	3	5	4	
5	10	13	6	0	7	0	0	0	1	0	2	0	3	0	4	
2	0	7	0	0	0	1	0	2	0	5	0	4	
5	11	9	6	13	10	9	0	9	1	9	5	9	3	9	4	
5	1	2	7	8	11	2	0	2	1	2	2	2	3	2	4	
2	8	11	8	0	8	1	8	2	8	1	8	0	
4	2	1	5	12	5	0	5	1	5	2	5	1	5	0	
2	4	1	1	0	1	1	1	5	1	3	1	4	
3	9	8	14	9	0	9	1	9	2	9	3	9	4	
5	9	8	7	2	4	9	0	9	1	9	5	9	3	9	4	
5	13	6	0	7	2	6	0	6	1	6	2	6	1	6	0	
4	0	5	1	4	0	0	0	1	0	2	0	3	1	4	
4	6	0	5	3	5	0	5	1	5	2	5	1	5	0	
3	8	7	2	8	0	8	1	8	2	8	1	8	0	
2	1	5	5	0	5	1	5	2	5	1	5	0	
3	7	0	6	7	0	7	1	7	2	7	3	7	4	
5	12	5	0	7	14	5	0	0	1	0	2	0	3	0	4	
4	13	6	9	11	9	0	9	1	9	2	9	1	9	0	
4	0	6	9	11	9	0	9	1	9	2	9	5	9	4	
3	6	13	10	6	0	6	1	6	2	6	1	6	0	
3	0	5	1	5	0	5	1	5	2	5	5	1	4	
2	7	0	0	0	0	1	0	2	0	5	0	4	
3	11	8	7	8	0	8	1	8	2	8	3	8	4	
3	1	5	0	5	0	5	1	5	2	5	1	5	0	
4	4	2	7	14	2	0	2	1	2	2	2	3	2	4	
4	9	8	7	2	9	0	8	1	8	2	8	3	8	4	
5	9	8	7	2	4	9	0	8	1	8	2	8	5	8	4	
3	2	4	3	2	0	2	1	2	2	2	3	2	4	
5	8	7	0	5	3	8	0	8	1	8	5	8	3	5	4	
5	5	0	6	9	11	6	0	6	1	6	2	6	1	6	0	
5	13	6	0	7	14	6	0	0	1	0	2	0	1	0	0	
3	0	7	8	8	0	8	1	8	2	8	3	8	4	
4	2	1	5	12	12	0	12	1	12	5	12	3	12	4	
5	1	2	7	8	9	9	0	9	1	9	2	9	1	9	0	
3	6	0	7	6	0	6	1	6	5	6	3	6	4	
4	8	9	6	13	6	0	6	1	6	2	6	3	6	4	
2	14	8	8	0	8	1	8	5	8	3	8	4	
5	2	1	5	12	10	12	0	12	1	12	2	12	5	12	4	
3	12	5	1	5	0	5	1	5	2	5	1	5	0	
2	2	4	2	0	2	1	2	2	2	5	2	4	
4	5	0	7	14	7	0	7	1	7	2	7	1	7	0	
3	13	6	0	6	0	6	1	6	2	6	3	6	4	
2	0	6	6	0	6	1	6	2	6	1	6	0	
6	11	9	6	0	5	3	9	0	6	1	6	2	6	5	5	4	
4	6	0	5	1	5	0	5	1	5	2	5	3	5	4	
4	8	7	2	4	8	0	8	1	8	2	8	5	8	4	
2	8	9	9	0	9	1	9	5	9	3	9	4	
5	8	9	6	13	10	6	0	6	1	6	2	6	5	6	4	
5	12	13	6	9	8	9	0	9	1	9	2	9	1	9	0	
3	5	0	7	7	0	7	1	7	2	7	1	7	0	
5	10	13	6	9	8	9	0	9	1	9	2	9	3	9	4	
3	0	5	3	5	0	5	1	5	2	5	1	5	0	
6	3	5	0	7	8	11	5	0	8	1	8	2	8	3	8	4	
4	8	7	2	1	7	0	2	1	2	2	2	3	2	4	
2	12	10	12	0	12	1	12	2	12	5	12	4	
4	1	5	0	6	0	0	0	1	0	2	0	3	0	4	
2	6	9	9	0	9	1	9	5	9	3	9	4	
4	4	2	7	8	8	0	8	1	8	2	8	1	8	0	
2	12	13	12	0	12	1	12	2	12	1	12	0	
2	2	1	1	0	1	1	1	5	1	3	1	4	
4	9	6	13	10	9	0	9	1	9	5	9	3	9	4	
2	13	12	12	0	12	1	12	2	12	3	12	4	
4	0	6	13	10	6	0	6	1	6	2	6	1	6	0	
5	13	6	0	7	2	6	0	6	1	6	5	6	3	6	4	
3	6	13	12	6	0	6	1	6	5	6	3	6	4	
5	11	8	7	2	4	8	0	8	1	8	2	8	1	8	0	
5	4	3	5	12	13	5	0	5	1	5	2	5	1	5	0	
3	12	5	3	5	0	5	1	5	2	5	3	5	4	
2	5	12	5	0	5	1	5	2	5	3	5	4	
5	10	12	5	1	4	12	0	1	1	1	2	1	3	1	4	
4	6	0	5	3	0	0	0	1	0	5	0	3	0	4	
4	11	9	6	13	9	0	9	1	9	2	9	1	9	0	
4	1	5	12	10	1	0	1	1	1	2	1	3	1	4	
2	7	2	2	0	2	1	2	2	2	5	2	4	
3	14	8	11	8	0	8	1	8	2	8	5	8	4	
5	2	7	0	6	13	0	0	0	1	0	5	0	3	6	4	
3	9	6	13	9	0	9	1	9	2	9	3	9	4	
4	13	6	0	7	0	0	0	1	0	5	0	3	0	4	
2	2	7	7	0	7	1	7	5	7	3	7	4	
4	7	0	5	12	0	0	0	1	0	5	0	3	0	4	
4	6	0	7	14	6	0	6	1	6	5	6	3	0	4	
4	8	7	0	5	7	0	7	1	7	5	7	3	7	4	
4	13	12	5	1	12	0	12	1	12	5	12	3	12	4	
2	0	5	0	0	0	1	0	2	0	3	0	4	
4	3	5	12	13	5	0	5	1	5	2	5	1	5	0	
2	11	8	8	0	8	1	8	2	8	1	8	0	
3	14	7	2	7	0	7	1	7	2	7	3	7	4	
2	1	4	1	0	1	1	1	5	1	3	1	4	
3	7	2	1	7	0	2	1	2	2	2	3	2	4	
2	7	0	0	0	0	1	0	5	0	3	0	4	
3	0	5	12	0	0	0	1	0	2	0	5	5	4	
3	7	8	11	8	0	8	1	8	2	8	5	8	4	
5	12	5	0	7	14	0	0	0	1	0	2	0	5	0	4	
5	10	13	6	9	11	9	0	9	1	9	2	9	1	9	0	
3	0	7	2	0	0	0	1	0	2	0	5	0	4	
5	3	5	0	7	8	5	0	8	1	8	2	8	1	8	0	
2	7	14	7	0	7	1	7	2	7	5	7	4	
3	11	9	6	9	0	9	1	9	2	9	3	9	4	
5	14	7	0	5	12	12	0	12	1	12	2	12	1	12	0	
3	7	2	4	2	0	2	1	2	2	2	5	2	4	
5	9	8	7	2	1	9	0	9	1	9	2	9	3	9	4	
2	13	6	6	0	6	1	6	5	6	3	6	4	
3	2	7	0	0	0	0	1	0	2	0	3	0	4	
4	4	1	5	12	1	0	1	1	12	2	12	5	12	4	
5	10	12	5	1	2	12	0	2	1	2	2	2	1	2	0	
3	6	9	8	9	0	9	1	9	5	9	3	9	4	
3	0	6	9	9	0	9	1	9	2	9	3	9	4	
3	3	4	1	1	0	1	1	1	2	1	1	1	0	
3	6	0	5	5	0	5	1	5	2	5	5	5	4	
3	7	0	5	5	0	5	1	5	5	5	3	5	4	
4	7	0	6	13	7	0	7	1	7	2	7	3	7	4	
2	8	14	8	0	8	1	8	2	8	3	8	4	
4	12	5	1	4	1	0	1	1	1	5	1	3	1	4	
3	14	8	9	9	0	9	1	9	2	9	1	9	0	
2	5	3	5	0	5	1	5	5	5	3	5	4	
4	12	5	1	2	12	0	2	1	2	5	2	3	2	4	
3	5	12	13	5	0	5	1	12	5	12	3	12	4	
5	10	13	6	0	7	6	0	6	1	6	2	6	1	6	0	
2	0	7	0	0	0	1	0	5	0	3	0	4	
5	11	9	6	13	10	9	0	9	1	9	2	9	3	9	4	
3	14	7	0	0	0	0	1	0	2	0	1	0	0	
4	7	0	5	3	5	0	5	1	5	2	5	1	5	0	
4	2	1	5	12	2	0	12	1	12	2	12	3	12	4	
4	8	7	2	1	7	0	7	1	2	5	2	3	2	4	
3	9	8	14	9	0	9	1	9	2	9	1	9	0	
4	13	6	9	8	9	0	9	1	9	2	9	5	9	4	
2	5	0	5	0	5	1	5	5	5	3	5	4	
2	6	9	6	0	6	1	6	2	6	5	9	4	
4	10	13	6	9	6	0	6	1	6	2	6	3	6	4	
4	3	5	12	10	12	0	12	1	12	2	12	3	12	4	
3	8	7	2	8	0	8	1	8	2	8	3	8	4	
2	1	5	1	0	1	1	1	2	1	3	1	4	
3	7	0	6	7	0	7	1	7	2	7	1	7	0	
3	9	8	7	9	0	9	1	9	2	9	1	9	0	
4	1	5	0	6	5	0	5	1	5	5	5	3	5	4	
4	5	0	7	8	5	0	5	1	5	2	5	5	5	4	
4	13	6	9	11	6	0	6	1	6	2	6	3	6	4	
4	0	6	9	11	6	0	6	1	6	5	6	3	6	4	
3	6	13	10	6	0	6	1	6	2	6	3	6	4	
5	11	8	7	2	1	7	0	7	1	7	5	2	3	2	4	
3	6	9	8	9	0	9	1	9	2	9	5	9	4	
4	4	1	5	0	1	0	1	1	1	5	1	3	1	4	
3	13	12	10	12	0	12	1	12	5	12	3	12	4	
3	11	8	7	7	0	7	1	7	5	7	3	7	4	
4	4	2	7	14	2	0	2	1	2	5	2	3	2	4	
4	9	8	7	2	9	0	9	1	9	2	9	1	9	0	
3	2	4	3	2	0	2	1	2	2	2	1	2	0	
5	5	0	6	9	11	0	0	0	1	0	2	0	3	0	4	
3	10	12	5	12	0	12	1	12	2	12	3	12	4	
5	6	0	5	1	4	1	0	1	1	1	2	1	1	1	0	
5	1	2	7	8	9	1	0	1	1	1	2	1	3	1	4	
3	6	9	11	6	0	6	1	6	5	6	3	6	4	
4	8	9	6	13	6	0	6	1	6	2	6	1	6	0	
5	12	13	6	9	11	12	0	12	1	12	2	12	5	12	4	
2	14	8	8	0	8	1	8	2	8	5	8	4	
5	2	1	5	12	10	2	0	2	1	2	2	2	1	12	0	
3	5	1	4	1	0	1	1	1	2	1	5	1	4	
4	9	6	13	12	12	0	12	1	12	2	12	3	12	4	
4	1	2	7	8	7	0	7	1	7	5	7	3	7	4	
4	5	0	7	14	7	0	7	1	7	2	7	5	7	4	
3	13	6	0	6	0	6	1	6	2	6	1	6	0	
2	0	6	6	0	6	1	6	2	6	3	6	4	
4	6	0	5	1	5	0	5	1	5	2	5	1	5	0	
4	8	7	2	4	8	0	8	1	8	2	8	1	8	0	
5	14	7	2	4	3	7	0	2	1	2	2	2	3	2	4	
2	7	0	0	0	0	1	0	2	0	3	0	4	
5	12	13	6	9	8	12	0	12	1	12	2	12	3	12	4	
4	1	5	12	13	5	0	5	1	12	5	12	3	12	4	
3	5	0	7	7	0	7	1	7	2	7	3	7	4	
3	13	6	9	6	0	9	1	9	2	9	1	9	0	
3	6	9	8	9	0	9	1	9	2	9	1	9	0	
4	3	5	12	13	12	0	12	1	12	2	12	5	12	4	
6	3	4	2	7	8	11	2	0	2	1	2	5	2	3	2	4	
4	8	7	2	1	2	0	2	1	2	2	2	1	2	0	
2	1	2	2	0	2	1	2	5	2	3	2	4	
4	1	5	0	6	6	0	6	1	6	2	6	1	6	0	
4	4	2	7	8	8	0	8	1	8	2	8	3	8	4	
3	9	6	0	9	0	9	1	9	2	9	3	9	4	
2	2	1	2	0	2	1	2	2	2	3	2	4	
4	5	0	6	9	9	0	9	1	9	2	9	1	9	0	
2	13	12	12	0	12	1	12	2	12	1	12	0	
4	0	6	13	10	6	0	6	1	6	2	6	3	6	4	
5	13	6	0	7	14	6	0	6	1	6	5	6	3	7	4	
3	11	8	14	8	0	8	1	8	2	8	5	8	4	
4	7	0	5	12	5	0	5	1	5	2	5	3	5	4	
5	11	8	7	2	4	8	0	8	1	8	2	8	5	8	4	
5	4	3	5	12	13	5	0	5	1	5	2	5	5	12	4	
3	12	5	3	5	0	5	1	5	2	5	1	5	0	
2	5	12	5	0	5	1	5	2	5	1	5	0	
5	10	12	5	1	4	12	0	1	1	1	5	1	3	1	4	
4	7	0	5	12	0	0	0	1	0	2	0	5	0	4	
3	6	0	7	6	0	6	1	6	2	6	3	6	4	
4	11	9	6	13	9	0	9	1	9	2	9	3	9	4	
4	1	5	12	10	12	0	12	1	12	2	12	1	12	0	
2	7	2	7	0	7	1	7	5	7	3	2	4	
2	12	10	12	0	12	1	12	2	12	1	12	0	
3	14	8	11	8	0	8	1	8	5	8	3	8	4	
5	2	7	0	6	13	6	0	6	1	6	2	6	3	6	4	
3	9	6	13	9	0	9	1	9	5	9	3	9	4	
4	13	6	0	7	6	0	6	1	6	2	6	5	6	4	
4	6	0	7	14	6	0	6	1	6	2	6	5	0	4	
4	13	12	5	1	1	0	1	1	1	2	1	5	1	4	
2	0	5	5	0	5	1	5	2	5	1	5	0	
4	3	5	12	13	5	0	5	1	5	2	5	3	5	4	
5	8	7	2	4	3	7	0	2	1	2	2	2	3	2	4	
5	1	2	7	8	9	7	0	7	1	7	5	7	3	7	4	
2	1	4	1	0	1	1	1	2	1	3	1	4	
5	4	1	5	12	10	5	0	12	1	12	2	12	1	12	0	
3	13	12	10	12	0	12	1	12	2	12	3	12	4	
3	0	5	12	5	0	5	1	5	2	5	1	5	0	
3	6	9	11	9	0	9	1	9	2	9	3	9	4	
4	1	2	7	14	7	0	7	1	7	5	7	3	7	4	
5	10	13	6	9	11	9	0	9	1	9	2	9	5	9	4	
5	3	4	2	7	8	7	0	7	1	7	2	7	5	7	4	
2	7	14	7	0	7	1	7	5	7	3	7	4	
3	11	9	6	6	0	6	1	6	2	6	1	6	0	
5	14	7	0	5	12	5	0	5	1	5	2	5	3	5	4	
4	2	7	0	6	0	0	0	1	0	5	0	3	0	4	
3	7	2	4	2	0	2	1	2	5	2	3	2	4	
5	9	8	7	2	1	2	0	2	1	2	5	2	3	2	4	
3	2	7	0	0	0	0	1	0	5	0	3	0	4	
3	5	12	10	12	0	12	1	12	2	12	3	12	4	
5	10	12	5	1	2	5	0	5	1	5	2	5	3	5	4	
3	0	6	9	9	0	9	1	9	2	9	1	9	0	
3	3	4	1	1	0	1	1	1	2	1	3	1	4	
3	6	0	5	0	0	0	1	0	5	0	3	0	4	
4	1	2	7	8	2	0	2	1	2	2	2	3	2	4	
5	4	1	5	0	6	5	0	0	1	0	2	0	1	0	0	
2	8	14	8	0	8	1	8	5	8	3	8	4	
4	12	5	1	4	12	0	1	1	1	2	1	5	1	4	
3	5	1	4	5	0	1	1	1	5	1	3	1	4	
2	5	3	5	0	5	1	5	2	5	5	5	4	
4	12	5	1	2	12	0	12	1	12	2	12	5	12	4	
3	5	12	13	12	0	12	1	12	2	12	5	12	4	
5	10	13	6	0	7	0	0	0	1	0	2	0	5	0	4	
3	12	5	1	12	0	12	1	12	5	12	3	12	4	
2	0	7	0	0	0	1	0	2	0	3	0	4	
5	11	9	6	13	10	6	0	6	1	6	2	6	1	6	0	
3	14	7	0	0	0	0	1	0	2	0	3	0	4	
4	7	2	4	3	2	0	2	1	2	2	2	3	2	4	
4	12	13	6	9	6	0	6	1	6	2	6	3	6	4	
3	9	6	0	6	0	6	1	6	2	6	5	6	4	
3	5	0	6	5	0	5	1	5	2	5	3	5	4	
3	9	8	14	9	0	9	1	9	2	9	5	8	4	
4	13	6	9	8	9	0	9	1	9	5	9	3	9	4	
3	6	0	7	0	0	0	1	0	2	0	5	0	4	
4	10	13	6	9	6	0	6	1	6	2	6	1	6	0	
3	1	4	3	1	0	1	1	1	5	1	3	1	4	
4	3	5	12	10	5	0	5	1	5	2	5	1	5	0	
3	8	7	2	2	0	2	1	2	5	2	3	2	4	
2	1	5	1	0	1	1	1	5	1	3	1	4	
5	4	2	7	8	9	2	0	2	1	2	2	2	3	2	4	
3	9	8	7	9	0	8	1	8	2	8	3	8	4	
2	9	11	9	0	9	1	9	5	9	3	9	4	
4	1	5	12	10	12	0	12	1	12	5	12	3	12	4	
4	5	0	7	8	7	0	7	1	7	5	7	3	7	4	
4	10	13	6	0	6	0	6	1	6	2	6	1	6	0	
4	0	7	8	11	0	0	8	1	8	2	8	3	8	4	
2	8	9	9	0	9	1	9	2	9	5	9	4	
5	11	8	7	2	1	2	0	2	1	2	2	2	5	2	4	
4	4	1	5	0	1	0	1	1	1	2	5	5	0	4	
3	10	12	13	12	0	12	1	12	5	12	3	12	4	
3	11	8	7	8	0	8	1	8	2	8	5	7	4	
4	2	7	8	9	2	0	2	1	2	2	2	5	8	4	
4	4	2	7	14	7	0	7	1	7	2	7	5	7	4	
4	9	8	7	2	9	0	9	1	9	2	9	5	2	4	
3	2	4	3	2	0	2	1	2	2	2	5	2	4	
3	10	12	5	12	0	12	1	12	2	12	1	12	0	
2	12	10	12	0	12	1	12	5	12	3	12	4	
5	6	0	5	1	4	6	0	6	1	6	2	6	3	1	4	
5	11	9	6	13	12	6	0	6	1	6	2	6	3	6	4	
5	4	2	7	8	11	8	0	8	1	8	2	8	5	8	4	
4	14	7	0	6	6	0	6	1	6	2	6	1	6	0	
3	4	1	5	1	0	1	1	1	2	1	3	1	4	
4	8	9	6	13	6	0	6	1	6	2	6	5	6	4	
5	12	13	6	9	11	12	0	12	1	12	5	12	3	12	4	
5	2	1	5	12	10	2	0	2	1	2	2	2	3	12	4	
5	13	6	0	7	2	6	0	6	1	6	2	0	5	0	4	
4	9	6	13	12	12	0	12	1	12	2	12	1	12	0	
5	3	5	0	6	9	0	0	0	1	0	2	0	5	0	4	
2	0	6	6	0	6	1	6	5	6	3	6	4	
3	3	5	12	12	0	12	1	12	2	12	3	12	4	
4	8	7	2	4	8	0	8	1	8	2	8	3	8	4	
5	14	7	0	5	3	5	0	5	1	5	2	5	1	5	0	
3	7	2	1	7	0	2	1	2	2	2	5	2	4	
2	7	0	0	0	0	1	0	2	0	1	0	0	
4	9	6	0	5	5	0	5	1	5	2	5	1	5	0	
5	4	2	7	8	11	7	0	7	1	7	5	7	3	7	4	
4	6	0	5	3	5	0	5	1	5	2	5	5	5	4	
3	13	6	9	9	0	9	1	9	2	9	3	9	4	
3	6	9	8	9	0	9	1	9	2	9	3	9	4	
5	10	13	6	9	8	9	0	9	1	9	2	9	5	9	4	
3	1	5	12	12	0	12	1	12	2	12	5	12	4	
6	3	4	2	7	8	11	7	0	7	1	7	2	7	5	8	4	
3	7	8	9	9	0	9	1	9	2	9	1	9	0	
5	14	7	0	6	13	6	0	6	1	6	2	6	3	6	4	
3	9	6	0	6	0	6	1	0	2	0	1	0	0	
4	8	7	0	5	0	0	0	1	0	2	0	5	5	4	
3	0	5	3	0	0	0	1	0	5	0	3	0	4	
2	2	1	1	0	1	1	1	2	1	1	1	0	
2	8	11	8	0	8	1	8	2	8	5	8	4	
4	5	0	6	9	6	0	6	1	6	2	6	3	6	4	
4	10	12	5	3	12	0	12	1	12	2	12	3	12	4	
4	0	6	13	10	6	0	6	1	6	5	6	3	6	4	
3	3	5	0	5	0	5	1	5	2	5	3	5	4	
3	11	8	14	8	0	8	1	8	5	8	3	8	4	
4	7	0	5	12	12	0	12	1	12	2	12	1	12	0	
5	11	8	7	2	4	2	0	2	1	2	5	2	3	2	4	
3	2	7	8	2	0	2	1	2	2	2	1	2	0	
6	10	13	6	0	7	14	6	0	6	1	6	2	6	5	0	4	
5	12	5	0	7	14	12	0	12	1	12	5	12	3	12	4	
5	10	12	5	1	4	12	0	12	1	12	2	12	5	12	4	
3	5	0	6	5	0	5	1	5	5	5	3	5	4	
3	6	0	7	6	0	6	1	6	2	6	1	6	0	
3	8	9	6	9	0	9	1	9	2	9	1	9	0	
4	14	7	2	1	7	0	7	1	2	2	2	3	2	4	
2	13	6	6	0	6	1	6	2	6	5	6	4	
4	12	13	6	9	12	0	12	1	12	5	9	3	9	4	
2	7	2	2	0	2	1	2	2	2	3	2	4	
2	12	10	12	0	12	1	12	2	12	3	12	4	
5	2	7	0	6	13	0	0	0	1	0	2	0	1	6	0	
4	14	7	2	1	7	0	7	1	7	2	7	5	2	4	
3	9	6	13	9	0	9	1	9	2	9	5	9	4	
4	13	6	0	7	0	0	0	1	0	2	0	1	0	0	
4	6	0	7	14	0	0	0	1	0	2	0	1	0	0	
2	0	5	5	0	5	1	5	2	5	5	5	4	
5	8	7	2	4	3	7	0	7	1	7	2	7	1	7	0	
2	1	4	1	0	1	1	1	2	1	1	1	0	
5	4	1	5	12	10	12	0	12	1	12	2	12	3	12	4	
2	9	6	6	0	6	1	6	2	6	3	6	4	
6	14	7	0	6	13	10	7	0	7	1	7	5	7	3	7	4	
3	13	12	10	12	0	12	1	12	2	12	1	12	0	
3	0	5	12	0	0	0	1	12	2	12	3	12	4	
3	6	9	11	9	0	9	1	9	2	9	1	9	0	
5	10	13	6	9	11	6	0	9	1	9	5	9	3	9	4	
4	1	5	12	13	1	0	1	1	1	2	1	1	1	0	
5	3	5	0	7	8	5	0	8	1	8	5	8	3	8	4	
2	7	14	7	0	7	1	7	2	7	3	7	4	
4	8	7	2	1	7	0	2	1	2	2	2	5	2	4	
5	14	7	0	5	12	0	0	0	1	0	5	0	3	0	4	
4	2	7	0	6	0	0	0	1	0	2	0	5	0	4	
5	9	8	7	2	1	2	0	2	1	2	2	2	5	2	4	
3	2	7	0	7	0	7	1	7	2	7	5	0	4	
3	5	12	10	12	0	12	1	12	2	12	1	12	0	
3	0	6	9	6	0	6	1	6	2	9	5	9	4	
3	6	0	5	5	0	5	1	5	2	5	3	5	4	
4	1	2	7	8	2	0	7	1	7	2	7	1	7	0	
5	4	1	5	0	6	5	0	5	1	5	2	5	3	5	4	
2	8	14	8	0	8	1	8	2	8	5	8	4	
4	12	5	1	4	12	0	1	1	1	2	1	1	1	0	
4	2	7	8	11	8	0	8	1	8	2	8	3	8	4	
2	5	3	5	0	5	1	5	2	5	1	5	0	
5	10	13	6	0	7	6	0	0	1	0	5	0	3	0	4	
3	13	12	10	12	0	12	1	12	2	12	5	12	4	
2	0	7	0	0	0	1	0	2	0	1	0	0	
4	8	7	0	5	5	0	5	1	5	2	5	3	5	4	
3	3	4	1	1	0	1	1	1	2	1	5	1	4	
3	14	7	0	0	0	0	1	0	5	0	3	0	4	
4	7	0	5	3	0	0	0	1	0	5	0	3	5	4	
4	12	13	6	9	6	0	6	1	6	2	6	1	6	0	
4	2	1	5	12	12	0	12	1	12	2	12	5	12	4	
3	5	0	6	5	0	5	1	5	2	5	1	5	0	
3	9	8	14	9	0	9	1	9	5	9	3	9	4	
4	13	6	9	8	6	0	6	1	6	2	6	3	6	4	
3	0	7	14	0	0	0	1	0	2	0	1	0	0	
4	4	1	4	3	1	0	1	1	1	5	1	3	1	4	
2	6	9	6	0	6	1	6	2	6	3	6	4	
3	6	9	11	6	0	6	1	6	2	6	5	6	4	
3	1	4	3	1	0	1	1	1	2	1	5	1	4	
3	8	7	2	2	0	2	1	2	2	2	5	2	4	
2	1	5	5	0	5	1	5	2	5	5	5	4	
5	4	2	7	8	9	8	0	9	1	9	2	9	1	9	0	
4	5	0	7	8	0	0	0	1	0	2	0	3	0	4	
4	10	13	6	0	0	0	0	1	0	2	0	3	0	4	
4	0	7	8	11	0	0	8	1	8	2	8	1	8	0	
5	11	8	7	2	1	7	0	7	1	7	2	7	1	7	0	
4	1	2	7	14	7	0	7	1	7	2	7	3	7	4	
6	14	7	0	6	13	10	0	0	0	1	0	2	0	5	0	4	
4	4	1	5	0	1	0	1	1	1	2	1	1	1	0	
4	2	7	8	9	9	0	9	1	9	5	9	3	9	4	
4	9	8	7	2	9	0	9	1	9	5	9	3	7	4	
4	13	12	5	3	12	0	12	1	12	5	12	3	12	4	
3	2	4	3	2	0	2	1	2	5	2	3	2	4	
2	6	0	6	0	6	1	6	5	6	3	6	4	
2	1	2	2	0	2	1	2	2	2	5	2	4	
5	6	0	5	1	4	5	0	5	1	5	5	5	3	5	4	
5	11	9	6	13	12	12	0	12	1	12	2	12	1	12	0	
4	14	7	0	6	7	0	7	1	7	2	7	3	7	4	
3	4	1	5	1	0	1	1	1	2	1	1	1	0	
4	8	9	6	13	9	0	9	1	9	5	9	3	9	4	
5	12	13	6	9	11	12	0	12	1	12	2	12	3	12	4	
3	5	1	4	5	0	5	1	5	2	5	3	5	4	
5	13	6	0	7	14	6	0	0	1	0	2	0	5	0	4	
2	0	6	6	0	6	1	6	2	6	5	6	4	
3	3	5	12	12	0	12	1	12	2	12	1	12	0	
5	7	0	6	13	10	0	0	0	1	0	2	0	5	0	4	
5	14	7	0	5	3	7	0	7	1	7	2	7	5	7	4	
6	11	9	6	0	5	3	9	0	6	1	6	5	6	3	5	4	
5	4	2	7	8	11	8	0	8	1	8	2	8	3	8	4	
4	9	6	0	5	9	0	9	1	9	2	9	3	9	4	
3	4	2	7	2	0	2	1	2	5	2	3	2	4	
6	10	13	6	0	7	14	6	0	6	1	6	2	6	1	0	0	
3	0	6	13	6	0	6	1	6	2	6	3	6	4	
2	3	5	5	0	5	1	5	2	5	1	5	0	
3	1	5	12	12	0	12	1	12	5	12	3	12	4	
3	7	8	9	9	0	9	1	9	2	9	3	9	4	
3	12	5	0	12	0	12	1	12	5	12	3	12	4	
5	14	7	0	6	13	0	0	0	1	0	2	0	1	6	0	
4	5	0	6	9	5	0	5	1	5	5	5	3	5	4	
4	10	12	5	3	12	0	12	1	12	2	12	1	12	0	
4	14	7	0	6	0	0	0	1	0	2	0	5	6	4	
3	3	5	0	5	0	5	1	5	2	5	1	5	0	
5	4	1	5	12	13	12	0	12	1	12	5	12	3	12	4	
3	11	8	14	8	0	8	1	8	2	8	3	8	4	
4	14	7	2	4	2	0	2	1	2	2	2	1	2	0	
3	4	2	7	2	0	2	1	2	2	2	3	2	4	
3	2	7	8	8	0	8	1	8	2	8	3	8	4	
4	1	2	7	14	7	0	7	1	7	2	7	5	7	4	
5	13	12	5	1	4	12	0	12	1	12	2	12	5	5	4	
2	6	13	6	0	6	1	6	2	6	5	6	4	
5	3	5	0	7	14	5	0	5	1	5	2	5	3	0	4	
3	8	9	6	8	0	8	1	8	2	8	3	8	4	
4	14	7	2	1	7	0	2	1	2	2	2	1	2	0	
2	7	2	2	0	2	1	2	2	2	1	2	0	
2	9	11	9	0	9	1	9	2	9	1	9	0	
4	13	6	0	7	0	0	0	1	0	2	0	3	0	4	
4	6	0	7	14	6	0	6	1	6	2	6	3	7	4	
5	11	9	6	0	5	9	0	0	1	0	5	0	3	5	4	
2	0	5	5	0	5	1	5	5	5	3	5	4	
3	7	8	11	7	0	7	1	7	2	7	1	7	0	
5	4	1	5	12	10	12	0	12	1	12	5	12	3	12	4	
2	9	6	9	0	9	1	9	2	9	1	9	0	
3	12	5	1	12	0	12	1	12	2	12	5	5	4	
4	11	9	6	0	0	0	0	1	0	5	0	3	0	4	
4	10	12	5	1	12	0	12	1	12	2	12	3	12	4	
4	3	5	12	13	12	0	12	1	12	5	12	3	12	4	
3	3	4	2	2	0	2	1	2	2	2	3	2	4	
4	1	5	12	13	12	0	12	1	12	2	12	3	12	4	
2	7	14	7	0	7	1	7	2	7	1	7	0	
4	12	5	0	7	12	0	12	1	12	2	12	5	7	4	
5	14	7	0	5	12	0	0	0	1	0	2	0	5	0	4	
4	2	7	0	6	6	0	6	1	6	2	6	1	6	0	
2	5	0	5	0	5	1	5	2	5	5	0	4	
5	3	4	2	7	14	2	0	2	1	2	5	2	3	2	4	
3	5	12	10	12	0	12	1	12	2	12	5	12	4	
2	11	9	9	0	9	1	9	5	9	3	9	4	
3	0	6	9	9	0	9	1	9	5	9	3	9	4	
3	6	0	5	5	0	5	1	5	2	5	1	5	0	
2	14	7	7	0	7	1	7	2	7	3	7	4	
5	4	1	5	0	6	1	0	1	1	1	5	1	3	1	4	
4	1	5	12	10	1	0	1	1	1	2	5	5	12	4	
4	12	5	1	4	1	0	1	1	1	2	1	3	1	4	
4	2	7	8	11	2	0	7	1	7	2	7	1	7	0	
2	5	3	5	0	5	1	5	2	5	3	5	4	
3	13	12	5	12	0	12	1	5	2	5	1	5	0	
3	6	13	12	6	0	6	1	6	2	6	1	6	0	
4	14	7	2	4	2	0	2	1	2	2	2	5	2	4	
4	8	7	0	5	8	0	8	1	8	2	8	1	8	0	
3	14	7	0	0	0	0	1	0	2	0	5	0	4	
4	7	2	4	3	7	0	7	1	7	2	7	5	2	4	
5	9	8	7	2	4	8	0	8	1	8	2	8	3	8	4	
2	9	11	9	0	9	1	9	2	9	5	9	4	
3	5	0	6	5	0	5	1	5	2	5	5	5	4	
4	13	6	9	8	9	0	9	1	9	2	9	1	9	0	
3	0	7	14	0	0	0	1	0	2	0	3	0	4	
2	6	9	9	0	9	1	9	2	9	1	9	0	
4	11	8	7	2	8	0	8	1	8	2	8	5	8	4	
3	1	4	3	1	0	1	1	1	2	1	1	1	0	
2	7	8	8	0	8	1	8	2	8	3	8	4	
4	10	13	6	9	9	0	9	1	9	5	9	3	9	4	
2	12	5	12	0	12	1	12	2	12	5	5	4	
5	11	9	6	13	12	9	0	9	1	9	5	9	3	9	4	
5	4	2	7	8	9	9	0	9	1	9	2	9	5	9	4	
5	3	5	0	6	9	9	0	9	1	9	5	9	3	9	4	
3	10	13	6	6	0	6	1	6	5	6	3	6	4	
4	5	0	7	8	8	0	8	1	8	2	8	1	8	0	
4	10	13	6	0	6	0	6	1	6	5	6	3	6	4	
5	11	8	7	2	1	7	0	2	1	2	2	2	3	2	4	
4	1	2	7	14	2	0	2	1	2	2	2	1	7	0	
4	4	1	5	0	1	0	1	1	1	2	1	3	1	4	
3	12	13	6	12	0	12	1	12	2	12	1	12	0	
4	2	7	8	9	8	0	8	1	8	2	8	3	8	4	
2	5	1	1	0	1	1	1	2	1	1	1	0	
4	13	12	5	3	12	0	12	1	12	2	12	5	5	4	
4	6	0	7	2	6	0	6	1	6	2	0	5	7	4	
5	6	0	5	1	4	6	0	6	1	6	2	6	5	1	4	
2	8	7	8	0	8	1	8	2	8	3	8	4	
3	7	0	5	5	0	5	1	5	2	5	5	5	4	
3	4	1	5	1	0	1	1	1	2	1	5	1	4	
5	12	13	6	9	11	9	0	9	1	9	2	9	1	9	0	
3	5	1	4	1	0	1	1	1	2	1	1	1	0	
6	10	13	6	0	7	14	6	0	6	1	0	5	0	3	0	4	
2	13	6	6	0	6	1	6	2	6	3	6	4	
3	0	5	1	0	0	0	1	0	5	0	3	0	4	
4	3	5	0	6	5	0	5	1	5	2	5	5	5	4	
3	3	5	12	5	0	5	1	5	2	5	5	12	4	
5	7	0	6	13	10	7	0	7	1	7	5	7	3	7	4	
5	9	6	0	5	3	9	0	9	1	9	5	9	3	9	4	
3	9	8	7	8	0	8	1	8	2	8	5	8	4	
5	4	2	7	8	11	2	0	2	1	2	2	2	1	2	0	
4	9	6	0	5	9	0	9	1	9	5	9	3	9	4	
6	10	13	6	0	7	14	6	0	6	1	6	2	6	3	0	4	
3	0	6	13	6	0	6	1	6	2	6	1	6	0	
2	3	5	5	0	5	1	5	2	5	3	5	4	
4	12	13	6	9	9	0	9	1	9	2	9	5	9	4	
6	11	9	6	0	5	3	0	0	0	1	0	2	0	1	0	0	
2	11	8	8	0	8	1	8	5	8	3	8	4	
3	1	5	12	12	0	12	1	12	2	12	3	12	4	
2	3	5	5	0	5	1	5	5	5	3	5	4	
2	4	2	2	0	2	1	2	2	2	1	2	0	
3	12	5	0	0	0	0	1	0	2	0	5	0	4	
5	10	13	6	9	8	9	0	9	1	9	5	9	3	9	4	
4	5	0	6	9	9	0	9	1	9	2	9	5	9	4	
4	10	12	5	3	12	0	12	1	12	2	12	5	12	4	
3	3	5	0	5	0	5	1	5	2	5	5	0	4	
3	11	8	14	8	0	8	1	8	2	8	1	8	0	
4	14	7	2	4	7	0	2	1	2	2	2	3	2	4	
3	2	7	14	7	0	7	1	7	5	7	3	7	4	
3	4	2	7	7	0	7	1	7	2	7	1	7	0	
2	12	5	12	0	12	1	12	2	12	3	12	4	
3	2	7	8	7	0	7	1	7	5	7	3	7	4	
3	5	1	2	2	0	2	1	2	2	2	3	2	4	
5	13	12	5	1	4	1	0	1	1	1	5	1	3	1	4	
2	6	13	6	0	6	1	6	5	6	3	6	4	
3	8	7	0	7	0	7	1	7	5	7	3	7	4	
3	7	8	9	7	0	7	1	7	2	7	5	8	4	
3	1	2	7	2	0	2	1	2	5	2	3	2	4	
5	3	4	2	7	14	2	0	2	1	2	2	2	1	2	0	
3	8	9	6	6	0	6	1	6	5	6	3	6	4	
2	9	11	9	0	9	1	9	2	9	3	9	4	
2	10	12	12	0	12	1	12	2	12	1	12	0	
4	3	4	2	7	2	0	2	1	2	2	2	1	2	0	
5	14	7	0	6	13	7	0	7	1	7	5	7	3	7	4	
5	11	8	7	0	5	7	0	7	1	7	2	7	5	7	4	
3	7	8	11	8	0	8	1	8	2	8	3	8	4	
3	2	1	5	1	0	1	1	1	2	1	5	1	4	
5	4	1	5	12	10	12	0	12	1	12	2	12	5	12	4	
2	9	6	9	0	9	1	9	2	9	5	6	4	
4	10	12	5	1	12	0	12	1	12	5	12	3	12	4	
2	12	13	12	0	12	1	12	2	12	5	12	4	
4	10	12	5	1	5	0	5	1	5	2	5	1	5	0	
5	1	2	7	8	11	2	0	2	1	2	5	2	3	2	4	
3	3	4	2	2	0	2	1	2	2	2	1	2	0	
4	11	9	6	0	0	0	0	1	0	2	0	3	0	4	
6	14	7	0	6	13	10	7	0	7	1	7	2	7	1	7	0	
2	4	1	1	0	1	1	1	2	1	3	1	4	
4	12	5	0	7	7	0	7	1	7	5	7	3	7	4	
4	2	7	0	6	2	0	2	1	2	2	2	3	2	4	
4	4	1	4	3	1	0	1	1	1	2	1	5	1	4	
3	3	4	2	2	0	2	1	2	5	2	3	2	4	
4	0	5	1	4	5	0	5	1	5	5	5	3	5	4	
3	5	12	10	5	0	5	1	5	5	5	3	5	4	
2	11	9	9	0	9	1	9	2	9	5	9	4	
4	11	9	6	0	0	0	0	1	0	2	0	5	0	4	
2	14	7	7	0	7	1	7	2	7	1	7	0	
5	4	1	5	0	6	1	0	1	1	1	2	1	5	1	4	
4	3	4	2	7	2	0	2	1	2	5	2	3	2	4	
4	2	7	8	11	2	0	2	1	2	2	2	5	2	4	
3	13	12	5	5	0	5	1	5	2	5	3	5	4	
3	9	6	0	6	0	6	1	6	5	6	3	6	4	
3	6	13	12	12	0	12	1	12	2	12	3	12	4	
3	1	5	0	5	0	5	1	5	2	5	5	0	4	
3	7	0	5	0	0	0	1	0	2	0	1	5	0	
2	12	13	12	0	12	1	12	5	12	3	12	4	
5	9	8	7	2	4	9	0	8	1	8	2	8	1	8	0	
3	0	7	8	7	0	7	1	7	5	7	3	7	4	
3	14	8	9	8	0	8	1	8	5	8	3	8	4	
3	0	7	14	0	0	0	1	0	5	0	3	0	4	
4	3	4	1	4	1	0	1	1	1	2	1	3	1	4	
2	8	7	8	0	8	1	8	2	8	5	7	4	
4	11	8	7	2	2	0	2	1	2	5	2	3	2	4	
3	1	4	3	1	0	1	1	1	2	1	3	1	4	
2	7	8	8	0	8	1	8	2	8	1	8	0	
3	10	12	5	12	0	12	1	12	5	12	3	12	4	
2	2	4	2	0	2	1	2	2	2	1	2	0	
5	4	2	7	8	9	2	0	2	1	2	5	2	3	2	4	
3	10	13	6	6	0	6	1	6	2	6	5	6	4	
4	10	13	6	0	0	0	0	1	0	2	0	5	0	4	
4	1	5	0	6	1	0	1	1	1	2	1	5	1	4	
5	8	9	6	13	12	12	0	12	1	12	2	12	5	12	4	
5	8	7	0	5	12	0	0	0	1	0	5	0	3	0	4	
5	8	9	6	13	10	8	0	8	1	8	2	8	1	8	0	
4	14	7	0	5	5	0	5	1	5	2	5	3	5	4	
3	4	2	7	2	0	2	1	2	2	2	5	7	4	
3	12	13	6	12	0	12	1	12	2	12	3	6	4	
4	2	7	8	9	8	0	8	1	8	2	8	1	8	0	
2	5	1	5	0	5	1	5	2	5	3	5	4	
4	13	12	5	3	5	0	5	1	5	2	5	1	5	0	
3	0	5	3	5	0	5	1	5	2	5	5	5	4	
4	6	0	7	2	7	0	2	1	2	2	2	1	2	0	
2	8	7	7	0	7	1	7	2	7	1	7	0	
3	4	1	5	1	0	1	1	1	5	1	3	1	4	
4	9	6	13	10	9	0	9	1	9	2	9	3	9	4	
4	14	7	0	6	7	0	7	1	7	5	7	3	7	4	
2	13	6	6	0	6	1	6	2	6	1	6	0	
2	7	8	7	0	7	1	7	2	7	5	7	4	
4	3	4	1	4	1	0	1	1	1	5	1	3	1	4	
4	3	5	0	6	5	0	5	1	5	5	5	3	5	4	
5	8	7	0	5	3	7	0	7	1	7	2	0	5	5	4	
5	7	0	6	13	10	6	0	6	1	6	2	6	3	6	4	
5	9	6	0	5	3	9	0	9	1	9	2	9	5	9	4	
4	14	7	0	5	0	0	0	1	0	5	0	3	5	4	
4	9	6	0	5	9	0	9	1	9	2	9	5	9	4	
3	0	6	13	6	0	6	1	6	2	6	5	6	4	
6	11	9	6	0	5	3	9	0	6	1	6	2	6	3	5	4	
3	1	5	12	12	0	12	1	12	2	12	1	12	0	
2	4	2	2	0	2	1	2	2	2	3	2	4	
3	12	5	0	12	0	0	1	0	2	0	1	0	0	
2	2	7	2	0	2	1	2	2	2	3	2	4	
