4641.22	3945.69
1951
69285.4	49169.4
15
0	3037	3054
1	2275	2308
2	2549	2646
3	0	-1
4	0	-1
5	3710	3710
6	4824	4850
7	3249	3254
8	0	-1
9	0	-1
10	0	-1
11	0	-1
12	0	-1
13	0	-1
14	0	-1
44
0	5	100.259750	103.147438	1.000000
0	6	99.977004	106.151395	1.000000
0	7	97.071832	117.167123	1.000000
1	2	42.362710	115.164180	1.000000
1	4	47.413472	113.162151	1.000000
1	5	71.704218	115.164180	1.000000
2	1	42.913158	115.164180	1.000000
2	4	33.306354	106.151395	1.000000
2	7	85.714426	102.146423	1.000000
3	4	14.078744	99.141552	1.000000
3	5	51.893912	91.130238	1.000000
4	1	47.148382	113.162151	1.000000
4	2	33.183416	106.151395	1.000000
4	3	14.002170	99.141552	1.000000
5	0	100.541896	103.147438	1.000000
5	1	71.223370	115.164180	1.000000
5	3	52.641460	91.130238	1.000000
5	12	92.079870	92.131710	1.000000
6	0	100.210938	106.151395	1.000000
6	9	94.174636	97.138610	1.000000
6	13	108.604540	110.157280	1.000000
7	0	96.454756	117.167123	1.000000
7	2	85.354712	102.146423	1.000000
7	8	106.194330	109.156266	1.000000
7	14	66.407466	113.162151	1.000000
8	7	105.241652	109.156266	1.000000
8	9	46.975876	106.151395	1.000000
8	11	28.447118	90.128858	1.000000
8	14	0.000000	96.137595	0.000000
9	6	94.731020	97.138610	1.000000
9	8	46.175794	106.151395	1.000000
9	11	38.574106	112.160223	1.000000
10	12	28.499850	106.151395	1.000000
10	13	38.144628	101.144495	1.000000
11	8	29.058060	90.128858	1.000000
11	9	38.390176	112.160223	1.000000
12	5	91.716158	92.131710	1.000000
12	10	28.889268	106.151395	1.000000
12	13	42.307990	98.140538	1.000000
13	6	109.029760	110.157280	1.000000
13	10	38.248972	101.144495	1.000000
13	12	41.672672	98.140538	1.000000
14	7	66.393826	113.162151	1.000000
14	8	0.000000	96.137595	0.000000
840
4	10	12	5	3	5	0	5	1	5	5	5	3	5	4	
3	14	7	2	7	0	2	1	2	5	2	3	2	4	
3	3	5	0	5	0	5	1	5	5	5	3	5	4	
4	8	7	8	9	7	0	7	1	7	2	7	3	7	4	
4	14	7	2	4	7	0	7	1	7	5	7	3	7	4	
3	2	7	14	2	0	2	1	2	2	2	5	2	4	
4	9	6	13	12	6	0	6	1	6	5	6	3	6	4	
2	12	5	5	0	5	1	5	2	5	1	5	0	
3	2	7	8	2	0	2	1	2	2	2	5	2	4	
3	5	1	2	5	0	5	1	5	2	5	1	5	0	
5	13	12	5	1	4	5	0	5	1	5	2	5	3	5	4	
3	0	7	2	2	0	2	1	2	2	2	1	2	0	
4	4	1	5	12	5	0	5	1	5	5	5	3	5	4	
2	6	13	6	0	6	1	6	2	6	3	6	4	
3	8	7	0	7	0	7	1	7	2	7	5	7	4	
3	1	2	7	1	0	1	1	1	2	1	5	7	4	
3	8	9	6	6	0	6	1	6	2	6	5	6	4	
5	3	5	0	7	14	0	0	0	1	0	2	0	5	0	4	
2	8	7	7	0	7	1	7	5	7	3	7	4	
4	10	12	5	12	5	0	5	1	5	2	5	3	5	4	
4	3	5	0	7	5	0	5	1	5	2	5	3	5	4	
4	7	0	6	13	6	0	6	1	6	5	6	3	6	4	
4	14	7	2	1	1	0	1	1	1	5	1	3	1	4	
5	11	9	6	0	5	6	0	6	1	6	2	6	1	6	0	
2	1	2	1	0	1	1	1	2	1	3	1	4	
4	4	1	5	12	5	0	5	1	5	2	5	1	5	0	
3	7	2	1	2	0	2	1	2	5	1	3	1	4	
3	2	1	5	5	0	5	1	5	5	5	3	5	4	
2	9	6	6	0	6	1	6	5	6	3	6	4	
5	1	2	7	8	11	2	0	2	1	2	2	2	5	7	4	
4	11	9	6	0	0	0	0	1	0	2	0	1	0	0	
6	14	7	0	6	13	10	6	0	6	1	6	2	6	3	6	4	
2	4	1	1	0	1	1	1	2	1	1	1	0	
4	12	5	0	7	5	0	5	1	5	2	5	3	5	4	
2	5	0	0	0	0	1	0	2	0	3	0	4	
4	0	5	1	4	5	0	5	1	5	2	5	5	1	4	
4	11	9	6	9	6	0	6	1	6	2	6	1	6	0	
4	10	13	6	9	6	0	6	1	6	2	6	5	6	4	
4	9	8	7	8	7	0	7	1	7	5	7	3	7	4	
5	11	9	6	13	12	6	0	6	1	6	2	6	5	6	4	
3	7	0	6	0	0	0	1	0	2	0	5	0	4	
2	14	7	7	0	7	1	7	2	7	5	7	4	
4	13	6	9	11	6	0	6	1	6	5	6	3	6	4	
4	2	7	8	11	2	0	2	1	2	5	2	3	2	4	
3	6	13	10	6	0	6	1	6	5	6	3	6	4	
3	13	12	5	5	0	5	1	5	5	5	3	5	4	
3	0	5	1	5	0	5	1	5	2	5	3	5	4	
5	3	5	0	6	9	5	0	5	1	5	2	5	1	5	0	
4	3	5	12	10	5	0	5	1	5	2	5	5	5	4	
3	1	5	0	5	0	5	1	5	5	5	3	5	4	
3	7	0	5	5	0	5	1	5	2	5	3	5	4	
5	5	0	6	9	11	6	0	6	1	6	5	6	3	6	4	
3	0	7	8	7	0	7	1	7	2	7	5	7	4	
3	0	7	14	7	0	7	1	7	2	7	5	7	4	
4	3	4	1	4	1	0	1	1	1	2	1	1	1	0	
4	11	8	7	2	2	0	2	1	2	2	2	3	2	4	
3	14	7	8	7	0	7	1	7	2	7	1	7	0	
4	4	1	4	3	1	0	1	1	1	2	1	3	1	4	
2	2	4	2	0	2	1	2	2	2	3	2	4	
3	10	13	6	6	0	6	1	6	2	6	1	6	0	
3	13	6	0	0	0	0	1	0	2	0	5	0	4	
4	0	6	13	10	6	0	6	1	6	2	6	5	6	4	
4	6	0	5	1	6	0	6	1	6	2	6	5	5	4	
3	9	8	7	7	0	7	1	7	5	7	3	7	4	
5	8	9	6	13	10	6	0	6	1	6	2	6	3	6	4	
5	12	5	0	7	8	5	0	5	1	5	5	5	3	5	4	
4	14	7	0	5	5	0	5	1	5	2	5	1	5	0	
3	5	0	7	5	0	5	1	5	5	5	3	5	4	
3	12	13	6	6	0	6	1	6	5	6	3	6	4	
2	6	0	6	0	6	1	6	2	6	5	6	4	
2	5	1	5	0	5	1	5	5	5	3	5	4	
4	10	13	6	13	6	0	6	1	6	2	6	5	6	4	
4	13	12	5	3	5	0	5	1	5	2	5	3	5	4	
4	11	8	7	8	7	0	7	1	7	2	7	5	7	4	
4	6	0	7	2	2	0	2	1	2	2	2	3	2	4	
4	4	2	7	8	2	0	2	1	2	5	2	3	2	4	
4	9	6	13	10	6	0	6	1	6	2	6	1	6	0	
4	13	6	13	12	6	0	6	1	6	2	6	5	6	4	
4	10	13	6	13	6	0	6	1	6	2	6	3	6	4	
4	3	5	0	6	5	0	5	1	5	2	5	3	5	4	
5	7	0	6	13	10	0	0	0	1	0	2	0	1	0	0	
5	9	6	0	5	3	5	0	5	1	5	2	5	1	5	0	
3	12	5	3	5	0	5	1	5	2	5	5	5	4	
2	5	12	5	0	5	1	5	2	5	5	5	4	
3	7	8	9	7	0	7	1	7	5	7	3	7	4	
4	11	9	6	13	6	0	6	1	6	5	6	3	6	4	
3	0	6	13	0	0	0	1	0	5	0	3	0	4	
5	8	7	0	5	12	7	0	7	1	7	2	7	1	5	0	
4	14	7	8	11	7	0	7	1	7	2	7	3	7	4	
2	4	2	2	0	2	1	2	5	2	3	2	4	
3	12	5	0	0	0	0	1	0	2	0	3	0	4	
2	2	7	2	0	2	1	2	2	2	1	2	0	
5	14	7	0	6	13	7	0	6	1	6	2	6	5	6	4	
4	13	12	5	1	5	0	5	1	5	2	5	1	5	0	
2	6	0	0	0	0	1	0	2	0	1	0	0	
5	14	7	0	5	3	7	0	7	1	7	5	7	3	5	4	
3	14	7	2	2	0	2	1	2	2	2	5	2	4	
4	8	7	8	9	7	0	7	1	7	2	7	1	7	0	
3	6	13	12	6	0	6	1	6	2	6	5	6	4	
3	2	7	14	2	0	2	1	2	2	2	1	2	0	
4	10	12	5	1	1	0	1	1	1	2	1	5	1	4	
4	3	5	12	10	5	0	5	1	5	5	5	3	5	4	
4	9	8	7	8	7	0	7	1	7	2	7	3	7	4	
2	3	5	5	0	5	1	5	2	5	5	5	4	
3	5	1	2	2	0	2	1	2	2	2	5	2	4	
5	13	12	5	1	4	5	0	5	1	5	2	5	1	5	0	
3	0	7	2	7	0	7	1	2	2	2	3	2	4	
2	6	13	6	0	6	1	6	2	6	1	6	0	
3	8	7	0	7	0	7	1	7	2	7	1	7	0	
3	11	9	6	6	0	6	1	6	2	6	5	6	4	
3	1	2	7	1	0	1	1	1	2	1	1	1	0	
3	7	2	4	7	0	7	1	7	2	7	3	7	4	
3	3	4	2	2	0	2	1	2	2	2	5	2	4	
5	10	12	5	1	2	5	0	5	1	5	5	5	3	5	4	
3	3	4	1	1	0	1	1	1	5	1	3	1	4	
4	10	12	5	12	5	0	5	1	5	5	5	3	5	4	
3	13	6	9	6	0	6	1	6	5	6	3	6	4	
4	7	0	6	13	0	0	0	1	0	2	0	5	0	4	
5	11	9	6	0	5	6	0	5	1	5	2	5	3	5	4	
2	1	2	1	0	1	1	1	2	1	1	1	0	
4	4	1	5	12	5	0	5	1	5	2	5	3	5	4	
4	12	5	1	2	5	0	5	1	5	2	5	1	5	0	
3	2	1	5	5	0	5	1	5	2	5	3	5	4	
3	5	12	13	5	0	5	1	5	2	5	1	5	0	
4	5	0	7	14	7	0	7	1	7	5	7	3	7	4	
5	11	9	6	13	10	6	0	6	1	6	2	6	5	6	4	
3	13	6	9	6	0	6	1	6	2	6	5	6	4	
5	1	2	7	8	11	7	0	7	1	7	2	7	1	7	0	
4	8	7	8	11	7	0	7	1	7	2	7	3	7	4	
2	4	1	1	0	1	1	1	2	1	5	1	4	
4	14	7	8	9	7	0	7	1	7	2	7	5	7	4	
4	12	5	0	7	5	0	5	1	5	2	5	1	5	0	
2	5	0	5	0	5	1	5	2	5	1	5	0	
5	13	6	0	7	2	0	0	0	1	0	2	0	3	0	4	
4	0	5	1	4	5	0	5	1	5	2	5	1	5	0	
3	7	8	11	7	0	7	1	7	5	7	3	7	4	
4	6	0	5	3	0	0	0	1	0	2	0	3	5	4	
4	11	9	6	9	6	0	6	1	6	2	6	3	6	4	
3	10	12	5	5	0	5	1	5	2	5	5	5	4	
3	7	0	6	0	0	0	1	0	5	0	3	0	4	
5	12	5	0	7	14	5	0	5	1	5	2	5	1	5	0	
2	14	7	7	0	7	1	7	5	7	3	7	4	
4	13	6	9	11	6	0	6	1	6	2	6	5	6	4	
3	6	13	10	6	0	6	1	6	2	6	5	6	4	
3	13	12	5	5	0	5	1	5	2	5	5	5	4	
3	0	5	1	5	0	5	1	5	2	5	1	5	0	
5	3	5	0	6	9	5	0	5	1	5	2	5	3	6	4	
3	11	8	7	7	0	7	1	7	2	7	1	7	0	
3	1	5	0	5	0	5	1	5	2	5	3	5	4	
4	4	2	7	14	2	0	2	1	2	2	2	1	2	0	
5	5	0	6	9	11	0	0	0	1	0	2	0	5	0	4	
5	13	6	0	7	14	7	0	7	1	7	2	7	3	7	4	
3	0	7	8	7	0	7	1	7	2	7	1	7	0	
4	3	4	1	4	1	0	1	1	1	2	1	5	1	4	
4	11	8	7	2	7	0	7	1	7	2	7	1	7	0	
3	14	7	8	7	0	7	1	7	2	7	3	7	4	
5	2	1	5	12	10	5	0	5	1	5	5	5	3	5	4	
4	4	1	4	3	1	0	1	1	1	2	1	1	1	0	
3	12	5	1	5	0	5	1	5	2	5	3	5	4	
2	2	4	2	0	2	1	2	5	2	3	2	4	
4	5	0	7	14	7	0	7	1	7	2	7	3	7	4	
3	10	13	6	6	0	6	1	6	2	6	3	6	4	
3	13	6	0	0	0	0	1	0	5	0	3	0	4	
4	6	0	5	1	1	0	1	1	1	5	1	3	1	4	
4	8	7	2	4	7	0	7	1	7	5	7	3	7	4	
4	14	7	0	5	7	0	7	1	7	2	7	5	0	4	
5	8	9	6	13	10	6	0	6	1	6	5	6	3	6	4	
5	12	13	6	9	8	6	0	6	1	6	2	6	5	6	4	
3	5	0	7	7	0	7	1	7	2	7	5	7	4	
3	12	13	6	6	0	6	1	6	2	6	5	6	4	
2	5	1	5	0	5	1	5	2	5	5	5	4	
5	10	13	6	9	8	6	0	6	1	6	2	6	1	6	0	
3	0	5	3	0	0	0	1	0	2	0	3	0	4	
6	3	5	0	6	9	11	5	0	5	1	5	2	5	1	6	0	
4	4	2	7	8	2	0	2	1	2	2	2	5	2	4	
4	12	13	6	13	6	0	6	1	6	2	6	3	6	4	
2	7	8	7	0	7	1	7	5	7	3	7	4	
2	2	1	2	0	2	1	2	2	2	5	1	4	
4	9	6	13	10	6	0	6	1	6	2	6	5	6	4	
4	13	6	13	12	6	0	6	1	6	5	6	3	6	4	
4	10	13	6	13	6	0	6	1	6	2	6	1	6	0	
4	3	5	0	6	5	0	5	1	5	2	5	1	6	0	
4	9	6	13	12	6	0	6	1	6	2	6	5	6	4	
5	11	8	7	2	4	7	0	7	1	7	2	7	3	7	4	
4	8	7	8	11	7	0	7	1	7	5	7	3	7	4	
5	4	1	5	12	13	5	0	5	1	5	2	5	3	5	4	
5	9	6	0	5	3	6	0	6	1	5	2	5	3	5	4	
3	12	5	3	5	0	5	1	5	5	5	3	5	4	
2	5	12	5	0	5	1	5	5	5	3	5	4	
5	10	12	5	1	4	5	0	5	1	5	2	5	1	5	0	
4	1	5	12	13	5	0	5	1	5	2	5	5	5	4	
4	11	9	6	13	6	0	6	1	6	2	6	5	6	4	
5	8	9	6	13	12	6	0	6	1	6	2	6	3	6	4	
4	14	7	8	11	7	0	7	1	7	2	7	1	7	0	
5	2	7	0	6	13	7	0	7	1	0	2	6	5	6	4	
2	4	2	2	0	2	1	2	2	2	5	2	4	
3	9	6	13	6	0	6	1	6	2	6	1	6	0	
2	2	7	2	0	2	1	2	2	2	5	2	4	
4	13	12	5	1	5	0	5	1	5	2	5	3	5	4	
2	6	0	0	0	0	1	0	2	0	3	0	4	
4	11	8	7	8	7	0	7	1	7	2	7	3	7	4	
3	14	7	2	7	0	7	1	7	2	7	1	7	0	
4	6	0	7	2	0	0	0	1	0	5	0	3	0	4	
2	1	4	1	0	1	1	1	2	1	5	1	4	
3	7	2	1	7	0	7	1	7	2	7	1	7	0	
3	2	7	14	7	0	7	1	7	2	7	3	7	4	
4	9	8	7	8	7	0	7	1	7	2	7	1	7	0	
3	0	5	12	5	0	5	1	5	5	5	3	5	4	
3	5	1	2	5	0	5	1	5	5	5	3	5	4	
5	10	13	6	9	11	6	0	6	1	6	2	6	3	6	4	
3	0	7	2	0	0	0	1	0	5	0	3	0	4	
5	3	5	0	7	8	5	0	5	1	5	2	5	3	5	4	
3	8	7	0	7	0	7	1	7	2	7	3	7	4	
3	11	9	6	6	0	6	1	6	5	6	3	6	4	
3	3	5	12	5	0	5	1	5	5	5	3	5	4	
3	1	2	7	7	0	7	1	7	2	7	3	7	4	
3	7	2	4	7	0	7	1	7	2	7	1	7	0	
5	9	8	7	2	1	7	0	7	1	7	2	7	1	7	0	
3	2	7	0	0	0	0	1	0	2	0	1	0	0	
2	12	5	5	0	5	1	5	5	5	3	5	4	
5	10	12	5	1	2	5	0	5	1	5	2	5	5	5	4	
4	9	8	7	8	7	0	7	1	7	2	7	5	7	4	
4	10	12	5	12	5	0	5	1	5	2	5	5	5	4	
4	1	2	7	8	2	0	2	1	2	2	2	5	2	4	
4	3	5	0	7	0	0	0	1	0	2	0	5	0	4	
4	7	0	6	13	0	0	0	1	0	2	0	1	0	0	
3	8	7	14	7	0	7	1	7	2	7	1	7	0	
4	14	7	8	9	7	0	7	1	7	2	7	3	7	4	
5	1	2	7	8	9	1	0	1	1	1	2	2	5	7	4	
4	12	5	1	2	5	0	5	1	5	2	5	3	5	4	
3	2	1	5	5	0	5	1	5	2	5	1	5	0	
3	5	12	13	5	0	5	1	5	2	5	3	5	4	
5	10	13	6	0	7	0	0	0	1	0	2	0	3	0	4	
2	0	7	0	0	0	1	0	2	0	5	0	4	
5	11	9	6	13	10	6	0	6	1	6	5	6	3	6	4	
5	1	2	7	8	11	1	0	1	1	1	2	1	3	1	4	
4	8	7	8	11	7	0	7	1	7	2	7	1	7	0	
4	2	1	5	12	5	0	5	1	5	2	5	1	5	0	
2	4	1	1	0	1	1	1	5	1	3	1	4	
4	9	8	7	14	7	0	7	1	7	2	7	3	7	4	
5	9	8	7	2	4	2	0	2	1	2	5	2	3	2	4	
5	13	6	0	7	2	2	0	2	1	2	2	2	1	2	0	
4	0	5	1	4	5	0	5	1	5	2	5	3	5	4	
4	6	0	5	3	5	0	5	1	5	2	5	1	5	0	
3	8	7	2	2	0	2	1	2	2	2	1	2	0	
2	1	5	5	0	5	1	5	2	5	1	5	0	
3	7	0	6	0	0	0	1	0	2	0	3	0	4	
5	12	5	0	7	14	5	0	5	1	5	2	5	3	5	4	
4	13	6	9	11	6	0	6	1	6	2	6	1	6	0	
4	0	6	9	11	0	0	0	1	0	2	0	5	6	4	
3	6	13	10	6	0	6	1	6	2	6	1	6	0	
3	0	5	1	1	0	1	1	1	2	1	5	1	4	
2	7	0	7	0	7	1	7	2	7	5	7	4	
3	11	8	7	7	0	7	1	7	2	7	3	7	4	
3	1	5	0	5	0	5	1	5	2	5	1	5	0	
4	4	2	7	14	2	0	2	1	2	2	2	3	2	4	
4	9	8	7	2	2	0	2	1	2	2	2	3	2	4	
5	9	8	7	2	4	2	0	2	1	2	2	2	5	2	4	
3	2	4	3	2	0	2	1	2	2	2	3	2	4	
5	8	7	0	5	3	7	0	7	1	7	5	7	3	5	4	
5	5	0	6	9	11	5	0	5	1	5	2	5	1	5	0	
5	13	6	0	7	14	0	0	0	1	0	2	0	1	0	0	
3	0	7	8	7	0	7	1	7	2	7	3	7	4	
4	2	1	5	12	5	0	5	1	5	5	5	3	5	4	
5	1	2	7	8	9	1	0	1	1	1	2	2	1	7	0	
3	6	0	7	6	0	6	1	6	5	6	3	6	4	
4	8	9	6	13	6	0	6	1	6	2	6	3	6	4	
3	14	7	8	7	0	7	1	7	5	7	3	7	4	
5	2	1	5	12	10	2	0	2	1	2	2	1	5	1	4	
3	12	5	1	5	0	5	1	5	2	5	1	5	0	
2	2	4	2	0	2	1	2	2	2	5	2	4	
4	5	0	7	14	5	0	5	1	5	2	5	1	5	0	
3	13	6	0	6	0	6	1	6	2	6	3	6	4	
2	0	6	6	0	6	1	6	2	6	1	6	0	
6	11	9	6	0	5	3	0	0	0	1	0	2	0	5	0	4	
4	6	0	5	1	6	0	6	1	6	2	6	3	5	4	
4	8	7	2	4	2	0	2	1	2	2	2	5	2	4	
4	8	7	8	9	7	0	7	1	7	5	7	3	7	4	
5	8	9	6	13	10	6	0	6	1	6	2	6	5	6	4	
5	12	5	0	7	8	5	0	5	1	5	2	5	1	5	0	
3	5	0	7	5	0	5	1	5	2	5	1	5	0	
5	10	13	6	9	8	6	0	6	1	6	2	6	3	6	4	
3	0	5	3	5	0	5	1	5	2	5	1	5	0	
6	3	5	0	6	9	11	5	0	5	1	5	2	5	3	5	4	
4	8	7	2	1	1	0	1	1	1	2	1	3	1	4	
4	12	5	12	10	5	0	5	1	5	2	5	5	5	4	
4	1	5	0	6	5	0	6	1	6	2	6	3	6	4	
2	6	9	6	0	6	1	6	5	6	3	6	4	
4	4	2	7	8	2	0	2	1	2	2	2	1	2	0	
4	12	13	6	13	6	0	6	1	6	2	6	1	6	0	
2	2	1	1	0	1	1	1	5	1	3	1	4	
4	9	6	13	10	6	0	6	1	6	5	6	3	6	4	
4	13	6	13	12	6	0	6	1	6	2	6	3	6	4	
4	0	6	13	10	0	0	0	1	0	2	0	1	0	0	
5	13	6	0	7	2	0	0	0	1	0	5	0	3	0	4	
3	6	13	12	6	0	6	1	6	5	6	3	6	4	
5	11	8	7	2	4	2	0	2	1	2	2	2	1	2	0	
5	4	1	5	12	13	5	0	5	1	5	2	5	1	5	0	
3	12	5	3	5	0	5	1	5	2	5	3	5	4	
2	5	12	5	0	5	1	5	2	5	3	5	4	
5	10	12	5	1	4	5	0	5	1	5	2	5	3	5	4	
4	6	0	5	3	6	0	6	1	6	5	6	3	5	4	
4	11	9	6	13	6	0	6	1	6	2	6	1	6	0	
4	1	5	12	10	5	0	5	1	5	2	5	3	5	4	
2	7	2	2	0	2	1	2	2	2	5	2	4	
4	14	7	8	11	7	0	7	1	7	2	7	5	7	4	
5	2	7	0	6	13	7	0	7	1	0	5	6	3	6	4	
3	9	6	13	6	0	6	1	6	2	6	3	6	4	
4	13	6	0	7	0	0	0	1	0	5	0	3	0	4	
2	2	7	7	0	7	1	7	5	7	3	7	4	
4	7	0	5	12	5	0	5	1	5	5	5	3	5	4	
4	6	0	7	14	0	0	0	1	0	5	0	3	0	4	
4	8	7	0	5	5	0	5	1	5	5	5	3	5	4	
4	13	12	5	1	5	0	5	1	5	5	5	3	5	4	
2	0	5	0	0	0	1	0	2	0	3	0	4	
4	3	5	12	13	5	0	5	1	5	2	5	1	5	0	
4	11	8	7	8	7	0	7	1	7	2	7	1	7	0	
3	14	7	2	2	0	2	1	2	2	2	3	2	4	
2	1	4	1	0	1	1	1	5	1	3	1	4	
3	7	2	1	1	0	1	1	1	2	1	3	1	4	
2	7	0	0	0	0	1	0	5	0	3	0	4	
3	0	5	12	0	0	0	1	0	2	0	5	5	4	
3	7	8	11	7	0	7	1	7	2	7	5	7	4	
5	12	5	0	7	14	0	0	0	1	0	2	0	5	0	4	
5	10	13	6	9	11	6	0	6	1	6	2	6	1	6	0	
3	0	7	2	2	0	2	1	2	2	2	5	2	4	
5	3	5	0	7	8	5	0	5	1	5	2	5	1	5	0	
2	7	14	7	0	7	1	7	2	7	5	7	4	
3	11	9	6	6	0	6	1	6	2	6	3	6	4	
5	14	7	0	5	12	5	0	5	1	5	2	5	1	5	0	
3	7	2	4	2	0	2	1	2	2	2	5	2	4	
5	9	8	7	2	1	1	0	1	1	1	2	1	3	1	4	
2	13	6	6	0	6	1	6	5	6	3	6	4	
3	2	7	0	7	0	7	1	7	2	7	3	7	4	
4	4	1	5	12	1	0	1	1	1	2	1	5	1	4	
5	10	12	5	1	2	5	0	5	1	5	2	5	1	5	0	
3	6	9	8	6	0	6	1	6	5	6	3	6	4	
3	0	6	9	6	0	6	1	6	2	6	3	6	4	
3	3	4	1	1	0	1	1	1	2	1	1	1	0	
3	6	0	5	0	0	0	1	0	2	0	5	0	4	
3	7	0	5	5	0	5	1	5	5	5	3	5	4	
4	7	0	6	13	6	0	6	1	6	2	6	3	6	4	
3	8	7	14	7	0	7	1	7	2	7	3	7	4	
4	12	5	1	4	5	0	5	1	1	5	1	3	1	4	
4	14	7	8	9	7	0	7	1	7	2	7	1	7	0	
2	5	3	5	0	5	1	5	5	5	3	5	4	
4	12	5	1	2	5	0	5	1	5	5	5	3	5	4	
3	5	12	13	5	0	5	1	5	5	5	3	5	4	
5	10	13	6	0	7	6	0	6	1	6	2	6	1	6	0	
2	0	7	0	0	0	1	0	5	0	3	0	4	
5	11	9	6	13	10	6	0	6	1	6	2	6	3	6	4	
3	14	7	0	7	0	7	1	7	2	7	1	7	0	
4	7	0	5	3	5	0	5	1	5	2	5	1	5	0	
4	2	1	5	12	5	0	5	1	5	2	5	3	5	4	
4	8	7	2	1	1	0	1	1	1	5	1	3	1	4	
4	9	8	7	14	7	0	7	1	7	2	7	1	7	0	
4	13	6	9	8	6	0	6	1	6	2	6	5	6	4	
2	5	0	5	0	5	1	5	5	5	3	5	4	
2	6	9	6	0	6	1	6	2	6	5	6	4	
4	10	13	6	9	6	0	6	1	6	2	6	3	6	4	
4	3	5	12	10	5	0	5	1	5	2	5	3	5	4	
3	8	7	2	2	0	2	1	2	2	2	3	2	4	
2	1	5	5	0	5	1	5	2	5	3	5	4	
3	7	0	6	0	0	0	1	0	2	0	1	0	0	
3	9	8	7	7	0	7	1	7	2	7	1	7	0	
4	1	5	0	6	1	0	5	1	5	5	5	3	5	4	
4	5	0	7	8	5	0	5	1	5	2	5	5	5	4	
4	13	6	9	11	6	0	6	1	6	2	6	3	6	4	
4	0	6	9	11	0	0	0	1	0	5	0	3	0	4	
3	6	13	10	6	0	6	1	6	2	6	3	6	4	
5	11	8	7	2	1	1	0	1	1	1	5	1	3	1	4	
3	6	9	8	6	0	6	1	6	2	6	5	6	4	
4	4	1	5	0	5	0	5	1	5	5	5	3	5	4	
4	13	6	13	10	6	0	6	1	6	5	6	3	6	4	
3	11	8	7	7	0	7	1	7	5	7	3	7	4	
4	4	2	7	14	2	0	2	1	2	5	2	3	2	4	
4	9	8	7	2	2	0	2	1	2	2	2	1	2	0	
3	2	4	3	2	0	2	1	2	2	2	1	2	0	
5	5	0	6	9	11	5	0	5	1	5	2	5	3	5	4	
3	10	12	5	5	0	5	1	5	2	5	3	5	4	
5	6	0	5	1	4	1	0	1	1	1	2	1	1	1	0	
5	1	2	7	8	9	1	0	1	1	1	2	1	3	1	4	
3	6	9	11	6	0	6	1	6	5	6	3	6	4	
4	8	9	6	13	6	0	6	1	6	2	6	1	6	0	
5	12	13	6	9	11	6	0	6	1	6	2	6	5	6	4	
3	14	7	8	7	0	7	1	7	2	7	5	7	4	
5	2	1	5	12	10	5	0	5	1	5	2	5	1	5	0	
3	5	1	4	5	0	1	1	1	2	1	5	1	4	
4	9	6	13	12	6	0	6	1	6	2	6	3	6	4	
4	1	2	7	8	1	0	1	1	1	5	1	3	1	4	
4	5	0	7	14	0	0	0	1	0	2	0	5	0	4	
3	13	6	0	0	0	0	1	0	2	0	1	0	0	
2	0	6	0	0	0	1	0	2	0	3	0	4	
4	6	0	5	1	1	0	1	1	1	2	1	1	1	0	
4	8	7	2	4	2	0	2	1	2	2	2	1	2	0	
5	14	7	0	5	3	7	0	7	1	7	2	7	3	5	4	
2	7	0	7	0	7	1	7	2	7	3	7	4	
5	12	5	0	7	8	5	0	5	1	5	2	5	3	5	4	
4	1	5	12	13	5	0	5	1	5	5	5	3	5	4	
3	5	0	7	5	0	5	1	5	2	5	3	5	4	
3	13	6	9	6	0	6	1	6	2	6	1	6	0	
3	6	9	8	6	0	6	1	6	2	6	1	6	0	
4	3	5	12	13	5	0	5	1	5	2	5	5	5	4	
6	3	5	0	6	9	11	0	0	0	1	0	5	0	3	0	4	
4	8	7	2	1	1	0	1	1	1	2	1	1	1	0	
2	1	2	1	0	1	1	1	5	1	3	1	4	
4	1	5	0	6	1	0	1	1	1	2	1	1	1	0	
4	4	2	7	8	2	0	2	1	2	2	2	3	2	4	
3	9	6	0	0	0	0	1	0	2	0	3	0	4	
2	2	1	1	0	1	1	1	2	1	3	1	4	
4	5	0	6	9	5	0	5	1	5	2	5	1	6	0	
4	13	6	13	12	6	0	6	1	6	2	6	1	6	0	
4	0	6	13	10	0	0	0	1	0	2	0	3	0	4	
5	13	6	0	7	14	6	0	6	1	6	5	6	3	6	4	
4	11	8	7	14	7	0	7	1	7	2	7	5	7	4	
4	7	0	5	12	5	0	5	1	5	2	5	3	5	4	
5	11	8	7	2	4	2	0	2	1	2	2	2	5	2	4	
5	4	1	5	12	13	5	0	5	1	5	2	5	5	5	4	
3	12	5	3	5	0	5	1	5	2	5	1	5	0	
2	5	12	5	0	5	1	5	2	5	1	5	0	
5	10	12	5	1	4	5	0	5	1	5	5	5	3	5	4	
4	7	0	5	12	0	0	0	1	0	2	0	5	5	4	
3	6	0	7	0	0	0	1	0	2	0	3	0	4	
4	11	9	6	13	6	0	6	1	6	2	6	3	6	4	
4	1	5	12	10	5	0	5	1	5	2	5	1	5	0	
2	7	2	2	0	2	1	2	5	2	3	2	4	
4	12	5	12	10	5	0	5	1	5	2	5	1	5	0	
4	14	7	8	11	7	0	7	1	7	5	7	3	7	4	
5	2	7	0	6	13	7	0	7	1	0	2	6	3	6	4	
3	9	6	13	6	0	6	1	6	5	6	3	6	4	
4	13	6	0	7	6	0	6	1	6	2	6	5	6	4	
4	6	0	7	14	0	0	0	1	0	2	0	5	0	4	
4	13	12	5	1	1	0	1	1	1	2	1	5	1	4	
2	0	5	5	0	5	1	5	2	5	1	5	0	
4	3	5	12	13	5	0	5	1	5	2	5	3	5	4	
5	8	7	0	5	3	7	0	7	1	7	2	7	3	5	4	
5	1	2	7	8	9	2	0	2	1	2	5	2	3	2	4	
2	1	4	1	0	1	1	1	2	1	3	1	4	
5	4	1	5	12	10	5	0	5	1	5	2	5	1	5	0	
4	13	6	13	10	6	0	6	1	6	2	6	3	6	4	
3	0	5	12	5	0	5	1	5	2	5	1	5	0	
3	6	9	11	6	0	6	1	6	2	6	3	6	4	
4	1	2	7	14	2	0	2	1	2	5	2	3	2	4	
5	10	13	6	9	11	6	0	6	1	6	2	6	5	6	4	
5	3	5	0	7	8	0	0	0	1	0	2	0	5	0	4	
2	7	14	7	0	7	1	7	5	7	3	7	4	
3	11	9	6	6	0	6	1	6	2	6	1	6	0	
5	14	7	0	5	12	5	0	5	1	5	2	5	3	5	4	
4	2	7	0	6	0	0	0	1	0	5	0	3	0	4	
3	7	2	4	2	0	2	1	2	5	2	3	2	4	
5	9	8	7	2	1	1	0	1	1	1	5	1	3	1	4	
3	2	7	0	0	0	0	1	0	5	0	3	0	4	
3	5	12	10	5	0	5	1	5	2	5	3	5	4	
5	10	12	5	1	2	5	0	5	1	5	2	5	3	5	4	
3	0	6	9	0	0	0	1	0	2	0	1	0	0	
3	3	4	1	1	0	1	1	1	2	1	3	1	4	
3	6	0	5	0	0	0	1	0	5	0	3	5	4	
4	1	2	7	8	1	0	1	1	1	2	1	3	1	4	
5	4	1	5	0	6	5	0	5	1	5	2	5	1	6	0	
3	8	7	14	7	0	7	1	7	5	7	3	7	4	
4	12	5	1	4	1	0	1	1	1	2	1	5	1	4	
3	5	1	4	5	0	1	1	1	5	1	3	1	4	
2	5	3	5	0	5	1	5	2	5	5	5	4	
4	12	5	1	2	1	0	1	1	2	2	2	5	2	4	
3	5	12	13	5	0	5	1	5	2	5	5	5	4	
5	10	13	6	0	7	0	0	0	1	0	2	0	5	0	4	
3	12	5	1	5	0	5	1	5	5	5	3	5	4	
2	0	7	7	0	7	1	7	2	7	3	7	4	
5	11	9	6	13	10	6	0	6	1	6	2	6	1	6	0	
3	14	7	0	7	0	7	1	7	2	7	3	7	4	
4	7	0	5	3	7	0	7	1	7	2	7	3	5	4	
4	12	13	6	9	6	0	6	1	6	2	6	3	6	4	
3	9	6	0	0	0	0	1	0	2	0	5	0	4	
3	5	0	6	6	0	6	1	6	2	6	3	6	4	
4	9	8	7	14	7	0	7	1	7	2	7	5	7	4	
4	13	6	9	8	6	0	6	1	6	5	6	3	6	4	
3	6	0	7	6	0	6	1	6	2	6	5	6	4	
4	10	13	6	9	6	0	6	1	6	2	6	1	6	0	
3	1	4	3	1	0	1	1	1	5	1	3	1	4	
4	3	5	12	10	5	0	5	1	5	2	5	1	5	0	
3	8	7	2	2	0	2	1	2	5	2	3	2	4	
2	1	5	5	0	5	1	5	5	5	3	5	4	
5	4	2	7	8	9	2	0	2	1	2	2	2	3	2	4	
3	9	8	7	7	0	7	1	7	2	7	3	7	4	
4	9	6	9	11	6	0	6	1	6	5	6	3	6	4	
4	1	5	12	10	5	0	5	1	5	5	5	3	5	4	
4	5	0	7	8	5	0	5	1	5	5	5	3	5	4	
4	10	13	6	0	0	0	0	1	0	2	0	1	0	0	
4	0	6	9	11	6	0	6	1	6	2	6	3	6	4	
4	8	7	8	9	7	0	7	1	7	2	7	5	7	4	
5	11	8	7	2	1	1	0	1	1	1	2	1	5	1	4	
4	4	1	5	0	5	0	5	1	5	2	5	5	5	4	
4	10	13	6	13	6	0	6	1	6	5	6	3	6	4	
3	11	8	7	7	0	7	1	7	2	7	5	7	4	
4	2	7	8	9	2	0	2	1	2	2	2	5	2	4	
4	4	2	7	14	2	0	2	1	2	2	2	5	2	4	
4	9	8	7	2	7	0	7	1	7	2	7	5	2	4	
3	2	4	3	2	0	2	1	2	2	2	5	2	4	
3	10	12	5	5	0	5	1	5	2	5	1	5	0	
4	12	5	12	10	5	0	5	1	5	5	5	3	5	4	
5	6	0	5	1	4	6	0	6	1	6	2	0	3	1	4	
5	11	9	6	13	12	6	0	6	1	6	2	6	3	6	4	
5	4	2	7	8	11	7	0	7	1	7	2	7	5	7	4	
4	14	7	0	6	7	0	7	1	7	2	7	1	6	0	
3	4	1	5	5	0	5	1	5	2	5	3	5	4	
4	8	9	6	13	6	0	6	1	6	2	6	5	6	4	
5	12	13	6	9	11	6	0	6	1	6	5	6	3	6	4	
5	2	1	5	12	10	5	0	5	1	5	2	5	3	5	4	
5	13	6	0	7	2	6	0	6	1	6	2	6	5	6	4	
4	9	6	13	12	6	0	6	1	6	2	6	1	6	0	
5	3	5	0	6	9	5	0	5	1	5	2	5	5	6	4	
2	0	6	0	0	0	1	0	5	0	3	0	4	
3	3	5	12	5	0	5	1	5	2	5	3	5	4	
4	8	7	2	4	7	0	7	1	7	2	7	3	7	4	
5	14	7	0	5	3	0	0	0	1	0	2	0	1	0	0	
3	7	2	1	1	0	1	1	1	2	1	5	1	4	
2	7	0	7	0	7	1	7	2	7	1	7	0	
4	9	6	0	5	6	0	5	1	5	2	5	1	5	0	
5	4	2	7	8	11	7	0	7	1	7	5	7	3	7	4	
4	6	0	5	3	0	0	0	1	0	2	0	5	0	4	
3	13	6	9	6	0	6	1	6	2	6	3	6	4	
3	6	9	8	6	0	6	1	6	2	6	3	6	4	
5	10	13	6	9	8	6	0	6	1	6	2	6	5	6	4	
3	1	5	12	1	0	1	1	1	2	1	5	1	4	
6	3	5	0	6	9	11	5	0	5	1	0	2	0	5	6	4	
3	7	8	9	7	0	7	1	7	2	7	1	7	0	
5	14	7	0	6	13	7	0	6	1	6	2	6	3	6	4	
3	9	6	0	0	0	0	1	0	2	0	1	0	0	
4	8	7	0	5	0	0	0	1	0	2	0	5	0	4	
3	0	5	3	5	0	5	1	5	5	5	3	5	4	
2	2	1	1	0	1	1	1	2	1	1	1	0	
4	8	7	8	11	7	0	7	1	7	2	7	5	7	4	
4	5	0	6	9	6	0	6	1	6	2	6	3	6	4	
4	10	12	5	3	5	0	5	1	5	2	5	3	5	4	
4	0	6	13	10	6	0	6	1	6	5	6	3	6	4	
3	3	5	0	5	0	5	1	5	2	5	3	5	4	
4	11	8	7	14	7	0	7	1	7	5	7	3	7	4	
4	7	0	5	12	5	0	5	1	5	2	5	1	5	0	
5	11	8	7	2	4	2	0	2	1	2	5	2	3	2	4	
3	2	7	8	2	0	2	1	2	2	2	1	2	0	
6	10	13	6	0	7	14	6	0	6	1	6	2	6	5	6	4	
5	12	5	0	7	14	5	0	5	1	5	5	5	3	5	4	
5	10	12	5	1	4	1	0	1	1	1	2	1	5	1	4	
3	5	0	6	5	0	5	1	5	5	5	3	6	4	
3	6	0	7	0	0	0	1	0	2	0	1	0	0	
3	8	9	6	6	0	6	1	6	2	6	1	6	0	
4	14	7	2	1	1	0	1	1	1	2	1	3	1	4	
2	13	6	6	0	6	1	6	2	6	5	6	4	
4	12	13	6	9	6	0	6	1	6	5	6	3	6	4	
2	7	2	2	0	2	1	2	2	2	3	2	4	
4	12	5	12	10	5	0	5	1	5	2	5	3	5	4	
5	2	7	0	6	13	7	0	7	1	0	2	6	1	6	0	
4	14	7	2	1	1	0	1	1	1	2	1	5	1	4	
3	9	6	13	6	0	6	1	6	2	6	5	6	4	
4	13	6	0	7	0	0	0	1	0	2	0	1	0	0	
4	6	0	7	14	0	0	0	1	0	2	0	1	0	0	
2	0	5	0	0	0	1	0	2	0	5	0	4	
5	8	7	0	5	3	0	0	0	1	0	2	0	1	0	0	
2	1	4	1	0	1	1	1	2	1	1	1	0	
5	4	1	5	12	10	5	0	5	1	5	2	5	3	5	4	
2	9	6	6	0	6	1	6	2	6	3	6	4	
6	14	7	0	6	13	10	0	0	0	1	0	5	0	3	0	4	
4	13	6	13	10	6	0	6	1	6	2	6	1	6	0	
3	0	5	12	5	0	5	1	5	2	5	3	5	4	
3	6	9	11	6	0	6	1	6	2	6	1	6	0	
5	10	13	6	9	11	6	0	6	1	6	5	6	3	6	4	
4	1	5	12	13	5	0	5	1	5	2	5	1	5	0	
5	3	5	0	7	8	5	0	5	1	5	5	5	3	5	4	
2	7	14	7	0	7	1	7	2	7	3	7	4	
4	8	7	2	1	2	0	2	1	2	2	2	5	2	4	
5	14	7	0	5	12	5	0	5	1	5	5	5	3	5	4	
4	2	7	0	6	0	0	0	1	0	2	0	5	0	4	
5	9	8	7	2	1	1	0	1	1	1	2	1	5	1	4	
3	2	7	0	7	0	7	1	7	2	7	5	7	4	
3	5	12	10	5	0	5	1	5	2	5	1	5	0	
3	0	6	9	6	0	6	1	6	2	6	5	6	4	
3	6	0	5	5	0	5	1	5	2	5	3	5	4	
4	1	2	7	8	1	0	1	1	1	2	1	1	1	0	
5	4	1	5	0	6	5	0	5	1	5	2	5	3	5	4	
3	8	7	14	7	0	7	1	7	2	7	5	7	4	
4	12	5	1	4	5	0	5	1	5	2	5	1	5	0	
4	2	7	8	11	2	0	2	1	2	2	2	3	2	4	
2	5	3	5	0	5	1	5	2	5	1	5	0	
5	10	13	6	0	7	6	0	6	1	6	5	6	3	6	4	
4	13	6	13	10	6	0	6	1	6	2	6	5	6	4	
2	0	7	7	0	7	1	7	2	7	1	7	0	
4	8	7	0	5	5	0	5	1	5	2	5	3	5	4	
3	3	4	1	1	0	1	1	1	2	1	5	1	4	
3	14	7	0	0	0	0	1	0	5	0	3	0	4	
4	7	0	5	3	7	0	7	1	7	5	7	3	5	4	
4	12	13	6	9	6	0	6	1	6	2	6	1	6	0	
4	2	1	5	12	2	0	2	1	2	2	1	5	1	4	
3	5	0	6	5	0	5	1	5	2	5	1	6	0	
4	9	8	7	14	7	0	7	1	7	5	7	3	7	4	
4	13	6	9	8	6	0	6	1	6	2	6	3	6	4	
3	0	7	14	7	0	7	1	7	2	7	1	7	0	
4	4	1	4	3	1	0	1	1	1	5	1	3	1	4	
2	6	9	6	0	6	1	6	2	6	3	6	4	
3	6	9	11	6	0	6	1	6	2	6	5	6	4	
3	1	4	3	1	0	1	1	1	2	1	5	1	4	
3	8	7	2	2	0	2	1	2	2	2	5	2	4	
2	1	5	5	0	5	1	5	2	5	5	5	4	
5	4	2	7	8	9	7	0	7	1	7	2	7	1	7	0	
4	5	0	7	8	5	0	5	1	5	2	5	3	5	4	
4	10	13	6	0	6	0	6	1	6	2	6	3	0	4	
4	0	6	9	11	0	0	0	1	0	2	0	1	6	0	
5	11	8	7	2	1	7	0	7	1	7	2	7	1	7	0	
4	1	2	7	14	7	0	7	1	7	2	7	3	7	4	
6	14	7	0	6	13	10	6	0	6	1	6	2	6	5	6	4	
4	4	1	5	0	5	0	5	1	5	2	5	1	5	0	
4	2	7	8	9	2	0	7	1	7	5	7	3	7	4	
4	9	8	7	2	2	0	2	1	2	5	2	3	2	4	
4	13	12	5	3	5	0	5	1	5	5	5	3	5	4	
3	2	4	3	2	0	2	1	2	5	2	3	2	4	
2	6	0	0	0	0	1	0	5	0	3	0	4	
2	1	2	2	0	2	1	2	2	2	5	2	4	
5	6	0	5	1	4	6	0	6	1	6	5	0	3	1	4	
5	11	9	6	13	12	6	0	6	1	6	2	6	1	6	0	
4	14	7	0	6	0	0	0	1	0	2	0	3	0	4	
3	4	1	5	5	0	5	1	5	2	5	1	5	0	
4	8	9	6	13	6	0	6	1	6	5	6	3	6	4	
5	12	13	6	9	11	6	0	6	1	6	2	6	3	6	4	
3	5	1	4	5	0	5	1	5	2	5	3	5	4	
5	13	6	0	7	14	0	0	0	1	0	2	0	5	7	4	
2	0	6	0	0	0	1	0	2	0	5	6	4	
3	3	5	12	5	0	5	1	5	2	5	1	5	0	
5	7	0	6	13	10	7	0	7	1	7	2	7	5	0	4	
5	14	7	0	5	3	7	0	7	1	7	2	7	5	5	4	
6	11	9	6	0	5	3	5	0	5	1	5	5	5	3	5	4	
5	4	2	7	8	11	2	0	2	1	2	2	2	3	2	4	
4	9	6	0	5	5	0	5	1	5	2	5	3	5	4	
3	4	2	7	2	0	2	1	2	5	2	3	2	4	
6	10	13	6	0	7	14	6	0	6	1	6	2	6	1	6	0	
3	0	6	13	6	0	6	1	6	2	6	3	6	4	
2	3	5	5	0	5	1	5	2	5	1	5	0	
3	1	5	12	5	0	5	1	5	5	5	3	5	4	
3	7	8	9	7	0	7	1	7	2	7	3	7	4	
3	12	5	0	5	0	5	1	5	5	5	3	5	4	
5	14	7	0	6	13	7	0	6	1	6	2	6	1	6	0	
4	5	0	6	9	5	0	5	1	5	5	5	3	5	4	
4	10	12	5	3	5	0	5	1	5	2	5	1	5	0	
4	14	7	0	6	7	0	7	1	7	2	7	5	6	4	
3	3	5	0	5	0	5	1	5	2	5	1	5	0	
5	4	1	5	12	13	5	0	5	1	5	5	5	3	5	4	
4	11	8	7	14	7	0	7	1	7	2	7	3	7	4	
4	14	7	2	4	2	0	2	1	2	2	2	1	2	0	
3	4	2	7	2	0	2	1	2	2	2	3	2	4	
3	2	7	8	2	0	2	1	2	2	2	3	2	4	
4	1	2	7	14	1	0	1	1	1	2	1	5	1	4	
5	13	12	5	1	4	1	0	1	1	1	2	1	5	1	4	
2	6	13	6	0	6	1	6	2	6	5	6	4	
5	3	5	0	7	14	5	0	5	1	5	2	5	3	5	4	
3	8	9	6	6	0	6	1	6	2	6	3	6	4	
4	14	7	2	1	1	0	1	1	1	2	1	1	1	0	
2	7	2	2	0	2	1	2	2	2	1	2	0	
4	9	6	9	11	6	0	6	1	6	2	6	1	6	0	
4	13	6	0	7	0	0	0	1	0	2	0	3	0	4	
4	6	0	7	14	0	0	0	1	0	2	0	3	0	4	
5	11	9	6	0	5	6	0	6	1	6	5	6	3	5	4	
2	0	5	5	0	5	1	5	5	5	3	5	4	
3	7	8	11	7	0	7	1	7	2	7	1	7	0	
5	4	1	5	12	10	5	0	5	1	5	5	5	3	5	4	
2	9	6	6	0	6	1	6	2	6	1	6	0	
3	12	5	1	1	0	1	1	1	2	1	5	1	4	
4	11	9	6	0	6	0	6	1	6	5	6	3	6	4	
4	10	12	5	1	5	0	5	1	5	2	5	3	5	4	
4	3	5	12	13	5	0	5	1	5	5	5	3	5	4	
3	3	4	2	2	0	2	1	2	2	2	3	2	4	
4	1	5	12	13	5	0	5	1	5	2	5	3	5	4	
2	7	14	7	0	7	1	7	2	7	1	7	0	
4	12	5	0	7	0	0	0	1	0	2	0	5	0	4	
5	14	7	0	5	12	7	0	7	1	7	2	7	5	0	4	
4	2	7	0	6	2	0	2	1	2	2	2	1	2	0	
2	5	0	0	0	0	1	0	2	0	5	0	4	
5	3	5	0	7	14	5	0	5	1	5	5	5	3	5	4	
3	5	12	10	5	0	5	1	5	2	5	5	5	4	
4	11	9	6	9	6	0	6	1	6	5	6	3	6	4	
3	0	6	9	6	0	6	1	6	5	6	3	6	4	
3	6	0	5	6	0	6	1	6	2	6	1	6	0	
2	14	7	7	0	7	1	7	2	7	3	7	4	
5	4	1	5	0	6	5	0	5	1	5	5	5	3	6	4	
4	1	5	12	10	1	0	1	1	1	2	1	5	1	4	
4	12	5	1	4	5	0	5	1	5	2	5	3	5	4	
4	2	7	8	11	2	0	2	1	2	2	2	1	2	0	
2	5	3	5	0	5	1	5	2	5	3	5	4	
3	13	12	5	5	0	5	1	5	2	5	1	5	0	
3	6	13	12	6	0	6	1	6	2	6	1	6	0	
4	14	7	2	4	2	0	2	1	2	2	2	5	2	4	
4	8	7	0	5	7	0	7	1	7	2	7	1	7	0	
3	14	7	0	7	0	7	1	7	2	7	5	7	4	
4	7	0	5	3	7	0	7	1	7	2	7	5	5	4	
5	9	8	7	2	4	7	0	7	1	7	2	7	3	7	4	
4	9	6	9	11	6	0	6	1	6	2	6	5	6	4	
3	5	0	6	0	0	0	1	0	2	0	5	6	4	
4	13	6	9	8	6	0	6	1	6	2	6	1	6	0	
3	0	7	14	7	0	7	1	7	2	7	3	7	4	
2	6	9	6	0	6	1	6	2	6	1	6	0	
4	11	8	7	2	7	0	7	1	7	2	7	5	2	4	
3	1	4	3	1	0	1	1	1	2	1	1	1	0	
2	7	8	7	0	7	1	7	2	7	3	7	4	
4	10	13	6	9	6	0	6	1	6	5	6	3	6	4	
2	12	5	5	0	5	1	5	2	5	5	5	4	
5	11	9	6	13	12	6	0	6	1	6	5	6	3	6	4	
5	4	2	7	8	9	2	0	2	1	2	2	7	5	7	4	
5	3	5	0	6	9	5	0	5	1	5	5	5	3	6	4	
3	10	13	6	6	0	6	1	6	5	6	3	6	4	
4	5	0	7	8	5	0	5	1	5	2	5	1	5	0	
4	10	13	6	0	0	0	0	1	0	5	0	3	0	4	
5	11	8	7	2	1	1	0	1	1	1	2	1	3	1	4	
4	1	2	7	14	1	0	1	1	1	2	1	1	1	0	
4	4	1	5	0	5	0	5	1	5	2	5	3	5	4	
3	12	13	6	6	0	6	1	6	2	6	1	6	0	
4	2	7	8	9	2	0	2	1	2	2	2	3	2	4	
2	5	1	5	0	5	1	5	2	5	1	5	0	
4	13	12	5	3	5	0	5	1	5	2	5	5	5	4	
4	6	0	7	2	0	0	0	1	0	2	0	5	2	4	
5	6	0	5	1	4	1	0	1	1	1	2	1	5	1	4	
2	8	7	7	0	7	1	7	2	7	3	7	4	
3	7	0	5	0	0	0	1	0	2	0	5	0	4	
3	4	1	5	5	0	5	1	5	2	5	5	5	4	
5	12	13	6	9	11	6	0	6	1	6	2	6	1	6	0	
3	5	1	4	5	0	5	1	5	2	5	1	5	0	
6	10	13	6	0	7	14	6	0	6	1	6	5	6	3	6	4	
2	13	6	6	0	6	1	6	2	6	3	6	4	
3	0	5	1	5	0	5	1	5	5	5	3	5	4	
4	3	5	0	6	6	0	6	1	6	2	6	5	6	4	
3	3	5	12	5	0	5	1	5	2	5	5	5	4	
5	7	0	6	13	10	7	0	7	1	7	5	0	3	0	4	
5	9	6	0	5	3	6	0	6	1	6	5	6	3	5	4	
3	9	8	7	7	0	7	1	7	2	7	5	7	4	
5	4	2	7	8	11	2	0	2	1	2	2	2	1	2	0	
4	9	6	0	5	6	0	6	1	6	5	6	3	5	4	
6	10	13	6	0	7	14	6	0	6	1	6	2	6	3	6	4	
3	0	6	13	0	0	0	1	0	2	0	1	0	0	
2	3	5	5	0	5	1	5	2	5	3	5	4	
4	12	13	6	9	6	0	6	1	6	2	6	5	6	4	
6	11	9	6	0	5	3	6	0	6	1	6	2	6	1	5	0	
4	11	8	7	8	7	0	7	1	7	5	7	3	7	4	
3	1	5	12	5	0	5	1	5	2	5	3	5	4	
2	3	5	5	0	5	1	5	5	5	3	5	4	
2	4	2	2	0	2	1	2	2	2	1	2	0	
3	12	5	0	0	0	0	1	0	2	0	5	0	4	
5	10	13	6	9	8	6	0	6	1	6	5	6	3	6	4	
4	5	0	6	9	5	0	5	1	5	2	5	5	6	4	
4	10	12	5	3	5	0	5	1	5	2	5	5	5	4	
3	3	5	0	0	0	0	1	0	2	0	5	0	4	
4	11	8	7	14	7	0	7	1	7	2	7	1	7	0	
4	14	7	2	4	2	0	2	1	2	2	2	3	2	4	
3	2	7	14	2	0	2	1	2	5	2	3	2	4	
3	4	2	7	2	0	2	1	2	2	2	1	2	0	
2	12	5	5	0	5	1	5	2	5	3	5	4	
3	2	7	8	2	0	2	1	2	5	2	3	2	4	
3	5	1	2	5	0	5	1	5	2	5	3	5	4	
5	13	12	5	1	4	5	0	5	1	5	5	5	3	5	4	
2	6	13	6	0	6	1	6	5	6	3	6	4	
3	8	7	0	7	0	7	1	7	5	7	3	7	4	
3	7	8	9	7	0	7	1	7	2	7	5	7	4	
3	1	2	7	2	0	2	1	2	5	2	3	2	4	
5	3	5	0	7	14	5	0	5	1	5	2	5	1	5	0	
3	8	9	6	6	0	6	1	6	5	6	3	6	4	
4	9	6	9	11	6	0	6	1	6	2	6	3	6	4	
4	10	12	5	12	5	0	5	1	5	2	5	1	5	0	
4	3	5	0	7	5	0	5	1	5	2	5	1	5	0	
5	14	7	0	6	13	7	0	6	1	6	5	6	3	6	4	
5	11	9	6	0	5	0	0	0	1	0	2	0	5	0	4	
3	7	8	11	7	0	7	1	7	2	7	3	7	4	
3	2	1	5	2	0	2	1	2	2	2	5	2	4	
5	4	1	5	12	10	5	0	5	1	5	2	5	5	5	4	
2	9	6	6	0	6	1	6	2	6	5	6	4	
4	10	12	5	1	5	0	5	1	5	5	5	3	5	4	
4	12	13	6	13	6	0	6	1	6	2	6	5	6	4	
4	10	12	5	1	5	0	5	1	5	2	5	1	5	0	
5	1	2	7	8	11	2	0	2	1	2	5	2	3	2	4	
3	3	4	2	2	0	2	1	2	2	2	1	2	0	
4	11	9	6	0	6	0	6	1	6	2	6	3	6	4	
6	14	7	0	6	13	10	0	0	0	1	0	2	0	1	0	0	
2	4	1	1	0	1	1	1	2	1	3	1	4	
4	12	5	0	7	7	0	7	1	7	5	7	3	7	4	
4	2	7	0	6	2	0	2	1	2	2	2	3	2	4	
4	4	1	4	3	1	0	1	1	1	2	1	5	1	4	
3	3	4	2	2	0	2	1	2	5	2	3	2	4	
4	0	5	1	4	5	0	5	1	5	5	5	3	5	4	
3	5	12	10	5	0	5	1	5	5	5	3	5	4	
4	11	9	6	9	6	0	6	1	6	2	6	5	6	4	
4	11	9	6	0	0	0	0	1	0	2	0	5	0	4	
2	14	7	7	0	7	1	7	2	7	1	7	0	
5	4	1	5	0	6	5	0	5	1	5	2	5	5	6	4	
4	3	5	0	7	5	0	5	1	5	5	5	3	5	4	
4	2	7	8	11	7	0	7	1	7	2	7	5	7	4	
3	13	12	5	5	0	5	1	5	2	5	3	5	4	
3	9	6	0	6	0	6	1	6	5	6	3	6	4	
3	6	13	12	6	0	6	1	6	2	6	3	6	4	
3	1	5	0	1	0	1	1	1	2	1	5	0	4	
3	7	0	5	5	0	5	1	5	2	5	1	5	0	
4	12	13	6	13	6	0	6	1	6	5	6	3	6	4	
5	9	8	7	2	4	2	0	2	1	2	2	2	1	2	0	
3	0	7	8	0	0	0	1	0	5	0	3	0	4	
4	14	7	8	9	7	0	7	1	7	5	7	3	7	4	
3	0	7	14	0	0	0	1	0	5	0	3	0	4	
4	3	4	1	4	1	0	1	1	1	2	1	3	1	4	
2	8	7	7	0	7	1	7	2	7	5	7	4	
4	11	8	7	2	2	0	2	1	2	5	2	3	2	4	
3	1	4	3	1	0	1	1	1	2	1	3	1	4	
2	7	8	7	0	7	1	7	2	7	1	7	0	
3	10	12	5	5	0	5	1	5	5	5	3	5	4	
2	2	4	2	0	2	1	2	2	2	1	2	0	
5	4	2	7	8	9	2	0	2	1	2	5	2	3	2	4	
3	10	13	6	6	0	6	1	6	2	6	5	6	4	
4	10	13	6	0	0	0	0	1	0	2	0	5	0	4	
4	1	5	0	6	1	0	0	1	0	2	0	5	0	4	
5	8	9	6	13	12	6	0	6	1	6	2	6	5	6	4	
5	8	9	6	13	12	6	0	6	1	6	5	6	3	6	4	
5	8	9	6	13	10	6	0	6	1	6	2	6	1	6	0	
4	14	7	0	5	5	0	5	1	5	2	5	3	5	4	
3	4	2	7	2	0	2	1	2	2	2	5	2	4	
3	12	13	6	6	0	6	1	6	2	6	3	6	4	
4	2	7	8	9	7	0	7	1	7	2	7	1	7	0	
2	5	1	5	0	5	1	5	2	5	3	5	4	
4	13	12	5	3	5	0	5	1	5	2	5	1	5	0	
3	0	5	3	0	0	0	1	0	2	0	5	0	4	
4	6	0	7	2	0	0	0	1	0	2	0	1	0	0	
2	8	7	7	0	7	1	7	2	7	1	7	0	
3	4	1	5	5	0	5	1	5	5	5	3	5	4	
4	9	6	13	10	6	0	6	1	6	2	6	3	6	4	
4	14	7	0	6	7	0	7	1	7	5	7	3	6	4	
2	13	6	6	0	6	1	6	2	6	1	6	0	
2	7	8	7	0	7	1	7	2	7	5	7	4	
4	3	4	1	4	1	0	1	1	1	5	1	3	1	4	
4	3	5	0	6	5	0	5	1	5	5	5	3	6	4	
5	8	7	0	5	3	7	0	7	1	7	2	7	5	5	4	
5	7	0	6	13	10	6	0	6	1	6	2	6	3	6	4	
5	9	6	0	5	3	0	0	0	1	0	2	0	5	0	4	
4	14	7	0	5	5	0	5	1	5	5	5	3	5	4	
4	9	6	0	5	0	0	0	1	0	2	0	5	0	4	
3	0	6	13	6	0	6	1	6	2	6	5	6	4	
6	11	9	6	0	5	3	6	0	6	1	5	2	5	3	5	4	
3	1	5	12	5	0	5	1	5	2	5	1	5	0	
2	4	2	2	0	2	1	2	2	2	3	2	4	
3	12	5	0	5	0	5	1	5	2	5	1	5	0	
2	2	7	2	0	2	1	2	2	2	3	2	4	
