124021	-1
840
33.53	35.3567
15
0	34	320
1	120	320
2	229	320
3	23	320
4	0	320
5	241	320
6	133	320
7	6	320
8	19	320
9	28	320
10	0	320
11	0	320
12	36	320
13	4	320
14	0	320
44
0	5	87501.750000	162195.900000	1.000000
0	6	59141.736987	110170.800000	1.000000
0	7	0.000000	66306.500000	0.000000
1	2	74583.918031	136693.400000	1.000000
1	4	0.000000	44884.400000	0.000000
1	5	140989.699423	216261.200000	1.000000
2	1	98955.222968	136693.400000	1.000000
2	4	12153.750000	17341.700000	1.000000
2	7	62576.711631	136693.400000	1.000000
3	4	13161.750000	38763.800000	1.000000
3	5	39664.206399	51005.000000	1.000000
4	1	0.000000	44884.400000	0.000000
4	2	11570.543601	17341.700000	1.000000
4	3	15330.456399	38763.800000	1.000000
5	0	100829.202106	162195.900000	1.000000
5	1	136368.894486	216261.200000	1.000000
5	3	39123.000000	51005.000000	1.000000
5	12	30353.953716	70386.900000	1.000000
6	0	61165.284881	110170.800000	1.000000
6	9	64173.163201	91809.000000	1.000000
6	13	27999.796284	64266.300000	1.000000
7	0	0.000000	66306.500000	0.000000
7	2	87163.722968	136693.400000	1.000000
7	8	0.000000	38763.800000	1.000000
7	14	25580.416219	57125.600000	1.000000
8	7	18191.105514	38763.800000	1.000000
8	9	18289.726187	19381.900000	1.000000
8	11	10701.317145	31623.100000	1.000000
8	14	16747.500000	23462.300000	1.000000
9	6	56333.651865	91809.000000	1.000000
9	8	19354.137577	19381.900000	1.000000
9	11	23239.099946	32643.200000	1.000000
10	12	11439.894486	25502.500000	1.000000
10	13	9476.105514	14281.400000	1.000000
11	8	20558.167091	31623.100000	1.000000
11	9	16584.750000	32643.200000	1.000000
12	5	32172.144486	70386.900000	1.000000
12	10	12728.356654	25502.500000	1.000000
12	13	14785.347062	25502.500000	1.000000
13	6	36240.605514	64266.300000	1.000000
13	10	7331.893346	14281.400000	1.000000
13	12	13508.250000	25502.500000	1.000000
14	7	25623.822042	57125.600000	1.000000
14	8	23413.594178	23462.300000	1.000000
840
6	1	2	7	14	8	11	2	0	2	1	2	2	2	3	2	4	
5	1	5	0	6	9	5	0	5	1	5	2	5	5	5	4	
5	7	2	1	5	12	5	0	5	1	5	2	5	3	5	4	
2	3	5	5	0	5	1	5	2	5	5	5	4	
4	7	2	4	3	2	0	2	1	2	5	2	3	2	4	
6	11	9	6	0	5	3	5	0	5	1	5	5	5	3	5	4	
4	3	5	12	13	5	0	5	1	5	2	5	5	5	4	
2	6	13	6	0	6	1	6	5	6	3	6	4	
6	10	13	6	9	8	7	6	0	6	1	6	2	6	3	6	4	
4	3	5	0	6	5	0	5	1	5	5	5	3	5	4	
3	4	2	7	2	0	2	1	2	2	2	5	2	4	
5	1	2	7	14	8	2	0	2	1	2	2	2	1	2	0	
6	14	7	2	1	5	12	5	0	5	1	5	2	5	1	5	0	
3	7	2	4	2	0	2	1	2	2	2	3	2	4	
4	2	1	5	12	5	0	5	1	5	2	5	5	5	4	
4	0	5	1	2	5	0	5	1	5	2	5	5	5	4	
4	13	12	5	1	5	0	5	1	5	2	5	5	5	4	
4	7	2	4	3	2	0	2	1	2	2	2	1	2	0	
3	5	12	10	5	0	5	1	5	5	5	3	5	4	
2	12	5	5	0	5	1	5	2	5	1	5	0	
3	5	1	2	5	0	5	1	5	2	5	5	5	4	
4	8	7	2	1	2	0	2	1	2	2	2	1	2	0	
2	8	7	8	0	8	1	8	2	8	3	8	4	
4	10	13	6	9	6	0	6	1	6	2	6	3	6	4	
2	6	0	6	0	6	1	6	5	6	3	6	4	
5	14	8	9	6	0	6	0	6	1	6	5	6	3	6	4	
4	4	3	5	12	5	0	5	1	5	2	5	1	5	0	
3	2	1	5	5	0	5	1	5	5	5	3	5	4	
4	7	2	1	5	5	0	5	1	5	2	5	5	5	4	
5	0	6	9	8	14	6	0	6	1	6	5	6	3	6	4	
4	5	1	2	7	5	0	5	1	5	2	5	1	5	0	
2	8	9	9	0	9	1	9	5	9	3	9	4	
5	4	3	5	12	10	5	0	5	1	5	2	5	5	5	4	
3	5	12	10	5	0	5	1	5	2	5	5	5	4	
5	14	8	9	6	0	6	0	6	1	6	2	6	3	6	4	
6	3	5	0	6	9	11	5	0	5	1	5	5	5	3	5	4	
2	6	13	6	0	6	1	6	2	6	1	6	0	
5	8	9	6	13	10	6	0	6	1	6	2	6	1	6	0	
4	10	12	5	1	5	0	5	1	5	2	5	5	5	4	
2	0	5	5	0	5	1	5	2	5	3	5	4	
3	3	4	2	2	0	2	1	2	2	2	5	2	4	
5	7	2	1	5	12	5	0	5	1	5	2	5	1	5	0	
3	1	2	7	2	0	2	1	2	5	2	3	2	4	
6	10	13	6	9	8	14	6	0	6	1	6	2	6	3	6	4	
4	8	7	2	4	2	0	2	1	2	5	2	3	2	4	
5	2	1	5	12	10	5	0	5	1	5	5	5	3	5	4	
3	2	4	3	2	0	2	1	2	2	2	5	2	4	
3	4	2	1	2	0	2	1	2	5	2	3	2	4	
5	9	6	0	5	3	5	0	5	1	5	2	5	3	5	4	
5	7	2	1	5	12	5	0	5	1	5	2	5	5	5	4	
3	0	5	3	5	0	5	1	5	2	5	1	5	0	
5	9	6	0	5	3	5	0	5	1	5	2	5	5	5	4	
2	6	13	6	0	6	1	6	2	6	5	6	4	
3	12	5	0	5	0	5	1	5	2	5	3	5	4	
4	11	9	6	0	6	0	6	1	6	2	6	3	6	4	
5	10	12	5	1	2	5	0	5	1	5	2	5	3	5	4	
4	13	6	9	11	6	0	6	1	6	5	6	3	6	4	
3	7	2	4	2	0	2	1	2	2	2	1	2	0	
3	12	5	3	5	0	5	1	5	5	5	3	5	4	
5	12	5	1	2	7	5	0	5	1	5	2	5	3	5	4	
4	6	0	5	3	5	0	5	1	5	2	5	3	5	4	
4	9	6	0	5	5	0	5	1	5	5	5	3	5	4	
2	11	8	8	0	8	1	8	5	8	3	8	4	
2	12	10	12	0	12	1	12	2	12	1	12	0	
4	4	3	5	0	5	0	5	1	5	2	5	5	5	4	
4	0	6	9	11	6	0	6	1	6	2	6	1	6	0	
2	12	10	12	0	12	1	12	5	12	3	12	4	
3	9	6	13	6	0	6	1	6	2	6	5	6	4	
2	2	7	2	0	2	1	2	2	2	3	2	4	
4	14	8	9	6	6	0	6	1	6	2	6	1	6	0	
2	8	11	8	0	8	1	8	2	8	5	8	4	
2	5	1	5	0	5	1	5	2	5	5	5	4	
5	10	13	6	9	8	6	0	6	1	6	2	6	5	6	4	
4	3	4	2	7	2	0	2	1	2	2	2	1	2	0	
4	6	9	8	7	6	0	6	1	6	5	6	3	6	4	
5	2	1	5	12	13	5	0	5	1	5	2	5	3	5	4	
4	12	5	1	2	5	0	5	1	5	2	5	1	5	0	
2	3	4	3	0	3	1	3	2	3	1	3	0	
3	13	6	0	6	0	6	1	6	2	6	1	6	0	
5	5	0	6	9	8	5	0	5	1	5	2	5	1	5	0	
2	9	11	9	0	9	1	9	2	9	5	9	4	
2	9	8	9	0	9	1	9	2	9	5	9	4	
4	3	5	12	13	5	0	5	1	5	2	5	1	5	0	
3	1	5	0	5	0	5	1	5	5	5	3	5	4	
3	1	5	3	5	0	5	1	5	2	5	1	5	0	
5	2	1	5	12	10	5	0	5	1	5	2	5	1	5	0	
5	8	9	6	13	12	6	0	6	1	6	5	6	3	6	4	
4	8	9	6	13	6	0	6	1	6	2	6	3	6	4	
5	13	12	5	3	4	5	0	5	1	5	2	5	5	5	4	
3	1	5	3	5	0	5	1	5	2	5	3	5	4	
5	10	13	6	9	11	6	0	6	1	6	2	6	1	6	0	
3	4	2	7	2	0	2	1	2	2	2	3	2	4	
5	13	12	5	1	2	5	0	5	1	5	5	5	3	5	4	
2	9	11	9	0	9	1	9	2	9	3	9	4	
5	11	9	6	13	10	6	0	6	1	6	2	6	3	6	4	
4	4	3	5	12	5	0	5	1	5	5	5	3	5	4	
4	12	13	6	9	6	0	6	1	6	2	6	5	6	4	
5	14	7	2	1	5	5	0	5	1	5	2	5	5	5	4	
6	12	13	6	9	8	14	6	0	6	1	6	2	6	5	6	4	
3	3	5	12	5	0	5	1	5	2	5	3	5	4	
4	0	5	12	10	5	0	5	1	5	2	5	5	5	4	
6	14	8	9	6	13	10	6	0	6	1	6	2	6	3	6	4	
5	5	0	6	9	8	5	0	5	1	5	2	5	5	5	4	
3	8	7	2	2	0	2	1	2	2	2	5	2	4	
3	14	8	11	8	0	8	1	8	5	8	3	8	4	
2	14	7	7	0	7	1	7	5	7	3	7	4	
2	6	9	6	0	6	1	6	2	6	3	6	4	
3	14	8	9	9	0	9	1	9	5	9	3	9	4	
2	6	0	6	0	6	1	6	2	6	1	6	0	
5	14	7	2	1	5	5	0	5	1	5	5	5	3	5	4	
3	1	5	12	5	0	5	1	5	2	5	5	5	4	
3	5	0	6	5	0	5	1	5	2	5	3	5	4	
4	3	4	2	7	2	0	2	1	2	2	2	5	2	4	
3	0	5	12	5	0	5	1	5	2	5	3	5	4	
5	11	8	7	2	1	2	0	2	1	2	5	2	3	2	4	
5	9	6	0	5	1	5	0	5	1	5	2	5	5	5	4	
3	5	12	13	5	0	5	1	5	2	5	1	5	0	
4	11	9	6	0	6	0	6	1	6	5	6	3	6	4	
4	10	13	6	0	6	0	6	1	6	2	6	1	6	0	
6	10	13	6	9	8	14	6	0	6	1	6	2	6	5	6	4	
3	11	9	6	6	0	6	1	6	2	6	5	6	4	
3	7	2	1	2	0	2	1	2	2	2	1	2	0	
2	8	7	8	0	8	1	8	5	8	3	8	4	
4	3	5	12	10	5	0	5	1	5	2	5	5	5	4	
2	3	4	3	0	3	1	3	2	3	5	3	4	
2	9	6	6	0	6	1	6	5	6	3	6	4	
5	2	1	5	0	6	5	0	5	1	5	2	5	3	5	4	
5	8	7	2	1	5	5	0	5	1	5	2	5	3	5	4	
2	3	4	3	0	3	1	3	5	3	3	3	4	
5	14	7	2	1	5	5	0	5	1	5	2	5	3	5	4	
2	12	13	12	0	12	1	12	5	12	3	12	4	
5	7	14	8	9	6	6	0	6	1	6	2	6	3	6	4	
3	0	5	1	1	0	1	1	1	5	1	3	1	4	
3	5	12	13	5	0	5	1	5	5	5	3	5	4	
3	9	8	14	9	0	9	1	9	5	9	3	9	4	
2	10	12	12	0	12	1	12	5	12	3	12	4	
4	13	12	5	3	5	0	5	1	5	2	5	1	5	0	
5	4	3	5	12	13	5	0	5	1	5	2	5	1	5	0	
5	6	0	5	1	2	5	0	5	1	5	5	5	3	5	4	
4	14	7	2	4	2	0	2	1	2	2	2	1	2	0	
4	14	8	9	6	6	0	6	1	6	5	6	3	6	4	
2	1	2	2	0	2	1	2	2	2	1	2	0	
4	10	12	5	3	5	0	5	1	5	2	5	5	5	4	
3	10	13	6	6	0	6	1	6	5	6	3	6	4	
3	1	5	3	5	0	5	1	5	2	5	5	5	4	
3	1	5	0	5	0	5	1	5	2	5	3	5	4	
2	1	5	1	0	1	1	1	5	1	3	1	4	
5	4	3	5	0	6	5	0	5	1	5	2	5	3	5	4	
5	5	0	6	9	11	5	0	5	1	5	2	5	5	5	4	
3	8	9	6	6	0	6	1	6	5	6	3	6	4	
4	7	14	8	9	9	0	9	1	9	5	9	3	9	4	
2	2	1	2	0	2	1	2	2	2	5	2	4	
4	3	5	12	10	5	0	5	1	5	5	5	3	5	4	
3	6	13	10	6	0	6	1	6	2	6	1	6	0	
2	4	3	3	0	3	1	3	5	3	3	3	4	
4	0	5	3	4	5	0	5	1	5	2	5	5	5	4	
6	3	5	0	6	9	8	5	0	5	1	5	2	5	3	5	4	
5	2	7	14	8	11	2	0	2	1	2	5	2	3	2	4	
4	13	6	9	8	6	0	6	1	6	2	6	3	6	4	
2	9	6	6	0	6	1	6	2	6	5	6	4	
4	10	13	6	0	6	0	6	1	6	2	6	3	6	4	
6	7	14	8	9	6	13	6	0	6	1	6	2	6	5	6	4	
2	6	9	6	0	6	1	6	2	6	1	6	0	
5	14	7	2	4	3	2	0	2	1	2	2	2	3	2	4	
3	3	5	1	5	0	5	1	5	2	5	1	5	0	
5	1	2	7	14	8	2	0	2	1	2	2	2	5	2	4	
3	6	13	12	6	0	6	1	6	2	6	5	6	4	
3	3	5	1	1	0	1	1	1	5	1	3	1	4	
6	14	7	2	1	5	12	5	0	5	1	5	2	5	3	5	4	
2	4	2	2	0	2	1	2	2	2	1	2	0	
5	14	8	9	6	0	6	0	6	1	6	2	6	5	6	4	
2	13	10	13	0	13	1	13	5	13	3	13	4	
2	2	1	2	0	2	1	2	2	2	3	2	4	
4	0	6	9	8	6	0	6	1	6	2	6	3	6	4	
2	5	12	5	0	5	1	5	2	5	3	5	4	
4	11	8	7	2	2	0	2	1	2	5	2	3	2	4	
5	5	0	6	9	8	5	0	5	1	5	5	5	3	5	4	
5	12	13	6	9	11	6	0	6	1	6	2	6	1	6	0	
3	0	5	12	5	0	5	1	5	2	5	1	5	0	
4	1	2	7	14	2	0	2	1	2	2	2	1	2	0	
5	4	3	5	0	6	5	0	5	1	5	2	5	5	5	4	
6	4	3	5	0	6	9	5	0	5	1	5	2	5	3	5	4	
4	12	5	3	4	5	0	5	1	5	2	5	1	5	0	
4	0	6	9	8	6	0	6	1	6	2	6	1	6	0	
5	8	9	6	13	10	6	0	6	1	6	2	6	5	6	4	
2	13	6	6	0	6	1	6	2	6	3	6	4	
4	11	8	7	2	2	0	2	1	2	2	2	1	2	0	
2	7	2	2	0	2	1	2	2	2	1	2	0	
2	2	4	2	0	2	1	2	5	2	3	2	4	
5	5	0	6	9	8	5	0	5	1	5	2	5	3	5	4	
4	2	1	5	12	5	0	5	1	5	2	5	3	5	4	
3	8	9	6	6	0	6	1	6	2	6	3	6	4	
3	9	8	7	9	0	9	1	9	2	9	1	9	0	
5	3	5	0	6	9	5	0	5	1	5	2	5	5	5	4	
4	6	0	5	1	5	0	5	1	5	2	5	5	5	4	
4	9	6	13	12	6	0	6	1	6	2	6	5	6	4	
2	7	2	2	0	2	1	2	2	2	5	2	4	
3	3	5	12	5	0	5	1	5	2	5	1	5	0	
5	2	7	14	8	11	2	0	2	1	2	2	2	1	2	0	
4	8	9	6	13	6	0	6	1	6	5	6	3	6	4	
2	14	7	7	0	7	1	7	2	7	5	7	4	
5	8	9	6	13	12	6	0	6	1	6	2	6	3	6	4	
6	3	5	0	6	9	8	5	0	5	1	5	2	5	1	5	0	
2	9	6	6	0	6	1	6	2	6	3	6	4	
4	5	1	2	7	5	0	5	1	5	2	5	5	5	4	
3	8	9	6	6	0	6	1	6	2	6	1	6	0	
5	10	12	5	1	2	5	0	5	1	5	2	5	5	5	4	
3	11	8	14	8	0	8	1	8	5	8	3	8	4	
4	2	7	14	8	2	0	2	1	2	2	2	3	2	4	
5	14	8	9	6	13	6	0	6	1	6	2	6	3	6	4	
4	3	5	12	13	5	0	5	1	5	2	5	3	5	4	
4	4	3	5	0	5	0	5	1	5	5	5	3	5	4	
3	11	8	14	8	0	8	1	8	2	8	3	8	4	
5	11	9	6	0	5	5	0	5	1	5	2	5	5	5	4	
2	6	9	6	0	6	1	6	5	6	3	6	4	
3	14	8	11	8	0	8	1	8	2	8	1	8	0	
5	11	8	7	2	4	2	0	2	1	2	2	2	1	2	0	
3	2	7	14	2	0	2	1	2	2	2	5	2	4	
5	13	12	5	3	4	5	0	5	1	5	5	5	3	5	4	
6	14	8	9	6	13	10	6	0	6	1	6	2	6	1	6	0	
3	9	8	7	9	0	9	1	9	2	9	5	9	4	
4	10	12	5	3	5	0	5	1	5	2	5	3	5	4	
2	12	5	5	0	5	1	5	2	5	3	5	4	
4	1	5	12	13	5	0	5	1	5	2	5	5	5	4	
5	11	9	6	13	10	6	0	6	1	6	2	6	1	6	0	
4	11	9	6	0	6	0	6	1	6	2	6	1	6	0	
4	12	13	6	9	6	0	6	1	6	2	6	3	6	4	
2	0	6	6	0	6	1	6	2	6	5	6	4	
3	6	9	8	6	0	6	1	6	2	6	5	6	4	
4	4	2	7	14	2	0	2	1	2	2	2	1	2	0	
2	4	3	3	0	3	1	3	2	3	1	3	0	
2	5	12	5	0	5	1	5	2	5	1	5	0	
2	10	13	13	0	13	1	13	2	13	5	13	4	
2	2	1	2	0	2	1	2	5	2	3	2	4	
3	0	5	3	5	0	5	1	5	5	5	3	5	4	
6	3	5	0	6	9	11	5	0	5	1	5	2	5	5	5	4	
2	1	5	5	0	5	1	5	2	5	5	5	4	
4	14	7	2	4	2	0	2	1	2	2	2	5	2	4	
6	12	13	6	9	8	14	6	0	6	1	6	5	6	3	6	4	
3	6	0	5	5	0	5	1	5	2	5	3	5	4	
2	5	12	5	0	5	1	5	5	5	3	5	4	
3	11	9	6	6	0	6	1	6	2	6	1	6	0	
5	7	2	1	5	0	5	0	5	1	5	2	5	3	5	4	
3	0	5	1	5	0	5	1	5	2	5	3	5	4	
2	11	9	9	0	9	1	9	2	9	3	9	4	
5	10	13	6	9	8	6	0	6	1	6	5	6	3	6	4	
2	3	5	5	0	5	1	5	2	5	3	5	4	
5	4	2	7	14	8	2	0	2	1	2	2	2	1	2	0	
4	6	9	8	14	6	0	6	1	6	2	6	3	6	4	
3	1	5	3	1	0	1	1	1	5	1	3	1	4	
3	5	0	6	5	0	5	1	5	2	5	5	5	4	
4	9	6	13	12	6	0	6	1	6	2	6	3	6	4	
3	0	5	12	5	0	5	1	5	5	5	3	5	4	
3	5	0	6	5	0	5	1	5	5	5	3	5	4	
5	2	7	14	8	9	2	0	2	1	2	2	2	1	2	0	
4	4	2	7	14	2	0	2	1	2	5	2	3	2	4	
3	9	8	7	9	0	9	1	9	2	9	3	9	4	
3	7	2	1	2	0	2	1	2	2	2	5	2	4	
2	5	3	5	0	5	1	5	2	5	1	5	0	
2	9	8	9	0	9	1	9	5	9	3	9	4	
2	5	12	5	0	5	1	5	2	5	5	5	4	
2	0	5	0	0	0	1	0	5	0	3	0	4	
4	4	3	5	0	5	0	5	1	5	2	5	3	5	4	
3	6	9	11	6	0	6	1	6	2	6	1	6	0	
5	7	2	1	5	0	5	0	5	1	5	2	5	1	5	0	
5	2	1	5	0	6	5	0	5	1	5	2	5	1	5	0	
3	9	8	14	9	0	9	1	9	2	9	1	9	0	
3	6	9	8	6	0	6	1	6	5	6	3	6	4	
3	12	5	1	1	0	1	1	1	5	1	3	1	4	
4	1	5	12	13	5	0	5	1	5	2	5	1	5	0	
3	1	2	4	2	0	2	1	2	2	2	1	2	0	
5	11	8	7	2	1	2	0	2	1	2	2	2	5	2	4	
4	2	1	5	12	5	0	5	1	5	5	5	3	5	4	
4	13	6	9	11	6	0	6	1	6	2	6	1	6	0	
4	3	5	0	6	5	0	5	1	5	2	5	5	5	4	
3	2	4	3	2	0	2	1	2	2	2	3	2	4	
4	12	13	6	9	6	0	6	1	6	2	6	1	6	0	
6	7	2	1	5	12	10	5	0	5	1	5	2	5	5	5	4	
4	5	1	2	7	5	0	5	1	5	2	5	3	5	4	
3	14	8	9	9	0	9	1	9	2	9	5	9	4	
6	1	2	7	14	8	11	2	0	2	1	2	5	2	3	2	4	
3	4	3	5	5	0	5	1	5	5	5	3	5	4	
6	4	2	7	14	8	11	2	0	2	1	2	2	2	3	2	4	
5	0	5	1	2	7	5	0	5	1	5	2	5	1	5	0	
3	5	12	13	5	0	5	1	5	2	5	3	5	4	
3	12	13	6	6	0	6	1	6	2	6	1	6	0	
2	7	2	2	0	2	1	2	5	2	3	2	4	
3	13	6	0	6	0	6	1	6	2	6	5	6	4	
2	13	10	13	0	13	1	13	2	13	3	13	4	
5	13	6	9	8	14	6	0	6	1	6	2	6	5	6	4	
3	0	6	13	6	0	6	1	6	2	6	1	6	0	
3	0	5	1	1	0	1	1	1	2	1	5	1	4	
4	2	7	14	8	2	0	2	1	2	2	2	5	2	4	
2	6	0	6	0	6	1	6	2	6	3	6	4	
4	12	5	3	4	5	0	5	1	5	5	5	3	5	4	
3	14	7	2	2	0	2	1	2	2	2	1	2	0	
5	11	9	6	0	5	5	0	5	1	5	5	5	3	5	4	
5	2	7	14	8	11	2	0	2	1	2	2	2	3	2	4	
5	2	1	5	0	6	5	0	5	1	5	5	5	3	5	4	
5	11	8	7	2	4	2	0	2	1	2	2	2	5	2	4	
4	8	7	2	4	2	0	2	1	2	2	2	1	2	0	
5	10	12	5	3	4	5	0	5	1	5	2	5	5	5	4	
4	9	6	13	10	6	0	6	1	6	5	6	3	6	4	
4	6	0	5	3	5	0	5	1	5	5	5	3	5	4	
5	11	9	6	13	12	6	0	6	1	6	2	6	5	6	4	
3	8	9	6	6	0	6	1	6	2	6	5	6	4	
4	1	2	7	14	2	0	2	1	2	2	2	5	2	4	
5	8	9	6	13	10	6	0	6	1	6	5	6	3	6	4	
5	13	12	5	3	4	5	0	5	1	5	2	5	1	5	0	
3	5	3	4	5	0	5	1	5	2	5	1	5	0	
6	10	13	6	9	8	7	6	0	6	1	6	5	6	3	6	4	
2	4	2	2	0	2	1	2	5	2	3	2	4	
4	13	6	9	8	6	0	6	1	6	2	6	1	6	0	
5	9	8	7	2	4	9	0	9	1	9	2	9	3	9	4	
3	5	1	2	5	0	5	1	5	2	5	3	5	4	
6	7	14	8	9	6	13	6	0	6	1	6	5	6	3	6	4	
4	1	2	7	14	2	0	2	1	2	2	2	3	2	4	
2	4	3	3	0	3	1	3	2	3	3	3	4	
2	13	6	6	0	6	1	6	5	6	3	6	4	
5	3	4	2	7	14	2	0	2	1	2	2	2	3	2	4	
4	0	5	1	2	5	0	5	1	5	2	5	1	5	0	
4	9	6	0	5	6	0	6	1	6	2	6	5	6	4	
4	10	12	5	1	5	0	5	1	5	2	5	3	5	4	
3	11	8	14	8	0	8	1	8	2	8	1	8	0	
3	9	6	0	6	0	6	1	6	2	6	5	6	4	
4	7	2	1	5	5	0	5	1	5	2	5	1	5	0	
3	12	13	6	6	0	6	1	6	2	6	5	6	4	
3	4	2	1	2	0	2	1	2	2	2	1	2	0	
4	10	13	6	9	6	0	6	1	6	2	6	1	6	0	
4	14	8	9	6	6	0	6	1	6	2	6	3	6	4	
3	7	14	8	7	0	7	1	7	2	7	5	7	4	
4	5	0	6	9	6	0	6	1	6	5	6	3	6	4	
3	4	2	1	2	0	2	1	2	2	2	5	2	4	
2	8	11	8	0	8	1	8	2	8	1	8	0	
2	7	14	7	0	7	1	7	5	7	3	7	4	
5	0	6	9	8	14	6	0	6	1	6	2	6	3	6	4	
3	3	4	2	2	0	2	1	2	2	2	1	2	0	
5	5	0	6	9	11	5	0	5	1	5	2	5	1	5	0	
3	9	6	0	6	0	6	1	6	2	6	1	6	0	
3	14	8	11	8	0	8	1	8	2	8	3	8	4	
5	12	13	6	9	8	6	0	6	1	6	5	6	3	6	4	
2	8	14	8	0	8	1	8	2	8	5	8	4	
2	10	12	12	0	12	1	12	2	12	5	12	4	
2	12	5	12	0	12	1	12	5	12	3	12	4	
4	14	7	2	1	2	0	2	1	2	2	2	3	2	4	
5	10	12	5	3	4	5	0	5	1	5	2	5	1	5	0	
3	14	7	2	2	0	2	1	2	2	2	5	2	4	
6	12	13	6	9	8	14	6	0	6	1	6	2	6	3	6	4	
4	5	0	6	9	5	0	5	1	5	2	5	1	5	0	
5	13	6	9	8	7	6	0	6	1	6	2	6	5	6	4	
6	3	5	0	6	9	8	6	0	6	1	6	2	6	5	6	4	
2	0	5	0	0	0	1	0	2	0	5	0	4	
3	9	6	13	6	0	6	1	6	2	6	1	6	0	
3	5	3	4	3	0	3	1	3	5	3	3	3	4	
2	8	9	9	0	9	1	9	2	9	3	9	4	
3	10	12	5	12	0	12	1	12	5	12	3	12	4	
6	3	5	0	6	9	8	5	0	5	1	5	5	5	3	5	4	
3	10	12	5	5	0	5	1	5	2	5	3	5	4	
2	7	2	2	0	2	1	2	2	2	3	2	4	
2	6	13	6	0	6	1	6	2	6	3	6	4	
6	4	2	7	14	8	11	2	0	2	1	2	5	2	3	2	4	
3	0	6	13	6	0	6	1	6	5	6	3	6	4	
4	13	12	5	1	1	0	1	1	1	5	1	3	1	4	
3	11	9	6	6	0	6	1	6	2	6	3	6	4	
5	13	6	9	8	7	6	0	6	1	6	2	6	1	6	0	
5	8	9	6	13	12	6	0	6	1	6	2	6	1	6	0	
5	6	0	5	3	4	5	0	5	1	5	2	5	3	5	4	
5	10	13	6	9	11	6	0	6	1	6	2	6	3	6	4	
3	5	12	13	12	0	12	1	12	2	12	5	12	4	
3	0	5	1	5	0	5	1	5	2	5	1	5	0	
3	12	5	1	1	0	1	1	1	2	1	5	1	4	
2	12	13	12	0	12	1	12	2	12	5	12	4	
6	7	2	1	5	12	10	5	0	5	1	5	2	5	3	5	4	
4	8	9	6	13	6	0	6	1	6	2	6	1	6	0	
5	4	3	5	0	6	5	0	5	1	5	2	5	1	5	0	
2	4	2	2	0	2	1	2	2	2	3	2	4	
4	8	7	2	1	2	0	2	1	2	2	2	5	2	4	
2	5	1	5	0	5	1	5	2	5	3	5	4	
3	1	5	12	5	0	5	1	5	2	5	1	5	0	
3	4	2	7	2	0	2	1	2	5	2	3	2	4	
5	2	1	5	12	13	2	0	2	1	2	5	2	3	2	4	
5	9	6	0	5	3	6	0	6	1	6	5	6	3	6	4	
5	11	9	6	0	5	5	0	5	1	5	2	5	1	5	0	
5	14	8	9	6	13	6	0	6	1	6	2	6	5	6	4	
4	14	7	2	1	2	0	2	1	2	2	2	5	2	4	
4	7	14	8	11	7	0	7	1	7	2	7	5	7	4	
4	7	14	8	9	9	0	9	1	9	2	9	3	9	4	
4	1	5	12	10	1	0	1	1	1	5	1	3	1	4	
5	13	12	5	1	2	2	0	2	1	2	2	2	5	2	4	
5	4	3	5	12	10	5	0	5	1	5	2	5	3	5	4	
5	7	14	8	9	6	6	0	6	1	6	2	6	1	6	0	
5	1	5	0	6	9	5	0	5	1	5	2	5	1	5	0	
4	2	1	5	0	2	0	2	1	2	5	2	3	2	4	
2	3	5	5	0	5	1	5	2	5	1	5	0	
3	5	12	10	5	0	5	1	5	2	5	3	5	4	
3	6	0	5	6	0	6	1	6	5	6	3	6	4	
3	1	2	4	2	0	2	1	2	2	2	5	2	4	
2	3	5	3	0	3	1	3	5	3	3	3	4	
4	13	6	9	11	6	0	6	1	6	2	6	3	6	4	
5	7	2	1	5	0	2	0	2	1	2	5	2	3	2	4	
5	0	6	9	8	14	6	0	6	1	6	2	6	1	6	0	
3	9	6	0	6	0	6	1	6	5	6	3	6	4	
3	9	8	14	9	0	9	1	9	2	9	3	9	4	
3	8	7	2	2	0	2	1	2	2	2	1	2	0	
4	12	5	1	2	5	0	5	1	5	2	5	3	5	4	
3	11	9	6	6	0	6	1	6	5	6	3	6	4	
2	3	4	3	0	3	1	3	2	3	3	3	4	
3	4	3	5	5	0	5	1	5	2	5	3	5	4	
6	4	3	5	0	6	9	6	0	6	1	6	5	6	3	6	4	
2	7	14	7	0	7	1	7	2	7	3	7	4	
5	2	1	5	12	10	5	0	5	1	5	2	5	3	5	4	
4	5	1	2	7	2	0	2	1	2	5	2	3	2	4	
4	2	7	14	8	2	0	2	1	2	2	2	1	2	0	
4	14	7	2	1	2	0	2	1	2	2	2	1	2	0	
5	11	9	6	13	10	6	0	6	1	6	5	6	3	6	4	
3	9	6	13	6	0	6	1	6	5	6	3	6	4	
3	6	0	5	5	0	5	1	5	2	5	1	5	0	
5	3	4	2	7	14	2	0	2	1	2	2	2	1	2	0	
5	2	1	5	0	6	6	0	6	1	6	2	6	5	6	4	
2	8	11	8	0	8	1	8	5	8	3	8	4	
2	8	14	8	0	8	1	8	2	8	3	8	4	
2	9	8	9	0	9	1	9	2	9	1	9	0	
4	0	5	3	4	5	0	5	1	5	2	5	3	5	4	
5	7	2	1	5	12	2	0	2	1	2	5	2	3	2	4	
4	11	9	6	0	6	0	6	1	6	2	6	5	6	4	
5	11	9	6	0	5	5	0	5	1	5	2	5	3	5	4	
3	12	5	3	5	0	5	1	5	2	5	3	5	4	
3	4	2	7	2	0	2	1	2	2	2	1	2	0	
3	6	9	8	6	0	6	1	6	2	6	1	6	0	
2	13	12	12	0	12	1	12	2	12	3	12	4	
5	12	13	6	9	8	6	0	6	1	6	2	6	1	6	0	
3	2	1	5	5	0	5	1	5	2	5	1	5	0	
2	12	13	12	0	12	1	12	2	12	3	12	4	
4	10	12	5	1	1	0	1	1	1	5	1	3	1	4	
5	12	13	6	9	8	6	0	6	1	6	2	6	5	6	4	
5	0	5	1	2	7	2	0	2	1	2	5	2	3	2	4	
4	8	7	2	1	2	0	2	1	2	5	2	3	2	4	
3	5	3	4	5	0	5	1	5	2	5	3	5	4	
5	5	1	2	7	14	2	0	2	1	2	5	2	3	2	4	
5	1	5	0	6	9	5	0	5	1	5	2	5	3	5	4	
3	12	13	6	6	0	6	1	6	5	6	3	6	4	
5	9	8	7	2	4	9	0	9	1	9	5	9	3	9	4	
4	13	6	9	8	6	0	6	1	6	5	6	3	6	4	
3	12	5	3	12	0	12	1	12	2	12	5	12	4	
5	10	12	5	1	2	5	0	5	1	5	2	5	1	5	0	
3	13	6	9	6	0	6	1	6	2	6	3	6	4	
3	5	12	10	5	0	5	1	5	2	5	1	5	0	
4	10	13	6	9	6	0	6	1	6	2	6	5	6	4	
2	14	7	7	0	7	1	7	2	7	1	7	0	
3	3	5	1	5	0	5	1	5	2	5	3	5	4	
4	1	5	0	6	5	0	5	1	5	2	5	3	5	4	
5	10	13	6	9	11	6	0	6	1	6	2	6	5	6	4	
2	9	6	6	0	6	1	6	2	6	1	6	0	
4	13	12	5	1	5	0	5	1	5	2	5	1	5	0	
2	2	4	2	0	2	1	2	2	2	3	2	4	
4	9	8	7	2	2	0	2	1	2	2	2	1	2	0	
4	9	6	13	12	6	0	6	1	6	2	6	1	6	0	
2	13	12	12	0	12	1	12	2	12	1	12	0	
4	13	12	5	3	12	0	12	1	12	5	12	3	12	4	
5	11	9	6	13	10	6	0	6	1	6	2	6	5	6	4	
5	10	13	6	9	11	6	0	6	1	6	5	6	3	6	4	
3	6	13	12	6	0	6	1	6	2	6	3	6	4	
3	14	8	9	9	0	9	1	9	2	9	3	9	4	
3	1	5	0	5	0	5	1	5	2	5	1	5	0	
4	0	5	12	10	0	0	0	1	0	5	0	3	0	4	
5	4	2	7	14	8	2	0	2	1	2	2	2	5	2	4	
5	10	12	5	3	4	12	0	12	1	12	5	12	3	12	4	
4	4	2	7	14	2	0	2	1	2	2	2	5	2	4	
5	6	0	5	3	4	6	0	6	1	6	2	6	5	6	4	
5	8	7	2	4	3	2	0	2	1	2	2	2	5	2	4	
2	5	3	5	0	5	1	5	2	5	3	5	4	
3	5	1	2	2	0	2	1	2	5	2	3	2	4	
5	10	12	5	1	2	2	0	2	1	2	5	2	3	2	4	
5	5	1	2	7	14	2	0	2	1	2	2	2	5	2	4	
2	14	8	8	0	8	1	8	5	8	3	8	4	
4	5	0	6	9	6	0	6	1	6	2	6	5	6	4	
4	7	14	8	11	8	0	8	1	8	2	8	3	8	4	
2	8	14	8	0	8	1	8	2	8	1	8	0	
6	12	13	6	9	8	14	6	0	6	1	6	2	6	1	6	0	
6	1	2	7	14	8	11	2	0	2	1	2	2	2	1	2	0	
5	7	14	8	9	6	6	0	6	1	6	5	6	3	6	4	
6	11	9	6	0	5	3	5	0	5	1	5	2	5	1	5	0	
3	2	7	14	2	0	2	1	2	5	2	3	2	4	
6	14	7	2	1	5	12	2	0	2	1	2	2	2	5	2	4	
5	11	9	6	13	12	6	0	6	1	6	2	6	1	6	0	
4	0	5	3	4	0	0	0	1	0	5	0	3	0	4	
4	8	9	6	0	6	0	6	1	6	2	6	3	6	4	
4	1	5	12	13	1	0	1	1	1	5	1	3	1	4	
5	4	3	5	12	13	5	0	5	1	5	2	5	3	5	4	
2	14	8	8	0	8	1	8	2	8	1	8	0	
3	11	8	14	8	0	8	1	8	2	8	5	8	4	
5	5	0	6	9	11	5	0	5	1	5	2	5	3	5	4	
3	2	7	14	2	0	2	1	2	2	2	1	2	0	
4	8	9	6	0	6	0	6	1	6	2	6	1	6	0	
5	11	8	7	2	4	2	0	2	1	2	5	2	3	2	4	
3	6	13	10	6	0	6	1	6	2	6	5	6	4	
4	1	5	0	6	6	0	6	1	6	2	6	5	6	4	
3	7	2	4	2	0	2	1	2	2	2	5	2	4	
2	11	8	8	0	8	1	8	2	8	3	8	4	
4	14	7	2	1	2	0	2	1	2	5	2	3	2	4	
4	13	6	9	8	6	0	6	1	6	2	6	5	6	4	
2	9	8	9	0	9	1	9	2	9	3	9	4	
4	6	9	8	7	6	0	6	1	6	2	6	1	6	0	
5	0	6	9	8	14	6	0	6	1	6	2	6	5	6	4	
2	2	4	2	0	2	1	2	2	2	5	2	4	
4	3	5	0	6	5	0	5	1	5	2	5	3	5	4	
5	9	6	0	5	1	5	0	5	1	5	2	5	1	5	0	
4	7	2	4	3	2	0	2	1	2	2	2	3	2	4	
4	9	6	13	12	6	0	6	1	6	5	6	3	6	4	
2	14	7	7	0	7	1	7	2	7	3	7	4	
5	10	13	6	9	8	6	0	6	1	6	2	6	1	6	0	
3	11	8	7	8	0	8	1	8	2	8	3	8	4	
2	13	12	12	0	12	1	12	2	12	5	12	4	
4	10	13	6	0	6	0	6	1	6	2	6	5	6	4	
4	7	14	8	9	9	0	9	1	9	2	9	1	9	0	
3	4	3	5	5	0	5	1	5	2	5	1	5	0	
5	13	6	9	8	7	6	0	6	1	6	2	6	3	6	4	
4	6	9	8	7	6	0	6	1	6	2	6	5	6	4	
2	2	7	2	0	2	1	2	2	2	1	2	0	
2	0	6	6	0	6	1	6	2	6	3	6	4	
4	7	14	8	11	8	0	8	1	8	5	8	3	8	4	
4	10	12	5	3	12	0	12	1	12	5	12	3	12	4	
3	1	5	12	5	0	5	1	5	2	5	3	5	4	
5	1	2	7	14	8	2	0	2	1	2	5	2	3	2	4	
3	0	6	9	6	0	6	1	6	5	6	3	6	4	
4	11	8	7	2	2	0	2	1	2	2	2	5	2	4	
5	8	7	2	4	3	2	0	2	1	2	5	2	3	2	4	
3	6	13	10	6	0	6	1	6	5	6	3	6	4	
3	13	6	0	6	0	6	1	6	2	6	3	6	4	
2	13	10	13	0	13	1	13	2	13	1	13	0	
2	0	6	6	0	6	1	6	2	6	1	6	0	
5	2	7	14	8	11	2	0	2	1	2	2	2	5	2	4	
2	8	9	9	0	9	1	9	2	9	1	9	0	
5	14	8	9	6	13	6	0	6	1	6	2	6	1	6	0	
5	8	7	2	4	3	2	0	2	1	2	2	2	1	2	0	
5	14	7	2	1	5	5	0	5	1	5	2	5	1	5	0	
2	5	0	0	0	0	1	0	2	0	5	0	4	
3	14	7	2	2	0	2	1	2	2	2	3	2	4	
3	7	2	1	2	0	2	1	2	5	2	3	2	4	
5	2	7	14	8	9	2	0	2	1	2	2	2	5	2	4	
4	12	5	3	4	5	0	5	1	5	2	5	3	5	4	
4	6	0	5	1	5	0	5	1	5	2	5	3	5	4	
2	7	14	7	0	7	1	7	2	7	1	7	0	
5	4	3	5	12	13	12	0	12	1	12	5	12	3	12	4	
5	4	3	5	12	13	12	0	12	1	12	2	12	5	12	4	
4	3	5	0	6	5	0	5	1	5	2	5	1	5	0	
5	9	8	7	2	4	2	0	2	1	2	2	2	1	2	0	
5	3	4	2	7	14	2	0	2	1	2	2	2	5	2	4	
5	10	13	6	9	8	6	0	6	1	6	2	6	3	6	4	
2	11	9	9	0	9	1	9	5	9	3	9	4	
2	9	11	9	0	9	1	9	2	9	1	9	0	
5	3	5	0	6	9	5	0	5	1	5	2	5	1	5	0	
2	2	7	2	0	2	1	2	5	2	3	2	4	
4	7	2	4	3	2	0	2	1	2	2	2	5	2	4	
4	7	14	8	11	7	0	7	1	7	2	7	1	7	0	
2	10	13	13	0	13	1	13	2	13	3	13	4	
4	9	8	7	2	2	0	2	1	2	2	2	5	2	4	
4	6	9	8	14	6	0	6	1	6	5	6	3	6	4	
4	6	9	8	14	6	0	6	1	6	2	6	5	6	4	
5	2	7	14	8	9	9	0	9	1	9	2	9	3	9	4	
3	12	5	1	5	0	5	1	5	2	5	3	5	4	
2	8	7	7	0	7	1	7	2	7	1	7	0	
3	6	9	11	6	0	6	1	6	2	6	3	6	4	
2	5	0	0	0	0	1	0	5	0	3	0	4	
4	0	6	9	11	6	0	6	1	6	5	6	3	6	4	
3	11	8	7	7	0	7	1	7	2	7	5	7	4	
3	13	12	5	12	0	12	1	12	2	12	5	12	4	
5	0	5	1	2	7	5	0	5	1	5	2	5	3	5	4	
3	14	8	9	9	0	9	1	9	2	9	1	9	0	
2	10	12	12	0	12	1	12	2	12	1	12	0	
3	13	12	5	12	0	12	1	12	5	12	3	12	4	
3	9	8	14	9	0	9	1	9	2	9	5	9	4	
4	11	8	7	2	2	0	2	1	2	2	2	3	2	4	
2	10	13	13	0	13	1	13	5	13	3	13	4	
2	2	4	2	0	2	1	2	2	2	1	2	0	
4	12	5	3	4	12	0	12	1	12	2	12	5	12	4	
5	3	4	2	7	14	2	0	2	1	2	5	2	3	2	4	
5	6	9	11	8	14	6	0	6	1	6	2	6	1	6	0	
2	0	6	6	0	6	1	6	5	6	3	6	4	
5	9	6	0	5	1	5	0	5	1	5	2	5	3	5	4	
2	0	5	5	0	5	1	5	2	5	1	5	0	
4	1	5	12	10	5	0	5	1	5	2	5	1	5	0	
2	11	9	9	0	9	1	9	2	9	1	9	0	
2	6	9	6	0	6	1	6	2	6	5	6	4	
2	5	0	5	0	5	1	5	2	5	1	5	0	
5	1	2	7	14	8	2	0	2	1	2	2	2	3	2	4	
4	0	5	1	2	2	0	2	1	2	5	2	3	2	4	
3	11	8	7	7	0	7	1	7	2	7	1	7	0	
3	7	2	4	2	0	2	1	2	5	2	3	2	4	
3	14	8	11	8	0	8	1	8	2	8	5	8	4	
5	12	13	6	9	11	6	0	6	1	6	2	6	5	6	4	
2	8	7	7	0	7	1	7	2	7	5	7	4	
4	10	12	5	1	5	0	5	1	5	2	5	1	5	0	
4	13	12	5	3	5	0	5	1	5	2	5	3	5	4	
3	9	8	7	9	0	9	1	9	5	9	3	9	4	
5	4	3	5	0	6	6	0	6	1	6	5	6	3	6	4	
3	0	5	3	0	0	0	1	0	2	0	5	0	4	
3	1	5	12	1	0	1	1	1	5	1	3	1	4	
3	3	5	0	5	0	5	1	5	2	5	3	5	4	
4	4	3	5	12	5	0	5	1	5	2	5	3	5	4	
5	6	0	5	1	2	5	0	5	1	5	2	5	3	5	4	
4	7	2	1	5	5	0	5	1	5	2	5	3	5	4	
5	13	6	9	8	14	6	0	6	1	6	5	6	3	6	4	
2	13	6	6	0	6	1	6	2	6	5	6	4	
3	12	5	0	0	0	0	1	0	2	0	5	0	4	
5	14	8	9	6	13	6	0	6	1	6	5	6	3	6	4	
4	6	0	5	1	5	0	5	1	5	2	5	1	5	0	
5	0	6	9	11	8	6	0	6	1	6	2	6	5	6	4	
4	6	0	5	1	6	0	6	1	6	5	6	3	6	4	
3	1	5	0	1	0	1	1	1	2	1	5	1	4	
2	1	5	5	0	5	1	5	2	5	3	5	4	
5	3	5	0	6	9	6	0	6	1	6	5	6	3	6	4	
3	9	6	0	6	0	6	1	6	2	6	3	6	4	
5	13	12	5	1	2	5	0	5	1	5	2	5	1	5	0	
3	5	0	6	5	0	5	1	5	2	5	1	5	0	
3	0	6	13	6	0	6	1	6	2	6	5	6	4	
2	11	8	8	0	8	1	8	2	8	1	8	0	
4	14	7	2	4	2	0	2	1	2	5	2	3	2	4	
3	12	13	6	6	0	6	1	6	2	6	3	6	4	
6	14	7	2	1	5	12	2	0	2	1	2	5	2	3	2	4	
3	4	2	1	2	0	2	1	2	2	2	3	2	4	
2	8	9	9	0	9	1	9	2	9	5	9	4	
2	5	3	3	0	3	1	3	5	3	3	3	4	
4	1	5	0	6	6	0	6	1	6	5	6	3	6	4	
2	1	5	5	0	5	1	5	2	5	1	5	0	
6	14	7	2	1	5	0	5	0	5	1	5	2	5	1	5	0	
5	8	7	2	1	5	2	0	2	1	2	5	2	3	2	4	
2	5	0	5	0	5	1	5	2	5	3	5	4	
4	0	6	9	11	6	0	6	1	6	2	6	3	6	4	
3	3	5	1	1	0	1	1	1	2	1	5	1	4	
4	12	5	1	2	2	0	2	1	2	5	2	3	2	4	
6	7	2	1	5	12	10	2	0	2	1	2	5	2	3	2	4	
4	1	5	12	13	5	0	5	1	5	2	5	3	5	4	
5	12	5	1	2	7	2	0	2	1	2	2	2	5	2	4	
3	3	4	2	2	0	2	1	2	5	2	3	2	4	
2	4	3	3	0	3	1	3	2	3	5	3	4	
9	7	2	1	5	0	6	9	11	8	5	0	5	1	5	2	5	3	5	4	
3	3	5	0	5	0	5	1	5	2	5	1	5	0	
3	0	6	9	6	0	6	1	6	2	6	3	6	4	
5	11	8	7	2	1	2	0	2	1	2	2	2	3	2	4	
3	6	9	11	6	0	6	1	6	5	6	3	6	4	
10	14	7	2	1	5	0	6	9	11	8	6	0	6	1	6	2	6	5	6	4	
5	12	13	6	9	11	6	0	6	1	6	2	6	3	6	4	
4	10	12	5	3	5	0	5	1	5	2	5	1	5	0	
5	2	1	5	12	10	2	0	2	1	2	2	2	5	2	4	
4	2	1	5	0	5	0	5	1	5	2	5	3	5	4	
5	8	7	2	4	3	2	0	2	1	2	2	2	3	2	4	
5	6	0	5	3	4	6	0	6	1	6	5	6	3	6	4	
2	2	1	2	0	2	1	2	2	2	1	2	0	
2	11	8	8	0	8	1	8	2	8	5	8	4	
5	4	2	7	14	8	2	0	2	1	2	5	2	3	2	4	
5	4	2	7	14	8	2	0	2	1	2	2	2	3	2	4	
5	4	3	5	12	10	5	0	5	1	5	2	5	1	5	0	
3	10	13	6	6	0	6	1	6	2	6	5	6	4	
3	11	8	7	8	0	8	1	8	5	8	3	8	4	
2	12	10	12	0	12	1	12	2	12	5	12	4	
5	4	3	5	12	10	12	0	12	1	12	5	12	3	12	4	
4	4	3	5	12	12	0	12	1	12	2	12	5	12	4	
3	10	13	6	6	0	6	1	6	2	6	1	6	0	
2	11	9	9	0	9	1	9	2	9	5	9	4	
3	10	12	5	12	0	12	1	12	2	12	5	12	4	
5	14	7	2	4	3	2	0	2	1	2	2	2	1	2	0	
2	1	2	2	0	2	1	2	2	2	3	2	4	
2	6	0	6	0	6	1	6	2	6	5	6	4	
4	3	5	12	13	12	0	12	1	12	5	12	3	12	4	
3	12	5	1	5	0	5	1	5	2	5	1	5	0	
5	6	0	5	3	4	5	0	5	1	5	2	5	1	5	0	
5	8	7	2	1	5	5	0	5	1	5	2	5	1	5	0	
3	13	12	5	5	0	5	1	5	2	5	1	5	0	
4	9	6	13	10	6	0	6	1	6	2	6	1	6	0	
2	2	7	2	0	2	1	2	2	2	5	2	4	
6	7	2	1	5	12	10	5	0	5	1	5	2	5	1	5	0	
2	10	12	12	0	12	1	12	2	12	3	12	4	
5	2	7	14	8	9	9	0	9	1	9	5	9	3	9	4	
3	6	13	10	6	0	6	1	6	2	6	3	6	4	
4	11	9	6	13	6	0	6	1	6	2	6	1	6	0	
5	13	6	9	8	7	6	0	6	1	6	5	6	3	6	4	
9	7	2	1	5	0	6	9	11	8	5	0	5	1	5	2	5	1	5	0	
2	7	14	7	0	7	1	7	2	7	5	7	4	
6	9	11	8	7	2	4	2	0	2	1	2	2	2	5	2	4	
4	13	12	5	3	12	0	12	1	12	2	12	5	12	4	
3	6	9	11	6	0	6	1	6	2	6	5	6	4	
3	0	6	9	6	0	6	1	6	2	6	5	6	4	
2	10	13	13	0	13	1	13	2	13	1	13	0	
4	6	9	11	8	6	0	6	1	6	2	6	3	6	4	
4	10	13	6	0	6	0	6	1	6	5	6	3	6	4	
4	4	3	5	0	5	0	5	1	5	2	5	1	5	0	
5	11	8	7	2	1	2	0	2	1	2	2	2	1	2	0	
6	7	2	1	5	12	13	5	0	5	1	5	2	5	3	5	4	
4	8	9	6	0	6	0	6	1	6	5	6	3	6	4	
5	9	6	0	5	1	6	0	6	1	6	5	6	3	6	4	
6	12	13	6	9	11	8	6	0	6	1	6	2	6	3	6	4	
4	0	6	9	8	6	0	6	1	6	5	6	3	6	4	
7	7	2	1	5	0	6	9	6	0	6	1	6	2	6	5	6	4	
4	3	4	2	7	2	0	2	1	2	5	2	3	2	4	
3	13	12	5	5	0	5	1	5	2	5	3	5	4	
5	12	5	1	2	7	5	0	5	1	5	2	5	1	5	0	
4	12	13	6	9	6	0	6	1	6	5	6	3	6	4	
3	10	13	6	6	0	6	1	6	2	6	3	6	4	
5	6	0	5	1	2	5	0	5	1	5	2	5	1	5	0	
4	6	0	5	3	5	0	5	1	5	2	5	1	5	0	
4	8	7	2	4	2	0	2	1	2	2	2	3	2	4	
3	3	4	2	2	0	2	1	2	2	2	3	2	4	
3	1	2	7	2	0	2	1	2	2	2	3	2	4	
6	3	5	0	6	9	11	5	0	5	1	5	2	5	1	5	0	
5	11	9	6	13	12	6	0	6	1	6	5	6	3	6	4	
4	9	6	0	5	5	0	5	1	5	2	5	1	5	0	
4	2	1	5	12	5	0	5	1	5	2	5	1	5	0	
6	13	6	9	11	8	14	6	0	6	1	6	2	6	1	6	0	
2	8	14	8	0	8	1	8	5	8	3	8	4	
2	8	11	8	0	8	1	8	2	8	3	8	4	
6	13	6	9	11	8	14	6	0	6	1	6	2	6	3	6	4	
4	8	7	2	4	2	0	2	1	2	2	2	5	2	4	
6	10	12	5	1	2	7	5	0	5	1	5	2	5	1	5	0	
3	9	6	13	6	0	6	1	6	2	6	3	6	4	
5	11	9	6	13	12	6	0	6	1	6	2	6	3	6	4	
4	11	9	6	13	6	0	6	1	6	5	6	3	6	4	
4	11	9	6	13	6	0	6	1	6	2	6	5	6	4	
2	1	2	2	0	2	1	2	2	2	5	2	4	
6	4	3	5	0	6	9	5	0	5	1	5	2	5	1	5	0	
4	6	0	5	3	6	0	6	1	6	2	6	5	6	4	
4	3	5	12	10	5	0	5	1	5	2	5	3	5	4	
5	7	2	1	5	0	2	0	2	1	2	2	2	5	2	4	
3	0	5	12	0	0	0	1	0	2	0	5	0	4	
2	5	1	1	0	1	1	1	5	1	3	1	4	
4	0	5	1	2	5	0	5	1	5	2	5	3	5	4	
6	4	3	5	0	6	9	6	0	6	1	6	2	6	5	6	4	
4	14	7	2	4	2	0	2	1	2	2	2	3	2	4	
3	1	2	4	2	0	2	1	2	5	2	3	2	4	
3	1	2	7	2	0	2	1	2	2	2	1	2	0	
5	13	12	5	1	2	5	0	5	1	5	2	5	3	5	4	
3	4	3	5	3	0	3	1	3	2	3	5	3	4	
4	2	1	5	0	2	0	2	1	2	2	2	5	2	4	
3	12	5	0	0	0	0	1	0	5	0	3	0	4	
4	1	5	12	10	1	0	1	1	1	2	1	5	1	4	
2	13	10	13	0	13	1	13	2	13	5	13	4	
2	12	5	12	0	12	1	12	2	12	5	12	4	
2	13	6	6	0	6	1	6	2	6	1	6	0	
4	0	5	12	10	5	0	5	1	5	2	5	3	5	4	
6	11	9	6	0	5	3	5	0	5	1	5	2	5	3	5	4	
5	11	8	7	2	4	2	0	2	1	2	2	2	3	2	4	
4	1	5	12	10	5	0	5	1	5	2	5	3	5	4	
4	9	8	7	2	9	0	9	1	9	5	9	3	9	4	
4	7	2	1	5	2	0	2	1	2	5	2	3	2	4	
4	8	7	2	1	2	0	2	1	2	2	2	3	2	4	
3	2	4	3	2	0	2	1	2	2	2	1	2	0	
3	3	5	0	0	0	0	1	0	5	0	3	0	4	
3	3	5	12	12	0	12	1	12	2	12	5	12	4	
5	6	9	11	8	7	6	0	6	1	6	2	6	3	6	4	
3	6	13	12	6	0	6	1	6	5	6	3	6	4	
2	12	10	12	0	12	1	12	2	12	3	12	4	
5	2	1	5	12	13	2	0	2	1	2	2	2	5	2	4	
5	12	13	6	9	11	6	0	6	1	6	5	6	3	6	4	
5	5	0	6	9	11	6	0	6	1	6	5	6	3	6	4	
2	9	11	9	0	9	1	9	5	9	3	9	4	
3	14	7	2	2	0	2	1	2	5	2	3	2	4	
3	7	14	8	8	0	8	1	8	5	8	3	8	4	
3	2	4	3	2	0	2	1	2	5	2	3	2	4	
6	10	13	6	9	8	14	6	0	6	1	6	5	6	3	6	4	
3	0	6	9	6	0	6	1	6	2	6	1	6	0	
6	10	12	5	1	2	7	2	0	2	1	2	2	2	5	2	4	
6	4	2	7	14	8	11	2	0	2	1	2	2	2	1	2	0	
3	1	2	7	2	0	2	1	2	2	2	5	2	4	
3	1	2	4	2	0	2	1	2	2	2	3	2	4	
3	12	5	3	5	0	5	1	5	2	5	1	5	0	
3	5	3	4	3	0	3	1	3	2	3	5	3	4	
4	5	0	6	9	5	0	5	1	5	2	5	3	5	4	
7	4	3	5	0	6	9	11	6	0	6	1	6	2	6	5	6	4	
3	2	1	5	2	0	2	1	2	2	2	5	2	4	
4	13	12	5	1	5	0	5	1	5	2	5	3	5	4	
3	0	5	3	5	0	5	1	5	2	5	3	5	4	
3	3	5	12	12	0	12	1	12	5	12	3	12	4	
3	6	13	12	6	0	6	1	6	2	6	1	6	0	
4	3	4	2	7	2	0	2	1	2	2	2	3	2	4	
5	6	0	5	1	2	6	0	6	1	6	2	6	5	6	4	
6	7	2	1	5	12	13	5	0	5	1	5	2	5	1	5	0	
4	8	9	6	13	6	0	6	1	6	2	6	5	6	4	
7	14	7	2	1	5	12	10	2	0	2	1	2	2	2	5	2	4	
4	1	5	0	6	5	0	5	1	5	2	5	1	5	0	
4	9	6	0	5	5	0	5	1	5	2	5	3	5	4	
2	5	1	5	0	5	1	5	2	5	1	5	0	
5	13	12	5	3	4	5	0	5	1	5	2	5	3	5	4	
3	3	5	0	0	0	0	1	0	2	0	5	0	4	
5	1	5	0	6	9	6	0	6	1	6	5	6	3	6	4	
3	13	6	9	6	0	6	1	6	2	6	5	6	4	
3	8	7	2	2	0	2	1	2	5	2	3	2	4	
4	4	2	7	14	2	0	2	1	2	2	2	3	2	4	
7	10	13	6	9	11	8	14	6	0	6	1	6	2	6	1	6	0	
2	13	12	12	0	12	1	12	5	12	3	12	4	
5	0	5	1	2	7	2	0	2	1	2	2	2	5	2	4	
6	11	9	6	0	5	3	6	0	6	1	6	2	6	5	6	4	
2	4	2	2	0	2	1	2	2	2	5	2	4	
5	9	6	0	5	3	5	0	5	1	5	2	5	1	5	0	
2	12	13	12	0	12	1	12	2	12	1	12	0	
3	13	6	9	6	0	6	1	6	5	6	3	6	4	
4	0	5	12	10	5	0	5	1	5	2	5	1	5	0	
4	2	1	5	0	5	0	5	1	5	2	5	1	5	0	
5	10	12	5	3	4	5	0	5	1	5	2	5	3	5	4	
5	12	5	1	2	7	2	0	2	1	2	5	2	3	2	4	
5	8	9	6	13	12	6	0	6	1	6	2	6	5	6	4	
3	8	7	2	2	0	2	1	2	2	2	3	2	4	
6	7	2	1	5	0	6	6	0	6	1	6	2	6	5	6	4	
4	12	5	1	2	2	0	2	1	2	2	2	5	2	4	
3	2	1	5	5	0	5	1	5	2	5	3	5	4	
4	1	2	7	14	2	0	2	1	2	5	2	3	2	4	
5	14	7	2	4	3	2	0	2	1	2	5	2	3	2	4	
5	14	7	2	4	3	2	0	2	1	2	2	2	5	2	4	
3	10	12	5	5	0	5	1	5	2	5	1	5	0	
4	9	6	13	10	6	0	6	1	6	2	6	5	6	4	
2	5	3	3	0	3	1	3	2	3	5	3	4	
4	3	5	12	10	5	0	5	1	5	2	5	1	5	0	
5	5	1	2	7	14	5	0	5	1	5	2	5	3	5	4	
5	2	1	5	12	13	5	0	5	1	5	2	5	1	5	0	
5	8	9	6	13	10	6	0	6	1	6	2	6	3	6	4	
3	12	5	0	5	0	5	1	5	2	5	1	5	0	
3	7	2	1	2	0	2	1	2	2	2	3	2	4	
4	10	13	6	9	6	0	6	1	6	5	6	3	6	4	
4	9	6	13	10	6	0	6	1	6	2	6	3	6	4	
4	11	9	6	13	6	0	6	1	6	2	6	3	6	4	
2	1	2	2	0	2	1	2	5	2	3	2	4	
4	2	7	14	8	2	0	2	1	2	5	2	3	2	4	
7	14	7	2	1	5	0	6	6	0	6	1	6	2	6	5	6	4	
6	3	5	0	6	9	11	5	0	5	1	5	2	5	3	5	4	
4	0	6	9	11	6	0	6	1	6	2	6	5	6	4	
10	14	7	2	1	5	0	6	9	11	8	5	0	5	1	5	2	5	3	5	4	
3	6	0	5	6	0	6	1	6	2	6	5	6	4	
3	13	6	0	6	0	6	1	6	5	6	3	6	4	
3	2	7	14	2	0	2	1	2	2	2	3	2	4	
3	5	1	2	5	0	5	1	5	2	5	1	5	0	
6	14	8	9	6	13	10	6	0	6	1	6	5	6	3	6	4	
5	8	7	2	1	5	2	0	2	1	2	2	2	5	2	4	
5	9	11	8	7	2	9	0	9	1	9	2	9	3	9	4	
5	3	5	0	6	9	5	0	5	1	5	2	5	3	5	4	
6	1	5	0	6	9	11	6	0	6	1	6	2	6	5	6	4	
4	13	6	9	11	6	0	6	1	6	2	6	5	6	4	
3	13	6	9	6	0	6	1	6	2	6	1	6	0	
4	8	9	6	0	6	0	6	1	6	2	6	5	6	4	
4	0	5	3	4	5	0	5	1	5	2	5	1	5	0	
3	0	6	13	6	0	6	1	6	2	6	3	6	4	
5	5	1	2	7	14	5	0	5	1	5	2	5	1	5	0	
