4655.1	3961.86
1626
67822.2	48755.6
15
0	2951	2989
1	0	-1
2	2989	3127
3	0	-1
4	0	-1
5	5015	5021
6	4878	4914
7	3811	3818
8	0	-1
9	0	-1
10	0	-1
11	0	-1
12	0	-1
13	0	-1
14	0	-1
44
0	5	99.698458	103.009138	1.000000
0	6	99.977004	106.009660	1.000000
0	7	97.071832	117.010696	1.000000
1	2	47.192404	115.010348	1.000000
1	4	31.884958	113.010000	1.000000
1	5	80.980524	115.010348	1.000000
2	1	47.300746	115.010348	1.000000
2	4	38.136048	106.009660	1.000000
2	7	85.714426	102.008964	1.000000
3	4	6.062342	99.008443	1.000000
3	5	61.332828	91.007929	1.000000
4	1	33.321878	113.010000	1.000000
4	2	37.571004	106.009660	1.000000
4	3	4.725864	99.008443	1.000000
5	0	100.541896	103.009138	1.000000
5	1	79.239772	115.010348	1.000000
5	3	63.340280	91.007929	1.000000
5	12	91.518578	92.008103	1.000000
6	0	100.210938	106.009660	1.000000
6	9	94.174636	97.008972	1.000000
6	13	109.165832	110.009478	1.000000
7	0	95.893464	117.010696	1.000000
7	2	85.354712	102.008964	1.000000
7	8	106.194330	109.009304	1.000000
7	14	66.407466	113.010000	1.000000
8	7	104.680360	109.009304	1.000000
8	9	47.537168	106.009660	1.000000
8	11	28.447118	90.007755	1.000000
8	14	0.000000	96.008798	0.000000
9	6	95.292312	97.008972	1.000000
9	8	46.175794	106.009660	1.000000
9	11	38.574106	112.009826	1.000000
10	12	28.499850	106.009660	1.000000
10	13	38.144628	101.008791	1.000000
11	8	29.058060	90.007755	1.000000
11	9	38.390176	112.009826	1.000000
12	5	91.716158	92.008103	1.000000
12	10	28.889268	106.009660	1.000000
12	13	42.307990	98.009146	1.000000
13	6	109.029760	110.009478	1.000000
13	10	38.248972	101.008791	1.000000
13	12	42.233964	98.009146	1.000000
14	7	66.393826	113.010000	1.000000
14	8	0.000000	96.008798	0.000000
840
4	10	12	5	3	5	0	5	1	5	5	5	3	5	4	
3	14	7	2	7	0	2	1	2	5	2	3	2	4	
3	3	5	0	0	0	0	1	0	5	0	3	0	4	
4	8	7	8	9	7	0	7	1	7	2	7	3	7	4	
4	14	7	2	4	7	0	7	1	7	5	7	3	7	4	
3	2	7	14	2	0	7	1	7	2	7	5	7	4	
4	9	6	13	12	6	0	6	1	6	5	6	3	6	4	
2	12	5	5	0	5	1	5	2	5	1	5	0	
3	2	7	8	2	0	2	1	2	2	2	5	2	4	
3	5	1	2	2	0	2	1	2	2	2	1	2	0	
5	13	12	5	3	4	5	0	5	1	5	2	5	3	5	4	
3	0	7	2	0	0	0	1	0	2	0	1	0	0	
4	4	1	5	12	5	0	5	1	5	5	5	3	5	4	
2	6	13	6	0	6	1	6	2	6	3	6	4	
3	8	7	0	0	0	0	1	0	2	0	5	0	4	
3	1	2	7	7	0	7	1	7	2	7	5	7	4	
3	8	9	6	6	0	6	1	6	2	6	5	6	4	
5	3	5	0	7	14	5	0	5	1	5	2	5	5	5	4	
2	8	7	7	0	7	1	7	5	7	3	7	4	
4	10	12	5	12	5	0	5	1	5	2	5	3	5	4	
4	3	5	0	7	5	0	5	1	5	2	5	3	5	4	
4	7	0	6	13	6	0	6	1	6	5	6	3	6	4	
4	14	7	2	1	2	0	2	1	2	5	2	3	2	4	
5	11	9	6	0	5	6	0	6	1	6	2	6	1	6	0	
2	1	2	2	0	2	1	2	2	2	3	2	4	
4	4	1	5	12	5	0	5	1	5	2	5	1	5	0	
3	7	2	1	2	0	2	1	2	5	2	3	2	4	
3	2	1	5	2	0	2	1	2	5	2	3	2	4	
2	9	6	6	0	6	1	6	5	6	3	6	4	
5	1	2	7	8	11	2	0	2	1	2	2	2	5	7	4	
4	11	9	6	0	6	0	6	1	6	2	6	1	6	0	
6	14	7	0	6	13	10	6	0	6	1	6	2	6	3	6	4	
3	4	2	1	2	0	2	1	2	2	2	1	2	0	
4	12	5	0	7	5	0	5	1	5	2	5	3	5	4	
2	5	0	0	0	0	1	0	2	0	3	0	4	
4	0	5	1	4	5	0	5	1	5	2	5	5	5	4	
4	11	9	6	9	6	0	6	1	6	2	6	1	6	0	
4	10	13	6	9	6	0	6	1	6	2	6	5	6	4	
4	9	8	7	8	7	0	7	1	7	5	7	3	7	4	
5	11	9	6	13	12	6	0	6	1	6	2	6	5	6	4	
3	7	0	6	0	0	0	1	0	2	0	5	0	4	
2	14	7	7	0	7	1	7	2	7	5	7	4	
4	13	6	9	11	6	0	6	1	6	5	6	3	6	4	
4	2	7	8	11	2	0	2	1	2	5	2	3	2	4	
3	6	13	10	6	0	6	1	6	5	6	3	6	4	
3	13	12	5	5	0	5	1	5	5	5	3	5	4	
3	0	5	1	0	0	0	1	0	2	0	3	0	4	
5	3	5	0	6	9	5	0	5	1	5	2	5	1	5	0	
4	3	5	12	10	5	0	5	1	5	2	5	5	5	4	
3	1	5	0	5	0	5	1	5	5	5	3	5	4	
3	7	0	5	0	0	0	1	0	2	0	3	0	4	
5	5	0	6	9	11	6	0	6	1	6	5	6	3	6	4	
3	0	7	8	7	0	7	1	7	2	7	5	7	4	
3	0	7	14	0	0	0	1	0	2	7	5	7	4	
4	3	5	1	4	5	0	5	1	5	2	5	1	5	0	
4	11	8	7	2	2	0	2	1	2	2	2	3	2	4	
3	14	7	8	7	0	7	1	7	2	7	1	7	0	
4	4	1	5	3	5	0	5	1	5	2	5	3	5	4	
2	2	4	2	0	2	1	2	2	2	3	2	4	
3	10	13	6	6	0	6	1	6	2	6	1	6	0	
3	13	6	0	6	0	6	1	6	2	6	5	6	4	
4	0	6	13	10	6	0	6	1	6	2	6	5	6	4	
4	6	0	5	1	6	0	6	1	6	2	6	5	0	4	
3	9	8	7	7	0	7	1	7	5	7	3	7	4	
5	8	9	6	13	10	6	0	6	1	6	2	6	3	6	4	
5	12	5	0	7	8	0	0	0	1	7	5	7	3	7	4	
4	14	7	0	5	0	0	0	1	0	2	0	1	0	0	
3	5	0	7	5	0	5	1	5	5	5	3	5	4	
3	12	13	6	6	0	6	1	6	5	6	3	6	4	
2	6	0	6	0	6	1	6	2	6	5	6	4	
2	5	1	5	0	5	1	5	5	5	3	5	4	
4	10	13	6	13	6	0	6	1	6	2	6	5	6	4	
4	13	12	5	3	5	0	5	1	5	2	5	3	5	4	
4	11	8	7	8	7	0	7	1	7	2	7	5	7	4	
4	6	0	7	2	2	0	2	1	2	2	2	3	2	4	
4	4	2	7	8	2	0	2	1	2	5	2	3	2	4	
4	9	6	13	10	6	0	6	1	6	2	6	1	6	0	
4	13	6	13	12	6	0	6	1	6	2	6	5	6	4	
4	10	13	6	13	6	0	6	1	6	2	6	3	6	4	
4	3	5	0	6	0	0	0	1	0	2	0	3	0	4	
5	7	0	6	13	10	6	0	6	1	6	2	6	1	6	0	
5	9	6	0	5	3	0	0	0	1	0	2	0	1	0	0	
3	12	5	3	5	0	5	1	5	2	5	5	5	4	
2	5	12	5	0	5	1	5	2	5	5	5	4	
3	7	8	9	7	0	7	1	7	5	7	3	7	4	
4	11	9	6	13	6	0	6	1	6	5	6	3	6	4	
3	0	6	13	0	0	0	1	0	5	0	3	0	4	
5	8	9	6	13	12	6	0	6	1	6	2	6	1	6	0	
4	14	7	8	11	7	0	7	1	7	2	7	3	7	4	
2	4	2	2	0	2	1	2	5	2	3	2	4	
3	12	5	0	5	0	5	1	5	2	5	3	5	4	
2	2	7	2	0	2	1	2	2	2	1	2	0	
5	14	7	0	6	13	0	0	0	1	0	2	0	5	0	4	
4	13	12	5	1	5	0	5	1	5	2	5	1	5	0	
2	6	0	6	0	6	1	6	2	6	1	6	0	
5	14	7	0	5	3	7	0	7	1	7	5	7	3	5	4	
3	14	7	2	2	0	2	1	2	2	2	5	2	4	
4	8	7	8	9	7	0	7	1	7	2	7	1	7	0	
3	6	13	12	6	0	6	1	6	2	6	5	6	4	
3	2	7	14	2	0	2	1	2	2	2	1	2	0	
4	10	12	5	1	5	0	5	1	5	2	5	5	5	4	
4	3	5	12	10	5	0	5	1	5	5	5	3	5	4	
4	9	8	7	8	7	0	7	1	7	2	7	3	7	4	
2	3	5	5	0	5	1	5	2	5	5	5	4	
3	5	1	2	2	0	2	1	2	2	2	5	2	4	
5	13	12	5	3	4	5	0	5	1	5	2	5	1	5	0	
3	0	7	2	2	0	2	1	2	2	2	3	2	4	
2	6	13	6	0	6	1	6	2	6	1	6	0	
3	8	7	0	0	0	0	1	0	2	0	1	0	0	
3	11	9	6	6	0	6	1	6	2	6	5	6	4	
3	1	2	7	2	0	2	1	2	2	2	1	2	0	
3	7	2	4	7	0	7	1	7	2	7	3	7	4	
3	3	4	2	2	0	2	1	2	2	2	5	2	4	
5	10	12	5	1	2	2	0	2	1	2	5	2	3	2	4	
3	3	5	1	5	0	5	1	5	5	5	3	5	4	
4	10	12	5	12	5	0	5	1	5	5	5	3	5	4	
3	13	6	9	6	0	6	1	6	5	6	3	6	4	
4	7	0	6	13	0	0	0	1	0	2	0	5	0	4	
5	11	9	6	0	5	6	0	0	1	0	2	0	3	5	4	
2	1	2	2	0	2	1	2	2	2	1	2	0	
4	4	1	5	12	5	0	5	1	5	2	5	3	5	4	
4	12	5	1	2	2	0	2	1	2	2	2	1	2	0	
3	2	1	5	2	0	2	1	2	2	2	3	2	4	
3	5	12	13	5	0	5	1	5	2	5	1	5	0	
4	5	0	7	14	5	0	5	1	5	5	5	3	5	4	
5	11	9	6	13	10	6	0	6	1	6	2	6	5	6	4	
3	13	6	9	6	0	6	1	6	2	6	5	6	4	
5	1	2	7	8	11	7	0	7	1	7	2	7	1	7	0	
4	8	7	8	11	7	0	7	1	7	2	7	3	7	4	
3	4	2	1	2	0	2	1	2	2	2	5	2	4	
4	14	7	8	9	7	0	7	1	7	2	7	5	7	4	
4	12	5	0	7	5	0	5	1	5	2	5	1	5	0	
2	5	0	0	0	0	1	0	2	0	1	0	0	
5	13	6	0	7	2	0	0	0	1	0	2	0	3	0	4	
4	0	5	1	4	0	0	0	1	0	2	5	1	5	0	
3	7	8	11	7	0	7	1	7	5	7	3	7	4	
4	6	0	5	3	0	0	0	1	0	2	0	3	0	4	
4	11	9	6	9	6	0	6	1	6	2	6	3	6	4	
3	10	12	5	5	0	5	1	5	2	5	5	5	4	
3	7	0	6	7	0	7	1	7	5	7	3	7	4	
5	12	5	0	7	14	5	0	5	1	5	2	5	1	5	0	
2	14	7	7	0	7	1	7	5	7	3	7	4	
4	13	6	9	11	6	0	6	1	6	2	6	5	6	4	
3	6	13	10	6	0	6	1	6	2	6	5	6	4	
3	13	12	5	5	0	5	1	5	2	5	5	5	4	
3	0	5	1	0	0	0	1	0	2	0	1	0	0	
5	3	5	0	6	9	0	0	0	1	0	2	0	3	0	4	
3	11	8	7	7	0	7	1	7	2	7	1	7	0	
3	1	5	0	5	0	5	1	5	2	5	3	5	4	
4	4	2	7	14	7	0	7	1	7	2	7	1	7	0	
5	5	0	6	9	11	0	0	0	1	0	2	0	5	0	4	
5	13	6	0	7	14	7	0	7	1	7	2	7	3	7	4	
3	0	7	8	7	0	7	1	7	2	7	1	7	0	
4	3	5	1	4	5	0	5	1	5	2	5	5	5	4	
4	11	8	7	2	7	0	7	1	7	2	7	1	7	0	
3	14	7	8	7	0	7	1	7	2	7	3	7	4	
5	2	1	5	12	10	2	0	2	1	2	5	2	3	2	4	
4	4	1	5	3	5	0	5	1	5	2	5	1	5	0	
3	12	5	1	5	0	5	1	5	2	5	3	5	4	
2	2	4	2	0	2	1	2	5	2	3	2	4	
4	5	0	7	14	5	0	5	1	5	2	5	3	5	4	
3	10	13	6	6	0	6	1	6	2	6	3	6	4	
3	13	6	0	0	0	0	1	0	5	0	3	0	4	
4	6	0	5	1	0	0	0	1	0	5	0	3	0	4	
4	8	7	2	4	7	0	7	1	7	5	7	3	7	4	
4	14	7	0	5	7	0	7	1	7	2	7	5	7	4	
5	8	9	6	13	10	6	0	6	1	6	5	6	3	6	4	
5	12	13	6	9	8	6	0	6	1	6	2	6	5	6	4	
3	5	0	7	5	0	5	1	5	2	5	5	5	4	
3	12	13	6	6	0	6	1	6	2	6	5	6	4	
2	5	1	5	0	5	1	5	2	5	5	5	4	
5	10	13	6	9	8	6	0	6	1	6	2	6	1	6	0	
3	0	5	3	0	0	0	1	0	2	0	3	0	4	
6	3	5	0	6	9	11	0	0	0	1	0	2	0	1	6	0	
4	4	2	7	8	2	0	2	1	2	2	2	5	2	4	
4	12	13	6	13	6	0	6	1	6	2	6	3	6	4	
2	7	8	7	0	7	1	7	5	7	3	7	4	
2	2	1	2	0	2	1	2	2	2	5	2	4	
4	9	6	13	10	6	0	6	1	6	2	6	5	6	4	
4	13	6	13	12	6	0	6	1	6	5	6	3	6	4	
4	10	13	6	13	6	0	6	1	6	2	6	1	6	0	
4	3	5	0	6	0	0	0	1	0	2	0	1	0	0	
4	9	6	13	12	6	0	6	1	6	2	6	5	6	4	
5	11	8	7	2	4	7	0	7	1	7	2	7	3	7	4	
4	8	7	8	11	7	0	7	1	7	5	7	3	7	4	
5	4	1	5	12	13	5	0	5	1	5	2	5	3	5	4	
5	9	6	0	5	3	0	0	0	1	0	2	0	3	0	4	
3	12	5	3	5	0	5	1	5	5	5	3	5	4	
2	5	12	5	0	5	1	5	5	5	3	5	4	
5	10	12	5	1	4	5	0	5	1	5	2	5	1	5	0	
4	1	5	12	13	5	0	5	1	5	2	5	5	5	4	
4	11	9	6	13	6	0	6	1	6	2	6	5	6	4	
5	8	9	6	13	12	6	0	6	1	6	2	6	3	6	4	
4	14	7	8	11	7	0	7	1	7	2	7	1	7	0	
5	2	7	0	6	13	2	0	6	1	6	2	6	5	6	4	
2	4	2	2	0	2	1	2	2	2	5	2	4	
3	9	6	13	6	0	6	1	6	2	6	1	6	0	
2	2	7	7	0	7	1	7	2	7	5	7	4	
4	13	12	5	1	5	0	5	1	5	2	5	3	5	4	
2	6	0	0	0	0	1	0	2	0	3	0	4	
4	11	8	7	8	7	0	7	1	7	2	7	3	7	4	
3	14	7	2	7	0	7	1	7	2	7	1	7	0	
4	6	0	7	2	0	0	0	1	0	5	0	3	0	4	
3	1	2	4	2	0	2	1	2	2	2	5	2	4	
3	7	2	1	2	0	2	1	2	2	2	1	2	0	
3	2	7	14	7	0	7	1	7	2	7	3	7	4	
4	9	8	7	8	7	0	7	1	7	2	7	1	7	0	
3	0	5	12	0	0	0	1	0	5	0	3	0	4	
3	5	1	2	2	0	2	1	2	5	2	3	2	4	
5	10	13	6	9	11	6	0	6	1	6	2	6	3	6	4	
3	0	7	2	2	0	2	1	2	5	2	3	2	4	
5	3	5	0	7	8	5	0	5	1	5	2	5	3	5	4	
3	8	7	0	0	0	0	1	0	2	0	3	0	4	
3	11	9	6	6	0	6	1	6	5	6	3	6	4	
3	3	5	12	5	0	5	1	5	5	5	3	5	4	
3	1	2	7	7	0	7	1	7	2	7	3	7	4	
3	7	2	4	7	0	7	1	7	2	7	1	7	0	
5	9	8	7	2	1	2	0	2	1	2	2	2	1	2	0	
3	2	7	0	0	0	0	1	0	2	0	1	0	0	
2	12	5	5	0	5	1	5	5	5	3	5	4	
5	10	12	5	1	2	2	0	2	1	2	2	2	5	2	4	
4	9	8	7	8	7	0	7	1	7	2	7	5	7	4	
4	10	12	5	12	5	0	5	1	5	2	5	5	5	4	
4	1	2	7	8	7	0	7	1	7	2	7	5	7	4	
4	3	5	0	7	5	0	5	1	5	2	5	5	5	4	
4	7	0	6	13	0	0	0	1	0	2	0	1	0	0	
3	8	7	14	7	0	7	1	7	2	7	1	7	0	
4	14	7	8	9	7	0	7	1	7	2	7	3	7	4	
5	1	2	7	8	9	2	0	7	1	7	2	7	5	7	4	
4	12	5	1	2	5	0	5	1	5	2	5	3	5	4	
3	2	1	5	2	0	2	1	2	2	2	1	2	0	
3	5	12	13	5	0	5	1	5	2	5	3	5	4	
5	10	13	6	0	7	0	0	0	1	0	2	0	3	0	4	
2	0	7	0	0	0	1	0	2	0	5	0	4	
5	11	9	6	13	10	6	0	6	1	6	5	6	3	6	4	
5	1	2	7	8	11	2	0	2	1	2	2	2	3	2	4	
4	8	7	8	11	7	0	7	1	7	2	7	1	7	0	
4	2	1	5	12	5	0	5	1	5	2	5	1	5	0	
3	4	2	1	2	0	2	1	2	5	2	3	2	4	
4	9	8	7	14	7	0	7	1	7	2	7	3	7	4	
5	9	8	7	2	4	2	0	2	1	2	5	2	3	2	4	
5	13	6	0	7	2	6	0	6	1	6	2	6	1	6	0	
4	0	5	1	4	0	0	0	1	0	2	5	3	5	4	
4	6	0	5	3	6	0	6	1	6	2	6	1	6	0	
3	8	7	2	2	0	2	1	2	2	2	1	2	0	
2	1	5	5	0	5	1	5	2	5	1	5	0	
3	7	0	6	6	0	6	1	6	2	6	3	6	4	
5	12	5	0	7	14	5	0	5	1	5	2	5	3	5	4	
4	13	6	9	11	6	0	6	1	6	2	6	1	6	0	
4	0	6	9	11	6	0	6	1	6	2	6	5	6	4	
3	6	13	10	6	0	6	1	6	2	6	1	6	0	
3	0	5	1	0	0	0	1	0	2	0	5	0	4	
2	7	0	7	0	7	1	7	2	7	5	7	4	
3	11	8	7	7	0	7	1	7	2	7	3	7	4	
3	1	5	0	0	0	0	1	0	2	0	1	0	0	
4	4	2	7	14	2	0	2	1	2	2	2	3	2	4	
4	9	8	7	2	2	0	2	1	2	2	2	3	2	4	
5	9	8	7	2	4	2	0	2	1	2	2	2	5	2	4	
3	2	4	3	2	0	2	1	2	2	2	3	2	4	
5	8	7	0	5	3	7	0	7	1	7	5	7	3	5	4	
5	5	0	6	9	11	6	0	6	1	6	2	6	1	6	0	
5	13	6	0	7	14	0	0	7	1	7	2	7	1	7	0	
3	0	7	8	7	0	7	1	7	2	7	3	7	4	
4	2	1	5	12	5	0	5	1	5	5	5	3	5	4	
5	1	2	7	8	9	2	0	7	1	7	2	7	1	7	0	
3	6	0	7	6	0	6	1	6	5	6	3	6	4	
4	8	9	6	13	6	0	6	1	6	2	6	3	6	4	
3	14	7	8	7	0	7	1	7	5	7	3	7	4	
5	2	1	5	12	10	5	0	5	1	5	2	5	5	5	4	
3	12	5	1	5	0	5	1	5	2	5	1	5	0	
2	2	4	2	0	2	1	2	2	2	5	2	4	
4	5	0	7	14	5	0	5	1	5	2	5	1	5	0	
3	13	6	0	0	0	0	1	0	2	0	3	0	4	
2	0	6	6	0	6	1	6	2	6	1	6	0	
6	11	9	6	0	5	3	6	0	6	1	6	2	6	5	0	4	
4	6	0	5	1	6	0	6	1	6	2	6	3	6	4	
4	8	7	2	4	7	0	7	1	7	2	7	5	7	4	
4	8	7	8	9	7	0	7	1	7	5	7	3	7	4	
5	8	9	6	13	10	6	0	6	1	6	2	6	5	6	4	
5	12	5	0	7	8	5	0	5	1	5	2	5	1	5	0	
3	5	0	7	5	0	5	1	5	2	5	1	5	0	
5	10	13	6	9	8	6	0	6	1	6	2	6	3	6	4	
3	0	5	3	0	0	0	1	0	2	0	1	0	0	
6	3	5	0	6	9	11	5	0	5	1	5	2	5	3	6	4	
4	8	7	2	1	2	0	2	1	2	2	2	3	2	4	
4	12	5	12	10	5	0	5	1	5	2	5	5	5	4	
4	1	5	0	6	0	0	0	1	0	2	0	3	0	4	
2	6	9	6	0	6	1	6	5	6	3	6	4	
4	4	2	7	8	7	0	7	1	7	2	7	1	7	0	
4	12	13	6	13	6	0	6	1	6	2	6	1	6	0	
2	2	1	2	0	2	1	2	5	2	3	2	4	
4	9	6	13	10	6	0	6	1	6	5	6	3	6	4	
4	13	6	13	12	6	0	6	1	6	2	6	3	6	4	
4	0	6	13	10	6	0	6	1	6	2	6	1	6	0	
5	13	6	0	7	2	0	0	0	1	0	5	0	3	0	4	
3	6	13	12	6	0	6	1	6	5	6	3	6	4	
5	11	8	7	2	4	7	0	7	1	7	2	7	1	7	0	
5	4	1	5	12	13	5	0	5	1	5	2	5	1	5	0	
3	12	5	3	5	0	5	1	5	2	5	3	5	4	
2	5	12	5	0	5	1	5	2	5	3	5	4	
5	10	12	5	1	4	5	0	5	1	5	2	5	3	5	4	
4	6	0	5	3	0	0	0	1	0	5	0	3	0	4	
4	11	9	6	13	6	0	6	1	6	2	6	1	6	0	
4	1	5	12	10	5	0	5	1	5	2	5	3	5	4	
2	7	2	7	0	7	1	7	2	7	5	2	4	
4	14	7	8	11	7	0	7	1	7	2	7	5	7	4	
5	2	7	0	6	13	2	0	6	1	6	5	6	3	6	4	
3	9	6	13	6	0	6	1	6	2	6	3	6	4	
4	13	6	0	7	0	0	0	1	0	5	0	3	0	4	
2	2	7	2	0	2	1	2	5	2	3	2	4	
4	7	0	5	12	0	0	0	1	0	5	0	3	0	4	
4	6	0	7	14	6	0	6	1	6	5	6	3	6	4	
4	8	7	0	5	0	0	0	1	0	5	0	3	0	4	
4	13	12	5	1	5	0	5	1	5	5	5	3	5	4	
2	0	5	0	0	0	1	0	2	0	3	0	4	
4	3	5	12	13	5	0	5	1	5	2	5	1	5	0	
4	11	8	7	8	7	0	7	1	7	2	7	1	7	0	
3	14	7	2	2	0	2	1	2	2	2	3	2	4	
3	1	2	4	2	0	2	1	2	5	2	3	2	4	
3	7	2	1	2	0	2	1	2	2	2	3	2	4	
2	7	0	0	0	0	1	0	5	0	3	0	4	
3	0	5	12	0	0	0	1	0	2	0	5	5	4	
3	7	8	11	7	0	7	1	7	2	7	5	7	4	
5	12	5	0	7	14	5	0	5	1	5	2	5	5	5	4	
5	10	13	6	9	11	6	0	6	1	6	2	6	1	6	0	
3	0	7	2	2	0	2	1	2	2	2	5	2	4	
5	3	5	0	7	8	5	0	5	1	5	2	5	1	5	0	
2	7	14	7	0	7	1	7	2	7	5	7	4	
3	11	9	6	6	0	6	1	6	2	6	3	6	4	
5	14	7	0	5	12	5	0	5	1	5	2	5	1	5	0	
3	7	2	4	2	0	2	1	2	2	2	5	2	4	
5	9	8	7	2	1	2	0	2	1	2	2	2	3	2	4	
2	13	6	6	0	6	1	6	5	6	3	6	4	
3	2	7	0	0	0	0	1	0	2	0	3	0	4	
4	4	1	5	12	5	0	5	1	5	2	5	5	5	4	
5	10	12	5	1	2	2	0	2	1	2	2	2	1	2	0	
3	6	9	8	6	0	6	1	6	5	6	3	6	4	
3	0	6	9	6	0	6	1	6	2	6	3	6	4	
3	3	5	1	5	0	5	1	5	2	5	1	5	0	
3	6	0	5	6	0	6	1	6	2	6	5	6	4	
3	7	0	5	5	0	5	1	5	5	5	3	5	4	
4	7	0	6	13	6	0	6	1	6	2	6	3	6	4	
3	8	7	14	7	0	7	1	7	2	7	3	7	4	
4	12	5	1	4	5	0	5	1	5	5	5	3	5	4	
4	14	7	8	9	7	0	7	1	7	2	7	1	7	0	
2	5	3	5	0	5	1	5	5	5	3	5	4	
4	12	5	1	2	2	0	2	1	2	5	2	3	2	4	
3	5	12	13	5	0	5	1	5	5	5	3	5	4	
5	10	13	6	0	7	6	0	6	1	6	2	6	1	6	0	
2	0	7	0	0	0	1	0	5	0	3	0	4	
5	11	9	6	13	10	6	0	6	1	6	2	6	3	6	4	
3	14	7	0	0	0	0	1	0	2	0	1	0	0	
4	7	0	5	3	7	0	7	1	0	2	0	1	0	0	
4	2	1	5	12	2	0	2	1	2	2	2	3	2	4	
4	8	7	2	1	2	0	2	1	2	5	2	3	2	4	
4	9	8	7	14	7	0	7	1	7	2	7	1	7	0	
4	13	6	9	8	6	0	6	1	6	2	6	5	6	4	
2	5	0	0	0	0	1	0	5	0	3	0	4	
2	6	9	6	0	6	1	6	2	6	5	6	4	
4	10	13	6	9	6	0	6	1	6	2	6	3	6	4	
4	3	5	12	10	5	0	5	1	5	2	5	3	5	4	
3	8	7	2	2	0	2	1	2	2	2	3	2	4	
2	1	5	5	0	5	1	5	2	5	3	5	4	
3	7	0	6	0	0	0	1	0	2	0	1	0	0	
3	9	8	7	7	0	7	1	7	2	7	1	7	0	
4	1	5	0	6	0	0	0	1	0	5	0	3	6	4	
4	5	0	7	8	0	0	7	1	7	2	7	5	7	4	
4	13	6	9	11	6	0	6	1	6	2	6	3	6	4	
4	0	6	9	11	6	0	6	1	6	5	6	3	6	4	
3	6	13	10	6	0	6	1	6	2	6	3	6	4	
5	11	8	7	2	1	2	0	2	1	2	5	2	3	2	4	
3	6	9	8	6	0	6	1	6	2	6	5	6	4	
4	4	1	5	0	5	0	5	1	5	5	5	3	5	4	
4	13	6	13	10	6	0	6	1	6	5	6	3	6	4	
3	11	8	7	7	0	7	1	7	5	7	3	7	4	
4	4	2	7	14	2	0	2	1	2	5	2	3	2	4	
4	9	8	7	2	2	0	2	1	2	2	2	1	2	0	
3	2	4	3	2	0	2	1	2	2	2	1	2	0	
5	5	0	6	9	11	0	0	0	1	0	2	0	3	0	4	
3	10	12	5	5	0	5	1	5	2	5	3	5	4	
5	6	0	5	1	4	6	0	6	1	6	2	6	1	5	0	
5	1	2	7	8	9	2	0	2	1	2	2	2	3	2	4	
3	6	9	11	6	0	6	1	6	5	6	3	6	4	
4	8	9	6	13	6	0	6	1	6	2	6	1	6	0	
5	12	13	6	9	11	6	0	6	1	6	2	6	5	6	4	
3	14	7	8	7	0	7	1	7	2	7	5	7	4	
5	2	1	5	12	10	5	0	5	1	5	2	5	1	5	0	
3	5	1	4	5	0	5	1	5	2	5	5	5	4	
4	9	6	13	12	6	0	6	1	6	2	6	3	6	4	
4	1	2	7	8	2	0	2	1	2	5	2	3	2	4	
4	5	0	7	14	5	0	5	1	5	2	5	5	5	4	
3	13	6	0	0	0	0	1	0	2	0	1	0	0	
2	0	6	0	0	0	1	0	2	0	3	0	4	
4	6	0	5	1	5	0	5	1	5	2	5	1	5	0	
4	8	7	2	4	2	0	2	1	2	2	2	1	2	0	
5	14	7	0	5	3	7	0	7	1	0	2	0	3	0	4	
2	7	0	0	0	0	1	0	2	0	3	0	4	
5	12	5	0	7	8	5	0	5	1	5	2	5	3	5	4	
4	1	5	12	13	5	0	5	1	5	5	5	3	5	4	
3	5	0	7	0	0	0	1	0	2	0	3	7	4	
3	13	6	9	6	0	6	1	6	2	6	1	6	0	
3	6	9	8	6	0	6	1	6	2	6	1	6	0	
4	3	5	12	13	5	0	5	1	5	2	5	5	5	4	
6	3	5	0	6	9	11	0	0	0	1	0	5	0	3	6	4	
4	8	7	2	1	2	0	2	1	2	2	2	1	2	0	
2	1	2	2	0	2	1	2	5	2	3	2	4	
4	1	5	0	6	0	0	0	1	0	2	0	1	0	0	
4	4	2	7	8	2	0	2	1	2	2	2	3	2	4	
3	9	6	0	0	0	0	1	0	2	0	3	0	4	
2	2	1	2	0	2	1	2	2	2	3	2	4	
4	5	0	6	9	0	0	0	1	0	2	0	1	6	0	
4	13	6	13	12	6	0	6	1	6	2	6	1	6	0	
4	0	6	13	10	6	0	6	1	6	2	6	3	6	4	
5	13	6	0	7	14	0	0	7	1	7	5	7	3	7	4	
4	11	8	7	14	7	0	7	1	7	2	7	5	7	4	
4	7	0	5	12	5	0	5	1	5	2	5	3	5	4	
5	11	8	7	2	4	2	0	2	1	2	2	2	5	2	4	
5	4	1	5	12	13	5	0	5	1	5	2	5	5	5	4	
3	12	5	3	5	0	5	1	5	2	5	1	5	0	
2	5	12	5	0	5	1	5	2	5	1	5	0	
5	10	12	5	1	4	5	0	5	1	5	5	5	3	5	4	
4	7	0	5	12	0	0	0	1	0	2	0	5	5	4	
3	6	0	7	6	0	6	1	6	2	6	3	6	4	
4	11	9	6	13	6	0	6	1	6	2	6	3	6	4	
4	1	5	12	10	5	0	5	1	5	2	5	1	5	0	
2	7	2	7	0	7	1	7	5	7	3	7	4	
4	12	5	12	10	5	0	5	1	5	2	5	1	5	0	
4	14	7	8	11	7	0	7	1	7	5	7	3	7	4	
5	2	7	0	6	13	6	0	6	1	6	2	6	3	6	4	
3	9	6	13	6	0	6	1	6	5	6	3	6	4	
4	13	6	0	7	0	0	0	1	0	2	0	5	7	4	
4	6	0	7	14	0	0	7	1	7	2	7	5	7	4	
4	13	12	5	1	5	0	5	1	5	2	5	5	5	4	
2	0	5	0	0	0	1	0	2	0	1	0	0	
4	3	5	12	13	5	0	5	1	5	2	5	3	5	4	
5	8	7	0	5	3	7	0	7	1	0	2	0	3	0	4	
5	1	2	7	8	9	2	0	2	1	2	5	2	3	2	4	
3	1	2	4	2	0	2	1	2	2	2	3	2	4	
5	4	1	5	12	10	5	0	5	1	5	2	5	1	5	0	
4	13	6	13	10	6	0	6	1	6	2	6	3	6	4	
3	0	5	12	0	0	0	1	0	2	0	1	0	0	
3	6	9	11	6	0	6	1	6	2	6	3	6	4	
4	1	2	7	14	7	0	7	1	7	5	7	3	7	4	
5	10	13	6	9	11	6	0	6	1	6	2	6	5	6	4	
5	3	5	0	7	8	0	0	7	1	7	2	7	5	7	4	
2	7	14	7	0	7	1	7	5	7	3	7	4	
3	11	9	6	6	0	6	1	6	2	6	1	6	0	
5	14	7	0	5	12	0	0	0	1	0	2	0	3	0	4	
4	2	7	0	6	2	0	2	1	2	5	2	3	2	4	
3	7	2	4	2	0	2	1	2	5	2	3	2	4	
5	9	8	7	2	1	2	0	2	1	2	5	2	3	2	4	
3	2	7	0	0	0	0	1	0	5	0	3	0	4	
3	5	12	10	5	0	5	1	5	2	5	3	5	4	
5	10	12	5	1	2	2	0	2	1	2	2	2	3	2	4	
3	0	6	9	0	0	0	1	0	2	0	1	0	0	
3	3	5	1	5	0	5	1	5	2	5	3	5	4	
3	6	0	5	0	0	0	1	0	5	0	3	0	4	
4	1	2	7	8	2	0	2	1	2	2	2	3	2	4	
5	4	1	5	0	6	5	0	5	1	5	2	5	1	6	0	
3	8	7	14	7	0	7	1	7	5	7	3	7	4	
4	12	5	1	4	5	0	5	1	5	2	5	5	5	4	
3	5	1	4	5	0	5	1	5	5	5	3	5	4	
2	5	3	5	0	5	1	5	2	5	5	5	4	
4	12	5	1	2	2	0	2	1	2	2	2	5	2	4	
3	5	12	13	5	0	5	1	5	2	5	5	5	4	
5	10	13	6	0	7	0	0	0	1	0	2	0	5	7	4	
3	12	5	1	5	0	5	1	5	5	5	3	5	4	
2	0	7	0	0	0	1	0	2	0	3	0	4	
5	11	9	6	13	10	6	0	6	1	6	2	6	1	6	0	
3	14	7	0	0	0	0	1	0	2	0	3	0	4	
4	7	0	5	3	7	0	7	1	0	2	0	3	0	4	
4	12	13	6	9	6	0	6	1	6	2	6	3	6	4	
3	9	6	0	6	0	6	1	6	2	6	5	6	4	
3	5	0	6	0	0	0	1	0	2	0	3	0	4	
4	9	8	7	14	7	0	7	1	7	2	7	5	7	4	
4	13	6	9	8	6	0	6	1	6	5	6	3	6	4	
3	6	0	7	6	0	6	1	6	2	6	5	6	4	
4	10	13	6	9	6	0	6	1	6	2	6	1	6	0	
3	1	5	3	5	0	5	1	5	5	5	3	5	4	
4	3	5	12	10	5	0	5	1	5	2	5	1	5	0	
3	8	7	2	2	0	2	1	2	5	2	3	2	4	
2	1	5	5	0	5	1	5	5	5	3	5	4	
5	4	2	7	8	9	2	0	2	1	2	2	2	3	2	4	
3	9	8	7	7	0	7	1	7	2	7	3	7	4	
4	9	6	9	11	6	0	6	1	6	5	6	3	6	4	
4	1	5	12	10	5	0	5	1	5	5	5	3	5	4	
4	5	0	7	8	5	0	5	1	5	5	5	3	5	4	
4	10	13	6	0	0	0	0	1	0	2	0	1	0	0	
4	0	6	9	11	0	0	0	1	0	2	0	3	0	4	
4	8	7	8	9	7	0	7	1	7	2	7	5	7	4	
5	11	8	7	2	1	2	0	2	1	2	2	2	5	2	4	
4	4	1	5	0	0	0	0	1	0	2	0	5	0	4	
4	10	13	6	13	6	0	6	1	6	5	6	3	6	4	
3	11	8	7	7	0	7	1	7	2	7	5	7	4	
4	2	7	8	9	2	0	2	1	2	2	2	5	2	4	
4	4	2	7	14	2	0	2	1	2	2	2	5	7	4	
4	9	8	7	2	2	0	2	1	2	2	2	5	2	4	
3	2	4	3	2	0	2	1	2	2	2	5	2	4	
3	10	12	5	5	0	5	1	5	2	5	1	5	0	
4	12	5	12	10	5	0	5	1	5	5	5	3	5	4	
5	6	0	5	1	4	6	0	6	1	6	2	6	3	6	4	
5	11	9	6	13	12	6	0	6	1	6	2	6	3	6	4	
5	4	2	7	8	11	7	0	7	1	7	2	7	5	7	4	
4	14	7	0	6	7	0	7	1	7	2	7	1	6	0	
3	4	1	5	5	0	5	1	5	2	5	3	5	4	
4	8	9	6	13	6	0	6	1	6	2	6	5	6	4	
5	12	13	6	9	11	6	0	6	1	6	5	6	3	6	4	
5	2	1	5	12	10	2	0	2	1	2	2	2	3	2	4	
5	13	6	0	7	2	6	0	0	1	7	2	7	5	7	4	
4	9	6	13	12	6	0	6	1	6	2	6	1	6	0	
5	3	5	0	6	9	5	0	5	1	5	2	5	5	6	4	
2	0	6	0	0	0	1	0	5	0	3	0	4	
3	3	5	12	5	0	5	1	5	2	5	3	5	4	
4	8	7	2	4	7	0	7	1	7	2	7	3	7	4	
5	14	7	0	5	3	0	0	0	1	0	2	0	1	0	0	
3	7	2	1	2	0	2	1	2	2	2	5	2	4	
2	7	0	0	0	0	1	0	2	0	1	0	0	
4	9	6	0	5	0	0	0	1	0	2	0	1	0	0	
5	4	2	7	8	11	7	0	7	1	7	5	7	3	7	4	
4	6	0	5	3	6	0	6	1	6	2	6	5	0	4	
3	13	6	9	6	0	6	1	6	2	6	3	6	4	
3	6	9	8	6	0	6	1	6	2	6	3	6	4	
5	10	13	6	9	8	6	0	6	1	6	2	6	5	6	4	
3	1	5	12	5	0	5	1	5	2	5	5	5	4	
6	3	5	0	6	9	11	0	0	0	1	0	2	0	5	6	4	
3	7	8	9	7	0	7	1	7	2	7	1	7	0	
5	14	7	0	6	13	7	0	6	1	6	2	6	3	6	4	
3	9	6	0	0	0	0	1	0	2	0	1	0	0	
4	8	7	0	5	0	0	0	1	0	2	0	5	0	4	
3	0	5	3	0	0	0	1	0	5	0	3	0	4	
2	2	1	2	0	2	1	2	2	2	1	2	0	
4	8	7	8	11	7	0	7	1	7	2	7	5	7	4	
4	5	0	6	9	0	0	0	1	0	2	0	3	6	4	
4	10	12	5	3	5	0	5	1	5	2	5	3	5	4	
4	0	6	13	10	0	0	0	1	0	5	0	3	0	4	
3	3	5	0	0	0	0	1	0	2	0	3	0	4	
4	11	8	7	14	7	0	7	1	7	5	7	3	7	4	
4	7	0	5	12	5	0	5	1	5	2	5	1	5	0	
5	11	8	7	2	4	2	0	2	1	2	5	2	3	2	4	
3	2	7	8	2	0	2	1	2	2	2	1	2	0	
6	10	13	6	0	7	14	6	0	0	1	0	2	0	5	7	4	
5	12	5	0	7	14	0	0	0	1	0	5	0	3	7	4	
5	10	12	5	1	4	5	0	5	1	5	2	5	5	5	4	
3	5	0	6	5	0	5	1	5	5	6	3	6	4	
3	6	0	7	0	0	0	1	0	2	0	1	0	0	
3	8	9	6	6	0	6	1	6	2	6	1	6	0	
4	14	7	2	1	2	0	2	1	2	2	2	3	2	4	
2	13	6	6	0	6	1	6	2	6	5	6	4	
4	12	13	6	9	6	0	6	1	6	5	6	3	6	4	
2	7	2	2	0	2	1	2	2	2	3	2	4	
4	12	5	12	10	5	0	5	1	5	2	5	3	5	4	
5	2	7	0	6	13	0	0	0	1	0	2	0	1	0	0	
4	14	7	2	1	2	0	2	1	2	2	2	5	2	4	
3	9	6	13	6	0	6	1	6	2	6	5	6	4	
4	13	6	0	7	0	0	0	1	0	2	0	1	0	0	
4	6	0	7	14	0	0	0	1	0	2	0	1	0	0	
2	0	5	0	0	0	1	0	2	0	5	0	4	
5	8	7	0	5	3	0	0	0	1	0	2	0	1	0	0	
3	1	2	4	2	0	2	1	2	2	2	1	2	0	
5	4	1	5	12	10	5	0	5	1	5	2	5	3	5	4	
2	9	6	6	0	6	1	6	2	6	3	6	4	
6	14	7	0	6	13	10	6	0	6	1	6	5	6	3	6	4	
4	13	6	13	10	6	0	6	1	6	2	6	1	6	0	
3	0	5	12	0	0	0	1	0	2	0	3	0	4	
3	6	9	11	6	0	6	1	6	2	6	1	6	0	
5	10	13	6	9	11	6	0	6	1	6	5	6	3	6	4	
4	1	5	12	13	5	0	5	1	5	2	5	1	5	0	
5	3	5	0	7	8	0	0	7	1	7	5	7	3	7	4	
2	7	14	7	0	7	1	7	2	7	3	7	4	
4	8	7	2	1	2	0	2	1	2	2	2	5	2	4	
5	14	7	0	5	12	0	0	0	1	0	5	0	3	5	4	
4	2	7	0	6	0	0	0	1	0	2	0	5	0	4	
5	9	8	7	2	1	2	0	2	1	2	2	2	5	2	4	
3	2	7	0	0	0	0	1	0	2	0	5	0	4	
3	5	12	10	5	0	5	1	5	2	5	1	5	0	
3	0	6	9	6	0	6	1	6	2	6	5	6	4	
3	6	0	5	6	0	0	1	0	2	0	3	0	4	
4	1	2	7	8	7	0	7	1	7	2	7	1	7	0	
5	4	1	5	0	6	5	0	5	1	5	2	5	3	5	4	
3	8	7	14	7	0	7	1	7	2	7	5	7	4	
4	12	5	1	4	5	0	5	1	5	2	5	1	5	0	
4	2	7	8	11	2	0	2	1	2	2	7	3	7	4	
2	5	3	5	0	5	1	5	2	5	1	5	0	
5	10	13	6	0	7	6	0	0	1	0	5	0	3	7	4	
4	13	6	13	10	6	0	6	1	6	2	6	5	6	4	
2	0	7	0	0	0	1	0	2	0	1	0	0	
4	8	7	0	5	0	0	0	1	0	2	0	3	0	4	
3	3	5	1	5	0	5	1	5	2	5	5	5	4	
3	14	7	0	0	0	0	1	0	5	0	3	0	4	
4	7	0	5	3	7	0	0	1	0	5	0	3	0	4	
4	12	13	6	9	6	0	6	1	6	2	6	1	6	0	
4	2	1	5	12	5	0	5	1	5	2	5	5	5	4	
3	5	0	6	5	0	5	1	5	2	6	1	6	0	
4	9	8	7	14	7	0	7	1	7	5	7	3	7	4	
4	13	6	9	8	6	0	6	1	6	2	6	3	6	4	
3	0	7	14	0	0	0	1	0	2	0	1	0	0	
4	4	1	5	3	5	0	5	1	5	5	5	3	5	4	
2	6	9	6	0	6	1	6	2	6	3	6	4	
3	6	9	11	6	0	6	1	6	2	6	5	6	4	
3	1	5	3	5	0	5	1	5	2	5	5	5	4	
3	8	7	2	2	0	2	1	2	2	2	5	2	4	
2	1	5	5	0	5	1	5	2	5	5	5	4	
5	4	2	7	8	9	7	0	7	1	7	2	7	1	7	0	
4	5	0	7	8	5	0	5	1	5	2	5	3	5	4	
4	10	13	6	0	6	0	6	1	6	2	6	3	0	4	
4	0	6	9	11	6	0	6	1	6	2	6	1	6	0	
5	11	8	7	2	1	2	0	2	1	2	2	2	1	2	0	
4	1	2	7	14	7	0	7	1	7	2	7	3	7	4	
6	14	7	0	6	13	10	6	0	6	1	6	2	6	5	6	4	
4	4	1	5	0	5	0	5	1	5	2	5	1	0	0	
4	2	7	8	9	7	0	7	1	7	5	7	3	7	4	
4	9	8	7	2	7	0	7	1	7	5	7	3	7	4	
4	13	12	5	3	5	0	5	1	5	5	5	3	5	4	
3	2	4	3	2	0	2	1	2	5	2	3	2	4	
2	6	0	0	0	0	1	0	5	0	3	0	4	
2	1	2	2	0	2	1	2	2	2	5	2	4	
5	6	0	5	1	4	6	0	6	1	6	5	6	3	5	4	
5	11	9	6	13	12	6	0	6	1	6	2	6	1	6	0	
4	14	7	0	6	7	0	7	1	7	2	7	3	6	4	
3	4	1	5	5	0	5	1	5	2	5	1	5	0	
4	8	9	6	13	6	0	6	1	6	5	6	3	6	4	
5	12	13	6	9	11	6	0	6	1	6	2	6	3	6	4	
3	5	1	4	5	0	5	1	5	2	5	3	5	4	
5	13	6	0	7	14	0	0	0	1	0	2	0	5	7	4	
2	0	6	0	0	0	1	0	2	0	5	6	4	
3	3	5	12	5	0	5	1	5	2	5	1	5	0	
5	7	0	6	13	10	7	0	7	1	7	2	7	5	7	4	
5	14	7	0	5	3	7	0	7	1	0	2	0	5	0	4	
6	11	9	6	0	5	3	6	0	6	1	6	5	6	3	0	4	
5	4	2	7	8	11	2	0	2	1	2	2	2	3	2	4	
4	9	6	0	5	6	0	6	1	6	2	6	3	0	4	
3	4	2	7	2	0	2	1	2	5	2	3	2	4	
6	10	13	6	0	7	14	6	0	0	1	0	2	0	1	7	0	
3	0	6	13	0	0	0	1	0	2	0	3	0	4	
2	3	5	5	0	5	1	5	2	5	1	5	0	
3	1	5	12	5	0	5	1	5	5	5	3	5	4	
3	7	8	9	7	0	7	1	7	2	7	3	7	4	
3	12	5	0	5	0	5	1	5	5	5	3	5	4	
5	14	7	0	6	13	7	0	6	1	6	2	6	1	6	0	
4	5	0	6	9	0	0	0	1	0	5	6	3	6	4	
4	10	12	5	3	5	0	5	1	5	2	5	1	5	0	
4	14	7	0	6	7	0	7	1	7	2	7	5	6	4	
3	3	5	0	0	0	0	1	0	2	0	1	0	0	
5	4	1	5	12	13	5	0	5	1	5	5	5	3	5	4	
4	11	8	7	14	7	0	7	1	7	2	7	3	7	4	
4	14	7	2	4	2	0	2	1	2	2	2	1	2	0	
3	4	2	7	2	0	2	1	2	2	2	3	2	4	
3	2	7	8	2	0	2	1	2	2	2	3	2	4	
4	1	2	7	14	7	0	7	1	7	2	7	5	7	4	
5	13	12	5	1	4	5	0	5	1	5	2	5	5	5	4	
2	6	13	6	0	6	1	6	2	6	5	6	4	
5	3	5	0	7	14	0	0	0	1	0	2	0	3	7	4	
3	8	9	6	6	0	6	1	6	2	6	3	6	4	
4	14	7	2	1	2	0	2	1	2	2	2	1	2	0	
2	7	2	2	0	2	1	2	2	2	1	2	0	
4	9	6	9	11	6	0	6	1	6	2	6	1	6	0	
4	13	6	0	7	0	0	0	1	0	2	0	3	0	4	
4	6	0	7	14	0	0	7	1	7	2	7	3	7	4	
5	11	9	6	0	5	0	0	0	1	0	5	0	3	0	4	
2	0	5	0	0	0	1	0	5	0	3	0	4	
3	7	8	11	7	0	7	1	7	2	7	1	7	0	
5	4	1	5	12	10	5	0	5	1	5	5	5	3	5	4	
2	9	6	6	0	6	1	6	2	6	1	6	0	
3	12	5	1	5	0	5	1	5	2	5	5	5	4	
4	11	9	6	0	0	0	0	1	0	5	0	3	0	4	
4	10	12	5	1	5	0	5	1	5	2	5	3	5	4	
4	3	5	12	13	5	0	5	1	5	5	5	3	5	4	
3	3	4	2	2	0	2	1	2	2	2	3	2	4	
4	1	5	12	13	5	0	5	1	5	2	5	3	5	4	
2	7	14	7	0	7	1	7	2	7	1	7	0	
4	12	5	0	7	5	0	5	1	5	2	5	5	5	4	
5	14	7	0	5	12	0	0	0	1	0	2	5	5	5	4	
4	2	7	0	6	0	0	0	1	0	2	0	1	0	0	
2	5	0	5	0	5	1	5	2	5	5	5	4	
5	3	5	0	7	14	0	0	0	1	0	5	0	3	7	4	
3	5	12	10	5	0	5	1	5	2	5	5	5	4	
4	11	9	6	9	6	0	6	1	6	5	6	3	6	4	
3	0	6	9	6	0	6	1	6	5	6	3	6	4	
3	6	0	5	6	0	6	1	6	2	6	1	6	0	
2	14	7	7	0	7	1	7	2	7	3	7	4	
5	4	1	5	0	6	6	0	6	1	6	5	6	3	6	4	
4	1	5	12	10	5	0	5	1	5	2	5	5	5	4	
4	12	5	1	4	5	0	5	1	5	2	5	3	5	4	
4	2	7	8	11	2	0	2	1	2	2	2	1	2	0	
2	5	3	5	0	5	1	5	2	5	3	5	4	
3	13	12	5	5	0	5	1	5	2	5	1	5	0	
3	6	13	12	6	0	6	1	6	2	6	1	6	0	
4	14	7	2	4	2	0	2	1	2	2	2	5	2	4	
4	8	7	0	5	7	0	7	1	7	2	7	1	7	0	
3	14	7	0	7	0	7	1	7	2	7	5	7	4	
4	7	0	5	3	7	0	7	1	0	2	0	5	0	4	
5	9	8	7	2	4	7	0	7	1	7	2	7	3	7	4	
4	9	6	9	11	6	0	6	1	6	2	6	5	6	4	
3	5	0	6	5	0	5	1	5	2	5	5	0	4	
4	13	6	9	8	6	0	6	1	6	2	6	1	6	0	
3	0	7	14	7	0	7	1	7	2	7	3	7	4	
2	6	9	6	0	6	1	6	2	6	1	6	0	
4	11	8	7	2	2	0	2	1	2	2	2	5	2	4	
3	1	5	3	5	0	5	1	5	2	5	1	5	0	
2	7	8	7	0	7	1	7	2	7	3	7	4	
4	10	13	6	9	6	0	6	1	6	5	6	3	6	4	
2	12	5	5	0	5	1	5	2	5	5	5	4	
5	11	9	6	13	12	6	0	6	1	6	5	6	3	6	4	
5	4	2	7	8	9	7	0	7	1	7	2	7	5	7	4	
5	3	5	0	6	9	6	0	6	1	6	5	6	3	6	4	
3	10	13	6	6	0	6	1	6	5	6	3	6	4	
4	5	0	7	8	5	0	5	1	5	2	5	1	5	0	
4	10	13	6	0	6	0	6	1	6	5	6	3	6	4	
5	11	8	7	2	1	2	0	2	1	2	2	2	3	2	4	
4	1	2	7	14	7	0	7	1	7	2	7	1	7	0	
4	4	1	5	0	0	0	0	1	0	2	0	3	0	4	
3	12	13	6	6	0	6	1	6	2	6	1	6	0	
4	2	7	8	9	7	0	7	1	7	2	7	3	7	4	
2	5	1	5	0	5	1	5	2	5	1	5	0	
4	13	12	5	3	5	0	5	1	5	2	5	5	5	4	
4	6	0	7	2	6	0	6	1	6	2	6	5	6	4	
5	6	0	5	1	4	0	0	0	1	0	2	0	5	0	4	
2	8	7	7	0	7	1	7	2	7	3	7	4	
3	7	0	5	7	0	0	1	0	2	0	5	0	4	
3	4	1	5	5	0	5	1	5	2	5	5	5	4	
5	12	13	6	9	11	6	0	6	1	6	2	6	1	6	0	
3	5	1	4	5	0	5	1	5	2	5	1	5	0	
6	10	13	6	0	7	14	6	0	0	1	0	5	0	3	7	4	
2	13	6	6	0	6	1	6	2	6	3	6	4	
3	0	5	1	0	0	0	1	0	5	0	3	0	4	
4	3	5	0	6	6	0	6	1	6	2	6	5	6	4	
3	3	5	12	5	0	5	1	5	2	5	5	5	4	
5	7	0	6	13	10	6	0	6	1	6	5	6	3	6	4	
5	9	6	0	5	3	0	0	0	1	0	5	0	3	0	4	
3	9	8	7	7	0	7	1	7	2	7	5	7	4	
5	4	2	7	8	11	2	0	2	1	2	2	2	1	2	0	
4	9	6	0	5	0	0	0	1	0	5	0	3	0	4	
6	10	13	6	0	7	14	6	0	0	1	0	2	0	3	7	4	
3	0	6	13	0	0	0	1	0	2	0	1	0	0	
2	3	5	5	0	5	1	5	2	5	3	5	4	
4	12	13	6	9	6	0	6	1	6	2	6	5	6	4	
6	11	9	6	0	5	3	0	0	0	1	0	2	0	1	0	0	
4	11	8	7	8	7	0	7	1	7	5	7	3	7	4	
3	1	5	12	5	0	5	1	5	2	5	3	5	4	
2	3	5	5	0	5	1	5	5	5	3	5	4	
2	4	2	2	0	2	1	2	2	2	1	2	0	
3	12	5	0	0	0	0	1	0	2	0	5	0	4	
5	10	13	6	9	8	6	0	6	1	6	5	6	3	6	4	
4	5	0	6	9	0	0	0	1	0	2	0	5	6	4	
4	10	12	5	3	5	0	5	1	5	2	5	5	5	4	
3	3	5	0	5	0	5	1	5	2	5	5	5	4	
4	11	8	7	14	7	0	7	1	7	2	7	1	7	0	
4	14	7	2	4	2	0	2	1	2	2	2	3	2	4	
3	2	7	14	2	0	2	1	2	5	2	3	2	4	
3	4	2	7	2	0	2	1	2	2	2	1	2	0	
2	12	5	5	0	5	1	5	2	5	3	5	4	
3	2	7	8	2	0	2	1	2	5	2	3	2	4	
3	5	1	2	2	0	2	1	2	2	2	3	2	4	
5	13	12	5	3	4	5	0	5	1	5	5	5	3	5	4	
2	6	13	6	0	6	1	6	5	6	3	6	4	
3	8	7	0	7	0	7	1	7	5	7	3	7	4	
3	7	8	9	7	0	7	1	7	2	7	5	7	4	
3	1	2	7	2	0	2	1	2	5	2	3	2	4	
5	3	5	0	7	14	0	0	0	1	0	2	0	1	7	0	
3	8	9	6	6	0	6	1	6	5	6	3	6	4	
4	9	6	9	11	6	0	6	1	6	2	6	3	6	4	
4	10	12	5	12	5	0	5	1	5	2	5	1	5	0	
4	3	5	0	7	0	0	0	1	0	2	0	1	7	0	
5	14	7	0	6	13	7	0	6	1	6	5	6	3	6	4	
5	11	9	6	0	5	5	0	5	1	5	2	5	5	5	4	
3	7	8	11	7	0	7	1	7	2	7	3	7	4	
3	2	1	5	2	0	2	1	2	2	2	5	2	4	
5	4	1	5	12	10	5	0	5	1	5	2	5	5	5	4	
2	9	6	6	0	6	1	6	2	6	5	6	4	
4	10	12	5	1	5	0	5	1	5	5	5	3	5	4	
4	12	13	6	13	6	0	6	1	6	2	6	5	6	4	
4	10	12	5	1	5	0	5	1	5	2	5	1	5	0	
5	1	2	7	8	11	2	0	2	1	2	5	2	3	2	4	
3	3	4	2	2	0	2	1	2	2	2	1	2	0	
4	11	9	6	0	0	0	0	1	0	2	0	3	0	4	
6	14	7	0	6	13	10	6	0	6	1	6	2	6	1	6	0	
3	4	2	1	2	0	2	1	2	2	2	3	2	4	
4	12	5	0	7	5	0	5	1	5	5	5	3	5	4	
4	2	7	0	6	2	0	2	1	2	2	2	3	2	4	
4	4	1	5	3	5	0	5	1	5	2	5	5	5	4	
3	3	4	2	2	0	2	1	2	5	2	3	2	4	
4	0	5	1	4	0	0	0	1	0	5	5	3	5	4	
3	5	12	10	5	0	5	1	5	5	5	3	5	4	
4	11	9	6	9	6	0	6	1	6	2	6	5	6	4	
4	11	9	6	0	0	0	0	1	0	2	0	5	0	4	
2	14	7	7	0	7	1	7	2	7	1	7	0	
5	4	1	5	0	6	5	0	5	1	5	2	5	5	5	4	
4	3	5	0	7	5	0	5	1	5	5	5	3	5	4	
4	2	7	8	11	2	0	7	1	7	2	7	5	7	4	
3	13	12	5	5	0	5	1	5	2	5	3	5	4	
3	9	6	0	0	0	0	1	0	5	0	3	0	4	
3	6	13	12	6	0	6	1	6	2	6	3	6	4	
3	1	5	0	0	0	0	1	0	2	0	5	0	4	
3	7	0	5	0	0	0	1	0	2	0	1	0	0	
4	12	13	6	13	6	0	6	1	6	5	6	3	6	4	
5	9	8	7	2	4	2	0	2	1	2	2	2	1	2	0	
3	0	7	8	0	0	0	1	0	5	0	3	0	4	
4	14	7	8	9	7	0	7	1	7	5	7	3	7	4	
3	0	7	14	0	0	0	1	0	5	0	3	7	4	
4	3	5	1	4	5	0	5	1	5	2	5	3	5	4	
2	8	7	7	0	7	1	7	2	7	5	7	4	
4	11	8	7	2	2	0	2	1	2	5	2	3	2	4	
3	1	5	3	5	0	5	1	5	2	5	3	5	4	
2	7	8	7	0	7	1	7	2	7	1	7	0	
3	10	12	5	5	0	5	1	5	5	5	3	5	4	
2	2	4	2	0	2	1	2	2	2	1	2	0	
5	4	2	7	8	9	2	0	2	1	2	5	2	3	2	4	
3	10	13	6	6	0	6	1	6	2	6	5	6	4	
4	10	13	6	0	0	0	0	1	0	2	0	5	0	4	
4	1	5	0	6	5	0	5	1	5	2	5	5	6	4	
5	8	9	6	13	12	6	0	6	1	6	2	6	5	6	4	
5	8	7	0	5	12	7	0	7	1	7	5	7	3	5	4	
5	8	9	6	13	10	6	0	6	1	6	2	6	1	6	0	
4	14	7	0	5	5	0	5	1	5	2	5	3	5	4	
3	4	2	7	2	0	2	1	2	2	2	5	7	4	
3	12	13	6	6	0	6	1	6	2	6	3	6	4	
4	2	7	8	9	2	0	2	1	2	2	2	1	7	0	
2	5	1	5	0	5	1	5	2	5	3	5	4	
4	13	12	5	3	5	0	5	1	5	2	5	1	5	0	
3	0	5	3	5	0	5	1	5	2	5	5	5	4	
4	6	0	7	2	0	0	0	1	0	2	0	1	0	0	
2	8	7	7	0	7	1	7	2	7	1	7	0	
3	4	1	5	5	0	5	1	5	5	5	3	5	4	
4	9	6	13	10	6	0	6	1	6	2	6	3	6	4	
4	14	7	0	6	7	0	7	1	7	5	7	3	6	4	
2	13	6	6	0	6	1	6	2	6	1	6	0	
2	7	8	7	0	7	1	7	2	7	5	7	4	
4	3	5	1	4	5	0	5	1	5	5	5	3	5	4	
4	3	5	0	6	0	0	0	1	0	5	0	3	6	4	
5	8	7	0	5	3	7	0	7	1	7	2	7	5	5	4	
5	7	0	6	13	10	0	0	0	1	0	2	0	3	0	4	
5	9	6	0	5	3	6	0	0	1	0	2	0	5	5	4	
4	14	7	0	5	5	0	5	1	5	5	5	3	5	4	
4	9	6	0	5	6	0	6	1	6	2	6	5	0	4	
3	0	6	13	0	0	0	1	0	2	0	5	0	4	
6	11	9	6	0	5	3	0	0	0	1	0	2	0	3	0	4	
3	1	5	12	5	0	5	1	5	2	5	1	5	0	
2	4	2	2	0	2	1	2	2	2	3	2	4	
3	12	5	0	5	0	5	1	5	2	5	1	5	0	
2	2	7	7	0	7	1	7	2	7	3	7	4	
