4801.05	4006.65
1743
86377.8	60343.4
15
0	1810	1821
1	1410	1431
2	1245	1271
3	1028	1029
4	1423	1433
5	1223	1225
6	1557	1768
7	1608	1608
8	1262	1297
9	1502	1525
10	675	974
11	776	814
12	1590	1591
13	1476	1494
14	1059	1086
44
0	5	94.937654	94.942746	1.000000
0	6	96.481924	97.708373	1.000000
0	7	91.885422	107.847469	1.000000
1	2	42.928470	106.004333	1.000000
1	4	38.182132	104.160274	1.000000
1	5	71.719518	106.004333	1.000000
2	1	42.941658	106.004333	1.000000
2	4	38.599850	97.708373	1.000000
2	7	93.850356	94.021178	1.000000
3	4	22.214674	91.255735	1.000000
3	5	43.757982	83.881529	1.000000
4	1	37.917042	104.160274	1.000000
4	2	41.319346	97.708373	1.000000
4	3	19.295666	91.255735	1.000000
5	0	92.405966	94.942746	1.000000
5	1	71.775930	106.004333	1.000000
5	3	47.347964	83.881529	1.000000
5	12	82.631814	84.803282	1.000000
6	0	97.380980	97.708373	1.000000
6	9	80.952682	89.412137	1.000000
6	13	89.680978	101.395569	1.000000
7	0	93.417058	107.847469	1.000000
7	2	90.110948	94.021178	1.000000
7	8	76.681044	100.473078	1.000000
7	14	52.101894	104.160274	1.000000
8	7	74.314696	100.473078	1.000000
8	9	46.968976	97.708373	1.000000
8	11	31.949198	82.959776	1.000000
8	14	14.305572	88.490385	1.000000
9	6	82.740048	89.412137	1.000000
9	8	46.175794	97.708373	1.000000
9	11	35.072026	103.238705	1.000000
10	12	28.499850	97.708373	1.000000
10	13	38.144628	93.099610	1.000000
11	8	31.322258	82.959776	1.000000
11	9	36.125978	103.238705	1.000000
12	5	82.833962	84.803282	1.000000
12	10	28.889268	97.708373	1.000000
12	13	42.307990	90.333982	1.000000
13	6	89.540338	101.395569	1.000000
13	10	38.248972	93.099610	1.000000
13	12	42.238532	90.333982	1.000000
14	7	52.270942	104.160274	1.000000
14	8	14.122884	88.490385	1.000000
840
4	10	12	5	3	10	0	10	1	10	5	12	3	12	4	
3	14	7	2	7	0	2	1	2	5	2	3	2	4	
3	3	5	0	0	0	0	1	0	5	0	3	0	4	
2	8	9	9	0	9	1	9	2	9	3	9	4	
4	14	7	2	4	14	0	7	1	7	5	4	3	4	4	
3	2	7	14	7	0	7	1	7	2	7	5	14	4	
4	9	6	13	12	9	0	12	1	12	5	12	3	12	4	
2	12	5	5	0	5	1	5	2	5	1	5	0	
3	2	7	8	8	0	8	1	8	2	8	5	8	4	
3	5	1	2	1	0	1	1	1	2	1	1	1	0	
5	13	12	5	1	4	13	0	1	1	1	2	4	3	4	4	
3	0	7	2	0	0	0	1	2	2	2	1	2	0	
4	4	1	5	12	12	0	12	1	12	5	12	3	12	4	
2	6	13	6	0	6	1	6	2	6	3	6	4	
3	8	7	0	0	0	0	1	0	2	0	5	0	4	
3	1	2	7	1	0	1	1	1	2	1	5	2	4	
3	8	9	6	6	0	6	1	6	2	6	5	6	4	
5	3	4	2	7	14	3	0	3	1	3	2	3	5	3	4	
2	8	7	7	0	7	1	7	5	7	3	7	4	
2	10	12	10	0	10	1	10	2	10	3	12	4	
4	3	5	0	7	3	0	3	1	3	2	3	3	3	4	
4	7	0	6	13	13	0	13	1	13	5	13	3	13	4	
4	14	7	2	1	1	0	1	1	1	5	1	3	1	4	
5	11	9	6	0	5	11	0	11	1	11	2	11	1	11	0	
2	1	2	2	0	2	1	2	2	2	3	2	4	
4	4	1	5	12	1	0	1	1	1	2	1	1	12	0	
3	7	2	1	1	0	1	1	1	5	1	3	1	4	
3	2	1	5	5	0	5	1	5	5	5	3	5	4	
2	9	6	9	0	9	1	9	5	9	3	9	4	
5	1	2	7	8	11	11	0	11	1	11	2	11	5	11	4	
4	11	9	6	0	9	0	9	1	9	2	9	1	9	0	
6	14	7	0	6	13	10	13	0	13	1	13	2	13	3	13	4	
2	4	1	4	0	4	1	4	2	4	1	4	0	
4	12	5	0	7	12	0	12	1	12	2	12	3	12	4	
2	5	0	5	0	5	1	5	2	5	3	5	4	
4	0	5	1	4	4	0	4	1	4	2	4	5	4	4	
2	11	9	9	0	9	1	9	2	9	1	9	0	
4	10	13	6	9	13	0	9	1	9	2	9	5	9	4	
2	9	8	9	0	9	1	9	5	9	3	9	4	
5	11	9	6	13	12	12	0	12	1	12	2	12	5	12	4	
3	7	0	6	7	0	7	1	7	2	7	5	7	4	
2	14	7	14	0	14	1	14	2	14	5	7	4	
4	13	6	9	11	13	0	13	1	13	5	13	3	13	4	
4	2	7	8	11	2	0	2	1	2	5	2	3	2	4	
3	6	13	10	10	0	10	1	10	5	10	3	10	4	
3	13	12	5	13	0	13	1	13	5	13	3	13	4	
3	0	5	1	1	0	1	1	1	2	1	3	1	4	
5	3	5	0	6	9	3	0	3	1	3	2	3	1	3	0	
4	3	5	12	10	10	0	10	1	10	2	10	5	10	4	
3	1	5	0	5	0	5	1	5	5	5	3	5	4	
3	7	0	5	5	0	5	1	5	2	5	3	5	4	
5	5	0	6	9	11	9	0	9	1	9	5	9	3	9	4	
3	0	7	8	0	0	0	1	0	2	0	5	7	4	
3	0	7	14	14	0	14	1	14	2	14	5	14	4	
2	3	4	3	0	3	1	3	2	3	1	3	0	
4	11	8	7	2	2	0	2	1	2	2	2	3	2	4	
2	14	8	8	0	8	1	8	2	8	1	8	0	
2	4	3	3	0	3	1	3	2	3	3	3	4	
2	2	4	2	0	2	1	2	2	2	3	2	4	
3	10	13	6	13	0	13	1	13	2	13	1	13	0	
3	13	6	0	13	0	13	1	13	2	13	5	6	4	
4	0	6	13	10	0	0	0	1	13	2	13	5	13	4	
4	6	0	5	1	1	0	1	1	1	2	1	5	1	4	
3	9	8	7	9	0	9	1	9	5	9	3	9	4	
5	8	9	6	13	10	9	0	9	1	9	2	9	3	9	4	
5	12	5	0	7	8	12	0	8	1	8	5	8	3	8	4	
4	14	7	0	5	5	0	5	1	5	2	5	1	5	0	
3	5	0	7	5	0	5	1	5	5	5	3	5	4	
3	12	13	6	13	0	13	1	13	5	13	3	13	4	
2	6	0	0	0	0	1	0	2	0	5	0	4	
2	5	1	5	0	5	1	5	5	5	3	5	4	
2	10	13	13	0	13	1	13	2	13	5	13	4	
4	13	12	5	3	3	0	3	1	3	2	3	3	3	4	
2	11	8	8	0	8	1	8	2	8	5	8	4	
4	6	0	7	2	2	0	2	1	2	2	2	3	2	4	
4	4	2	7	8	4	0	4	1	4	5	4	3	4	4	
4	9	6	13	10	9	0	9	1	9	2	9	1	9	0	
2	13	12	12	0	12	1	12	2	12	5	12	4	
2	10	13	10	0	10	1	10	2	10	3	10	4	
4	3	5	0	6	0	0	0	1	0	2	0	3	6	4	
5	7	0	6	13	10	7	0	7	1	7	2	7	1	7	0	
5	9	6	0	5	3	9	0	9	1	9	2	9	1	9	0	
3	12	5	3	3	0	3	1	3	2	3	5	3	4	
2	5	12	12	0	12	1	12	2	12	5	12	4	
3	7	8	9	9	0	9	1	9	5	9	3	9	4	
4	11	9	6	13	9	0	9	1	9	5	9	3	9	4	
3	0	6	13	6	0	6	1	6	5	6	3	6	4	
5	8	7	0	5	12	5	0	5	1	5	2	5	1	5	0	
3	14	8	11	11	0	11	1	11	2	11	3	11	4	
2	4	2	4	0	4	1	4	5	4	3	4	4	
3	12	5	0	0	0	0	1	0	2	0	3	0	4	
2	2	7	2	0	2	1	2	2	2	1	2	0	
5	14	7	0	6	13	14	0	14	1	14	2	7	5	13	4	
4	13	12	5	1	1	0	1	1	1	2	1	1	1	0	
2	6	0	6	0	6	1	6	2	6	1	6	0	
5	14	7	0	5	3	3	0	3	1	3	5	3	3	3	4	
3	14	7	2	2	0	2	1	2	2	2	5	2	4	
2	8	9	9	0	9	1	9	2	9	1	9	0	
3	6	13	12	13	0	12	1	12	2	12	5	12	4	
3	2	7	14	7	0	7	1	7	2	7	1	7	0	
4	10	12	5	1	10	0	1	1	1	2	1	5	1	4	
4	3	5	12	10	10	0	10	1	10	5	10	3	10	4	
2	9	8	9	0	9	1	9	2	9	3	9	4	
2	3	5	5	0	5	1	5	2	5	5	5	4	
3	5	1	2	2	0	2	1	2	2	2	5	2	4	
5	13	12	5	1	4	13	0	1	1	1	2	4	1	4	0	
3	0	7	2	7	0	7	1	7	2	7	3	7	4	
2	6	13	6	0	6	1	6	2	6	1	6	0	
3	8	7	0	7	0	7	1	7	2	7	1	7	0	
3	11	9	6	11	0	11	1	11	2	9	5	6	4	
3	1	2	7	7	0	7	1	7	2	7	1	7	0	
3	7	2	4	4	0	4	1	4	2	4	3	4	4	
3	3	4	2	4	0	4	1	4	2	4	5	4	4	
5	10	12	5	1	2	10	0	10	1	10	5	10	3	10	4	
3	3	4	1	1	0	1	1	1	5	1	3	1	4	
2	10	12	10	0	10	1	10	5	10	3	10	4	
3	13	6	9	9	0	9	1	9	5	9	3	9	4	
4	7	0	6	13	7	0	7	1	7	2	7	5	0	4	
5	11	8	7	0	5	11	0	11	1	11	2	11	3	8	4	
2	1	2	1	0	1	1	1	2	1	1	1	0	
4	4	1	5	12	4	0	4	1	4	2	4	3	4	4	
4	12	5	1	2	12	0	12	1	12	2	12	1	12	0	
3	2	1	5	1	0	1	1	1	2	1	3	1	4	
3	5	12	13	13	0	13	1	13	2	13	1	13	0	
4	5	0	7	14	7	0	7	1	7	5	7	3	7	4	
5	11	9	6	13	10	11	0	11	1	11	2	11	5	9	4	
3	13	6	9	13	0	13	1	13	2	13	5	6	4	
5	1	2	7	8	11	8	0	8	1	8	2	8	1	8	0	
2	8	11	8	0	8	1	8	2	8	3	8	4	
2	4	1	4	0	4	1	4	2	4	5	1	4	
3	14	8	9	14	0	14	1	14	2	8	5	9	4	
4	12	5	0	7	7	0	7	1	7	2	7	1	7	0	
2	5	0	0	0	0	1	0	2	0	1	0	0	
5	13	6	0	7	2	7	0	7	1	7	2	7	3	7	4	
4	0	5	1	4	0	0	0	1	0	2	0	1	4	0	
3	7	8	11	7	0	7	1	7	5	7	3	7	4	
4	6	0	5	3	3	0	3	1	3	2	3	3	3	4	
2	11	9	11	0	11	1	11	2	11	3	11	4	
3	10	12	5	12	0	12	1	12	2	12	5	5	4	
3	7	0	6	7	0	7	1	7	5	7	3	7	4	
5	12	5	0	7	14	14	0	14	1	14	2	14	1	14	0	
2	14	7	14	0	14	1	14	5	14	3	14	4	
4	13	6	9	11	13	0	13	1	13	2	9	5	9	4	
3	6	13	10	10	0	10	1	10	2	10	5	10	4	
3	13	12	5	12	0	12	1	12	2	12	5	12	4	
3	0	5	1	0	0	0	1	0	2	0	1	0	0	
5	3	5	0	6	9	0	0	0	1	0	2	0	3	9	4	
3	11	8	7	7	0	7	1	7	2	7	1	7	0	
3	1	5	0	0	0	0	1	0	2	0	3	0	4	
4	4	2	7	14	14	0	14	1	14	2	14	1	14	0	
5	5	0	6	9	11	5	0	5	1	5	2	5	5	9	4	
5	13	6	0	7	14	13	0	0	1	0	2	0	3	14	4	
3	0	7	8	0	0	0	1	0	2	0	1	0	0	
2	3	4	4	0	4	1	4	2	4	5	4	4	
4	11	8	7	2	11	0	11	1	11	2	7	1	7	0	
2	14	8	14	0	14	1	14	2	14	3	14	4	
5	2	1	5	12	10	1	0	1	1	1	5	1	3	1	4	
2	4	3	3	0	3	1	3	2	3	1	3	0	
3	12	5	1	1	0	1	1	1	2	1	3	1	4	
2	2	4	2	0	2	1	2	5	2	3	2	4	
4	5	0	7	14	0	0	0	1	0	2	0	3	0	4	
3	10	13	6	13	0	13	1	13	2	6	3	6	4	
3	13	6	0	0	0	0	1	0	5	0	3	0	4	
5	6	0	7	2	1	0	0	2	1	2	5	1	3	1	4	
4	8	7	2	4	7	0	7	1	7	5	7	3	7	4	
4	14	7	0	5	14	0	0	1	0	2	0	5	0	4	
5	8	9	6	13	10	9	0	9	1	9	5	9	3	9	4	
5	12	13	6	9	8	9	0	9	1	9	2	9	5	8	4	
3	5	0	7	7	0	7	1	7	2	7	5	7	4	
3	12	13	6	13	0	13	1	13	2	6	5	6	4	
2	5	1	1	0	1	1	1	2	1	5	1	4	
5	10	13	6	9	8	13	0	13	1	13	2	13	1	13	0	
3	0	5	3	3	0	3	1	3	2	3	3	3	4	
6	3	5	0	6	9	11	3	0	3	1	3	2	3	1	5	0	
4	4	2	7	8	2	0	2	1	2	2	2	5	8	4	
2	12	13	13	0	13	1	13	2	13	3	13	4	
2	7	8	7	0	7	1	7	5	7	3	7	4	
2	2	1	2	0	2	1	2	2	2	5	1	4	
4	9	6	13	10	13	0	13	1	13	2	13	5	10	4	
2	13	12	12	0	12	1	12	5	12	3	12	4	
2	10	13	13	0	13	1	13	2	13	1	13	0	
4	3	5	0	6	0	0	0	1	0	2	0	1	0	0	
4	9	6	13	12	9	0	9	1	9	2	9	5	12	4	
5	11	8	7	2	4	8	0	4	1	4	2	4	3	4	4	
2	8	11	11	0	11	1	11	5	11	3	11	4	
5	4	1	5	12	13	4	0	4	1	4	2	4	3	4	4	
5	9	6	0	5	3	0	0	0	1	0	2	0	3	0	4	
3	12	5	3	3	0	3	1	3	5	3	3	3	4	
2	5	12	5	0	5	1	5	5	5	3	5	4	
5	10	12	5	1	4	10	0	10	1	10	2	4	1	4	0	
4	1	5	12	13	1	0	13	1	13	2	13	5	13	4	
4	11	9	6	13	11	0	11	1	11	2	11	5	9	4	
5	8	9	6	13	12	8	0	12	1	12	2	12	3	12	4	
3	14	8	11	14	0	14	1	14	2	14	1	14	0	
5	2	7	0	6	13	2	0	7	1	7	2	13	5	13	4	
2	4	2	4	0	4	1	4	2	4	5	4	4	
3	9	6	13	6	0	6	1	6	2	6	1	6	0	
2	2	7	7	0	7	1	7	2	7	5	7	4	
4	13	12	5	1	5	0	5	1	5	2	5	3	5	4	
2	6	0	0	0	0	1	0	2	0	3	0	4	
2	11	8	8	0	8	1	8	2	8	3	8	4	
3	14	7	2	14	0	14	1	14	2	14	1	14	0	
4	6	0	7	2	0	0	0	1	0	5	0	3	0	4	
2	1	4	4	0	4	1	4	2	4	5	4	4	
3	7	2	1	2	0	2	1	2	2	2	1	2	0	
3	2	7	14	14	0	14	1	14	2	14	3	14	4	
2	9	8	8	0	8	1	8	2	8	1	8	0	
4	0	6	13	12	0	0	12	1	12	5	12	3	12	4	
3	5	1	2	2	0	2	1	2	5	2	3	2	4	
5	10	13	6	9	11	11	0	11	1	11	2	11	3	11	4	
3	0	7	2	0	0	0	1	0	5	0	3	0	4	
5	3	4	2	7	8	3	0	3	1	3	2	3	3	3	4	
3	8	7	0	0	0	0	1	0	2	0	3	0	4	
3	11	9	6	6	0	6	1	6	5	6	3	6	4	
3	3	5	12	3	0	3	1	3	5	3	3	3	4	
3	1	2	7	2	0	2	1	2	2	2	3	2	4	
3	7	2	4	2	0	2	1	2	2	2	1	2	0	
5	9	8	7	2	1	9	0	8	1	8	2	8	1	8	0	
3	2	7	0	0	0	0	1	0	2	0	1	0	0	
2	12	5	12	0	12	1	12	5	5	3	5	4	
5	10	12	5	1	2	12	0	1	1	1	2	2	5	2	4	
2	9	8	9	0	9	1	9	2	9	5	8	4	
2	10	12	10	0	10	1	10	2	10	5	12	4	
4	1	2	7	8	2	0	2	1	2	2	7	5	8	4	
4	3	5	0	7	3	0	0	1	0	2	0	5	7	4	
4	7	0	6	13	0	0	0	1	0	2	0	1	0	0	
2	8	14	14	0	14	1	14	2	14	1	14	0	
3	14	8	9	14	0	14	1	14	2	14	3	14	4	
5	1	2	7	8	9	1	0	1	1	1	2	2	5	9	4	
4	12	5	1	2	5	0	5	1	5	2	5	3	5	4	
3	2	1	5	2	0	2	1	5	2	5	1	5	0	
3	5	12	13	5	0	5	1	5	2	5	3	5	4	
5	10	13	6	0	7	0	0	0	1	0	2	0	3	0	4	
2	0	7	0	0	0	1	0	2	0	5	0	4	
5	11	9	6	13	10	11	0	11	1	11	5	11	3	11	4	
5	1	2	7	8	11	11	0	11	1	11	2	11	3	11	4	
2	8	11	11	0	11	1	11	2	11	1	11	0	
4	2	1	5	12	2	0	2	1	2	2	2	1	2	0	
2	4	1	1	0	1	1	1	5	1	3	1	4	
3	9	8	14	14	0	14	1	14	2	14	3	14	4	
5	9	8	7	2	4	9	0	2	1	2	5	2	3	2	4	
5	13	12	5	1	2	13	0	1	1	1	2	2	1	2	0	
4	0	5	1	4	0	0	0	1	0	2	0	3	4	4	
4	6	0	5	3	6	0	6	1	6	2	6	1	6	0	
3	8	7	2	2	0	2	1	2	2	2	1	2	0	
2	1	5	5	0	5	1	5	2	5	1	5	0	
3	7	0	6	7	0	7	1	7	2	7	3	7	4	
5	12	5	0	7	14	14	0	14	1	14	2	14	3	14	4	
4	13	6	9	11	6	0	6	1	9	2	9	1	9	0	
4	0	7	8	11	7	0	11	1	11	2	11	5	11	4	
3	6	13	10	13	0	13	1	13	2	13	1	13	0	
3	0	5	1	1	0	1	1	1	2	1	5	1	4	
2	7	0	7	0	7	1	7	2	7	5	0	4	
3	11	8	7	11	0	11	1	11	2	11	3	11	4	
3	1	5	0	5	0	5	1	5	2	5	1	5	0	
4	4	2	7	14	14	0	14	1	14	2	14	3	14	4	
4	9	8	7	2	2	0	2	1	2	2	2	3	2	4	
5	9	8	7	2	4	9	0	9	1	9	2	9	5	4	4	
3	2	4	3	3	0	3	1	3	2	3	3	3	4	
5	8	7	0	5	3	3	0	3	1	3	5	3	3	3	4	
5	5	0	6	9	11	5	0	5	1	5	2	5	1	5	0	
5	13	6	0	7	14	13	0	0	1	0	2	0	1	14	0	
3	0	7	8	8	0	8	1	8	2	8	3	8	4	
4	2	1	5	12	5	0	5	1	5	5	5	3	5	4	
5	1	2	7	8	9	1	0	1	1	1	2	2	1	9	0	
3	6	0	7	6	0	6	1	6	5	6	3	6	4	
4	8	9	6	13	13	0	13	1	13	2	13	3	13	4	
2	14	8	14	0	14	1	14	5	14	3	14	4	
5	2	1	5	12	10	5	0	5	1	5	2	12	5	12	4	
3	12	5	1	5	0	5	1	5	2	5	1	5	0	
2	2	4	2	0	2	1	2	2	2	5	4	4	
4	5	0	7	14	14	0	14	1	14	2	14	1	14	0	
3	13	6	0	13	0	13	1	13	2	13	3	13	4	
2	0	6	6	0	6	1	6	2	6	1	6	0	
6	11	9	6	0	5	3	9	0	6	1	6	2	6	5	3	4	
4	6	0	5	1	6	0	6	1	6	2	6	3	6	4	
4	8	7	2	4	8	0	8	1	8	2	8	5	7	4	
2	8	9	9	0	9	1	9	5	9	3	9	4	
5	8	9	6	13	10	13	0	13	1	13	2	13	5	13	4	
5	12	5	0	7	8	12	0	8	1	8	2	8	1	8	0	
3	5	0	7	5	0	5	1	5	2	5	1	5	0	
5	10	13	6	9	8	10	0	10	1	10	2	10	3	10	4	
3	0	5	3	5	0	5	1	5	2	5	1	5	0	
6	3	5	0	6	9	11	3	0	3	1	3	2	3	3	3	4	
4	8	7	2	1	2	0	2	1	2	2	2	3	1	4	
2	12	10	12	0	12	1	12	2	12	5	12	4	
4	1	5	0	6	1	0	5	1	5	2	5	3	5	4	
2	6	9	6	0	6	1	6	5	6	3	6	4	
4	4	2	7	8	2	0	2	1	2	2	2	1	2	0	
2	12	13	12	0	13	1	13	2	13	1	13	0	
2	2	1	2	0	2	1	2	5	1	3	1	4	
4	9	6	13	10	6	0	6	1	6	5	6	3	6	4	
2	13	12	12	0	12	1	12	2	12	3	12	4	
4	0	6	13	10	0	0	0	1	0	2	0	1	10	0	
5	13	6	0	7	2	13	0	6	1	6	5	6	3	2	4	
3	6	13	12	6	0	6	1	6	5	6	3	6	4	
5	11	8	7	2	4	11	0	11	1	11	2	11	1	11	0	
5	4	1	5	12	13	1	0	13	1	13	2	13	1	13	0	
3	12	5	3	5	0	5	1	5	2	5	3	5	4	
2	5	12	5	0	5	1	5	2	5	3	5	4	
5	10	12	5	1	4	10	0	10	1	10	2	4	3	4	4	
4	6	0	5	3	0	0	0	1	0	5	0	3	0	4	
4	11	9	6	13	11	0	11	1	11	2	11	1	11	0	
4	1	5	12	10	1	0	1	1	1	2	1	3	1	4	
2	7	2	2	0	2	1	2	2	2	5	2	4	
3	14	8	11	14	0	14	1	14	2	14	5	14	4	
5	2	7	0	6	13	2	0	7	1	7	5	7	3	13	4	
3	9	6	13	9	0	9	1	9	2	9	3	6	4	
4	13	6	0	7	0	0	0	1	0	5	0	3	0	4	
2	2	7	7	0	7	1	7	5	7	3	7	4	
4	7	0	5	12	0	0	0	1	0	5	0	3	0	4	
4	6	0	7	14	0	0	7	1	7	5	14	3	14	4	
4	8	7	0	5	0	0	0	1	0	5	0	3	0	4	
4	13	12	5	1	5	0	5	1	5	5	5	3	1	4	
2	0	5	0	0	0	1	0	2	0	3	0	4	
4	3	5	12	13	12	0	13	1	13	2	13	1	13	0	
2	11	8	11	0	11	1	11	2	11	1	11	0	
3	14	7	2	14	0	14	1	14	2	14	3	14	4	
2	1	4	4	0	4	1	4	5	4	3	4	4	
3	7	2	1	1	0	1	1	1	2	1	3	1	4	
2	7	0	0	0	0	1	0	5	0	3	0	4	
3	0	5	12	0	0	0	1	0	2	0	5	12	4	
3	7	8	11	8	0	8	1	8	2	8	5	8	4	
5	12	5	0	7	14	14	0	14	1	14	2	14	5	14	4	
5	10	13	6	9	11	9	0	9	1	9	2	9	1	9	0	
3	0	7	2	7	0	7	1	7	2	7	5	7	4	
5	3	4	2	7	8	3	0	3	1	4	2	4	1	4	0	
2	7	14	7	0	7	1	7	2	7	5	7	4	
3	11	9	6	9	0	9	1	9	2	6	3	6	4	
5	14	7	0	5	12	5	0	5	1	5	2	5	1	5	0	
3	7	2	4	4	0	4	1	4	2	4	5	4	4	
5	9	8	7	2	1	9	0	9	1	9	2	9	3	9	4	
2	13	6	6	0	6	1	6	5	6	3	6	4	
3	2	7	0	0	0	0	1	0	2	0	3	0	4	
4	4	1	5	12	4	0	4	1	4	2	1	5	12	4	
5	10	12	5	1	2	1	0	1	1	1	2	1	1	1	0	
3	6	9	8	9	0	8	1	8	5	8	3	8	4	
3	0	6	9	6	0	6	1	6	2	6	3	6	4	
3	3	4	1	1	0	1	1	1	2	1	1	1	0	
3	6	0	5	6	0	6	1	6	2	6	5	6	4	
4	7	2	1	5	7	0	5	1	5	5	5	3	5	4	
4	7	0	6	13	13	0	13	1	13	2	13	3	13	4	
2	8	14	14	0	14	1	14	2	14	3	14	4	
4	12	5	1	4	12	0	1	1	1	5	4	3	4	4	
3	14	8	9	9	0	9	1	9	2	9	1	9	0	
2	5	3	3	0	3	1	3	5	3	3	3	4	
4	12	5	1	2	1	0	1	1	1	5	1	3	1	4	
3	5	12	13	13	0	13	1	13	5	13	3	13	4	
5	10	13	6	0	7	13	0	13	1	13	2	13	1	13	0	
2	0	7	0	0	0	1	0	5	0	3	0	4	
5	11	9	6	13	10	11	0	11	1	11	2	11	3	11	4	
3	14	7	0	0	0	0	1	0	2	0	1	0	0	
4	7	2	4	3	3	0	3	1	3	2	3	1	3	0	
4	2	1	5	12	1	0	1	1	1	2	1	3	1	4	
4	8	7	2	1	1	0	1	1	1	5	1	3	1	4	
3	9	8	14	9	0	9	1	9	2	9	1	9	0	
4	13	6	9	8	9	0	9	1	9	2	9	5	9	4	
2	5	0	0	0	0	1	0	5	0	3	0	4	
2	6	9	6	0	6	1	6	2	6	5	9	4	
4	10	13	6	9	13	0	13	1	13	2	13	3	13	4	
4	3	5	12	10	12	0	12	1	12	2	10	3	10	4	
3	8	7	2	2	0	2	1	2	2	2	3	2	4	
2	1	5	1	0	1	1	1	2	1	3	1	4	
3	7	0	6	0	0	0	1	0	2	0	1	0	0	
3	9	8	7	8	0	8	1	8	2	8	1	8	0	
4	1	5	0	6	1	0	1	1	1	5	1	3	6	4	
4	5	0	7	8	0	0	8	1	8	2	8	5	8	4	
4	13	6	9	11	11	0	11	1	11	2	11	3	11	4	
4	0	6	9	11	11	0	11	1	11	5	11	3	11	4	
3	6	13	10	13	0	13	1	13	2	13	3	13	4	
5	11	8	7	2	1	11	0	11	1	11	5	11	3	11	4	
3	6	9	8	8	0	8	1	8	2	8	5	8	4	
4	4	1	5	0	5	0	5	1	5	5	5	3	5	4	
2	13	10	13	0	13	1	13	5	13	3	10	4	
3	11	8	7	11	0	11	1	11	5	11	3	11	4	
4	4	2	7	14	2	0	7	1	7	5	14	3	14	4	
4	9	8	7	2	2	0	2	1	2	2	2	1	2	0	
3	2	4	3	2	0	2	1	2	2	2	1	2	0	
5	5	0	6	9	11	5	0	5	1	5	2	5	3	5	4	
3	10	12	5	12	0	12	1	12	2	12	3	5	4	
5	6	0	5	1	4	6	0	6	1	6	2	6	1	4	0	
5	1	2	7	8	9	1	0	1	1	1	2	1	3	1	4	
3	6	9	11	11	0	11	1	11	5	11	3	11	4	
4	8	9	6	13	13	0	13	1	13	2	13	1	13	0	
5	12	13	6	9	11	13	0	13	1	13	2	13	5	6	4	
2	14	8	14	0	14	1	14	2	14	5	14	4	
5	2	1	5	12	10	10	0	10	1	10	2	10	1	10	0	
3	5	1	4	5	0	1	1	1	2	4	5	4	4	
4	9	6	13	12	12	0	12	1	12	2	12	3	12	4	
4	1	2	7	8	1	0	1	1	1	5	1	3	1	4	
4	5	0	7	14	5	0	5	1	5	2	5	5	0	4	
3	13	6	0	13	0	13	1	13	2	13	1	13	0	
2	0	6	6	0	6	1	6	2	6	3	6	4	
4	6	0	5	1	1	0	1	1	1	2	1	1	1	0	
4	8	7	2	4	2	0	2	1	2	2	2	1	2	0	
5	14	7	0	5	3	14	0	0	1	0	2	0	3	0	4	
2	7	0	0	0	0	1	0	2	0	3	0	4	
5	12	5	0	7	8	12	0	8	1	8	2	8	3	8	4	
4	1	5	12	13	1	0	1	1	1	5	1	3	1	4	
3	5	0	7	5	0	5	1	5	2	5	3	5	4	
3	13	6	9	13	0	13	1	13	2	9	1	9	0	
3	6	9	8	9	0	9	1	9	2	9	1	9	0	
4	3	5	12	13	12	0	12	1	12	2	12	5	13	4	
6	3	5	0	6	9	11	3	0	3	1	3	5	3	3	3	4	
4	8	7	2	1	1	0	1	1	1	2	1	1	1	0	
2	1	2	1	0	1	1	1	5	1	3	1	4	
4	1	5	0	6	1	0	1	1	1	2	1	1	1	0	
4	4	2	7	8	2	0	2	1	2	2	2	3	2	4	
3	9	6	0	9	0	9	1	9	2	9	3	9	4	
2	2	1	1	0	1	1	1	2	1	3	1	4	
4	5	0	6	9	9	0	9	1	9	2	9	1	9	0	
2	13	12	12	0	12	1	12	2	12	1	12	0	
4	0	6	13	10	10	0	10	1	10	2	10	3	10	4	
5	13	6	0	7	14	13	0	0	1	0	5	0	3	14	4	
3	11	8	14	8	0	14	1	14	2	14	5	14	4	
4	7	0	5	12	12	0	12	1	12	2	12	3	12	4	
5	11	8	7	2	4	4	0	4	1	4	2	4	5	4	4	
5	4	1	5	12	13	1	0	1	1	1	2	1	5	5	4	
3	12	5	3	3	0	3	1	3	2	3	1	3	0	
2	5	12	12	0	12	1	12	2	12	1	12	0	
5	10	12	5	1	4	10	0	10	1	10	5	10	3	10	4	
4	7	0	5	12	7	0	7	1	7	2	7	5	0	4	
3	6	0	7	6	0	6	1	6	2	6	3	6	4	
4	11	9	6	13	9	0	9	1	9	2	9	3	9	4	
4	1	5	12	10	10	0	10	1	10	2	10	1	10	0	
2	7	2	2	0	2	1	2	5	2	3	2	4	
2	12	10	12	0	12	1	12	2	12	1	12	0	
3	14	8	11	11	0	11	1	11	5	11	3	11	4	
5	2	7	0	6	13	2	0	13	1	13	2	13	3	13	4	
3	9	6	13	13	0	13	1	13	5	13	3	13	4	
4	13	6	0	7	6	0	6	1	6	2	6	5	6	4	
4	6	0	7	14	0	0	7	1	7	2	14	5	14	4	
4	13	12	5	1	13	0	13	1	13	2	12	5	1	4	
2	0	5	5	0	5	1	5	2	5	1	5	0	
4	3	5	12	13	12	0	13	1	13	2	13	3	13	4	
5	8	7	0	5	3	8	0	0	1	0	2	0	3	0	4	
5	1	2	7	8	9	2	0	2	1	2	5	2	3	2	4	
2	1	4	1	0	1	1	1	2	4	3	4	4	
5	4	1	5	12	10	10	0	10	1	10	2	10	1	10	0	
2	13	10	10	0	10	1	10	2	10	3	10	4	
3	0	5	12	0	0	0	1	0	2	0	1	12	0	
3	6	9	11	11	0	11	1	11	2	11	3	11	4	
4	1	2	7	14	2	0	2	1	2	5	2	3	2	4	
5	10	13	6	9	11	10	0	10	1	10	2	13	5	13	4	
5	3	4	2	7	8	3	0	3	1	3	2	2	5	7	4	
2	7	14	14	0	14	1	14	5	14	3	14	4	
3	11	9	6	11	0	11	1	11	2	11	1	11	0	
5	14	7	0	5	12	5	0	12	1	12	2	12	3	12	4	
4	2	7	0	6	0	0	0	1	0	5	0	3	0	4	
3	7	2	4	2	0	2	1	2	5	2	3	2	4	
5	9	8	7	2	1	1	0	1	1	1	5	1	3	1	4	
3	2	7	0	0	0	0	1	0	5	0	3	0	4	
3	5	12	10	10	0	10	1	10	2	10	3	10	4	
5	10	12	5	1	2	10	0	10	1	10	2	10	3	10	4	
3	0	6	9	0	0	0	1	0	2	0	1	0	0	
3	3	4	1	3	0	3	1	3	2	3	3	3	4	
3	6	0	5	5	0	5	1	5	5	5	3	5	4	
4	1	2	7	8	1	0	1	1	1	2	1	3	1	4	
5	4	1	5	0	6	1	0	1	1	1	2	1	1	6	0	
2	8	14	14	0	14	1	14	5	14	3	14	4	
4	12	5	1	4	5	0	5	1	5	2	5	5	4	4	
3	5	1	4	5	0	1	1	1	5	4	3	4	4	
2	5	3	3	0	3	1	3	2	3	5	3	4	
4	12	5	1	2	12	0	12	1	12	2	12	5	2	4	
3	5	12	13	13	0	13	1	13	2	13	5	13	4	
5	10	13	6	0	7	10	0	10	1	10	2	0	5	7	4	
3	12	5	1	1	0	1	1	1	5	1	3	1	4	
2	0	7	0	0	0	1	0	2	0	3	0	4	
5	11	9	6	13	10	10	0	10	1	10	2	10	1	10	0	
3	14	7	0	14	0	14	1	14	2	14	3	14	4	
4	7	2	4	3	4	0	4	1	4	2	4	3	4	4	
4	12	13	6	9	6	0	6	1	6	2	6	3	6	4	
3	9	6	0	9	0	9	1	9	2	6	5	0	4	
3	5	0	6	5	0	5	1	5	2	5	3	5	4	
3	9	8	14	8	0	8	1	8	2	8	5	14	4	
4	13	6	9	8	9	0	9	1	9	5	9	3	9	4	
3	6	0	7	7	0	7	1	7	2	7	5	7	4	
4	10	13	6	9	10	0	10	1	10	2	10	1	10	0	
3	1	4	3	1	0	1	1	1	5	1	3	1	4	
4	3	5	12	10	10	0	10	1	10	2	10	1	10	0	
3	8	7	2	8	0	2	1	2	5	2	3	2	4	
2	1	5	1	0	1	1	1	5	1	3	1	4	
5	4	2	7	8	9	9	0	9	1	9	2	9	3	9	4	
3	9	8	7	9	0	9	1	9	2	9	3	9	4	
2	9	11	11	0	11	1	11	5	11	3	11	4	
4	1	5	12	10	10	0	10	1	10	5	10	3	10	4	
4	5	0	7	8	8	0	8	1	8	5	8	3	8	4	
4	10	13	6	0	10	0	6	1	6	2	6	1	6	0	
4	0	6	9	11	11	0	11	1	11	2	11	3	11	4	
2	8	9	9	0	9	1	9	2	9	5	9	4	
5	11	8	7	2	1	1	0	1	1	1	2	1	5	1	4	
4	4	1	5	0	4	0	4	1	4	2	4	5	5	4	
2	10	13	10	0	10	1	10	5	10	3	10	4	
3	11	8	7	11	0	11	1	11	2	8	5	8	4	
4	2	7	8	9	2	0	2	1	2	2	2	5	2	4	
4	4	2	7	14	14	0	14	1	14	2	14	5	14	4	
4	9	8	7	2	7	0	7	1	7	2	7	5	7	4	
3	2	4	3	4	0	4	1	4	2	4	5	3	4	
3	10	12	5	12	0	12	1	12	2	12	1	12	0	
2	12	10	12	0	12	1	12	5	12	3	12	4	
5	6	0	5	1	4	6	0	6	1	6	2	6	3	6	4	
5	11	9	6	13	12	12	0	12	1	12	2	12	3	12	4	
5	4	2	7	8	11	11	0	11	1	11	2	11	5	11	4	
4	14	7	0	6	6	0	6	1	6	2	6	1	6	0	
3	4	1	5	5	0	5	1	5	2	5	3	5	4	
4	8	9	6	13	6	0	6	1	6	2	6	5	6	4	
5	12	13	6	9	11	12	0	12	1	12	5	12	3	12	4	
5	2	1	5	12	10	10	0	10	1	10	2	10	3	10	4	
5	13	6	0	7	2	13	0	6	1	6	2	6	5	2	4	
4	9	6	13	12	13	0	13	1	13	2	13	1	13	0	
5	3	5	0	6	9	0	0	0	1	0	2	0	5	0	4	
2	0	6	6	0	6	1	6	5	6	3	6	4	
3	3	5	12	5	0	5	1	5	2	5	3	5	4	
4	8	7	2	4	4	0	4	1	4	2	4	3	4	4	
5	14	7	2	4	3	14	0	4	1	4	2	3	1	3	0	
3	7	2	1	1	0	1	1	1	2	1	5	1	4	
2	7	0	0	0	0	1	0	2	0	1	0	0	
4	9	6	0	5	9	0	9	1	9	2	9	1	9	0	
5	4	2	7	8	11	2	0	8	1	8	5	8	3	8	4	
4	6	0	5	3	0	0	5	1	3	2	3	5	3	4	
3	13	6	9	13	0	13	1	13	2	13	3	13	4	
3	6	9	8	9	0	9	1	9	2	9	3	9	4	
5	10	13	6	9	8	9	0	8	1	8	2	8	5	8	4	
3	1	5	12	12	0	12	1	12	2	12	5	12	4	
6	3	5	0	6	9	11	3	0	3	1	3	2	3	5	3	4	
3	7	8	9	9	0	9	1	9	2	9	1	9	0	
5	14	7	0	6	13	13	0	13	1	13	2	13	3	13	4	
3	9	6	0	9	0	9	1	9	2	9	1	9	0	
4	8	7	0	5	5	0	5	1	5	2	5	5	5	4	
3	0	5	3	3	0	3	1	3	5	3	3	3	4	
2	2	1	1	0	1	1	1	2	1	1	1	0	
2	8	11	8	0	8	1	8	2	8	5	11	4	
4	5	0	6	9	9	0	9	1	9	2	9	3	9	4	
4	10	12	5	3	10	0	10	1	10	2	10	3	10	4	
4	0	6	13	10	10	0	10	1	10	5	10	3	10	4	
3	3	5	0	0	0	0	1	0	2	0	3	0	4	
3	11	8	14	14	0	14	1	14	5	14	3	14	4	
4	7	0	5	12	0	0	0	1	0	2	0	1	0	0	
5	11	8	7	2	4	4	0	4	1	4	5	4	3	4	4	
3	2	7	8	7	0	7	1	7	2	7	1	7	0	
6	10	13	6	0	7	14	10	0	10	1	10	2	6	5	0	4	
5	12	5	0	7	14	7	0	7	1	7	5	7	3	7	4	
5	10	12	5	1	4	4	0	4	1	4	2	4	5	4	4	
3	5	0	6	6	0	6	1	6	5	6	3	6	4	
3	6	0	7	7	0	7	1	7	2	7	1	7	0	
3	8	9	6	9	0	9	1	9	2	9	1	9	0	
4	14	7	2	1	2	0	2	1	2	2	1	3	1	4	
2	13	6	13	0	13	1	13	2	13	5	6	4	
4	12	13	6	9	9	0	9	1	9	5	9	3	9	4	
2	7	2	7	0	7	1	7	2	7	3	7	4	
2	12	10	10	0	10	1	10	2	10	3	10	4	
5	2	7	0	6	13	2	0	7	1	13	2	13	1	13	0	
4	14	7	2	1	14	0	14	1	14	2	7	5	1	4	
3	9	6	13	9	0	9	1	9	2	9	5	13	4	
4	13	6	0	7	0	0	0	1	0	2	0	1	0	0	
4	6	0	7	14	0	0	7	1	7	2	14	1	14	0	
2	0	5	0	0	0	1	0	2	0	5	0	4	
5	8	7	0	5	3	8	0	0	1	0	2	0	1	0	0	
2	1	4	4	0	4	1	4	2	4	1	4	0	
5	4	1	5	12	10	10	0	10	1	10	2	10	3	10	4	
2	9	6	9	0	9	1	9	2	9	3	9	4	
6	14	7	0	6	13	10	10	0	10	1	10	5	10	3	10	4	
2	13	10	10	0	10	1	10	2	10	1	10	0	
3	0	5	12	12	0	12	1	12	2	12	3	12	4	
3	6	9	11	6	0	9	1	9	2	9	1	9	0	
5	10	13	6	9	11	10	0	10	1	10	5	10	3	10	4	
4	1	5	12	13	12	0	12	1	12	2	12	1	12	0	
5	3	4	2	7	8	3	0	3	1	3	5	3	3	3	4	
2	7	14	14	0	14	1	14	2	14	3	14	4	
4	8	7	2	1	2	0	2	1	2	2	2	5	1	4	
5	14	7	0	5	12	12	0	12	1	12	5	12	3	12	4	
4	2	7	0	6	6	0	6	1	6	2	6	5	6	4	
5	9	8	7	2	1	9	0	9	1	9	2	9	5	8	4	
3	2	7	0	7	0	7	1	7	2	7	5	0	4	
3	5	12	10	5	0	5	1	5	2	5	1	12	0	
3	0	6	9	0	0	0	1	9	2	9	5	9	4	
3	6	0	5	5	0	5	1	5	2	5	3	5	4	
4	1	2	7	8	2	0	2	1	2	2	2	1	2	0	
5	4	1	5	0	6	1	0	1	1	1	2	1	3	6	4	
2	8	14	14	0	14	1	14	2	14	5	14	4	
4	12	5	1	4	12	0	1	1	1	2	4	1	4	0	
4	2	7	8	11	2	0	2	1	2	2	2	3	2	4	
2	5	3	3	0	3	1	3	2	3	1	3	0	
5	10	13	6	0	7	13	0	13	1	13	5	13	3	7	4	
2	13	10	10	0	10	1	10	2	10	5	10	4	
2	0	7	7	0	7	1	7	2	7	1	7	0	
4	8	7	0	5	8	0	8	1	8	2	8	3	7	4	
3	3	4	1	3	0	3	1	3	2	3	5	4	4	
3	14	7	0	7	0	7	1	7	5	7	3	7	4	
4	7	2	4	3	2	0	2	1	2	5	2	3	2	4	
4	12	13	6	9	12	0	12	1	12	2	12	1	12	0	
4	2	1	5	12	12	0	12	1	12	2	12	5	12	4	
3	5	0	6	5	0	5	1	5	2	5	1	5	0	
3	9	8	14	9	0	9	1	9	5	9	3	9	4	
4	13	6	9	8	13	0	13	1	13	2	13	3	13	4	
3	0	7	14	7	0	7	1	7	2	7	1	7	0	
2	4	3	3	0	3	1	3	5	3	3	3	4	
2	6	9	9	0	9	1	9	2	9	3	9	4	
3	6	9	11	11	0	11	1	11	2	11	5	11	4	
3	1	4	3	4	0	4	1	4	2	4	5	3	4	
3	8	7	2	8	0	8	1	8	2	8	5	7	4	
2	1	5	1	0	1	1	1	2	1	5	5	4	
5	4	2	7	8	9	2	0	2	1	2	2	2	1	2	0	
4	5	0	7	8	0	0	0	1	0	2	0	3	0	4	
4	10	13	6	0	13	0	13	1	13	2	13	3	13	4	
4	0	6	9	11	9	0	9	1	9	2	9	1	9	0	
5	11	8	7	2	1	2	0	2	1	2	2	2	1	2	0	
4	1	2	7	14	2	0	2	1	2	2	2	3	2	4	
6	14	7	0	6	13	10	13	0	13	1	13	2	13	5	13	4	
4	4	1	5	0	4	0	4	1	4	2	1	1	5	0	
4	2	7	8	9	9	0	9	1	9	5	9	3	9	4	
4	9	8	7	2	9	0	9	1	2	5	2	3	2	4	
4	13	12	5	3	12	0	12	1	12	5	12	3	12	4	
3	2	4	3	2	0	2	1	2	5	2	3	2	4	
2	6	0	0	0	0	1	0	5	0	3	0	4	
2	1	2	2	0	2	1	2	2	2	5	2	4	
5	6	0	5	1	4	1	0	1	1	1	5	4	3	4	4	
5	11	9	6	13	12	9	0	9	1	9	2	9	1	9	0	
4	14	7	0	6	14	0	0	1	0	2	6	3	6	4	
3	4	1	5	1	0	1	1	1	2	1	1	1	0	
4	8	9	6	13	8	0	9	1	13	5	13	3	13	4	
5	12	13	6	9	11	12	0	12	1	12	2	12	3	12	4	
3	5	1	4	1	0	1	1	1	2	1	3	1	4	
5	13	6	0	7	14	0	0	0	1	0	2	0	5	7	4	
2	0	6	6	0	6	1	6	2	6	5	6	4	
3	3	5	12	12	0	12	1	12	2	12	1	12	0	
5	7	0	6	13	10	13	0	13	1	13	2	13	5	13	4	
5	14	7	2	4	3	14	0	14	1	14	2	4	5	3	4	
6	11	9	6	0	5	3	9	0	6	1	6	5	6	3	3	4	
5	4	2	7	8	11	8	0	8	1	8	2	8	3	8	4	
4	9	6	0	5	9	0	9	1	9	2	9	3	9	4	
3	4	2	7	4	0	4	1	4	5	7	3	7	4	
6	10	13	6	0	7	14	10	0	0	1	0	2	0	1	14	0	
3	0	6	13	0	0	0	1	0	2	0	3	0	4	
2	3	5	5	0	5	1	5	2	5	1	5	0	
3	1	5	12	12	0	12	1	12	5	12	3	12	4	
3	7	8	9	9	0	9	1	9	2	9	3	9	4	
3	12	5	0	12	0	12	1	12	5	12	3	5	4	
5	14	7	0	6	13	14	0	14	1	14	2	7	1	13	0	
4	5	0	6	9	5	0	5	1	5	5	5	3	5	4	
4	10	12	5	3	12	0	12	1	12	2	12	1	12	0	
4	14	7	0	6	14	0	0	1	0	2	6	5	6	4	
3	3	5	0	5	0	5	1	5	2	5	1	5	0	
5	4	1	5	12	13	1	0	1	1	1	5	1	3	1	4	
3	11	8	14	14	0	14	1	14	2	14	3	14	4	
4	14	7	2	4	14	0	14	1	14	2	4	1	4	0	
3	4	2	7	7	0	7	1	7	2	7	3	7	4	
3	2	7	8	7	0	7	1	7	2	7	3	7	4	
4	1	2	7	14	1	0	1	1	1	2	1	5	1	4	
5	13	12	5	1	4	12	0	12	1	12	2	12	5	5	4	
2	6	13	6	0	6	1	6	2	6	5	6	4	
5	3	5	0	7	14	0	0	0	1	0	2	0	3	14	4	
3	8	9	6	8	0	9	1	9	2	9	3	9	4	
4	14	7	2	1	14	0	14	1	14	2	14	1	14	0	
2	7	2	7	0	7	1	7	2	7	1	7	0	
2	9	11	11	0	11	1	11	2	11	1	11	0	
4	13	6	0	7	0	0	0	1	0	2	0	3	0	4	
4	6	0	7	14	0	0	7	1	7	2	14	3	14	4	
5	11	8	7	0	5	0	0	0	1	0	5	0	3	0	4	
2	0	5	0	0	0	1	0	5	0	3	0	4	
3	7	8	11	7	0	7	1	7	2	7	1	7	0	
5	4	1	5	12	10	10	0	10	1	10	5	10	3	10	4	
2	9	6	9	0	9	1	9	2	9	1	9	0	
3	12	5	1	12	0	12	1	12	2	12	5	5	4	
4	11	9	6	0	11	0	11	1	11	5	11	3	6	4	
4	10	12	5	1	10	0	10	1	10	2	10	3	10	4	
4	3	5	12	13	3	0	3	1	3	5	3	3	3	4	
3	3	4	2	4	0	4	1	4	2	4	3	4	4	
4	1	5	12	13	1	0	1	1	1	2	12	3	12	4	
2	7	14	14	0	14	1	14	2	14	1	14	0	
4	12	5	0	7	0	0	0	1	0	2	0	5	7	4	
5	14	7	0	5	12	14	0	14	1	14	2	14	5	0	4	
4	2	7	0	6	2	0	2	1	2	2	2	1	2	0	
2	5	0	5	0	5	1	5	2	0	5	0	4	
5	3	5	0	7	14	3	0	7	1	7	5	14	3	14	4	
3	5	12	10	10	0	10	1	10	2	10	5	10	4	
2	11	9	11	0	11	1	11	5	11	3	9	4	
3	0	6	9	9	0	9	1	9	5	9	3	9	4	
3	6	0	5	5	0	5	1	5	2	5	1	5	0	
2	14	7	7	0	7	1	7	2	7	3	7	4	
5	4	1	5	0	6	4	0	4	1	4	5	4	3	4	4	
4	1	5	12	10	1	0	1	1	1	2	1	5	12	4	
4	12	5	1	4	12	0	1	1	1	2	4	3	4	4	
4	2	7	8	11	8	0	8	1	11	2	11	1	11	0	
2	5	3	3	0	3	1	3	2	3	3	3	4	
3	13	12	5	13	0	13	1	13	2	13	1	13	0	
3	6	13	12	13	0	13	1	13	2	13	1	13	0	
4	14	7	2	4	4	0	4	1	4	2	4	5	4	4	
4	8	7	0	5	8	0	8	1	8	2	8	1	8	0	
3	14	7	0	7	0	7	1	7	2	7	5	7	4	
4	7	0	5	3	7	0	0	1	0	2	0	5	0	4	
5	9	8	7	2	4	9	0	9	1	9	2	9	3	9	4	
2	9	11	9	0	9	1	9	2	9	5	9	4	
3	5	0	6	5	0	5	1	5	2	5	5	5	4	
4	13	6	9	8	8	0	8	1	8	2	8	1	8	0	
3	0	7	14	14	0	14	1	14	2	14	3	14	4	
2	6	9	9	0	9	1	9	2	9	1	9	0	
4	11	8	7	2	11	0	11	1	11	2	8	5	2	4	
3	1	4	3	1	0	1	1	1	2	1	1	1	0	
2	7	8	8	0	8	1	8	2	8	3	8	4	
4	10	13	6	9	13	0	13	1	13	5	13	3	13	4	
2	12	5	5	0	5	1	5	2	5	5	5	4	
5	11	9	6	13	12	11	0	11	1	11	5	11	3	11	4	
5	4	2	7	8	9	8	0	8	1	8	2	8	5	9	4	
5	3	5	0	6	9	3	0	3	1	3	5	3	3	3	4	
3	10	13	6	13	0	13	1	13	5	13	3	13	4	
4	5	0	7	8	0	0	0	1	0	2	0	1	0	0	
4	10	13	6	0	13	0	13	1	13	5	13	3	13	4	
5	11	8	7	2	1	11	0	11	1	11	2	11	3	11	4	
4	1	2	7	14	1	0	1	1	1	2	1	1	1	0	
4	4	1	5	0	1	0	1	1	1	2	1	3	1	4	
3	12	13	6	13	0	13	1	13	2	13	1	13	0	
4	2	7	8	9	2	0	2	1	2	2	2	3	2	4	
2	5	1	1	0	1	1	1	2	1	1	1	0	
4	13	12	5	3	13	0	12	1	12	2	12	5	12	4	
4	6	0	7	2	0	0	0	1	2	2	2	5	2	4	
5	6	0	5	1	4	6	0	6	1	6	2	6	5	4	4	
2	8	7	7	0	7	1	7	2	7	3	7	4	
3	7	0	5	0	0	0	1	0	2	0	5	0	4	
3	4	1	5	1	0	1	1	1	2	1	5	1	4	
5	12	13	6	9	11	11	0	11	1	11	2	11	1	11	0	
3	5	1	4	5	0	1	1	1	2	4	1	4	0	
6	10	13	6	0	7	14	13	0	13	1	13	5	13	3	14	4	
2	13	6	13	0	13	1	13	2	13	3	13	4	
4	0	7	2	1	7	0	2	1	2	5	1	3	1	4	
4	3	5	0	6	6	0	6	1	6	2	6	5	6	4	
3	3	5	12	3	0	3	1	3	2	3	5	12	4	
5	7	0	6	13	10	7	0	7	1	7	5	7	3	7	4	
5	9	6	0	5	3	9	0	6	1	6	5	6	3	0	4	
3	9	8	7	8	0	8	1	8	2	8	5	7	4	
5	4	2	7	8	11	11	0	11	1	11	2	11	1	11	0	
4	9	6	0	5	9	0	9	1	9	5	9	3	9	4	
6	10	13	6	0	7	14	10	0	0	1	0	2	0	3	14	4	
3	0	6	13	13	0	13	1	13	2	13	1	13	0	
2	3	5	3	0	3	1	3	2	3	3	3	4	
4	12	13	6	9	13	0	13	1	13	2	13	5	9	4	
6	11	8	7	0	5	3	11	0	0	1	0	2	0	1	0	0	
2	11	8	11	0	11	1	11	5	11	3	11	4	
3	1	5	12	12	0	12	1	12	2	12	3	12	4	
2	3	5	3	0	3	1	3	5	3	3	3	4	
2	4	2	2	0	2	1	2	2	2	1	2	0	
3	12	5	0	12	0	12	1	12	2	12	5	0	4	
5	10	13	6	9	8	10	0	10	1	10	5	10	3	10	4	
4	5	0	6	9	5	0	5	1	5	2	5	5	9	4	
4	10	12	5	3	12	0	12	1	3	2	3	5	3	4	
3	3	5	0	3	0	3	1	3	2	5	5	0	4	
3	11	8	14	14	0	14	1	14	2	14	1	14	0	
4	14	7	2	4	14	0	14	1	14	2	14	3	14	4	
3	2	7	14	14	0	14	1	14	5	14	3	14	4	
3	4	2	7	4	0	4	1	2	2	2	1	7	0	
2	12	5	12	0	12	1	12	2	12	3	12	4	
3	2	7	8	2	0	7	1	8	5	8	3	8	4	
3	5	1	2	2	0	2	1	2	2	2	3	2	4	
5	13	12	5	1	4	13	0	13	1	13	5	13	3	4	4	
2	6	13	13	0	13	1	13	5	13	3	13	4	
3	8	7	0	7	0	7	1	7	5	7	3	7	4	
3	7	8	9	7	0	7	1	7	2	7	5	7	4	
3	1	2	7	1	0	1	1	1	5	1	3	1	4	
5	3	4	2	7	14	14	0	14	1	14	2	14	1	14	0	
3	8	9	6	8	0	8	1	8	5	8	3	8	4	
2	9	11	11	0	11	1	11	2	11	3	11	4	
2	10	12	12	0	12	1	12	2	12	1	12	0	
4	3	5	0	7	3	0	0	1	0	2	0	1	7	0	
5	14	7	0	6	13	14	0	14	1	14	5	7	3	13	4	
5	11	9	6	0	5	11	0	11	1	11	2	11	5	6	4	
3	7	8	11	8	0	8	1	8	2	8	3	8	4	
3	2	1	5	1	0	1	1	1	2	1	5	1	4	
5	4	1	5	12	10	4	0	4	1	4	2	1	5	12	4	
2	9	6	9	0	9	1	9	2	9	5	6	4	
4	10	12	5	1	12	0	12	1	5	5	5	3	5	4	
2	12	13	13	0	13	1	13	2	13	5	13	4	
4	10	12	5	1	12	0	12	1	12	2	12	1	12	0	
5	1	2	7	8	11	2	0	2	1	11	5	11	3	11	4	
3	3	4	2	4	0	4	1	4	2	4	1	4	0	
4	11	9	6	0	11	0	11	1	11	2	11	3	6	4	
6	14	7	0	6	13	10	14	0	14	1	14	2	7	1	7	0	
2	4	1	4	0	4	1	4	2	4	3	4	4	
4	12	5	0	7	5	0	5	1	5	5	5	3	5	4	
4	2	7	0	6	2	0	2	1	2	2	2	3	2	4	
2	4	3	3	0	3	1	3	2	3	5	3	4	
3	3	4	2	4	0	4	1	4	5	4	3	4	4	
4	0	5	1	4	4	0	4	1	4	5	4	3	4	4	
3	5	12	10	10	0	10	1	10	5	10	3	10	4	
2	11	9	11	0	11	1	11	2	11	5	9	4	
4	11	9	6	0	11	0	11	1	11	2	11	5	6	4	
2	14	7	14	0	14	1	14	2	14	1	14	0	
5	4	1	5	0	6	4	0	4	1	4	2	4	5	5	4	
4	3	4	2	7	2	0	2	1	2	5	2	3	2	4	
4	2	7	8	11	2	0	2	1	2	2	2	5	7	4	
3	13	12	5	12	0	12	1	12	2	12	3	12	4	
3	9	6	0	6	0	6	1	6	5	6	3	6	4	
3	6	13	12	12	0	12	1	12	2	12	3	12	4	
3	1	5	0	1	0	0	1	0	2	0	5	0	4	
3	7	0	5	0	0	0	1	0	2	0	1	0	0	
2	12	13	12	0	12	1	12	5	12	3	12	4	
5	9	8	7	2	4	4	0	4	1	4	2	4	1	4	0	
3	0	7	8	8	0	8	1	8	5	8	3	8	4	
3	14	8	9	14	0	14	1	14	5	14	3	14	4	
3	0	7	14	14	0	14	1	14	5	14	3	14	4	
2	3	4	4	0	4	1	4	2	4	3	4	4	
2	8	7	8	0	8	1	8	2	8	5	7	4	
4	11	8	7	2	2	0	2	1	2	5	2	3	2	4	
3	1	4	3	4	0	4	1	4	2	4	3	4	4	
2	7	8	8	0	8	1	8	2	8	1	8	0	
3	10	12	5	10	0	10	1	10	5	10	3	10	4	
2	2	4	2	0	2	1	2	2	2	1	2	0	
5	4	2	7	8	9	2	0	2	1	2	5	2	3	2	4	
3	10	13	6	10	0	10	1	10	2	6	5	6	4	
4	10	13	6	0	10	0	10	1	10	2	0	5	0	4	
4	1	5	0	6	1	0	5	1	5	2	5	5	5	4	
5	8	9	6	13	12	12	0	12	1	12	2	12	5	12	4	
5	8	7	0	5	12	5	0	5	1	5	5	5	3	5	4	
5	8	9	6	13	10	10	0	10	1	10	2	10	1	10	0	
4	14	7	0	5	14	0	14	1	14	2	14	3	14	4	
3	4	2	7	4	0	4	1	4	2	4	5	4	4	
3	12	13	6	13	0	13	1	13	2	13	3	13	4	
4	2	7	8	9	9	0	9	1	9	2	9	1	9	0	
2	5	1	1	0	1	1	1	2	1	3	1	4	
4	13	12	5	3	13	0	12	1	12	2	12	1	12	0	
3	0	5	3	3	0	3	1	3	2	3	5	3	4	
4	6	0	7	2	2	0	2	1	2	2	2	1	2	0	
2	8	7	8	0	8	1	8	2	8	1	8	0	
3	4	1	5	1	0	5	1	5	5	5	3	5	4	
4	9	6	13	10	10	0	10	1	10	2	10	3	10	4	
4	14	7	0	6	14	0	0	1	0	5	6	3	6	4	
2	13	6	13	0	13	1	13	2	13	1	13	0	
2	7	8	8	0	8	1	8	2	8	5	8	4	
2	3	4	4	0	4	1	4	5	4	3	4	4	
4	3	5	0	6	6	0	6	1	6	5	6	3	6	4	
5	8	7	0	5	3	0	0	0	1	0	2	0	5	5	4	
5	7	0	6	13	10	10	0	10	1	10	2	10	3	10	4	
5	9	6	0	5	3	9	0	9	1	9	2	9	5	6	4	
5	14	7	2	1	5	14	0	5	1	5	5	5	3	5	4	
4	9	6	0	5	9	0	5	1	5	2	5	5	5	4	
3	0	6	13	13	0	13	1	13	2	13	5	13	4	
6	11	8	7	0	5	3	8	0	5	1	3	2	3	3	3	4	
3	1	5	12	1	0	1	1	1	2	1	1	1	0	
2	4	2	2	0	2	1	2	2	2	3	2	4	
3	12	5	0	12	0	5	1	5	2	5	1	0	0	
2	2	7	7	0	7	1	7	2	7	3	7	4	
