4712.13	3912.11
2006
71554.4	50271.8
15
0	2268	2283
1	1473	1484
2	1894	1912
3	1447	1447
4	0	-1
5	1326	1350
6	2066	2079
7	1989	2006
8	1689	1690
9	1575	1608
10	0	-1
11	0	-1
12	2195	2204
13	1722	1727
14	0	-1
44
0	5	97.893886	98.271631	1.000000
0	6	99.977004	101.133931	1.000000
0	7	93.335116	111.628703	1.000000
1	2	42.362710	109.720830	1.000000
1	4	38.182132	107.811977	1.000000
1	5	71.704218	109.720830	1.000000
2	1	42.913158	109.720830	1.000000
2	4	39.961978	101.133931	1.000000
2	7	92.871302	97.317303	1.000000
3	4	21.235620	94.455003	1.000000
3	5	44.737036	86.822237	1.000000
4	1	37.917042	107.811977	1.000000
4	2	40.340292	101.133931	1.000000
4	3	20.657794	94.455003	1.000000
5	0	96.805180	98.271631	1.000000
5	1	71.223370	109.720830	1.000000
5	3	45.985836	86.822237	1.000000
5	12	86.921674	87.776370	1.000000
6	0	100.210938	101.133931	1.000000
6	9	81.034602	92.546836	1.000000
6	13	85.391118	104.949677	1.000000
7	0	94.088892	111.628703	1.000000
7	2	92.010336	97.317303	1.000000
7	8	76.599124	103.996231	1.000000
7	14	52.101894	107.811977	1.000000
8	7	76.333358	103.996231	1.000000
8	9	42.686116	101.133931	1.000000
8	11	28.447118	85.868203	1.000000
8	14	14.305572	91.592704	1.000000
9	6	80.721386	92.546836	1.000000
9	8	42.755634	101.133931	1.000000
9	11	38.574106	106.858530	1.000000
10	12	28.499850	101.133931	1.000000
10	13	38.144628	96.363170	1.000000
11	8	29.058060	85.868203	1.000000
11	9	38.390176	106.858530	1.000000
12	5	85.688362	87.776370	1.000000
12	10	28.889268	101.133931	1.000000
12	13	38.887830	93.500871	1.000000
13	6	86.685938	104.949677	1.000000
13	10	38.248972	96.363170	1.000000
13	12	37.382912	93.500871	1.000000
14	7	52.270942	107.811977	1.000000
14	8	14.122884	91.592704	1.000000
840
4	10	12	5	3	12	0	12	1	12	5	12	3	3	4	
3	14	7	2	7	0	2	1	2	5	2	3	2	4	
3	3	5	0	0	0	0	1	0	5	0	3	0	4	
2	8	9	9	0	9	1	9	2	9	3	9	4	
4	14	7	2	4	7	0	7	1	7	5	7	3	2	4	
3	2	7	14	7	0	7	1	7	2	7	5	7	4	
4	9	6	13	12	6	0	13	1	13	5	13	3	12	4	
2	12	5	5	0	5	1	5	2	5	1	5	0	
3	2	7	8	8	0	8	1	8	2	8	5	8	4	
3	5	1	2	1	0	1	1	1	2	1	1	2	0	
5	13	12	5	1	4	13	0	5	1	5	2	5	3	1	4	
3	0	7	2	0	0	0	1	0	2	2	1	2	0	
4	4	1	5	12	12	0	12	1	12	5	12	3	12	4	
2	6	13	6	0	6	1	6	2	6	3	6	4	
3	8	7	0	0	0	0	1	0	2	0	5	0	4	
3	1	2	7	1	0	1	1	2	2	2	5	2	4	
3	8	9	6	6	0	6	1	6	2	6	5	6	4	
5	3	5	0	7	14	3	0	3	1	3	2	3	5	3	4	
2	8	7	7	0	7	1	7	5	7	3	7	4	
2	10	12	12	0	12	1	12	2	12	3	12	4	
4	3	5	0	7	3	0	3	1	3	2	3	3	3	4	
4	7	0	6	13	13	0	13	1	13	5	13	3	13	4	
4	14	7	2	1	1	0	1	1	1	5	1	3	1	4	
5	11	9	6	0	5	9	0	9	1	9	2	9	1	9	0	
2	1	2	1	0	1	1	1	2	1	3	1	4	
4	4	1	5	12	12	0	12	1	12	2	12	1	12	0	
3	7	2	1	1	0	1	1	1	5	1	3	1	4	
3	2	1	5	1	0	1	1	1	5	1	3	1	4	
2	9	6	9	0	9	1	9	5	9	3	9	4	
5	1	2	7	8	11	1	0	1	1	1	2	1	5	7	4	
4	11	9	6	0	9	0	9	1	9	2	9	1	9	0	
6	14	7	0	6	13	10	13	0	13	1	13	2	13	3	13	4	
2	4	1	1	0	1	1	1	2	1	1	1	0	
4	12	5	0	7	12	0	12	1	12	2	12	3	12	4	
2	5	0	5	0	5	1	5	2	5	3	5	4	
4	0	5	1	4	0	0	0	1	0	2	5	5	1	4	
2	11	9	9	0	9	1	9	2	9	1	9	0	
4	10	13	6	9	13	0	13	1	13	2	13	5	9	4	
2	9	8	9	0	9	1	9	5	9	3	9	4	
5	11	9	6	13	12	12	0	12	1	12	2	12	5	12	4	
3	7	0	6	6	0	6	1	6	2	6	5	6	4	
2	14	7	7	0	7	1	7	2	7	5	7	4	
4	13	6	9	11	13	0	13	1	13	5	13	3	13	4	
4	2	7	8	11	2	0	2	1	2	5	2	3	2	4	
3	6	13	10	13	0	13	1	13	5	13	3	13	4	
3	13	12	5	13	0	5	1	5	5	5	3	5	4	
3	0	5	1	5	0	5	1	5	2	5	3	5	4	
5	3	5	0	6	9	9	0	9	1	9	2	9	1	9	0	
4	3	5	12	10	5	0	12	1	12	2	12	5	12	4	
3	1	5	0	0	0	0	1	0	5	0	3	0	4	
3	7	0	5	0	0	0	1	0	2	0	3	0	4	
5	5	0	6	9	11	9	0	9	1	9	5	9	3	9	4	
3	0	7	8	8	0	8	1	8	2	8	5	8	4	
3	0	7	14	0	0	0	1	0	2	0	5	0	4	
2	3	4	3	0	3	1	3	2	3	1	3	0	
4	11	8	7	2	2	0	2	1	2	2	2	3	2	4	
2	14	8	8	0	8	1	8	2	8	1	8	0	
2	4	3	3	0	3	1	3	2	3	3	3	4	
2	2	4	2	0	2	1	2	2	2	3	2	4	
3	10	13	6	13	0	13	1	13	2	13	1	13	0	
3	13	6	0	0	0	0	1	0	2	0	5	0	4	
4	0	6	13	10	0	0	0	1	0	2	0	5	13	4	
4	6	0	5	1	1	0	1	1	1	2	1	5	1	4	
3	9	8	7	9	0	9	1	9	5	9	3	9	4	
5	8	9	6	13	10	9	0	9	1	9	2	9	3	9	4	
5	12	5	0	7	8	12	0	8	1	8	5	8	3	8	4	
4	14	7	0	5	5	0	5	1	5	2	5	1	5	0	
3	5	0	7	5	0	5	1	5	5	5	3	5	4	
3	12	13	6	6	0	6	1	6	5	6	3	6	4	
2	6	0	6	0	6	1	6	2	6	5	0	4	
2	5	1	5	0	5	1	5	5	5	3	5	4	
2	10	13	13	0	13	1	13	2	13	5	13	4	
4	13	12	5	3	3	0	3	1	3	2	3	3	3	4	
2	11	8	8	0	8	1	8	2	8	5	8	4	
4	6	0	7	2	2	0	2	1	2	2	2	3	2	4	
4	4	2	7	8	2	0	2	1	2	5	2	3	2	4	
4	9	6	13	10	9	0	9	1	9	2	9	1	9	0	
2	13	12	12	0	12	1	12	2	12	5	12	4	
2	10	13	13	0	13	1	13	2	13	3	13	4	
4	3	5	0	6	5	0	5	1	5	2	5	3	5	4	
5	7	0	6	13	10	7	0	7	1	7	2	7	1	7	0	
5	9	6	0	5	3	9	0	9	1	9	2	9	1	9	0	
3	12	5	3	3	0	3	1	3	2	3	5	3	4	
2	5	12	5	0	5	1	5	2	5	5	12	4	
3	7	8	9	9	0	9	1	9	5	9	3	9	4	
4	11	9	6	13	9	0	9	1	9	5	9	3	9	4	
3	0	6	13	6	0	6	1	6	5	6	3	6	4	
5	8	7	0	5	12	8	0	8	1	8	2	8	1	12	0	
3	14	8	11	8	0	8	1	8	2	8	3	8	4	
2	4	2	2	0	2	1	2	5	2	3	2	4	
3	12	5	0	0	0	0	1	0	2	0	3	0	4	
2	2	7	2	0	2	1	2	2	2	1	2	0	
5	14	7	0	6	13	6	0	6	1	6	2	13	5	13	4	
4	13	12	5	1	1	0	1	1	1	2	1	1	1	0	
2	6	0	0	0	0	1	0	2	0	1	0	0	
5	14	7	0	5	3	7	0	7	1	7	5	7	3	3	4	
3	14	7	2	2	0	2	1	2	2	2	5	2	4	
2	8	9	9	0	9	1	9	2	9	1	9	0	
3	6	13	12	6	0	6	1	6	2	6	5	6	4	
3	2	7	14	7	0	7	1	7	2	7	1	7	0	
4	10	12	5	1	1	0	1	1	1	2	1	5	1	4	
4	3	5	12	10	5	0	5	1	5	5	5	3	5	4	
2	9	8	9	0	9	1	9	2	9	3	9	4	
2	3	5	3	0	3	1	3	2	3	5	3	4	
3	5	1	2	2	0	2	1	2	2	2	5	2	4	
5	13	12	5	1	4	13	0	13	1	13	2	13	1	13	0	
3	0	7	2	7	0	7	1	7	2	7	3	7	4	
2	6	13	13	0	13	1	13	2	13	1	13	0	
3	8	7	0	7	0	7	1	7	2	7	1	7	0	
3	11	9	6	9	0	9	1	9	2	9	5	9	4	
3	1	2	7	7	0	7	1	7	2	7	1	7	0	
3	7	2	4	7	0	7	1	7	2	7	3	7	4	
3	3	4	2	3	0	3	1	3	2	2	5	2	4	
5	10	12	5	1	2	12	0	12	1	12	5	12	3	12	4	
3	3	4	1	3	0	3	1	3	5	3	3	3	4	
2	10	12	12	0	12	1	12	5	12	3	12	4	
3	13	6	9	13	0	13	1	13	5	13	3	13	4	
4	7	0	6	13	0	0	0	1	0	2	0	5	0	4	
5	11	9	6	0	5	9	0	0	1	0	2	0	3	5	4	
2	1	2	1	0	1	1	1	2	1	1	1	0	
4	4	1	5	12	12	0	12	1	12	2	12	3	12	4	
4	12	5	1	2	12	0	12	1	1	2	1	1	1	0	
3	2	1	5	1	0	1	1	1	2	1	3	1	4	
3	5	12	13	13	0	13	1	13	2	13	1	13	0	
4	5	0	7	14	7	0	7	1	7	5	7	3	7	4	
5	11	9	6	13	10	13	0	13	1	13	2	13	5	13	4	
3	13	6	9	6	0	6	1	6	2	6	5	9	4	
5	1	2	7	8	11	7	0	7	1	7	2	7	1	7	0	
2	8	11	8	0	8	1	8	2	8	3	8	4	
2	4	1	1	0	1	1	1	2	1	5	1	4	
3	14	8	9	8	0	8	1	8	2	8	5	8	4	
4	12	5	0	7	7	0	7	1	7	2	7	1	7	0	
2	5	0	0	0	0	1	0	2	0	1	0	0	
5	13	6	0	7	2	7	0	7	1	7	2	7	3	7	4	
4	0	5	1	4	0	0	0	1	0	2	5	1	1	0	
3	7	8	11	7	0	7	1	7	5	7	3	7	4	
4	6	0	5	3	0	0	0	1	0	2	0	3	0	4	
2	11	9	9	0	9	1	9	2	9	3	9	4	
3	10	12	5	12	0	12	1	12	2	12	5	12	4	
3	7	0	6	7	0	7	1	7	5	7	3	7	4	
5	12	5	0	7	14	7	0	7	1	7	2	7	1	7	0	
2	14	7	7	0	7	1	7	5	7	3	7	4	
4	13	6	9	11	6	0	6	1	6	2	6	5	6	4	
3	6	13	10	13	0	13	1	13	2	13	5	13	4	
3	13	12	5	13	0	12	1	12	2	12	5	12	4	
3	0	5	1	0	0	0	1	0	2	0	1	0	0	
5	3	5	0	6	9	3	0	3	1	3	2	3	3	3	4	
3	11	8	7	7	0	7	1	7	2	7	1	7	0	
3	1	5	0	0	0	0	1	0	2	0	3	0	4	
4	4	2	7	14	7	0	7	1	7	2	7	1	7	0	
5	5	0	6	9	11	6	0	6	1	6	2	6	5	9	4	
5	13	6	0	7	14	13	0	0	1	0	2	0	3	7	4	
3	0	7	8	7	0	7	1	7	2	7	1	7	0	
2	3	4	3	0	3	1	3	2	3	5	3	4	
4	11	8	7	2	7	0	7	1	7	2	7	1	7	0	
2	14	8	8	0	8	1	8	2	8	3	8	4	
5	2	1	5	12	10	2	0	2	1	2	5	2	3	2	4	
2	4	3	3	0	3	1	3	2	3	1	3	0	
3	12	5	1	12	0	12	1	12	2	12	3	12	4	
2	2	4	2	0	2	1	2	5	2	3	2	4	
4	5	0	7	14	7	0	7	1	7	2	7	3	7	4	
3	10	13	6	6	0	6	1	6	2	6	3	6	4	
3	13	6	0	0	0	0	1	0	5	0	3	0	4	
4	6	0	5	1	0	0	0	1	0	5	0	3	0	4	
4	8	7	2	4	7	0	7	1	7	5	7	3	7	4	
4	14	7	0	5	7	0	7	1	7	2	7	5	7	4	
5	8	9	6	13	10	9	0	9	1	9	5	9	3	9	4	
5	12	5	0	7	8	12	0	8	1	8	2	8	5	8	4	
3	5	0	7	0	0	0	1	0	2	0	5	7	4	
3	12	13	6	12	0	12	1	12	2	12	5	12	4	
2	5	1	5	0	5	1	5	2	5	5	5	4	
5	10	13	6	9	8	9	0	9	1	9	2	9	1	9	0	
3	0	5	3	3	0	3	1	3	2	3	3	3	4	
6	3	5	0	6	9	11	6	0	6	1	6	2	6	1	9	0	
4	4	2	7	8	2	0	2	1	2	2	2	5	2	4	
2	12	13	12	0	12	1	12	2	12	3	12	4	
2	7	8	7	0	7	1	7	5	7	3	7	4	
2	2	1	2	0	2	1	2	2	2	5	2	4	
4	9	6	13	10	9	0	9	1	9	2	9	5	13	4	
2	13	12	12	0	12	1	12	5	12	3	12	4	
2	10	13	13	0	13	1	13	2	13	1	13	0	
4	3	5	0	6	5	0	5	1	0	2	0	1	0	0	
4	9	6	13	12	12	0	12	1	12	2	12	5	12	4	
5	11	8	7	2	4	7	0	7	1	7	2	7	3	7	4	
2	8	11	8	0	8	1	8	5	8	3	8	4	
5	4	1	5	12	13	5	0	5	1	5	2	5	3	5	4	
5	9	6	0	5	3	0	0	0	1	0	2	0	3	0	4	
3	12	5	3	3	0	3	1	3	5	3	3	3	4	
2	5	12	5	0	5	1	5	5	5	3	5	4	
5	10	12	5	1	4	5	0	5	1	5	2	5	1	5	0	
4	1	5	12	13	5	0	5	1	5	2	5	5	12	4	
4	11	9	6	13	9	0	9	1	9	2	9	5	6	4	
5	8	7	0	5	12	0	0	0	1	0	2	0	3	0	4	
3	14	8	11	8	0	8	1	8	2	8	1	8	0	
5	2	7	0	6	13	7	0	0	1	0	2	0	5	13	4	
2	4	2	2	0	2	1	2	2	2	5	2	4	
3	9	6	13	9	0	9	1	9	2	9	1	9	0	
2	2	7	7	0	7	1	7	2	7	5	7	4	
4	13	12	5	1	13	0	12	1	12	2	12	3	12	4	
2	6	0	0	0	0	1	0	2	0	3	0	4	
2	11	8	8	0	8	1	8	2	8	3	8	4	
3	14	7	2	7	0	7	1	7	2	7	1	7	0	
4	6	0	7	2	0	0	0	1	0	5	0	3	0	4	
2	1	4	1	0	1	1	1	2	1	5	1	4	
3	7	2	1	7	0	7	1	7	2	7	1	7	0	
3	2	7	14	7	0	7	1	7	2	7	3	7	4	
2	9	8	9	0	9	1	9	2	9	1	9	0	
3	0	5	12	0	0	0	1	0	5	0	3	0	4	
3	5	1	2	5	0	5	1	5	5	5	3	5	4	
5	10	13	6	9	11	9	0	9	1	9	2	9	3	9	4	
3	0	7	2	0	0	0	1	0	5	0	3	0	4	
5	3	5	0	7	8	3	0	3	1	3	2	3	3	3	4	
3	8	7	0	0	0	0	1	0	2	0	3	0	4	
3	11	9	6	6	0	6	1	6	5	6	3	6	4	
3	3	5	12	3	0	3	1	3	5	3	3	3	4	
3	1	2	7	7	0	7	1	7	2	7	3	7	4	
3	7	2	4	7	0	7	1	7	2	7	1	7	0	
5	9	8	7	2	1	8	0	8	1	8	2	8	1	8	0	
3	2	7	0	0	0	0	1	0	2	0	1	0	0	
2	12	5	5	0	5	1	5	5	5	3	5	4	
5	10	12	5	1	2	12	0	12	1	12	2	12	5	5	4	
2	9	8	8	0	8	1	8	2	8	5	8	4	
2	10	12	12	0	12	1	12	2	12	5	12	4	
4	1	2	7	8	7	0	7	1	7	2	7	5	7	4	
4	3	4	2	7	3	0	7	1	7	2	7	5	7	4	
4	7	0	6	13	0	0	0	1	0	2	0	1	0	0	
2	8	14	8	0	8	1	8	2	8	1	8	0	
3	14	8	9	9	0	9	1	9	2	9	3	9	4	
5	1	2	7	8	9	1	0	1	1	1	2	2	5	9	4	
4	12	5	1	2	5	0	5	1	5	2	5	3	5	4	
3	2	1	5	2	0	2	1	5	2	5	1	5	0	
3	5	12	13	13	0	13	1	13	2	13	3	13	4	
5	10	13	6	0	7	6	0	0	1	0	2	0	3	0	4	
2	0	7	0	0	0	1	0	2	0	5	0	4	
5	11	9	6	13	10	9	0	9	1	9	5	9	3	9	4	
5	1	2	7	8	11	2	0	2	1	2	2	2	3	2	4	
2	8	11	8	0	8	1	8	2	8	1	8	0	
4	2	1	5	12	5	0	5	1	5	2	5	1	5	0	
2	4	1	1	0	1	1	1	5	1	3	1	4	
3	9	8	14	9	0	9	1	9	2	9	3	9	4	
5	9	8	7	2	4	9	0	9	1	9	5	9	3	9	4	
5	13	6	0	7	2	6	0	6	1	6	2	6	1	6	0	
4	0	5	1	4	0	0	0	1	0	2	5	3	1	4	
4	6	0	5	3	3	0	3	1	3	2	3	1	3	0	
3	8	7	2	7	0	7	1	7	2	7	1	7	0	
2	1	5	5	0	5	1	5	2	5	1	5	0	
3	7	0	6	6	0	6	1	6	2	6	3	6	4	
5	12	5	0	7	14	5	0	5	1	5	2	5	3	5	4	
4	13	6	9	11	9	0	9	1	9	2	9	1	9	0	
4	0	6	9	11	6	0	6	1	6	2	6	5	9	4	
3	6	13	10	13	0	13	1	13	2	13	1	13	0	
3	0	5	1	0	0	0	1	0	2	0	5	1	4	
2	7	0	7	0	7	1	7	2	7	5	7	4	
3	11	8	7	8	0	8	1	8	2	8	3	8	4	
3	1	5	0	5	0	5	1	5	2	5	1	5	0	
4	4	2	7	14	2	0	2	1	2	2	2	3	2	4	
4	9	8	7	2	9	0	9	1	9	2	9	3	2	4	
5	9	8	7	2	4	9	0	9	1	8	2	8	5	2	4	
3	2	4	3	3	0	3	1	3	2	3	3	3	4	
5	8	7	0	5	3	3	0	3	1	3	5	3	3	3	4	
5	5	0	6	9	11	6	0	6	1	6	2	6	1	6	0	
5	13	6	0	7	14	13	0	0	1	0	2	0	1	7	0	
3	0	7	8	8	0	8	1	8	2	8	3	8	4	
4	2	1	5	12	12	0	12	1	12	5	12	3	12	4	
5	1	2	7	8	9	9	0	9	1	9	2	9	1	9	0	
3	6	0	7	6	0	6	1	6	5	6	3	6	4	
4	8	9	6	13	13	0	13	1	13	2	13	3	13	4	
2	14	8	8	0	8	1	8	5	8	3	8	4	
5	2	1	5	12	10	12	0	12	1	12	2	12	5	12	4	
3	12	5	1	5	0	5	1	5	2	5	1	5	0	
2	2	4	2	0	2	1	2	2	2	5	2	4	
4	5	0	7	14	5	0	5	1	5	2	5	1	5	0	
3	13	6	0	6	0	6	1	6	2	6	3	6	4	
2	0	6	6	0	6	1	6	2	6	1	6	0	
6	11	9	6	0	5	3	9	0	9	1	9	2	9	5	3	4	
4	6	0	5	1	6	0	6	1	6	2	6	3	6	4	
4	8	7	2	4	7	0	7	1	7	2	7	5	7	4	
2	8	9	9	0	9	1	9	5	9	3	9	4	
5	8	9	6	13	10	13	0	13	1	13	2	13	5	13	4	
5	12	5	0	7	8	12	0	8	1	8	2	8	1	8	0	
3	5	0	7	5	0	5	1	5	2	5	1	5	0	
5	10	13	6	9	8	9	0	9	1	9	2	9	3	9	4	
3	0	5	3	3	0	3	1	3	2	3	1	3	0	
6	3	5	0	6	9	11	6	0	6	1	6	2	6	3	9	4	
4	8	7	2	1	1	0	1	1	1	2	1	3	1	4	
2	12	10	12	0	12	1	12	2	12	5	12	4	
4	1	5	0	6	6	0	6	1	6	2	6	3	6	4	
2	6	9	6	0	6	1	6	5	9	3	9	4	
4	4	2	7	8	8	0	8	1	8	2	8	1	8	0	
2	12	13	13	0	13	1	13	2	13	1	13	0	
2	2	1	1	0	1	1	1	5	1	3	1	4	
4	9	6	13	10	9	0	6	1	6	5	6	3	6	4	
2	13	12	13	0	13	1	13	2	13	3	13	4	
4	0	6	13	10	0	0	0	1	0	2	0	1	13	0	
5	13	6	0	7	2	13	0	2	1	2	5	2	3	2	4	
3	6	13	12	6	0	6	1	6	5	6	3	6	4	
5	11	8	7	2	4	8	0	8	1	8	2	8	1	8	0	
5	4	1	5	12	13	5	0	5	1	5	2	5	1	5	0	
3	12	5	3	5	0	3	1	3	2	3	3	3	4	
2	5	12	5	0	5	1	5	2	5	3	5	4	
5	10	12	5	1	4	1	0	1	1	1	2	1	3	1	4	
4	6	0	5	3	6	0	6	1	6	5	6	3	6	4	
4	11	9	6	13	9	0	9	1	9	2	9	1	9	0	
4	1	5	12	10	5	0	5	1	5	2	5	3	5	4	
2	7	2	7	0	7	1	7	2	7	5	2	4	
3	14	8	11	8	0	8	1	8	2	8	5	8	4	
5	2	7	0	6	13	7	0	0	1	0	5	0	3	13	4	
3	9	6	13	9	0	9	1	9	2	9	3	6	4	
4	13	6	0	7	13	0	13	1	13	5	6	3	6	4	
2	2	7	7	0	7	1	7	5	7	3	7	4	
4	7	0	5	12	0	0	0	1	0	5	0	3	0	4	
4	6	0	7	14	6	0	6	1	6	5	6	3	6	4	
4	8	7	0	5	0	0	0	1	0	5	0	3	0	4	
4	13	12	5	1	1	0	1	1	1	5	1	3	1	4	
2	0	5	0	0	0	1	0	2	0	3	0	4	
4	3	5	12	13	3	0	3	1	3	2	3	1	3	0	
2	11	8	8	0	8	1	8	2	8	1	8	0	
3	14	7	2	2	0	2	1	2	2	2	3	2	4	
2	1	4	1	0	1	1	1	5	1	3	1	4	
3	7	2	1	1	0	1	1	1	2	1	3	1	4	
2	7	0	0	0	0	1	0	5	0	3	0	4	
3	0	5	12	0	0	0	1	0	2	0	5	5	4	
3	7	8	11	7	0	7	1	7	2	7	5	8	4	
5	12	5	0	7	14	0	0	0	1	0	2	0	5	0	4	
5	10	13	6	9	11	9	0	9	1	9	2	9	1	9	0	
3	0	7	2	2	0	2	1	2	2	2	5	2	4	
5	3	5	0	7	8	3	0	3	1	3	2	3	1	3	0	
2	7	14	7	0	7	1	7	2	7	5	7	4	
3	11	9	6	9	0	6	1	6	2	6	3	6	4	
5	14	7	0	5	12	12	0	12	1	12	2	12	1	12	0	
3	7	2	4	2	0	2	1	2	2	2	5	2	4	
5	9	8	7	2	1	9	0	9	1	9	2	9	3	9	4	
2	13	6	6	0	6	1	6	5	6	3	6	4	
3	2	7	0	0	0	0	1	0	2	0	3	0	4	
4	4	1	5	12	12	0	12	1	12	2	12	5	12	4	
5	10	12	5	1	2	1	0	1	1	1	2	1	1	1	0	
3	6	9	8	6	0	9	1	9	5	9	3	9	4	
3	0	6	9	6	0	6	1	6	2	6	3	6	4	
3	3	4	1	3	0	3	1	3	2	3	1	3	0	
3	6	0	5	6	0	6	1	6	2	6	5	6	4	
3	7	0	5	5	0	5	1	5	5	5	3	5	4	
4	7	0	6	13	13	0	13	1	13	2	13	3	13	4	
2	8	14	8	0	8	1	8	2	8	3	8	4	
4	12	5	1	4	1	0	1	1	1	5	1	3	1	4	
3	14	8	9	9	0	9	1	9	2	9	1	9	0	
2	5	3	3	0	3	1	3	5	3	3	3	4	
4	12	5	1	2	1	0	1	1	1	5	1	3	1	4	
3	5	12	13	13	0	13	1	13	5	13	3	13	4	
5	10	13	6	0	7	13	0	13	1	13	2	13	1	13	0	
2	0	7	0	0	0	1	0	5	0	3	0	4	
5	11	9	6	13	10	9	0	9	1	9	2	9	3	9	4	
3	14	7	0	0	0	0	1	0	2	0	1	0	0	
4	7	2	4	3	3	0	3	1	3	2	3	1	3	0	
4	2	1	5	12	1	0	1	1	5	2	5	3	5	4	
4	8	7	2	1	1	0	1	1	1	5	1	3	1	4	
3	9	8	14	9	0	9	1	9	2	9	1	9	0	
4	13	6	9	8	9	0	9	1	9	2	9	5	9	4	
2	5	0	5	0	5	1	5	5	5	3	5	4	
2	6	9	6	0	6	1	6	2	6	5	6	4	
4	10	13	6	9	13	0	13	1	13	2	13	3	13	4	
4	3	5	12	10	3	0	3	1	3	2	3	3	12	4	
3	8	7	2	8	0	8	1	8	2	8	3	8	4	
2	1	5	1	0	1	1	1	2	1	3	1	4	
3	7	0	6	0	0	0	1	0	2	0	1	0	0	
3	9	8	7	9	0	9	1	9	2	9	1	9	0	
4	1	5	0	6	5	0	5	1	5	5	5	3	5	4	
4	5	0	7	8	5	0	5	1	5	2	0	5	0	4	
4	13	6	9	11	13	0	13	1	13	2	13	3	13	4	
4	0	6	9	11	9	0	9	1	9	5	9	3	9	4	
3	6	13	10	13	0	13	1	13	2	13	3	13	4	
5	11	8	7	2	1	8	0	8	1	2	5	2	3	2	4	
3	6	9	8	9	0	9	1	9	2	9	5	8	4	
4	4	1	5	0	1	0	1	1	1	5	5	3	5	4	
2	13	10	13	0	13	1	13	5	13	3	13	4	
3	11	8	7	7	0	7	1	7	5	7	3	7	4	
4	4	2	7	14	7	0	7	1	7	5	7	3	7	4	
4	9	8	7	2	9	0	9	1	9	2	9	1	9	0	
3	2	4	3	3	0	3	1	3	2	3	1	3	0	
5	5	0	6	9	11	6	0	6	1	6	2	6	3	9	4	
3	10	12	5	12	0	12	1	12	2	12	3	12	4	
5	6	0	5	1	4	6	0	6	1	6	2	6	1	1	0	
5	1	2	7	8	9	1	0	1	1	1	2	1	3	1	4	
3	6	9	11	6	0	6	1	6	5	6	3	6	4	
4	8	9	6	13	13	0	13	1	13	2	13	1	13	0	
5	12	13	6	9	11	12	0	12	1	12	2	12	5	13	4	
2	14	8	8	0	8	1	8	2	8	5	8	4	
5	2	1	5	12	10	1	0	1	1	1	2	1	1	5	0	
3	5	1	4	5	0	1	1	1	2	1	5	1	4	
4	9	6	13	12	12	0	12	1	12	2	12	3	12	4	
4	1	2	7	8	1	0	1	1	1	5	1	3	1	4	
4	5	0	7	14	5	0	5	1	5	2	5	5	0	4	
3	13	6	0	13	0	13	1	13	2	13	1	13	0	
2	0	6	6	0	6	1	6	2	6	3	6	4	
4	6	0	5	1	1	0	1	1	1	2	1	1	1	0	
4	8	7	2	4	7	0	7	1	7	2	7	1	7	0	
5	14	7	0	5	3	3	0	3	1	3	2	3	3	3	4	
2	7	0	7	0	7	1	7	2	7	3	7	4	
5	12	5	0	7	8	12	0	8	1	8	2	8	3	8	4	
4	1	5	12	13	1	0	1	1	12	5	12	3	12	4	
3	5	0	7	5	0	5	1	5	2	5	3	5	4	
3	13	6	9	13	0	13	1	6	2	6	1	6	0	
3	6	9	8	6	0	6	1	6	2	6	1	6	0	
4	3	5	12	13	12	0	12	1	12	2	12	5	13	4	
6	3	5	0	6	9	11	6	0	6	1	6	5	6	3	9	4	
4	8	7	2	1	1	0	1	1	1	2	1	1	1	0	
2	1	2	1	0	1	1	1	5	1	3	1	4	
4	1	5	0	6	1	0	1	1	1	2	1	1	1	0	
4	4	2	7	8	7	0	7	1	7	2	7	3	7	4	
3	9	6	0	6	0	6	1	6	2	6	3	6	4	
2	2	1	1	0	1	1	1	2	1	3	1	4	
4	5	0	6	9	6	0	6	1	6	2	9	1	9	0	
2	13	12	12	0	12	1	12	2	12	1	12	0	
4	0	6	13	10	6	0	6	1	6	2	6	3	6	4	
5	13	6	0	7	14	13	0	13	1	13	5	6	3	6	4	
3	11	8	14	8	0	8	1	8	2	8	5	8	4	
4	7	0	5	12	12	0	12	1	12	2	12	3	12	4	
5	11	8	7	2	4	2	0	2	1	2	2	2	5	2	4	
5	4	1	5	12	13	12	0	13	1	13	2	13	5	13	4	
3	12	5	3	3	0	3	1	3	2	3	1	3	0	
2	5	12	5	0	5	1	5	2	5	1	5	0	
5	10	12	5	1	4	1	0	1	1	1	5	1	3	1	4	
4	7	0	5	12	0	0	0	1	0	2	0	5	12	4	
3	6	0	7	6	0	6	1	6	2	6	3	6	4	
4	11	9	6	13	9	0	9	1	9	2	9	3	9	4	
4	1	5	12	10	1	0	1	1	1	2	1	1	1	0	
2	7	2	7	0	7	1	7	5	7	3	7	4	
2	12	10	12	0	12	1	12	2	12	1	12	0	
3	14	8	11	8	0	8	1	8	5	8	3	8	4	
5	2	7	0	6	13	7	0	0	1	0	2	0	3	13	4	
3	9	6	13	9	0	6	1	6	5	6	3	6	4	
4	13	6	0	7	13	0	13	1	13	2	6	5	6	4	
4	6	0	7	14	0	0	7	1	7	2	7	5	7	4	
4	13	12	5	1	5	0	5	1	5	2	1	5	1	4	
2	0	5	5	0	5	1	5	2	5	1	5	0	
4	3	5	12	13	3	0	3	1	3	2	3	3	3	4	
5	8	7	2	4	3	3	0	3	1	3	2	3	3	3	4	
5	1	2	7	8	9	7	0	7	1	7	5	7	3	7	4	
2	1	4	1	0	1	1	1	2	1	3	1	4	
5	4	1	5	12	10	5	0	5	1	5	2	5	1	5	0	
2	13	10	13	0	13	1	13	2	13	3	13	4	
3	0	5	12	5	0	5	1	5	2	5	1	5	0	
3	6	9	11	6	0	6	1	6	2	6	3	6	4	
4	1	2	7	14	7	0	7	1	7	5	7	3	7	4	
5	10	13	6	9	11	13	0	13	1	13	2	6	5	6	4	
5	3	4	2	7	8	3	0	3	1	3	2	3	5	7	4	
2	7	14	7	0	7	1	7	5	7	3	7	4	
3	11	9	6	9	0	9	1	9	2	9	1	9	0	
5	14	7	0	5	12	5	0	5	1	5	2	5	3	5	4	
4	2	7	0	6	0	0	0	1	0	5	0	3	0	4	
3	7	2	4	2	0	2	1	2	5	2	3	2	4	
5	9	8	7	2	1	9	0	9	1	9	5	9	3	2	4	
3	2	7	0	0	0	0	1	0	5	0	3	0	4	
3	5	12	10	5	0	5	1	5	2	5	3	12	4	
5	10	12	5	1	2	5	0	5	1	5	2	5	3	5	4	
3	0	6	9	0	0	0	1	0	2	0	1	0	0	
3	3	4	1	3	0	3	1	3	2	3	3	3	4	
3	6	0	5	0	0	0	1	0	5	0	3	0	4	
4	1	2	7	8	2	0	2	1	2	2	2	3	2	4	
5	4	1	5	0	6	0	0	0	1	0	2	0	1	0	0	
2	8	14	8	0	8	1	8	5	8	3	8	4	
4	12	5	1	4	12	0	12	1	12	2	12	5	5	4	
3	5	1	4	5	0	1	1	1	5	1	3	1	4	
2	5	3	3	0	3	1	3	2	3	5	3	4	
4	12	5	1	2	5	0	5	1	1	2	1	5	1	4	
3	5	12	13	13	0	13	1	13	2	13	5	13	4	
5	10	13	6	0	7	0	0	0	1	0	2	0	5	0	4	
3	12	5	1	1	0	1	1	1	5	1	3	1	4	
2	0	7	7	0	7	1	7	2	7	3	7	4	
5	11	9	6	13	10	9	0	9	1	9	2	9	1	9	0	
3	14	7	0	7	0	7	1	7	2	7	3	7	4	
4	7	2	4	3	2	0	2	1	2	2	2	3	2	4	
4	12	13	6	9	9	0	9	1	9	2	9	3	9	4	
3	9	6	0	6	0	6	1	6	2	6	5	0	4	
3	5	0	6	5	0	5	1	5	2	5	3	5	4	
3	9	8	14	9	0	9	1	9	2	9	5	8	4	
4	13	6	9	8	13	0	13	1	13	5	13	3	13	4	
3	6	0	7	7	0	7	1	7	2	7	5	7	4	
4	10	13	6	9	13	0	13	1	13	2	13	1	13	0	
3	1	4	3	1	0	1	1	1	5	1	3	1	4	
4	3	5	12	10	12	0	12	1	12	2	12	1	12	0	
3	8	7	2	2	0	2	1	2	5	2	3	2	4	
2	1	5	1	0	1	1	1	5	1	3	1	4	
5	4	2	7	8	9	2	0	2	1	2	2	2	3	2	4	
3	9	8	7	9	0	9	1	9	2	9	3	9	4	
2	9	11	9	0	9	1	9	5	9	3	9	4	
4	1	5	12	10	12	0	12	1	12	5	12	3	12	4	
4	5	0	7	8	5	0	5	1	5	5	5	3	5	4	
4	10	13	6	0	13	0	13	1	13	2	13	1	0	0	
4	0	6	9	11	6	0	6	1	6	2	6	3	9	4	
2	8	9	9	0	9	1	9	2	9	5	9	4	
5	11	8	7	2	1	1	0	1	1	1	2	1	5	1	4	
4	4	1	5	0	5	0	5	1	5	2	5	5	0	4	
2	10	13	13	0	13	1	13	5	13	3	13	4	
3	11	8	7	8	0	8	1	8	2	7	5	7	4	
4	2	7	8	9	2	0	2	1	2	2	2	5	2	4	
4	4	2	7	14	2	0	2	1	2	2	2	5	7	4	
4	9	8	7	2	8	0	8	1	8	2	8	5	8	4	
3	2	4	3	3	0	3	1	3	2	3	5	3	4	
3	10	12	5	12	0	12	1	12	2	12	1	12	0	
2	12	10	12	0	12	1	12	5	12	3	12	4	
5	6	0	5	1	4	6	0	6	1	6	2	6	3	6	4	
5	11	9	6	13	12	12	0	12	1	12	2	12	3	12	4	
5	4	2	7	8	11	2	0	2	1	2	2	2	5	8	4	
4	14	7	0	6	6	0	6	1	6	2	6	1	6	0	
3	4	1	5	5	0	5	1	5	2	5	3	5	4	
4	8	9	6	13	13	0	13	1	13	2	13	5	13	4	
5	12	13	6	9	11	12	0	12	1	12	5	12	3	12	4	
5	2	1	5	12	10	12	0	12	1	12	2	12	3	12	4	
5	13	6	0	7	2	13	0	2	1	2	2	2	5	2	4	
4	9	6	13	12	6	0	6	1	6	2	6	1	6	0	
5	3	5	0	6	9	6	0	6	1	6	2	6	5	6	4	
2	0	6	0	0	0	1	0	5	0	3	0	4	
3	3	5	12	5	0	5	1	5	2	5	3	5	4	
4	8	7	2	4	7	0	7	1	7	2	7	3	7	4	
5	14	7	2	4	3	2	0	2	1	2	2	2	1	2	0	
3	7	2	1	1	0	1	1	1	2	1	5	1	4	
2	7	0	7	0	7	1	7	2	7	1	7	0	
4	9	6	0	5	0	0	0	1	0	2	0	1	0	0	
5	4	2	7	8	11	2	0	2	1	2	5	2	3	2	4	
4	6	0	5	3	0	0	0	1	0	2	0	5	0	4	
3	13	6	9	13	0	13	1	13	2	13	3	13	4	
3	6	9	8	6	0	6	1	6	2	6	3	6	4	
5	10	13	6	9	8	13	0	13	1	13	2	6	5	9	4	
3	1	5	12	5	0	5	1	5	2	12	5	12	4	
6	3	5	0	6	9	11	3	0	3	1	3	2	3	5	9	4	
3	7	8	9	9	0	9	1	9	2	9	1	9	0	
5	14	7	0	6	13	13	0	13	1	13	2	13	3	13	4	
3	9	6	0	0	0	0	1	0	2	0	1	0	0	
4	8	7	0	5	5	0	5	1	5	2	5	5	5	4	
3	0	5	3	0	0	0	1	0	5	0	3	0	4	
2	2	1	1	0	1	1	1	2	1	1	1	0	
2	8	11	8	0	8	1	8	2	8	5	8	4	
4	5	0	6	9	6	0	6	1	6	2	6	3	6	4	
4	10	12	5	3	12	0	12	1	12	2	12	3	12	4	
4	0	6	13	10	13	0	13	1	13	5	13	3	13	4	
3	3	5	0	0	0	0	1	0	2	0	3	0	4	
3	11	8	14	8	0	8	1	8	5	8	3	8	4	
4	7	0	5	12	0	0	0	1	0	2	0	1	0	0	
5	11	8	7	2	4	7	0	7	1	7	5	7	3	7	4	
3	2	7	8	7	0	7	1	7	2	7	1	7	0	
6	10	13	6	0	7	14	13	0	13	1	13	2	13	5	6	4	
5	12	5	0	7	14	0	0	0	1	0	5	0	3	0	4	
5	10	12	5	1	4	12	0	12	1	12	2	12	5	1	4	
3	5	0	6	0	0	0	1	0	5	0	3	0	4	
3	6	0	7	0	0	0	1	0	2	0	1	0	0	
3	8	9	6	9	0	9	1	9	2	9	1	9	0	
4	14	7	2	1	7	0	7	1	7	2	7	3	7	4	
2	13	6	13	0	13	1	13	2	13	5	6	4	
4	12	13	6	9	9	0	9	1	9	5	9	3	9	4	
2	7	2	7	0	7	1	7	2	7	3	7	4	
2	12	10	12	0	12	1	12	2	12	3	12	4	
5	2	7	0	6	13	7	0	0	1	0	2	0	1	13	0	
4	14	7	2	1	2	0	2	1	2	2	2	5	1	4	
3	9	6	13	9	0	9	1	9	2	9	5	13	4	
4	13	6	0	7	0	0	0	1	0	2	0	1	0	0	
4	6	0	7	14	0	0	0	1	0	2	0	1	0	0	
2	0	5	0	0	0	1	0	2	0	5	0	4	
5	8	7	2	4	3	3	0	3	1	3	2	3	1	3	0	
2	1	4	1	0	1	1	1	2	1	1	1	0	
5	4	1	5	12	10	5	0	5	1	5	2	5	3	12	4	
2	9	6	6	0	6	1	6	2	6	3	6	4	
6	14	7	0	6	13	10	7	0	7	1	7	5	7	3	7	4	
2	13	10	13	0	13	1	13	2	13	1	13	0	
3	0	5	12	5	0	5	1	5	2	5	3	12	4	
3	6	9	11	6	0	6	1	6	2	6	1	6	0	
5	10	13	6	9	11	6	0	6	1	6	5	6	3	6	4	
4	1	5	12	13	5	0	5	1	5	2	5	1	5	0	
5	3	5	0	7	8	3	0	3	1	3	5	3	3	3	4	
2	7	14	7	0	7	1	7	2	7	3	7	4	
4	8	7	2	1	7	0	7	1	7	2	7	5	2	4	
5	14	7	0	5	12	5	0	5	1	5	5	5	3	12	4	
4	2	7	0	6	6	0	6	1	6	2	6	5	6	4	
5	9	8	7	2	1	9	0	9	1	9	2	9	5	7	4	
3	2	7	0	0	0	0	1	0	2	0	5	0	4	
3	5	12	10	5	0	12	1	12	2	12	1	12	0	
3	0	6	9	9	0	9	1	9	2	9	5	9	4	
3	6	0	5	5	0	5	1	5	2	5	3	5	4	
4	1	2	7	8	8	0	8	1	8	2	8	1	8	0	
5	4	1	5	0	6	0	0	0	1	0	2	0	3	0	4	
2	8	14	8	0	8	1	8	2	8	5	8	4	
4	12	5	1	4	12	0	12	1	12	2	12	1	12	0	
4	2	7	8	11	2	0	2	1	2	2	2	3	2	4	
2	5	3	3	0	3	1	3	2	3	1	3	0	
5	10	13	6	0	7	13	0	6	1	6	5	6	3	6	4	
2	13	10	13	0	13	1	13	2	13	5	13	4	
2	0	7	7	0	7	1	7	2	7	1	7	0	
4	8	7	0	5	5	0	5	1	5	2	5	3	5	4	
3	3	4	1	3	0	3	1	3	2	3	5	3	4	
3	14	7	0	0	0	0	1	0	5	0	3	0	4	
4	7	0	5	3	3	0	3	1	3	5	3	3	3	4	
4	12	13	6	9	12	0	12	1	12	2	12	1	12	0	
4	2	1	5	12	12	0	12	1	12	2	12	5	12	4	
3	5	0	6	5	0	5	1	5	2	5	1	5	0	
3	9	8	14	8	0	8	1	8	5	8	3	8	4	
4	13	6	9	8	6	0	6	1	6	2	6	3	6	4	
3	0	7	14	7	0	7	1	7	2	7	1	7	0	
2	4	3	3	0	3	1	3	5	3	3	3	4	
2	6	9	6	0	6	1	6	2	6	3	6	4	
3	6	9	11	6	0	6	1	6	2	6	5	6	4	
3	1	4	3	3	0	3	1	3	2	3	5	3	4	
3	8	7	2	2	0	2	1	2	2	2	5	2	4	
2	1	5	5	0	5	1	5	2	5	5	5	4	
5	4	2	7	8	9	7	0	7	1	7	2	7	1	7	0	
4	5	0	7	8	0	0	0	1	0	2	0	3	0	4	
4	10	13	6	0	0	0	0	1	0	2	0	3	0	4	
4	0	6	9	11	9	0	9	1	9	2	9	1	9	0	
5	11	8	7	2	1	7	0	7	1	7	2	7	1	7	0	
4	1	2	7	14	1	0	7	1	7	2	7	3	7	4	
6	14	7	0	6	13	10	0	0	0	1	0	2	0	5	13	4	
4	4	1	5	0	1	0	1	1	1	2	1	1	1	0	
4	2	7	8	9	2	0	9	1	9	5	9	3	9	4	
4	9	8	7	2	9	0	9	1	9	5	9	3	9	4	
4	13	12	5	3	12	0	12	1	12	5	12	3	12	4	
3	2	4	3	2	0	2	1	2	5	2	3	2	4	
2	6	0	0	0	0	1	0	5	0	3	0	4	
2	1	2	1	0	1	1	1	2	1	5	2	4	
5	6	0	5	1	4	0	0	0	1	0	5	0	3	0	4	
5	11	9	6	13	12	12	0	12	1	12	2	12	1	12	0	
4	14	7	0	6	6	0	6	1	6	2	6	3	6	4	
3	4	1	5	5	0	5	1	5	2	5	1	5	0	
4	8	9	6	13	8	0	13	1	13	5	13	3	13	4	
5	12	13	6	9	11	12	0	12	1	12	2	12	3	12	4	
3	5	1	4	1	0	1	1	1	2	1	3	1	4	
5	13	6	0	7	14	7	0	7	1	7	2	7	5	7	4	
2	0	6	0	0	0	1	0	2	0	5	0	4	
3	3	5	12	12	0	12	1	12	2	12	1	12	0	
5	7	0	6	13	10	13	0	13	1	13	2	13	5	13	4	
5	14	7	0	5	3	3	0	3	1	3	2	3	5	3	4	
6	11	9	6	0	5	3	9	0	9	1	9	5	9	3	9	4	
5	4	2	7	8	11	8	0	8	1	8	2	8	3	8	4	
4	9	6	0	5	9	0	9	1	9	2	9	3	9	4	
3	4	2	7	2	0	2	1	2	5	2	3	2	4	
6	10	13	6	0	7	14	13	0	6	1	6	2	6	1	6	0	
3	0	6	13	6	0	6	1	6	2	6	3	6	4	
2	3	5	5	0	5	1	5	2	5	1	5	0	
3	1	5	12	12	0	12	1	12	5	12	3	12	4	
3	7	8	9	8	0	8	1	8	2	8	3	8	4	
3	12	5	0	12	0	12	1	12	5	12	3	12	4	
5	14	7	0	6	13	6	0	6	1	6	2	13	1	13	0	
4	5	0	6	9	6	0	6	1	6	5	6	3	9	4	
4	10	12	5	3	12	0	12	1	12	2	12	1	12	0	
4	14	7	0	6	6	0	6	1	6	2	6	5	6	4	
3	3	5	0	5	0	5	1	5	2	5	1	5	0	
5	4	1	5	12	13	12	0	12	1	12	5	12	3	12	4	
3	11	8	14	8	0	8	1	8	2	8	3	8	4	
4	14	7	2	4	7	0	7	1	2	2	2	1	2	0	
3	4	2	7	7	0	7	1	7	2	7	3	7	4	
3	2	7	8	8	0	8	1	8	2	8	3	8	4	
4	1	2	7	14	1	0	1	1	1	2	1	5	2	4	
5	13	12	5	1	4	12	0	12	1	12	2	12	5	12	4	
2	6	13	13	0	13	1	13	2	13	5	13	4	
5	3	5	0	7	14	3	0	3	1	3	2	3	3	3	4	
3	8	9	6	9	0	9	1	9	2	9	3	9	4	
4	14	7	2	1	7	0	7	1	7	2	7	1	1	0	
2	7	2	7	0	7	1	7	2	7	1	7	0	
2	9	11	9	0	9	1	9	2	9	1	9	0	
4	13	6	0	7	0	0	0	1	0	2	0	3	0	4	
4	6	0	7	14	0	0	7	1	7	2	7	3	7	4	
5	11	9	6	0	5	9	0	0	1	0	5	0	3	5	4	
2	0	5	5	0	5	1	5	5	5	3	5	4	
3	7	8	11	8	0	8	1	8	2	8	1	8	0	
5	4	1	5	12	10	5	0	5	1	5	5	5	3	5	4	
2	9	6	9	0	9	1	9	2	9	1	9	0	
3	12	5	1	12	0	12	1	12	2	12	5	12	4	
4	11	9	6	0	9	0	9	1	9	5	9	3	6	4	
4	10	12	5	1	1	0	1	1	1	2	1	3	1	4	
4	3	5	12	13	3	0	3	1	3	5	3	3	3	4	
3	3	4	2	2	0	2	1	2	2	2	3	2	4	
4	1	5	12	13	12	0	13	1	13	2	13	3	13	4	
2	7	14	7	0	7	1	7	2	7	1	7	0	
4	12	5	0	7	12	0	12	1	12	2	12	5	12	4	
5	14	7	0	5	12	0	0	0	1	0	2	0	5	12	4	
4	2	7	0	6	2	0	2	1	2	2	2	1	2	0	
2	5	0	5	0	5	1	5	2	0	5	0	4	
5	3	4	2	7	14	2	0	2	1	2	5	2	3	2	4	
3	5	12	10	5	0	5	1	5	2	5	5	12	4	
2	11	9	9	0	9	1	9	5	9	3	9	4	
3	0	6	9	9	0	9	1	9	5	9	3	9	4	
3	6	0	5	6	0	6	1	6	2	6	1	6	0	
2	14	7	7	0	7	1	7	2	7	3	7	4	
5	4	1	5	0	6	1	0	1	1	1	5	1	3	1	4	
4	1	5	12	10	1	0	1	1	1	2	1	5	12	4	
4	12	5	1	4	12	0	5	1	5	2	5	3	1	4	
4	2	7	8	11	8	0	8	1	8	2	8	1	8	0	
2	5	3	3	0	3	1	3	2	3	3	3	4	
3	13	12	5	13	0	13	1	13	2	13	1	5	0	
3	6	13	12	6	0	6	1	6	2	6	1	6	0	
4	14	7	2	4	2	0	2	1	2	2	2	5	2	4	
4	8	7	0	5	8	0	8	1	8	2	8	1	8	0	
3	14	7	0	7	0	7	1	7	2	7	5	7	4	
4	7	2	4	3	3	0	3	1	3	2	3	5	3	4	
5	9	8	7	2	4	8	0	8	1	8	2	8	3	8	4	
2	9	11	9	0	9	1	9	2	9	5	9	4	
3	5	0	6	6	0	6	1	6	2	6	5	6	4	
4	13	6	9	8	8	0	8	1	8	2	8	1	8	0	
3	0	7	14	0	0	0	1	0	2	0	3	0	4	
2	6	9	6	0	6	1	9	2	9	1	9	0	
4	11	8	7	2	8	0	8	1	8	2	8	5	8	4	
3	1	4	3	3	0	3	1	3	2	3	1	3	0	
2	7	8	8	0	8	1	8	2	8	3	8	4	
4	10	13	6	9	13	0	13	1	13	5	13	3	13	4	
2	12	5	5	0	5	1	5	2	5	5	5	4	
5	11	9	6	13	12	13	0	13	1	13	5	13	3	13	4	
5	4	2	7	8	9	2	0	2	1	2	2	2	5	9	4	
5	3	5	0	6	9	3	0	3	1	3	5	3	3	9	4	
3	10	13	6	13	0	13	1	13	5	13	3	13	4	
4	5	0	7	8	0	0	0	1	0	2	8	1	8	0	
4	10	13	6	0	6	0	6	1	6	5	6	3	6	4	
5	11	8	7	2	1	1	0	1	1	1	2	1	3	1	4	
4	1	2	7	14	1	0	1	1	1	2	1	1	1	0	
4	4	1	5	0	1	0	1	1	1	2	1	3	1	4	
3	12	13	6	12	0	12	1	12	2	12	1	12	0	
4	2	7	8	9	8	0	8	1	8	2	8	3	8	4	
2	5	1	1	0	1	1	1	2	1	1	1	0	
4	13	12	5	3	3	0	3	1	3	2	3	5	3	4	
4	6	0	7	2	6	0	6	1	6	2	6	5	0	4	
5	6	0	5	1	4	1	0	1	1	1	2	1	5	1	4	
2	8	7	7	0	7	1	7	2	7	3	7	4	
3	7	0	5	7	0	7	1	7	2	7	5	0	4	
3	4	1	5	5	0	5	1	5	2	5	5	5	4	
5	12	13	6	9	11	13	0	13	1	13	2	13	1	13	0	
3	5	1	4	5	0	5	1	5	2	5	1	5	0	
6	10	13	6	0	7	14	13	0	6	1	6	5	6	3	6	4	
2	13	6	13	0	13	1	13	2	13	3	13	4	
3	0	5	1	0	0	0	1	0	5	0	3	0	4	
4	3	5	0	6	6	0	6	1	6	2	6	5	6	4	
3	3	5	12	12	0	12	1	12	2	12	5	12	4	
5	7	0	6	13	10	13	0	13	1	13	5	13	3	13	4	
5	9	6	0	5	3	9	0	9	1	9	5	9	3	9	4	
3	9	8	7	9	0	8	1	8	2	8	5	8	4	
5	4	2	7	8	11	2	0	2	1	2	2	2	1	2	0	
4	9	6	0	5	9	0	9	1	9	5	9	3	9	4	
6	10	13	6	0	7	14	13	0	6	1	6	2	6	3	6	4	
3	0	6	13	13	0	13	1	13	2	13	1	13	0	
2	3	5	3	0	3	1	3	2	3	3	3	4	
4	12	13	6	9	9	0	9	1	9	2	9	5	9	4	
6	11	9	6	0	5	3	0	0	0	1	0	2	0	1	0	0	
2	11	8	8	0	8	1	8	5	8	3	8	4	
3	1	5	12	1	0	1	1	1	2	1	3	1	4	
2	3	5	5	0	5	1	5	5	5	3	5	4	
2	4	2	2	0	2	1	2	2	2	1	2	0	
3	12	5	0	0	0	0	1	0	2	0	5	0	4	
5	10	13	6	9	8	13	0	13	1	13	5	13	3	13	4	
4	5	0	6	9	6	0	6	1	6	2	6	5	6	4	
4	10	12	5	3	12	0	12	1	12	2	12	5	12	4	
3	3	5	0	3	0	0	1	0	2	0	5	0	4	
3	11	8	14	8	0	8	1	8	2	8	1	8	0	
4	14	7	2	4	2	0	2	1	2	2	2	3	2	4	
3	2	7	14	2	0	2	1	2	5	2	3	2	4	
3	4	2	7	2	0	2	1	2	2	2	1	2	0	
2	12	5	12	0	12	1	12	2	12	3	12	4	
3	2	7	8	2	0	2	1	2	5	2	3	2	4	
3	5	1	2	2	0	2	1	2	2	2	3	2	4	
5	13	12	5	1	4	13	0	12	1	12	5	12	3	12	4	
2	6	13	13	0	13	1	13	5	13	3	13	4	
3	8	7	0	8	0	8	1	8	5	8	3	8	4	
3	7	8	9	8	0	8	1	8	2	8	5	8	4	
3	1	2	7	2	0	2	1	2	5	2	3	2	4	
5	3	4	2	7	14	2	0	2	1	2	2	2	1	2	0	
3	8	9	6	9	0	9	1	9	5	9	3	9	4	
2	9	11	9	0	9	1	9	2	9	3	9	4	
2	10	12	12	0	12	1	12	2	12	1	12	0	
4	3	5	0	7	5	0	5	1	5	2	5	1	5	0	
5	14	7	0	6	13	6	0	6	1	6	5	13	3	13	4	
5	11	9	6	0	5	9	0	0	1	0	2	0	5	5	4	
3	7	8	11	7	0	7	1	7	2	7	3	7	4	
3	2	1	5	2	0	2	1	2	2	2	5	2	4	
5	4	1	5	12	10	12	0	12	1	12	2	12	5	12	4	
2	9	6	9	0	9	1	9	2	6	5	6	4	
4	10	12	5	1	1	0	1	1	1	5	1	3	1	4	
2	12	13	13	0	13	1	13	2	13	5	13	4	
4	10	12	5	1	1	0	1	1	1	2	1	1	1	0	
5	1	2	7	8	11	1	0	1	1	1	5	1	3	1	4	
3	3	4	2	3	0	3	1	3	2	3	1	3	0	
4	11	9	6	0	9	0	9	1	9	2	9	3	9	4	
6	14	7	0	6	13	10	6	0	13	1	13	2	13	1	13	0	
2	4	1	1	0	1	1	1	2	1	3	1	4	
4	12	5	0	7	7	0	7	1	7	5	7	3	7	4	
4	2	7	0	6	2	0	2	1	2	2	2	3	2	4	
2	4	3	3	0	3	1	3	2	3	5	3	4	
3	3	4	2	2	0	2	1	2	5	2	3	2	4	
4	0	5	1	4	1	0	1	1	1	5	1	3	1	4	
3	5	12	10	5	0	5	1	5	5	12	3	12	4	
2	11	9	9	0	9	1	9	2	9	5	9	4	
4	11	9	6	0	0	0	0	1	0	2	0	5	0	4	
2	14	7	7	0	7	1	7	2	7	1	7	0	
5	4	1	5	0	6	1	0	1	1	1	2	1	5	5	4	
4	3	4	2	7	7	0	7	1	7	5	7	3	7	4	
4	2	7	8	11	8	0	8	1	8	2	8	5	8	4	
3	13	12	5	12	0	12	1	12	2	12	3	12	4	
3	9	6	0	6	0	6	1	6	5	6	3	6	4	
3	6	13	12	12	0	12	1	12	2	12	3	12	4	
3	1	5	0	5	0	5	1	5	2	5	5	5	4	
3	7	0	5	7	0	7	1	7	2	7	1	7	0	
2	12	13	12	0	12	1	12	5	12	3	12	4	
5	9	8	7	2	4	2	0	2	1	2	2	2	1	2	0	
3	0	7	8	7	0	7	1	7	5	7	3	7	4	
3	14	8	9	8	0	8	1	8	5	8	3	8	4	
3	0	7	14	7	0	7	1	7	5	7	3	7	4	
2	3	4	3	0	3	1	3	2	3	3	3	4	
2	8	7	7	0	7	1	7	2	7	5	7	4	
4	11	8	7	2	2	0	2	1	2	5	2	3	2	4	
3	1	4	3	3	0	3	1	3	2	3	3	3	4	
2	7	8	8	0	8	1	8	2	8	1	8	0	
3	10	12	5	12	0	12	1	12	5	12	3	12	4	
2	2	4	2	0	2	1	2	2	2	1	2	0	
5	4	2	7	8	9	2	0	2	1	2	5	2	3	2	4	
3	10	13	6	13	0	13	1	13	2	13	5	13	4	
4	10	13	6	0	13	0	13	1	6	2	6	5	6	4	
4	1	5	0	6	1	0	1	1	1	2	1	5	6	4	
5	8	7	0	5	12	8	0	8	1	7	2	7	5	12	4	
5	8	7	0	5	12	7	0	7	1	7	5	7	3	12	4	
5	8	9	6	13	10	13	0	13	1	13	2	13	1	13	0	
4	14	7	0	5	5	0	5	1	5	2	5	3	5	4	
3	4	2	7	2	0	2	1	2	2	2	5	2	4	
3	12	13	6	13	0	13	1	13	2	13	3	13	4	
4	2	7	8	9	9	0	9	1	9	2	9	1	9	0	
2	5	1	5	0	5	1	5	2	5	3	5	4	
4	13	12	5	3	3	0	3	1	3	2	3	1	3	0	
3	0	5	3	0	0	3	1	3	2	3	5	3	4	
4	6	0	7	2	2	0	2	1	2	2	2	1	2	0	
2	8	7	8	0	8	1	8	2	8	1	8	0	
3	4	1	5	1	0	5	1	5	5	5	3	5	4	
4	9	6	13	10	9	0	9	1	9	2	9	3	9	4	
4	14	7	0	6	6	0	6	1	6	5	6	3	6	4	
2	13	6	13	0	13	1	13	2	13	1	13	0	
2	7	8	7	0	7	1	7	2	7	5	8	4	
2	3	4	3	0	3	1	3	5	3	3	3	4	
4	3	5	0	6	3	0	3	1	3	5	3	3	3	4	
5	8	7	0	5	3	8	0	0	1	0	2	0	5	3	4	
5	7	0	6	13	10	13	0	13	1	13	2	13	3	13	4	
5	9	6	0	5	3	9	0	0	1	0	2	0	5	3	4	
4	14	7	0	5	5	0	5	1	5	5	5	3	5	4	
4	9	6	0	5	0	0	0	1	0	2	0	5	5	4	
3	0	6	13	0	0	0	1	0	2	0	5	13	4	
6	11	9	6	0	5	3	9	0	6	1	6	2	6	3	6	4	
3	1	5	12	1	0	12	1	12	2	12	1	12	0	
2	4	2	2	0	2	1	2	2	2	3	2	4	
3	12	5	0	12	0	12	1	12	2	12	1	12	0	
2	2	7	7	0	7	1	7	2	7	3	7	4	
