5802.27	5412.09
3088
1.57687e+06	221079
15
0	0	35
1	0	35
2	0	35
3	0	35
4	0	35
5	0	35
6	0	35
7	0	35
8	0	35
9	0	35
10	0	35
11	0	35
12	0	35
13	0	35
14	0	35
44
0	5	25370	162196	1
0	6	14819	110171	1
0	7	0	66306.5	0
1	2	22466	136693	1
1	4	3287	44884.4	1
1	5	35272	216261	1
2	1	25749	136693	1
2	4	0	17341.7	0
2	7	19418	136693	1
3	4	0	38763.8	0
3	5	8329	51005	1
4	1	3589	44884.4	1
4	2	0	17341.7	0
4	3	0	38763.8	0
5	0	27090	162196	1
5	1	35449	216261	1
5	3	8639	51005	1
5	12	7714	70386.9	1
6	0	16023	110171	1
6	9	9239	91809	1
6	13	4932	64266.3	1
7	0	0	66306.5	0
7	2	22631	136693	1
7	8	7671	38763.8	1
7	14	6534	57125.6	1
8	7	8396	38763.8	1
8	9	0	19381.9	0
8	11	5582	31623.1	1
8	14	0	23462.3	0
9	6	9216	91809	1
9	8	0	19381.9	0
9	11	0	32643.2	0
10	12	3984	25502.5	1
10	13	0	14281.4	0
11	8	6192	31623.1	1
11	9	0	32643.2	0
12	5	8712	70386.9	1
12	10	3821	25502.5	1
12	13	0	25502.5	0
13	6	5850	64266.3	1
13	10	0	14281.4	0
13	12	0	25502.5	0
14	7	7812	57125.6	1
14	8	0	23462.3	0
840
5	1	2	7	8	11	1	0	1	1	1	2	1	3	1	4	
5	1	5	0	6	9	5	0	5	1	5	2	5	5	5	4	
5	7	2	1	5	12	5	0	5	1	5	2	5	3	5	4	
2	3	5	5	0	5	1	5	2	5	5	5	4	
5	7	2	1	5	3	5	0	5	1	5	5	5	3	5	4	
7	11	8	7	2	1	5	3	5	0	5	1	5	5	5	3	5	4	
5	3	5	0	6	13	5	0	5	1	5	2	5	5	5	4	
2	6	13	6	0	6	1	6	5	6	3	6	4	
6	10	12	5	1	2	7	5	0	5	1	5	2	5	3	5	4	
4	3	5	0	6	5	0	5	1	5	5	5	3	5	4	
4	4	1	2	7	1	0	1	1	1	2	1	5	1	4	
4	1	2	7	8	1	0	1	1	1	2	1	1	1	0	
6	14	7	2	1	5	12	5	0	5	1	5	2	5	1	5	0	
4	7	2	1	4	1	0	1	1	1	2	1	3	1	4	
4	2	1	5	12	5	0	5	1	5	2	5	5	5	4	
4	0	5	1	2	5	0	5	1	5	2	5	5	5	4	
5	13	6	0	5	1	5	0	5	1	5	2	5	5	5	4	
5	7	2	1	5	3	5	0	5	1	5	2	5	1	5	0	
3	5	12	10	5	0	5	1	5	5	5	3	5	4	
2	12	5	5	0	5	1	5	2	5	1	5	0	
3	5	1	2	5	0	5	1	5	2	5	5	5	4	
4	8	7	2	1	1	0	1	1	1	2	1	1	1	0	
2	8	7	7	0	7	1	7	2	7	3	7	4	
6	10	12	5	0	6	9	5	0	5	1	5	2	5	3	5	4	
2	6	0	0	0	0	1	0	5	0	3	0	4	
6	14	7	2	1	5	0	5	0	5	1	5	5	5	3	5	4	
4	4	1	5	12	5	0	5	1	5	2	5	1	5	0	
3	2	1	5	5	0	5	1	5	5	5	3	5	4	
4	7	2	1	5	5	0	5	1	5	2	5	5	5	4	
6	0	5	1	2	7	14	5	0	5	1	5	5	5	3	5	4	
4	5	1	2	7	5	0	5	1	5	2	5	1	5	0	
8	8	7	2	1	5	0	6	9	5	0	5	1	5	5	5	3	5	4	
5	4	1	5	12	10	5	0	5	1	5	2	5	5	5	4	
3	5	12	10	5	0	5	1	5	2	5	5	5	4	
6	14	7	2	1	5	0	5	0	5	1	5	2	5	3	5	4	
7	3	5	1	2	7	8	11	5	0	5	1	5	5	5	3	5	4	
2	6	13	6	0	6	1	6	2	6	1	6	0	
7	8	7	2	1	5	12	10	5	0	5	1	5	2	5	1	5	0	
4	10	12	5	1	5	0	5	1	5	2	5	5	5	4	
2	0	5	5	0	5	1	5	2	5	3	5	4	
4	3	5	1	2	5	0	5	1	5	2	5	5	5	4	
5	7	2	1	5	12	5	0	5	1	5	2	5	1	5	0	
3	1	2	7	1	0	1	1	1	5	1	3	1	4	
7	10	12	5	1	2	7	14	5	0	5	1	5	2	5	3	5	4	
5	8	7	2	1	4	1	0	1	1	1	5	1	3	1	4	
5	2	1	5	12	10	5	0	5	1	5	5	5	3	5	4	
4	2	1	5	3	5	0	5	1	5	2	5	5	5	4	
2	4	1	1	0	1	1	1	5	1	3	1	4	
5	9	6	0	5	3	5	0	5	1	5	2	5	3	5	4	
5	7	2	1	5	12	5	0	5	1	5	2	5	5	5	4	
3	0	5	3	5	0	5	1	5	2	5	1	5	0	
5	9	6	0	5	3	5	0	5	1	5	2	5	5	5	4	
2	6	13	6	0	6	1	6	2	6	5	6	4	
3	12	5	0	5	0	5	1	5	2	5	3	5	4	
7	11	8	7	2	1	5	0	5	0	5	1	5	2	5	3	5	4	
5	10	12	5	1	2	5	0	5	1	5	2	5	3	5	4	
9	13	6	0	5	1	2	7	8	11	5	0	5	1	5	5	5	3	5	4	
4	7	2	1	4	1	0	1	1	1	2	1	1	1	0	
3	12	5	3	5	0	5	1	5	5	5	3	5	4	
5	12	5	1	2	7	5	0	5	1	5	2	5	3	5	4	
4	6	0	5	3	5	0	5	1	5	2	5	3	5	4	
4	9	6	0	5	5	0	5	1	5	5	5	3	5	4	
2	11	8	8	0	8	1	8	5	8	3	8	4	
2	12	10	12	0	12	1	12	2	12	1	12	0	
4	4	1	5	0	5	0	5	1	5	2	5	5	5	4	
7	0	5	1	2	7	8	11	5	0	5	1	5	2	5	1	5	0	
2	12	10	12	0	12	1	12	5	12	3	12	4	
3	9	6	13	6	0	6	1	6	2	6	5	6	4	
2	2	7	2	0	2	1	2	2	2	3	2	4	
7	14	7	2	1	5	0	6	5	0	5	1	5	2	5	1	5	0	
2	8	11	8	0	8	1	8	2	8	5	8	4	
2	5	1	5	0	5	1	5	2	5	5	5	4	
7	10	12	5	1	2	7	8	5	0	5	1	5	2	5	5	5	4	
5	3	5	1	2	7	5	0	5	1	5	2	5	1	5	0	
6	6	0	5	1	2	7	5	0	5	1	5	5	5	3	5	4	
6	2	1	5	0	6	13	5	0	5	1	5	2	5	3	5	4	
4	12	5	1	2	5	0	5	1	5	2	5	1	5	0	
4	3	5	1	4	5	0	5	1	5	2	5	1	5	0	
3	13	6	0	0	0	0	1	0	2	0	1	0	0	
5	5	1	2	7	8	5	0	5	1	5	2	5	1	5	0	
9	9	6	0	5	1	2	7	8	11	5	0	5	1	5	2	5	5	5	4	
8	9	6	0	5	1	2	7	8	5	0	5	1	5	2	5	5	5	4	
5	3	5	0	6	13	5	0	5	1	5	2	5	1	5	0	
3	1	5	0	5	0	5	1	5	5	5	3	5	4	
3	1	5	3	5	0	5	1	5	2	5	1	5	0	
5	2	1	5	12	10	5	0	5	1	5	2	5	1	5	0	
6	8	7	2	1	5	12	5	0	5	1	5	5	5	3	5	4	
8	8	7	2	1	5	0	6	13	5	0	5	1	5	2	5	3	5	4	
6	13	6	0	5	1	4	5	0	5	1	5	2	5	5	5	4	
3	1	5	3	5	0	5	1	5	2	5	3	5	4	
8	10	12	5	1	2	7	8	11	5	0	5	1	5	2	5	1	5	0	
4	4	1	2	7	1	0	1	1	1	2	1	3	1	4	
6	13	6	0	5	1	2	5	0	5	1	5	5	5	3	5	4	
9	9	6	0	5	1	2	7	8	11	5	0	5	1	5	2	5	3	5	4	
8	11	8	7	2	1	5	12	10	5	0	5	1	5	2	5	3	5	4	
4	4	1	5	12	5	0	5	1	5	5	5	3	5	4	
5	12	5	0	6	9	5	0	5	1	5	2	5	5	5	4	
5	14	7	2	1	5	5	0	5	1	5	2	5	5	5	4	
6	12	5	1	2	7	14	5	0	5	1	5	2	5	5	5	4	
3	3	5	12	5	0	5	1	5	2	5	3	5	4	
4	0	5	12	10	5	0	5	1	5	2	5	5	5	4	
7	14	7	2	1	5	12	10	5	0	5	1	5	2	5	3	5	4	
5	5	1	2	7	8	5	0	5	1	5	2	5	5	5	4	
3	8	7	2	2	0	2	1	2	2	2	5	2	4	
4	14	7	8	11	7	0	7	1	7	5	7	3	7	4	
2	14	7	7	0	7	1	7	5	7	3	7	4	
2	6	9	6	0	6	1	6	2	6	3	6	4	
8	14	7	2	1	5	0	6	9	5	0	5	1	5	5	5	3	5	4	
2	6	0	0	0	0	1	0	2	0	1	0	0	
5	14	7	2	1	5	5	0	5	1	5	5	5	3	5	4	
3	1	5	12	5	0	5	1	5	2	5	5	5	4	
3	5	0	6	5	0	5	1	5	2	5	3	5	4	
5	3	5	1	2	7	5	0	5	1	5	2	5	5	5	4	
3	0	5	12	5	0	5	1	5	2	5	3	5	4	
5	11	8	7	2	1	1	0	1	1	1	5	1	3	1	4	
5	9	6	0	5	1	5	0	5	1	5	2	5	5	5	4	
4	5	0	6	13	5	0	5	1	5	2	5	1	5	0	
7	11	8	7	2	1	5	0	5	0	5	1	5	5	5	3	5	4	
4	10	12	5	0	5	0	5	1	5	2	5	1	5	0	
7	10	12	5	1	2	7	14	5	0	5	1	5	2	5	5	5	4	
8	11	8	7	2	1	5	0	6	5	0	5	1	5	2	5	5	5	4	
3	7	2	1	1	0	1	1	1	2	1	1	1	0	
2	8	7	7	0	7	1	7	5	7	3	7	4	
4	3	5	12	10	5	0	5	1	5	2	5	5	5	4	
4	3	5	1	4	5	0	5	1	5	2	5	5	5	4	
2	9	6	6	0	6	1	6	5	6	3	6	4	
5	2	1	5	0	6	5	0	5	1	5	2	5	3	5	4	
5	8	7	2	1	5	5	0	5	1	5	2	5	3	5	4	
4	3	5	1	4	5	0	5	1	5	5	5	3	5	4	
5	14	7	2	1	5	5	0	5	1	5	2	5	3	5	4	
5	12	5	0	6	13	5	0	5	1	5	5	5	3	5	4	
6	7	2	1	5	0	6	5	0	5	1	5	2	5	3	5	4	
3	0	5	1	5	0	5	1	5	5	5	3	5	4	
4	5	0	6	13	5	0	5	1	5	5	5	3	5	4	
8	9	6	0	5	1	2	7	14	5	0	5	1	5	5	5	3	5	4	
2	10	12	12	0	12	1	12	5	12	3	12	4	
5	13	6	0	5	3	5	0	5	1	5	2	5	1	5	0	
6	4	1	5	0	6	13	5	0	5	1	5	2	5	1	5	0	
5	6	0	5	1	2	5	0	5	1	5	5	5	3	5	4	
5	14	7	2	1	4	1	0	1	1	1	2	1	1	1	0	
7	14	7	2	1	5	0	6	5	0	5	1	5	5	5	3	5	4	
2	1	2	1	0	1	1	1	2	1	1	1	0	
4	10	12	5	3	5	0	5	1	5	2	5	5	5	4	
5	10	12	5	0	6	5	0	5	1	5	5	5	3	5	4	
3	1	5	3	5	0	5	1	5	2	5	5	5	4	
3	1	5	0	5	0	5	1	5	2	5	3	5	4	
2	1	5	5	0	5	1	5	5	5	3	5	4	
5	4	1	5	0	6	5	0	5	1	5	2	5	3	5	4	
6	5	1	2	7	8	11	5	0	5	1	5	2	5	5	5	4	
7	8	7	2	1	5	0	6	5	0	5	1	5	5	5	3	5	4	
7	7	2	1	5	0	6	9	5	0	5	1	5	5	5	3	5	4	
2	2	1	1	0	1	1	1	2	1	5	1	4	
4	3	5	12	10	5	0	5	1	5	5	5	3	5	4	
5	6	0	5	12	10	5	0	5	1	5	2	5	1	5	0	
4	4	1	5	3	5	0	5	1	5	5	5	3	5	4	
4	0	5	1	4	5	0	5	1	5	2	5	5	5	4	
6	3	5	1	2	7	8	5	0	5	1	5	2	5	3	5	4	
4	2	7	8	11	2	0	2	1	2	5	2	3	2	4	
8	13	6	0	5	1	2	7	8	5	0	5	1	5	2	5	3	5	4	
2	9	6	6	0	6	1	6	2	6	5	6	4	
4	10	12	5	0	5	0	5	1	5	2	5	3	5	4	
7	7	2	1	5	0	6	13	5	0	5	1	5	2	5	5	5	4	
2	6	9	6	0	6	1	6	2	6	1	6	0	
6	14	7	2	1	5	3	5	0	5	1	5	2	5	3	5	4	
3	3	5	1	5	0	5	1	5	2	5	1	5	0	
4	1	2	7	8	1	0	1	1	1	2	1	5	1	4	
4	6	0	5	12	5	0	5	1	5	2	5	5	5	4	
3	3	5	1	5	0	5	1	5	5	5	3	5	4	
6	14	7	2	1	5	12	5	0	5	1	5	2	5	3	5	4	
3	4	1	2	1	0	1	1	1	2	1	1	1	0	
6	14	7	2	1	5	0	5	0	5	1	5	2	5	5	5	4	
6	13	6	0	5	12	10	5	0	5	1	5	5	5	3	5	4	
2	2	1	1	0	1	1	1	2	1	3	1	4	
6	0	5	1	2	7	8	5	0	5	1	5	2	5	3	5	4	
2	5	12	5	0	5	1	5	2	5	3	5	4	
4	11	8	7	2	2	0	2	1	2	5	2	3	2	4	
5	5	1	2	7	8	5	0	5	1	5	5	5	3	5	4	
7	12	5	1	2	7	8	11	5	0	5	1	5	2	5	1	5	0	
3	0	5	12	5	0	5	1	5	2	5	1	5	0	
4	1	2	7	14	1	0	1	1	1	2	1	1	1	0	
5	4	1	5	0	6	5	0	5	1	5	2	5	5	5	4	
6	4	1	5	0	6	9	5	0	5	1	5	2	5	3	5	4	
4	12	5	1	4	5	0	5	1	5	2	5	1	5	0	
6	0	5	1	2	7	8	5	0	5	1	5	2	5	1	5	0	
7	8	7	2	1	5	12	10	5	0	5	1	5	2	5	5	5	4	
2	13	6	6	0	6	1	6	2	6	3	6	4	
4	11	8	7	2	2	0	2	1	2	2	2	1	2	0	
2	7	2	2	0	2	1	2	2	2	1	2	0	
3	2	1	4	1	0	1	1	1	5	1	3	1	4	
5	5	1	2	7	8	5	0	5	1	5	2	5	3	5	4	
4	2	1	5	12	5	0	5	1	5	2	5	3	5	4	
7	8	7	2	1	5	0	6	5	0	5	1	5	2	5	3	5	4	
7	9	6	0	5	1	2	7	5	0	5	1	5	2	5	1	5	0	
5	3	5	0	6	9	5	0	5	1	5	2	5	5	5	4	
4	6	0	5	1	5	0	5	1	5	2	5	5	5	4	
5	9	6	0	5	12	5	0	5	1	5	2	5	5	5	4	
2	7	2	2	0	2	1	2	2	2	5	2	4	
3	3	5	12	5	0	5	1	5	2	5	1	5	0	
4	2	7	8	11	2	0	2	1	2	2	2	1	2	0	
8	8	7	2	1	5	0	6	13	5	0	5	1	5	5	5	3	5	4	
2	14	7	7	0	7	1	7	2	7	5	7	4	
6	8	7	2	1	5	12	5	0	5	1	5	2	5	3	5	4	
6	3	5	1	2	7	8	5	0	5	1	5	2	5	1	5	0	
2	9	6	6	0	6	1	6	2	6	3	6	4	
4	5	1	2	7	5	0	5	1	5	2	5	5	5	4	
7	8	7	2	1	5	0	6	5	0	5	1	5	2	5	1	5	0	
5	10	12	5	1	2	5	0	5	1	5	2	5	5	5	4	
4	11	8	7	14	7	0	7	1	7	5	7	3	7	4	
3	2	7	8	2	0	2	1	2	2	2	3	2	4	
8	14	7	2	1	5	0	6	13	5	0	5	1	5	2	5	3	5	4	
5	3	5	0	6	13	5	0	5	1	5	2	5	3	5	4	
4	4	1	5	0	5	0	5	1	5	5	5	3	5	4	
4	11	8	7	14	7	0	7	1	7	2	7	3	7	4	
6	11	8	7	2	1	5	5	0	5	1	5	2	5	5	5	4	
2	6	9	6	0	6	1	6	5	6	3	6	4	
4	14	7	8	11	7	0	7	1	7	2	7	1	7	0	
6	11	8	7	2	1	4	1	0	1	1	1	2	1	1	1	0	
3	2	7	14	2	0	2	1	2	2	2	5	2	4	
6	13	6	0	5	1	4	5	0	5	1	5	5	5	3	5	4	
7	14	7	2	1	5	12	10	5	0	5	1	5	2	5	1	5	0	
7	9	6	0	5	1	2	7	5	0	5	1	5	2	5	5	5	4	
4	10	12	5	3	5	0	5	1	5	2	5	3	5	4	
2	12	5	5	0	5	1	5	2	5	3	5	4	
5	1	5	0	6	13	5	0	5	1	5	2	5	5	5	4	
8	11	8	7	2	1	5	12	10	5	0	5	1	5	2	5	1	5	0	
7	11	8	7	2	1	5	0	5	0	5	1	5	2	5	1	5	0	
5	12	5	0	6	9	5	0	5	1	5	2	5	3	5	4	
2	0	6	0	0	0	1	0	2	0	5	0	4	
7	6	0	5	1	2	7	8	5	0	5	1	5	2	5	5	5	4	
5	4	1	2	7	14	1	0	1	1	1	2	1	1	1	0	
4	4	1	5	3	5	0	5	1	5	2	5	1	5	0	
2	5	12	5	0	5	1	5	2	5	1	5	0	
6	10	12	5	0	6	13	5	0	5	1	5	2	5	5	5	4	
2	2	1	1	0	1	1	1	5	1	3	1	4	
3	0	5	3	5	0	5	1	5	5	5	3	5	4	
7	3	5	1	2	7	8	11	5	0	5	1	5	2	5	5	5	4	
2	1	5	5	0	5	1	5	2	5	5	5	4	
5	14	7	2	1	4	1	0	1	1	1	2	1	5	1	4	
6	12	5	1	2	7	14	5	0	5	1	5	5	5	3	5	4	
3	6	0	5	5	0	5	1	5	2	5	3	5	4	
2	5	12	5	0	5	1	5	5	5	3	5	4	
8	11	8	7	2	1	5	0	6	5	0	5	1	5	2	5	1	5	0	
5	7	2	1	5	0	5	0	5	1	5	2	5	3	5	4	
3	0	5	1	5	0	5	1	5	2	5	3	5	4	
9	11	8	7	2	1	5	0	6	9	5	0	5	1	5	2	5	3	5	4	
7	10	12	5	1	2	7	8	5	0	5	1	5	5	5	3	5	4	
2	3	5	5	0	5	1	5	2	5	3	5	4	
5	4	1	2	7	8	1	0	1	1	1	2	1	1	1	0	
7	6	0	5	1	2	7	14	5	0	5	1	5	2	5	3	5	4	
3	1	5	3	5	0	5	1	5	5	5	3	5	4	
3	5	0	6	5	0	5	1	5	2	5	5	5	4	
5	9	6	0	5	12	5	0	5	1	5	2	5	3	5	4	
3	0	5	12	5	0	5	1	5	5	5	3	5	4	
3	5	0	6	5	0	5	1	5	5	5	3	5	4	
6	2	1	5	0	6	9	5	0	5	1	5	2	5	1	5	0	
5	4	1	2	7	14	1	0	1	1	1	5	1	3	1	4	
7	9	6	0	5	1	2	7	5	0	5	1	5	2	5	3	5	4	
3	7	2	1	1	0	1	1	1	2	1	5	1	4	
2	5	3	5	0	5	1	5	2	5	1	5	0	
8	9	6	0	5	1	2	7	8	5	0	5	1	5	5	5	3	5	4	
2	5	12	5	0	5	1	5	2	5	5	5	4	
2	0	5	5	0	5	1	5	5	5	3	5	4	
4	4	1	5	0	5	0	5	1	5	2	5	3	5	4	
8	6	0	5	1	2	7	8	11	5	0	5	1	5	2	5	1	5	0	
5	7	2	1	5	0	5	0	5	1	5	2	5	1	5	0	
5	2	1	5	0	6	5	0	5	1	5	2	5	1	5	0	
8	9	6	0	5	1	2	7	14	5	0	5	1	5	2	5	1	5	0	
7	6	0	5	1	2	7	8	5	0	5	1	5	5	5	3	5	4	
3	12	5	1	5	0	5	1	5	5	5	3	5	4	
5	1	5	0	6	13	5	0	5	1	5	2	5	1	5	0	
2	1	4	1	0	1	1	1	2	1	1	1	0	
5	11	8	7	2	1	1	0	1	1	1	2	1	5	1	4	
4	2	1	5	12	5	0	5	1	5	5	5	3	5	4	
9	13	6	0	5	1	2	7	8	11	5	0	5	1	5	2	5	1	5	0	
4	3	5	0	6	5	0	5	1	5	2	5	5	5	4	
4	2	1	5	3	5	0	5	1	5	2	5	3	5	4	
5	12	5	0	6	9	5	0	5	1	5	2	5	1	5	0	
6	7	2	1	5	12	10	5	0	5	1	5	2	5	5	5	4	
4	5	1	2	7	5	0	5	1	5	2	5	3	5	4	
8	14	7	2	1	5	0	6	9	5	0	5	1	5	2	5	5	5	4	
5	1	2	7	8	11	1	0	1	1	1	5	1	3	1	4	
3	4	1	5	5	0	5	1	5	5	5	3	5	4	
6	4	1	2	7	8	11	1	0	1	1	1	2	1	3	1	4	
5	0	5	1	2	7	5	0	5	1	5	2	5	1	5	0	
4	5	0	6	13	5	0	5	1	5	2	5	3	5	4	
4	12	5	0	6	5	0	5	1	5	2	5	1	5	0	
2	7	2	2	0	2	1	2	5	2	3	2	4	
3	13	6	0	0	0	0	1	0	2	0	5	0	4	
6	13	6	0	5	12	10	5	0	5	1	5	2	5	3	5	4	
8	13	6	0	5	1	2	7	14	5	0	5	1	5	2	5	5	5	4	
3	0	6	13	0	0	0	1	0	2	0	1	0	0	
3	0	5	1	5	0	5	1	5	2	5	5	5	4	
3	2	7	8	2	0	2	1	2	2	2	5	2	4	
2	6	0	0	0	0	1	0	2	0	3	0	4	
4	12	5	1	4	5	0	5	1	5	5	5	3	5	4	
3	14	7	2	2	0	2	1	2	2	2	1	2	0	
6	11	8	7	2	1	5	5	0	5	1	5	5	5	3	5	4	
4	2	7	8	11	2	0	2	1	2	2	2	3	2	4	
5	2	1	5	0	6	5	0	5	1	5	5	5	3	5	4	
6	11	8	7	2	1	4	1	0	1	1	1	2	1	5	1	4	
5	8	7	2	1	4	1	0	1	1	1	2	1	1	1	0	
5	10	12	5	1	4	5	0	5	1	5	2	5	5	5	4	
6	9	6	0	5	12	10	5	0	5	1	5	5	5	3	5	4	
4	6	0	5	3	5	0	5	1	5	5	5	3	5	4	
7	11	8	7	2	1	5	12	5	0	5	1	5	2	5	5	5	4	
7	8	7	2	1	5	0	6	5	0	5	1	5	2	5	5	5	4	
4	1	2	7	14	1	0	1	1	1	2	1	5	1	4	
7	8	7	2	1	5	12	10	5	0	5	1	5	5	5	3	5	4	
6	13	6	0	5	1	4	5	0	5	1	5	2	5	1	5	0	
3	5	1	4	5	0	5	1	5	2	5	1	5	0	
6	10	12	5	1	2	7	5	0	5	1	5	5	5	3	5	4	
3	4	1	2	1	0	1	1	1	5	1	3	1	4	
8	13	6	0	5	1	2	7	8	5	0	5	1	5	2	5	1	5	0	
6	9	6	0	5	1	4	5	0	5	1	5	2	5	3	5	4	
3	5	1	2	5	0	5	1	5	2	5	3	5	4	
7	7	2	1	5	0	6	13	5	0	5	1	5	5	5	3	5	4	
4	1	2	7	14	1	0	1	1	1	2	1	3	1	4	
4	4	1	5	3	5	0	5	1	5	2	5	3	5	4	
2	13	6	6	0	6	1	6	5	6	3	6	4	
6	3	5	1	2	7	14	5	0	5	1	5	2	5	3	5	4	
4	0	5	1	2	5	0	5	1	5	2	5	1	5	0	
4	9	6	0	5	5	0	5	1	5	2	5	5	5	4	
4	10	12	5	1	5	0	5	1	5	2	5	3	5	4	
4	11	8	7	14	7	0	7	1	7	2	7	1	7	0	
3	9	6	0	0	0	0	1	0	2	0	5	0	4	
4	7	2	1	5	5	0	5	1	5	2	5	1	5	0	
4	12	5	0	6	5	0	5	1	5	2	5	5	5	4	
2	4	1	1	0	1	1	1	2	1	1	1	0	
6	10	12	5	0	6	9	5	0	5	1	5	2	5	1	5	0	
7	14	7	2	1	5	0	6	5	0	5	1	5	2	5	3	5	4	
2	7	8	7	0	7	1	7	2	7	5	7	4	
4	5	0	6	9	5	0	5	1	5	5	5	3	5	4	
2	4	1	1	0	1	1	1	2	1	5	1	4	
2	8	11	8	0	8	1	8	2	8	1	8	0	
2	7	14	7	0	7	1	7	5	7	3	7	4	
6	0	5	1	2	7	14	5	0	5	1	5	2	5	3	5	4	
4	3	5	1	2	5	0	5	1	5	2	5	1	5	0	
6	5	1	2	7	8	11	5	0	5	1	5	2	5	1	5	0	
3	9	6	0	0	0	0	1	0	2	0	1	0	0	
4	14	7	8	11	7	0	7	1	7	2	7	3	7	4	
6	12	5	1	2	7	8	5	0	5	1	5	5	5	3	5	4	
3	8	7	14	7	0	7	1	7	2	7	5	7	4	
2	10	12	12	0	12	1	12	2	12	5	12	4	
2	12	5	5	0	5	1	5	5	5	3	5	4	
4	14	7	2	1	1	0	1	1	1	2	1	3	1	4	
5	10	12	5	1	4	5	0	5	1	5	2	5	1	5	0	
3	14	7	2	2	0	2	1	2	2	2	5	2	4	
6	12	5	1	2	7	14	5	0	5	1	5	2	5	3	5	4	
4	5	0	6	9	5	0	5	1	5	2	5	1	5	0	
7	13	6	0	5	1	2	7	5	0	5	1	5	2	5	5	5	4	
6	3	5	1	2	7	8	5	0	5	1	5	2	5	5	5	4	
2	0	5	5	0	5	1	5	2	5	5	5	4	
3	9	6	13	6	0	6	1	6	2	6	1	6	0	
3	5	1	4	5	0	5	1	5	5	5	3	5	4	
8	8	7	2	1	5	0	6	9	5	0	5	1	5	2	5	3	5	4	
3	10	12	5	5	0	5	1	5	5	5	3	5	4	
6	3	5	1	2	7	8	5	0	5	1	5	5	5	3	5	4	
3	10	12	5	5	0	5	1	5	2	5	3	5	4	
2	7	2	2	0	2	1	2	2	2	3	2	4	
2	6	13	6	0	6	1	6	2	6	3	6	4	
6	4	1	2	7	8	11	1	0	1	1	1	5	1	3	1	4	
3	0	6	13	0	0	0	1	0	5	0	3	0	4	
5	13	6	0	5	1	5	0	5	1	5	5	5	3	5	4	
8	11	8	7	2	1	5	0	6	5	0	5	1	5	2	5	3	5	4	
7	13	6	0	5	1	2	7	5	0	5	1	5	2	5	1	5	0	
6	8	7	2	1	5	12	5	0	5	1	5	2	5	1	5	0	
5	6	0	5	1	4	5	0	5	1	5	2	5	3	5	4	
8	10	12	5	1	2	7	8	11	5	0	5	1	5	2	5	3	5	4	
4	5	0	6	13	5	0	5	1	5	2	5	5	5	4	
3	0	5	1	5	0	5	1	5	2	5	1	5	0	
3	12	5	1	5	0	5	1	5	2	5	5	5	4	
5	12	5	0	6	13	5	0	5	1	5	2	5	5	5	4	
6	7	2	1	5	12	10	5	0	5	1	5	2	5	3	5	4	
8	8	7	2	1	5	0	6	13	5	0	5	1	5	2	5	1	5	0	
5	4	1	5	0	6	5	0	5	1	5	2	5	1	5	0	
3	4	1	2	1	0	1	1	1	2	1	3	1	4	
4	8	7	2	1	1	0	1	1	1	2	1	5	1	4	
2	5	1	5	0	5	1	5	2	5	3	5	4	
3	1	5	12	5	0	5	1	5	2	5	1	5	0	
4	4	1	2	7	1	0	1	1	1	5	1	3	1	4	
6	2	1	5	0	6	13	5	0	5	1	5	5	5	3	5	4	
5	9	6	0	5	3	5	0	5	1	5	5	5	3	5	4	
6	11	8	7	2	1	5	5	0	5	1	5	2	5	1	5	0	
8	14	7	2	1	5	0	6	13	5	0	5	1	5	2	5	5	5	4	
4	14	7	2	1	1	0	1	1	1	2	1	5	1	4	
3	7	8	11	7	0	7	1	7	2	7	5	7	4	
7	7	2	1	5	0	6	9	5	0	5	1	5	2	5	3	5	4	
4	1	5	12	10	5	0	5	1	5	5	5	3	5	4	
6	13	6	0	5	1	2	5	0	5	1	5	2	5	5	5	4	
5	4	1	5	12	10	5	0	5	1	5	2	5	3	5	4	
6	7	2	1	5	0	6	5	0	5	1	5	2	5	1	5	0	
5	1	5	0	6	9	5	0	5	1	5	2	5	1	5	0	
4	2	1	5	0	5	0	5	1	5	5	5	3	5	4	
2	3	5	5	0	5	1	5	2	5	1	5	0	
3	5	12	10	5	0	5	1	5	2	5	3	5	4	
3	6	0	5	5	0	5	1	5	5	5	3	5	4	
2	1	4	1	0	1	1	1	2	1	5	1	4	
2	3	5	5	0	5	1	5	5	5	3	5	4	
9	13	6	0	5	1	2	7	8	11	5	0	5	1	5	2	5	3	5	4	
5	7	2	1	5	0	5	0	5	1	5	5	5	3	5	4	
6	0	5	1	2	7	14	5	0	5	1	5	2	5	1	5	0	
3	9	6	0	0	0	0	1	0	5	0	3	0	4	
8	9	6	0	5	1	2	7	14	5	0	5	1	5	2	5	3	5	4	
3	8	7	2	2	0	2	1	2	2	2	1	2	0	
4	12	5	1	2	5	0	5	1	5	2	5	3	5	4	
8	11	8	7	2	1	5	0	6	5	0	5	1	5	5	5	3	5	4	
4	3	5	1	4	5	0	5	1	5	2	5	3	5	4	
3	4	1	5	5	0	5	1	5	2	5	3	5	4	
6	4	1	5	0	6	9	5	0	5	1	5	5	5	3	5	4	
2	7	14	7	0	7	1	7	2	7	3	7	4	
5	2	1	5	12	10	5	0	5	1	5	2	5	3	5	4	
4	5	1	2	7	5	0	5	1	5	5	5	3	5	4	
3	2	7	8	2	0	2	1	2	2	2	1	2	0	
4	14	7	2	1	1	0	1	1	1	2	1	1	1	0	
8	11	8	7	2	1	5	12	10	5	0	5	1	5	5	5	3	5	4	
3	9	6	13	6	0	6	1	6	5	6	3	6	4	
3	6	0	5	5	0	5	1	5	2	5	1	5	0	
6	3	5	1	2	7	14	5	0	5	1	5	2	5	1	5	0	
5	2	1	5	0	6	5	0	5	1	5	2	5	5	5	4	
2	8	11	8	0	8	1	8	5	8	3	8	4	
3	8	7	14	7	0	7	1	7	2	7	3	7	4	
8	9	6	0	5	1	2	7	8	5	0	5	1	5	2	5	1	5	0	
4	0	5	1	4	5	0	5	1	5	2	5	3	5	4	
5	7	2	1	5	12	5	0	5	1	5	5	5	3	5	4	
7	11	8	7	2	1	5	0	5	0	5	1	5	2	5	5	5	4	
6	11	8	7	2	1	5	5	0	5	1	5	2	5	3	5	4	
3	12	5	3	5	0	5	1	5	2	5	3	5	4	
4	4	1	2	7	1	0	1	1	1	2	1	1	1	0	
7	6	0	5	1	2	7	8	5	0	5	1	5	2	5	1	5	0	
5	13	6	0	5	12	5	0	5	1	5	2	5	3	5	4	
6	12	5	1	2	7	8	5	0	5	1	5	2	5	1	5	0	
3	2	1	5	5	0	5	1	5	2	5	1	5	0	
5	12	5	0	6	13	5	0	5	1	5	2	5	3	5	4	
4	10	12	5	1	5	0	5	1	5	5	5	3	5	4	
6	12	5	1	2	7	8	5	0	5	1	5	2	5	5	5	4	
5	0	5	1	2	7	5	0	5	1	5	5	5	3	5	4	
4	8	7	2	1	1	0	1	1	1	5	1	3	1	4	
3	5	1	4	5	0	5	1	5	2	5	3	5	4	
5	5	1	2	7	14	5	0	5	1	5	5	5	3	5	4	
5	1	5	0	6	9	5	0	5	1	5	2	5	3	5	4	
4	12	5	0	6	5	0	5	1	5	5	5	3	5	4	
6	9	6	0	5	1	4	5	0	5	1	5	5	5	3	5	4	
8	13	6	0	5	1	2	7	8	5	0	5	1	5	5	5	3	5	4	
3	12	5	3	5	0	5	1	5	2	5	5	5	4	
5	10	12	5	1	2	5	0	5	1	5	2	5	1	5	0	
3	13	6	9	6	0	6	1	6	2	6	3	6	4	
3	5	12	10	5	0	5	1	5	2	5	1	5	0	
6	10	12	5	0	6	9	5	0	5	1	5	2	5	5	5	4	
2	14	7	7	0	7	1	7	2	7	1	7	0	
3	3	5	1	5	0	5	1	5	2	5	3	5	4	
4	1	5	0	6	5	0	5	1	5	2	5	3	5	4	
8	10	12	5	1	2	7	8	11	5	0	5	1	5	2	5	5	5	4	
2	9	6	6	0	6	1	6	2	6	1	6	0	
5	13	6	0	5	1	5	0	5	1	5	2	5	1	5	0	
3	2	1	4	1	0	1	1	1	2	1	3	1	4	
6	9	6	0	5	1	2	5	0	5	1	5	2	5	1	5	0	
5	9	6	0	5	12	5	0	5	1	5	2	5	1	5	0	
5	13	6	0	5	12	5	0	5	1	5	2	5	1	5	0	
5	13	6	0	5	3	5	0	5	1	5	5	5	3	5	4	
8	11	8	7	2	1	5	12	10	5	0	5	1	5	2	5	5	5	4	
8	10	12	5	1	2	7	8	11	5	0	5	1	5	5	5	3	5	4	
4	6	0	5	12	5	0	5	1	5	2	5	3	5	4	
8	14	7	2	1	5	0	6	9	5	0	5	1	5	2	5	3	5	4	
3	1	5	0	5	0	5	1	5	2	5	1	5	0	
4	0	5	12	10	5	0	5	1	5	5	5	3	5	4	
5	4	1	2	7	8	1	0	1	1	1	2	1	5	1	4	
5	10	12	5	1	4	5	0	5	1	5	5	5	3	5	4	
5	4	1	2	7	14	1	0	1	1	1	2	1	5	1	4	
5	6	0	5	1	4	5	0	5	1	5	2	5	5	5	4	
6	8	7	2	1	5	3	5	0	5	1	5	2	5	5	5	4	
2	5	3	5	0	5	1	5	2	5	3	5	4	
3	5	1	2	5	0	5	1	5	5	5	3	5	4	
5	10	12	5	1	2	5	0	5	1	5	5	5	3	5	4	
5	5	1	2	7	14	5	0	5	1	5	2	5	5	5	4	
3	14	7	8	7	0	7	1	7	5	7	3	7	4	
4	5	0	6	9	5	0	5	1	5	2	5	5	5	4	
3	7	8	11	7	0	7	1	7	2	7	3	7	4	
3	8	7	14	7	0	7	1	7	2	7	1	7	0	
6	12	5	1	2	7	14	5	0	5	1	5	2	5	1	5	0	
5	1	2	7	8	11	1	0	1	1	1	2	1	1	1	0	
6	7	2	1	5	0	6	5	0	5	1	5	5	5	3	5	4	
7	11	8	7	2	1	5	3	5	0	5	1	5	2	5	1	5	0	
3	2	7	14	2	0	2	1	2	5	2	3	2	4	
6	14	7	2	1	5	12	5	0	5	1	5	2	5	5	5	4	
7	11	8	7	2	1	5	12	5	0	5	1	5	2	5	1	5	0	
4	0	5	1	4	5	0	5	1	5	5	5	3	5	4	
6	8	7	2	1	5	0	5	0	5	1	5	2	5	3	5	4	
5	1	5	0	6	13	5	0	5	1	5	5	5	3	5	4	
6	4	1	5	0	6	13	5	0	5	1	5	2	5	3	5	4	
3	14	7	8	7	0	7	1	7	2	7	1	7	0	
4	11	8	7	14	7	0	7	1	7	2	7	5	7	4	
6	5	1	2	7	8	11	5	0	5	1	5	2	5	3	5	4	
3	2	7	14	2	0	2	1	2	2	2	1	2	0	
6	8	7	2	1	5	0	5	0	5	1	5	2	5	1	5	0	
6	11	8	7	2	1	4	1	0	1	1	1	5	1	3	1	4	
5	6	0	5	12	10	5	0	5	1	5	2	5	5	5	4	
4	1	5	0	6	5	0	5	1	5	2	5	5	5	4	
4	7	2	1	4	1	0	1	1	1	2	1	5	1	4	
2	11	8	8	0	8	1	8	2	8	3	8	4	
4	14	7	2	1	1	0	1	1	1	5	1	3	1	4	
8	13	6	0	5	1	2	7	8	5	0	5	1	5	2	5	5	5	4	
8	9	6	0	5	1	2	7	8	5	0	5	1	5	2	5	3	5	4	
6	6	0	5	1	2	7	5	0	5	1	5	2	5	1	5	0	
6	0	5	1	2	7	14	5	0	5	1	5	2	5	5	5	4	
3	2	1	4	1	0	1	1	1	2	1	5	1	4	
4	3	5	0	6	5	0	5	1	5	2	5	3	5	4	
5	9	6	0	5	1	5	0	5	1	5	2	5	1	5	0	
5	7	2	1	5	3	5	0	5	1	5	2	5	3	5	4	
5	9	6	0	5	12	5	0	5	1	5	5	5	3	5	4	
2	14	7	7	0	7	1	7	2	7	3	7	4	
7	10	12	5	1	2	7	8	5	0	5	1	5	2	5	1	5	0	
3	11	8	7	7	0	7	1	7	2	7	3	7	4	
5	13	6	0	5	12	5	0	5	1	5	2	5	5	5	4	
4	10	12	5	0	5	0	5	1	5	2	5	5	5	4	
7	7	2	1	5	0	6	9	5	0	5	1	5	2	5	1	5	0	
3	4	1	5	5	0	5	1	5	2	5	1	5	0	
7	13	6	0	5	1	2	7	5	0	5	1	5	2	5	3	5	4	
6	6	0	5	1	2	7	5	0	5	1	5	2	5	5	5	4	
2	2	7	2	0	2	1	2	2	2	1	2	0	
2	0	6	0	0	0	1	0	2	0	3	0	4	
3	7	8	11	7	0	7	1	7	5	7	3	7	4	
4	10	12	5	3	5	0	5	1	5	5	5	3	5	4	
3	1	5	12	5	0	5	1	5	2	5	3	5	4	
4	1	2	7	8	1	0	1	1	1	5	1	3	1	4	
3	0	6	9	0	0	0	1	0	5	0	3	0	4	
4	11	8	7	2	2	0	2	1	2	2	2	5	2	4	
6	8	7	2	1	5	3	5	0	5	1	5	5	5	3	5	4	
5	6	0	5	12	10	5	0	5	1	5	5	5	3	5	4	
3	13	6	0	0	0	0	1	0	2	0	3	0	4	
6	13	6	0	5	12	10	5	0	5	1	5	2	5	1	5	0	
2	0	6	0	0	0	1	0	2	0	1	0	0	
4	2	7	8	11	2	0	2	1	2	2	2	5	2	4	
8	8	7	2	1	5	0	6	9	5	0	5	1	5	2	5	1	5	0	
8	14	7	2	1	5	0	6	13	5	0	5	1	5	2	5	1	5	0	
6	8	7	2	1	5	3	5	0	5	1	5	2	5	1	5	0	
5	14	7	2	1	5	5	0	5	1	5	2	5	1	5	0	
2	5	0	5	0	5	1	5	2	5	5	5	4	
3	14	7	2	2	0	2	1	2	2	2	3	2	4	
3	7	2	1	1	0	1	1	1	5	1	3	1	4	
6	2	1	5	0	6	9	5	0	5	1	5	2	5	5	5	4	
4	12	5	1	4	5	0	5	1	5	2	5	3	5	4	
4	6	0	5	1	5	0	5	1	5	2	5	3	5	4	
2	7	14	7	0	7	1	7	2	7	1	7	0	
6	4	1	5	0	6	13	5	0	5	1	5	5	5	3	5	4	
6	4	1	5	0	6	13	5	0	5	1	5	2	5	5	5	4	
4	3	5	0	6	5	0	5	1	5	2	5	1	5	0	
6	9	6	0	5	1	4	5	0	5	1	5	2	5	1	5	0	
6	3	5	1	2	7	14	5	0	5	1	5	2	5	5	5	4	
7	10	12	5	1	2	7	8	5	0	5	1	5	2	5	3	5	4	
9	11	8	7	2	1	5	0	6	9	5	0	5	1	5	5	5	3	5	4	
9	9	6	0	5	1	2	7	8	11	5	0	5	1	5	2	5	1	5	0	
5	3	5	0	6	9	5	0	5	1	5	2	5	1	5	0	
2	2	7	2	0	2	1	2	5	2	3	2	4	
5	7	2	1	5	3	5	0	5	1	5	2	5	5	5	4	
3	7	8	11	7	0	7	1	7	2	7	1	7	0	
6	10	12	5	0	6	13	5	0	5	1	5	2	5	3	5	4	
6	9	6	0	5	1	2	5	0	5	1	5	2	5	5	5	4	
7	6	0	5	1	2	7	14	5	0	5	1	5	5	5	3	5	4	
7	6	0	5	1	2	7	14	5	0	5	1	5	2	5	5	5	4	
6	2	1	5	0	6	9	5	0	5	1	5	2	5	3	5	4	
3	12	5	1	5	0	5	1	5	2	5	3	5	4	
2	8	7	7	0	7	1	7	2	7	1	7	0	
8	6	0	5	1	2	7	8	11	5	0	5	1	5	2	5	3	5	4	
2	5	0	5	0	5	1	5	5	5	3	5	4	
7	0	5	1	2	7	8	11	5	0	5	1	5	5	5	3	5	4	
3	11	8	7	7	0	7	1	7	2	7	5	7	4	
4	13	6	0	5	5	0	5	1	5	2	5	5	5	4	
5	0	5	1	2	7	5	0	5	1	5	2	5	3	5	4	
8	14	7	2	1	5	0	6	9	5	0	5	1	5	2	5	1	5	0	
2	10	12	12	0	12	1	12	2	12	1	12	0	
4	13	6	0	5	5	0	5	1	5	5	5	3	5	4	
8	9	6	0	5	1	2	7	14	5	0	5	1	5	2	5	5	5	4	
4	11	8	7	2	2	0	2	1	2	2	2	3	2	4	
6	10	12	5	0	6	13	5	0	5	1	5	5	5	3	5	4	
3	2	1	4	1	0	1	1	1	2	1	1	1	0	
4	12	5	1	4	5	0	5	1	5	2	5	5	5	4	
6	3	5	1	2	7	14	5	0	5	1	5	5	5	3	5	4	
7	6	0	5	1	2	7	14	5	0	5	1	5	2	5	1	5	0	
2	0	6	0	0	0	1	0	5	0	3	0	4	
5	9	6	0	5	1	5	0	5	1	5	2	5	3	5	4	
2	0	5	5	0	5	1	5	2	5	1	5	0	
4	1	5	12	10	5	0	5	1	5	2	5	1	5	0	
9	11	8	7	2	1	5	0	6	9	5	0	5	1	5	2	5	1	5	0	
2	6	9	6	0	6	1	6	2	6	5	6	4	
2	5	0	5	0	5	1	5	2	5	1	5	0	
4	1	2	7	8	1	0	1	1	1	2	1	3	1	4	
4	0	5	1	2	5	0	5	1	5	5	5	3	5	4	
3	11	8	7	7	0	7	1	7	2	7	1	7	0	
4	7	2	1	4	1	0	1	1	1	5	1	3	1	4	
4	14	7	8	11	7	0	7	1	7	2	7	5	7	4	
7	12	5	1	2	7	8	11	5	0	5	1	5	2	5	5	5	4	
2	8	7	7	0	7	1	7	2	7	5	7	4	
4	10	12	5	1	5	0	5	1	5	2	5	1	5	0	
5	13	6	0	5	3	5	0	5	1	5	2	5	3	5	4	
7	9	6	0	5	1	2	7	5	0	5	1	5	5	5	3	5	4	
5	4	1	5	0	6	5	0	5	1	5	5	5	3	5	4	
3	0	5	3	5	0	5	1	5	2	5	5	5	4	
3	1	5	12	5	0	5	1	5	5	5	3	5	4	
3	3	5	0	5	0	5	1	5	2	5	3	5	4	
4	4	1	5	12	5	0	5	1	5	2	5	3	5	4	
5	6	0	5	1	2	5	0	5	1	5	2	5	3	5	4	
4	7	2	1	5	5	0	5	1	5	2	5	3	5	4	
8	13	6	0	5	1	2	7	14	5	0	5	1	5	5	5	3	5	4	
2	13	6	6	0	6	1	6	2	6	5	6	4	
3	12	5	0	5	0	5	1	5	2	5	5	5	4	
8	14	7	2	1	5	0	6	13	5	0	5	1	5	5	5	3	5	4	
4	6	0	5	1	5	0	5	1	5	2	5	1	5	0	
6	0	5	1	2	7	8	5	0	5	1	5	2	5	5	5	4	
4	6	0	5	1	5	0	5	1	5	5	5	3	5	4	
3	1	5	0	5	0	5	1	5	2	5	5	5	4	
2	1	5	5	0	5	1	5	2	5	3	5	4	
5	3	5	0	6	9	5	0	5	1	5	5	5	3	5	4	
3	9	6	0	0	0	0	1	0	2	0	3	0	4	
6	13	6	0	5	1	2	5	0	5	1	5	2	5	1	5	0	
3	5	0	6	5	0	5	1	5	2	5	1	5	0	
3	0	6	13	0	0	0	1	0	2	0	5	0	4	
2	11	8	8	0	8	1	8	2	8	1	8	0	
5	14	7	2	1	4	1	0	1	1	1	5	1	3	1	4	
4	12	5	0	6	5	0	5	1	5	2	5	3	5	4	
6	14	7	2	1	5	12	5	0	5	1	5	5	5	3	5	4	
2	4	1	1	0	1	1	1	2	1	3	1	4	
8	8	7	2	1	5	0	6	9	5	0	5	1	5	2	5	5	5	4	
2	5	3	5	0	5	1	5	5	5	3	5	4	
4	1	5	0	6	5	0	5	1	5	5	5	3	5	4	
2	1	5	5	0	5	1	5	2	5	1	5	0	
6	14	7	2	1	5	0	5	0	5	1	5	2	5	1	5	0	
5	8	7	2	1	5	5	0	5	1	5	5	5	3	5	4	
2	5	0	5	0	5	1	5	2	5	3	5	4	
7	0	5	1	2	7	8	11	5	0	5	1	5	2	5	3	5	4	
3	3	5	1	5	0	5	1	5	2	5	5	5	4	
4	12	5	1	2	5	0	5	1	5	5	5	3	5	4	
6	7	2	1	5	12	10	5	0	5	1	5	5	5	3	5	4	
5	1	5	0	6	13	5	0	5	1	5	2	5	3	5	4	
5	12	5	1	2	7	5	0	5	1	5	2	5	5	5	4	
4	3	5	1	2	5	0	5	1	5	5	5	3	5	4	
4	4	1	5	3	5	0	5	1	5	2	5	5	5	4	
2	7	8	7	0	7	1	7	2	7	3	7	4	
3	3	5	0	5	0	5	1	5	2	5	1	5	0	
3	0	6	9	0	0	0	1	0	2	0	3	0	4	
5	11	8	7	2	1	1	0	1	1	1	2	1	3	1	4	
8	6	0	5	1	2	7	8	11	5	0	5	1	5	5	5	3	5	4	
3	14	7	8	7	0	7	1	7	2	7	5	7	4	
7	12	5	1	2	7	8	11	5	0	5	1	5	2	5	3	5	4	
4	10	12	5	3	5	0	5	1	5	2	5	1	5	0	
5	2	1	5	12	10	5	0	5	1	5	2	5	5	5	4	
4	2	1	5	0	5	0	5	1	5	2	5	3	5	4	
6	8	7	2	1	5	3	5	0	5	1	5	2	5	3	5	4	
5	6	0	5	1	4	5	0	5	1	5	5	5	3	5	4	
2	2	1	1	0	1	1	1	2	1	1	1	0	
2	11	8	8	0	8	1	8	2	8	5	8	4	
5	4	1	2	7	8	1	0	1	1	1	5	1	3	1	4	
5	4	1	2	7	8	1	0	1	1	1	2	1	3	1	4	
5	4	1	5	12	10	5	0	5	1	5	2	5	1	5	0	
5	10	12	5	0	6	5	0	5	1	5	2	5	5	5	4	
3	11	8	7	7	0	7	1	7	5	7	3	7	4	
2	12	10	12	0	12	1	12	2	12	5	12	4	
5	4	1	5	12	10	5	0	5	1	5	5	5	3	5	4	
4	4	1	5	12	5	0	5	1	5	2	5	5	5	4	
5	10	12	5	0	6	5	0	5	1	5	2	5	1	5	0	
9	11	8	7	2	1	5	0	6	9	5	0	5	1	5	2	5	5	5	4	
3	10	12	5	5	0	5	1	5	2	5	5	5	4	
6	14	7	2	1	5	3	5	0	5	1	5	2	5	1	5	0	
2	1	2	1	0	1	1	1	2	1	3	1	4	
2	6	0	0	0	0	1	0	2	0	5	0	4	
5	3	5	0	6	13	5	0	5	1	5	5	5	3	5	4	
3	12	5	1	5	0	5	1	5	2	5	1	5	0	
5	6	0	5	1	4	5	0	5	1	5	2	5	1	5	0	
5	8	7	2	1	5	5	0	5	1	5	2	5	1	5	0	
4	13	6	0	5	5	0	5	1	5	2	5	1	5	0	
6	9	6	0	5	12	10	5	0	5	1	5	2	5	1	5	0	
2	2	7	2	0	2	1	2	2	2	5	2	4	
6	7	2	1	5	12	10	5	0	5	1	5	2	5	1	5	0	
2	10	12	12	0	12	1	12	2	12	3	12	4	
6	2	1	5	0	6	9	5	0	5	1	5	5	5	3	5	4	
5	6	0	5	12	10	5	0	5	1	5	2	5	3	5	4	
9	11	8	7	2	1	5	0	6	13	5	0	5	1	5	2	5	1	5	0	
7	13	6	0	5	1	2	7	5	0	5	1	5	5	5	3	5	4	
2	7	8	7	0	7	1	7	2	7	1	7	0	
2	7	14	7	0	7	1	7	2	7	5	7	4	
6	9	6	0	5	1	4	5	0	5	1	5	2	5	5	5	4	
5	13	6	0	5	3	5	0	5	1	5	2	5	5	5	4	
8	6	0	5	1	2	7	8	11	5	0	5	1	5	2	5	5	5	4	
3	0	6	9	0	0	0	1	0	2	0	5	0	4	
6	10	12	5	0	6	13	5	0	5	1	5	2	5	1	5	0	
7	6	0	5	1	2	7	8	5	0	5	1	5	2	5	3	5	4	
4	10	12	5	0	5	0	5	1	5	5	5	3	5	4	
4	4	1	5	0	5	0	5	1	5	2	5	1	5	0	
5	11	8	7	2	1	1	0	1	1	1	2	1	1	1	0	
7	7	2	1	5	0	6	13	5	0	5	1	5	2	5	3	5	4	
6	8	7	2	1	5	0	5	0	5	1	5	5	5	3	5	4	
5	9	6	0	5	1	5	0	5	1	5	5	5	3	5	4	
6	12	5	1	2	7	8	5	0	5	1	5	2	5	3	5	4	
6	0	5	1	2	7	8	5	0	5	1	5	5	5	3	5	4	
7	7	2	1	5	0	6	9	5	0	5	1	5	2	5	5	5	4	
5	3	5	1	2	7	5	0	5	1	5	5	5	3	5	4	
4	13	6	0	5	5	0	5	1	5	2	5	3	5	4	
5	12	5	1	2	7	5	0	5	1	5	2	5	1	5	0	
5	12	5	0	6	9	5	0	5	1	5	5	5	3	5	4	
5	10	12	5	0	6	5	0	5	1	5	2	5	3	5	4	
5	6	0	5	1	2	5	0	5	1	5	2	5	1	5	0	
4	6	0	5	3	5	0	5	1	5	2	5	1	5	0	
5	8	7	2	1	4	1	0	1	1	1	2	1	3	1	4	
4	3	5	1	2	5	0	5	1	5	2	5	3	5	4	
3	1	2	7	1	0	1	1	1	2	1	3	1	4	
7	3	5	1	2	7	8	11	5	0	5	1	5	2	5	1	5	0	
7	11	8	7	2	1	5	12	5	0	5	1	5	5	5	3	5	4	
4	9	6	0	5	5	0	5	1	5	2	5	1	5	0	
4	2	1	5	12	5	0	5	1	5	2	5	1	5	0	
8	13	6	0	5	1	2	7	14	5	0	5	1	5	2	5	1	5	0	
3	8	7	14	7	0	7	1	7	5	7	3	7	4	
2	8	11	8	0	8	1	8	2	8	3	8	4	
8	13	6	0	5	1	2	7	14	5	0	5	1	5	2	5	3	5	4	
5	8	7	2	1	4	1	0	1	1	1	2	1	5	1	4	
6	10	12	5	1	2	7	5	0	5	1	5	2	5	1	5	0	
3	9	6	13	6	0	6	1	6	2	6	3	6	4	
7	11	8	7	2	1	5	12	5	0	5	1	5	2	5	3	5	4	
9	11	8	7	2	1	5	0	6	13	5	0	5	1	5	5	5	3	5	4	
9	11	8	7	2	1	5	0	6	13	5	0	5	1	5	2	5	5	5	4	
2	1	2	1	0	1	1	1	2	1	5	1	4	
6	4	1	5	0	6	9	5	0	5	1	5	2	5	1	5	0	
4	6	0	5	3	5	0	5	1	5	2	5	5	5	4	
4	3	5	12	10	5	0	5	1	5	2	5	3	5	4	
5	7	2	1	5	0	5	0	5	1	5	2	5	5	5	4	
3	0	5	12	5	0	5	1	5	2	5	5	5	4	
2	5	1	5	0	5	1	5	5	5	3	5	4	
4	0	5	1	2	5	0	5	1	5	2	5	3	5	4	
6	4	1	5	0	6	9	5	0	5	1	5	2	5	5	5	4	
5	14	7	2	1	4	1	0	1	1	1	2	1	3	1	4	
2	1	4	1	0	1	1	1	5	1	3	1	4	
3	1	2	7	1	0	1	1	1	2	1	1	1	0	
6	13	6	0	5	1	2	5	0	5	1	5	2	5	3	5	4	
3	4	1	5	5	0	5	1	5	2	5	5	5	4	
4	2	1	5	0	5	0	5	1	5	2	5	5	5	4	
3	12	5	0	5	0	5	1	5	5	5	3	5	4	
4	1	5	12	10	5	0	5	1	5	2	5	5	5	4	
6	13	6	0	5	12	10	5	0	5	1	5	2	5	5	5	4	
2	12	5	5	0	5	1	5	2	5	5	5	4	
2	13	6	6	0	6	1	6	2	6	1	6	0	
4	0	5	12	10	5	0	5	1	5	2	5	3	5	4	
7	11	8	7	2	1	5	3	5	0	5	1	5	2	5	3	5	4	
6	11	8	7	2	1	4	1	0	1	1	1	2	1	3	1	4	
4	1	5	12	10	5	0	5	1	5	2	5	3	5	4	
6	9	6	0	5	1	2	5	0	5	1	5	5	5	3	5	4	
4	7	2	1	5	5	0	5	1	5	5	5	3	5	4	
4	8	7	2	1	1	0	1	1	1	2	1	3	1	4	
4	2	1	5	3	5	0	5	1	5	2	5	1	5	0	
3	3	5	0	5	0	5	1	5	5	5	3	5	4	
3	3	5	12	5	0	5	1	5	2	5	5	5	4	
6	6	0	5	1	2	7	5	0	5	1	5	2	5	3	5	4	
4	6	0	5	12	5	0	5	1	5	5	5	3	5	4	
2	12	10	12	0	12	1	12	2	12	3	12	4	
6	2	1	5	0	6	13	5	0	5	1	5	2	5	5	5	4	
7	12	5	1	2	7	8	11	5	0	5	1	5	5	5	3	5	4	
6	5	1	2	7	8	11	5	0	5	1	5	5	5	3	5	4	
9	9	6	0	5	1	2	7	8	11	5	0	5	1	5	5	5	3	5	4	
3	14	7	2	2	0	2	1	2	5	2	3	2	4	
2	7	8	7	0	7	1	7	5	7	3	7	4	
4	2	1	5	3	5	0	5	1	5	5	5	3	5	4	
7	10	12	5	1	2	7	14	5	0	5	1	5	5	5	3	5	4	
3	0	6	9	0	0	0	1	0	2	0	1	0	0	
6	10	12	5	1	2	7	5	0	5	1	5	2	5	5	5	4	
6	4	1	2	7	8	11	1	0	1	1	1	2	1	1	1	0	
3	1	2	7	1	0	1	1	1	2	1	5	1	4	
2	1	4	1	0	1	1	1	2	1	3	1	4	
3	12	5	3	5	0	5	1	5	2	5	1	5	0	
3	5	1	4	5	0	5	1	5	2	5	5	5	4	
4	5	0	6	9	5	0	5	1	5	2	5	3	5	4	
6	4	1	2	7	8	11	1	0	1	1	1	2	1	5	1	4	
3	2	1	5	5	0	5	1	5	2	5	5	5	4	
5	13	6	0	5	1	5	0	5	1	5	2	5	3	5	4	
3	0	5	3	5	0	5	1	5	2	5	3	5	4	
3	3	5	12	5	0	5	1	5	5	5	3	5	4	
4	6	0	5	12	5	0	5	1	5	2	5	1	5	0	
5	3	5	1	2	7	5	0	5	1	5	2	5	3	5	4	
5	6	0	5	1	2	5	0	5	1	5	2	5	5	5	4	
7	7	2	1	5	0	6	13	5	0	5	1	5	2	5	1	5	0	
8	8	7	2	1	5	0	6	13	5	0	5	1	5	2	5	5	5	4	
7	14	7	2	1	5	12	10	5	0	5	1	5	2	5	5	5	4	
4	1	5	0	6	5	0	5	1	5	2	5	1	5	0	
4	9	6	0	5	5	0	5	1	5	2	5	3	5	4	
2	5	1	5	0	5	1	5	2	5	1	5	0	
6	13	6	0	5	1	4	5	0	5	1	5	2	5	3	5	4	
3	3	5	0	5	0	5	1	5	2	5	5	5	4	
5	1	5	0	6	9	5	0	5	1	5	5	5	3	5	4	
3	13	6	9	6	0	6	1	6	2	6	5	6	4	
3	8	7	2	2	0	2	1	2	5	2	3	2	4	
5	4	1	2	7	14	1	0	1	1	1	2	1	3	1	4	
7	10	12	5	1	2	7	14	5	0	5	1	5	2	5	1	5	0	
5	13	6	0	5	12	5	0	5	1	5	5	5	3	5	4	
5	0	5	1	2	7	5	0	5	1	5	2	5	5	5	4	
7	11	8	7	2	1	5	3	5	0	5	1	5	2	5	5	5	4	
3	4	1	2	1	0	1	1	1	2	1	5	1	4	
5	9	6	0	5	3	5	0	5	1	5	2	5	1	5	0	
5	12	5	0	6	13	5	0	5	1	5	2	5	1	5	0	
3	13	6	9	6	0	6	1	6	5	6	3	6	4	
4	0	5	12	10	5	0	5	1	5	2	5	1	5	0	
4	2	1	5	0	5	0	5	1	5	2	5	1	5	0	
5	10	12	5	1	4	5	0	5	1	5	2	5	3	5	4	
5	12	5	1	2	7	5	0	5	1	5	5	5	3	5	4	
6	8	7	2	1	5	12	5	0	5	1	5	2	5	5	5	4	
3	8	7	2	2	0	2	1	2	2	2	3	2	4	
6	7	2	1	5	0	6	5	0	5	1	5	2	5	5	5	4	
4	12	5	1	2	5	0	5	1	5	2	5	5	5	4	
3	2	1	5	5	0	5	1	5	2	5	3	5	4	
4	1	2	7	14	1	0	1	1	1	5	1	3	1	4	
6	14	7	2	1	5	3	5	0	5	1	5	5	5	3	5	4	
6	14	7	2	1	5	3	5	0	5	1	5	2	5	5	5	4	
3	10	12	5	5	0	5	1	5	2	5	1	5	0	
6	9	6	0	5	12	10	5	0	5	1	5	2	5	5	5	4	
2	5	3	5	0	5	1	5	2	5	5	5	4	
4	3	5	12	10	5	0	5	1	5	2	5	1	5	0	
5	5	1	2	7	14	5	0	5	1	5	2	5	3	5	4	
6	2	1	5	0	6	13	5	0	5	1	5	2	5	1	5	0	
7	8	7	2	1	5	12	10	5	0	5	1	5	2	5	3	5	4	
3	12	5	0	5	0	5	1	5	2	5	1	5	0	
3	7	2	1	1	0	1	1	1	2	1	3	1	4	
6	10	12	5	0	6	9	5	0	5	1	5	5	5	3	5	4	
6	9	6	0	5	12	10	5	0	5	1	5	2	5	3	5	4	
9	11	8	7	2	1	5	0	6	13	5	0	5	1	5	2	5	3	5	4	
2	1	2	1	0	1	1	1	5	1	3	1	4	
3	2	7	8	2	0	2	1	2	5	2	3	2	4	
7	14	7	2	1	5	0	6	5	0	5	1	5	2	5	5	5	4	
7	3	5	1	2	7	8	11	5	0	5	1	5	2	5	3	5	4	
7	0	5	1	2	7	8	11	5	0	5	1	5	2	5	5	5	4	
3	14	7	8	7	0	7	1	7	2	7	3	7	4	
3	6	0	5	5	0	5	1	5	2	5	5	5	4	
3	13	6	0	0	0	0	1	0	5	0	3	0	4	
3	2	7	14	2	0	2	1	2	2	2	3	2	4	
3	5	1	2	5	0	5	1	5	2	5	1	5	0	
7	14	7	2	1	5	12	10	5	0	5	1	5	5	5	3	5	4	
5	8	7	2	1	5	5	0	5	1	5	2	5	5	5	4	
6	9	6	0	5	1	2	5	0	5	1	5	2	5	3	5	4	
5	3	5	0	6	9	5	0	5	1	5	2	5	3	5	4	
5	1	2	7	8	11	1	0	1	1	1	2	1	5	1	4	
9	13	6	0	5	1	2	7	8	11	5	0	5	1	5	2	5	5	5	4	
3	13	6	9	6	0	6	1	6	2	6	1	6	0	
6	8	7	2	1	5	0	5	0	5	1	5	2	5	5	5	4	
4	0	5	1	4	5	0	5	1	5	2	5	1	5	0	
3	0	6	13	0	0	0	1	0	2	0	3	0	4	
5	5	1	2	7	14	5	0	5	1	5	2	5	1	5	0	
