2946.72	2146.62
529
14504.6	10662.8
10
0	2264	2298
1	1737	1836
2	1629	1764
3	2298	2670
4	1947	2869
5	3781	3862
6	0	-1
7	0	-1
8	0	-1
9	3990	4045
34
0	1	66.571588	167.721541	1.000000
0	2	44.418026	172.606644	1.000000
0	5	121.970642	190.519007	1.000000
1	0	66.537402	167.721541	1.000000
1	2	11.099572	187.261952	1.000000
1	3	43.926766	184.004896	1.000000
1	4	22.129186	187.261952	1.000000
2	0	44.217164	172.606644	1.000000
2	1	11.186086	187.261952	1.000000
2	3	32.507396	172.606644	1.000000
2	4	11.276678	166.093493	1.000000
3	1	44.200572	184.004896	1.000000
3	2	33.878758	172.606644	1.000000
3	4	11.041938	161.208391	1.000000
3	9	99.127092	148.181130	1.000000
4	1	22.468118	187.261952	1.000000
4	2	11.091458	166.093493	1.000000
4	3	11.266978	161.208391	1.000000
4	5	55.678424	149.809177	1.000000
5	0	122.315628	190.519007	1.000000
5	4	55.576782	149.809177	1.000000
5	6	156.877304	157.951335	1.000000
5	9	53.795276	179.119794	1.000000
6	5	157.351788	157.951335	1.000000
6	7	66.608684	177.491746	1.000000
6	8	56.755924	184.004896	1.000000
7	6	66.847556	177.491746	1.000000
7	8	33.062130	172.606644	1.000000
8	6	58.039636	184.004896	1.000000
8	7	33.132806	172.606644	1.000000
8	9	142.302280	146.553082	1.000000
9	3	100.220512	148.181130	1.000000
9	5	54.322402	179.119794	1.000000
9	8	142.581814	146.553082	1.000000
360
3	3	1	0	3	0	3	1	3	5	3	3	0	4	
2	8	9	9	0	9	1	9	2	9	3	9	4	
2	8	9	9	0	9	1	9	2	9	1	9	0	
2	9	8	9	0	9	1	9	5	9	3	9	4	
4	2	3	9	8	2	0	2	1	3	2	9	5	9	4	
3	5	0	2	5	0	5	1	5	2	0	1	0	0	
2	0	2	0	0	0	1	0	2	2	1	2	0	
4	8	6	5	0	5	0	5	1	5	2	5	5	0	4	
5	1	0	5	6	7	1	0	1	1	1	2	1	5	5	4	
4	8	9	8	6	9	0	9	1	9	2	9	5	9	4	
4	3	9	8	7	3	0	3	1	3	2	3	3	3	4	
2	1	2	1	0	1	1	1	2	1	3	1	4	
5	7	6	5	0	1	0	0	0	1	0	5	0	3	1	4	
3	2	0	5	2	0	2	1	2	5	2	3	2	4	
3	9	8	6	9	0	9	1	9	5	9	3	9	4	
2	4	1	1	0	1	1	1	2	1	1	1	0	
2	5	0	0	0	0	1	0	2	0	3	0	4	
3	0	1	4	0	0	0	1	0	2	0	5	4	4	
4	7	6	5	6	5	0	5	1	5	2	5	5	5	4	
2	0	1	1	0	1	1	1	2	1	3	1	4	
2	3	9	3	0	3	1	3	2	3	1	3	0	
2	1	0	1	0	1	1	1	5	1	3	1	4	
3	7	6	5	5	0	5	1	5	2	5	3	5	4	
4	0	5	9	8	9	0	9	1	9	2	9	5	9	4	
2	3	4	3	0	3	1	3	2	3	1	3	0	
2	4	3	3	0	3	1	3	2	3	3	3	4	
2	2	4	2	0	2	1	2	2	2	3	4	4	
4	6	5	0	1	0	0	0	1	0	2	0	5	1	4	
3	5	6	7	5	0	5	1	5	5	5	3	5	4	
3	5	0	1	0	0	0	1	0	5	0	3	0	4	
3	0	1	3	3	0	3	1	3	5	3	3	3	4	
4	6	5	0	2	5	0	2	1	2	2	2	3	2	4	
4	4	5	9	8	9	0	9	1	9	5	9	3	9	4	
4	3	9	8	6	3	0	9	1	9	2	9	3	9	4	
2	9	3	3	0	3	1	3	2	3	1	3	0	
3	7	8	9	9	0	9	1	9	5	9	3	9	4	
2	4	2	4	0	4	1	4	5	4	3	4	4	
5	2	0	5	6	7	2	0	2	1	2	2	2	1	5	0	
3	6	5	0	0	0	0	1	0	2	0	1	0	0	
5	7	6	5	0	1	5	0	5	1	5	2	5	5	1	4	
2	9	8	9	0	9	1	9	2	9	3	9	4	
3	5	0	2	0	0	0	1	0	2	0	5	2	4	
2	0	2	0	0	0	1	0	2	0	3	0	4	
4	8	6	5	0	5	0	0	1	0	2	0	1	0	0	
5	1	0	5	6	7	1	0	1	1	1	2	1	1	5	0	
4	7	6	5	4	4	0	4	1	4	2	4	3	4	4	
2	3	1	3	0	3	1	3	5	3	3	3	4	
4	3	9	8	7	9	0	9	1	9	5	9	3	9	4	
2	1	2	2	0	2	1	2	2	2	1	2	0	
3	2	0	5	2	0	2	1	2	2	2	3	5	4	
2	4	1	4	0	4	1	4	2	4	5	4	4	
2	5	0	0	0	0	1	0	2	0	1	0	0	
3	0	1	4	0	0	0	1	0	2	0	1	0	0	
4	6	8	9	3	9	0	9	1	9	2	9	3	9	4	
4	6	8	9	8	9	0	9	1	9	2	9	5	9	4	
4	7	6	5	6	5	0	5	1	5	5	5	3	5	4	
3	9	8	7	9	0	9	1	9	5	9	3	9	4	
2	0	1	0	0	0	1	0	2	0	1	0	0	
2	3	9	3	0	3	1	3	2	3	3	3	4	
2	1	0	0	0	0	1	0	2	0	3	0	4	
4	0	5	6	8	0	0	0	1	0	2	0	1	0	0	
2	3	4	3	0	3	1	3	2	3	5	4	4	
2	4	3	3	0	3	1	3	2	3	1	3	0	
2	2	4	2	0	2	1	2	5	2	3	2	4	
4	6	5	0	1	0	0	0	1	0	5	0	3	0	4	
4	8	6	5	4	5	0	5	1	5	5	5	3	5	4	
3	5	6	7	5	0	5	1	5	2	5	5	5	4	
3	5	0	1	0	0	0	1	0	2	0	5	1	4	
3	0	1	3	0	0	0	1	0	2	0	3	3	4	
4	4	5	6	8	5	0	5	1	5	2	5	5	5	4	
3	9	5	0	0	0	0	1	0	2	0	5	0	4	
4	7	8	9	8	9	0	9	1	9	5	9	3	9	4	
2	2	1	2	0	2	1	2	2	2	5	1	4	
4	3	9	8	6	3	0	9	1	9	2	9	1	9	0	
2	9	3	3	0	3	1	3	2	3	3	3	4	
2	4	2	4	0	4	1	4	2	4	5	4	4	
5	2	0	5	6	7	5	0	5	1	5	2	5	5	5	4	
3	6	5	0	5	0	5	1	5	2	5	3	5	4	
3	8	9	3	3	0	3	1	3	2	3	5	3	4	
2	1	4	1	0	1	1	1	2	4	5	4	4	
5	7	6	5	0	1	5	0	5	1	5	2	5	1	1	0	
2	9	8	9	0	9	1	9	2	9	1	9	0	
3	5	0	2	0	0	2	1	2	5	2	3	2	4	
2	0	2	2	0	2	1	2	5	2	3	2	4	
3	3	9	8	9	0	9	1	9	2	9	3	9	4	
4	8	6	5	0	5	0	0	1	0	2	0	3	0	4	
5	1	0	5	6	7	1	0	1	1	1	2	1	3	5	4	
4	7	6	5	4	5	0	5	1	5	2	5	1	5	0	
3	9	3	1	9	0	9	1	9	2	9	1	9	0	
2	2	0	2	0	2	1	2	2	2	1	2	0	
2	3	1	3	0	3	1	3	2	3	5	3	4	
4	1	3	9	8	9	0	9	1	9	2	9	5	9	4	
4	3	9	8	7	9	0	9	1	9	2	9	5	9	4	
2	1	2	2	0	2	1	2	2	2	5	2	4	
3	2	0	5	5	0	5	1	5	2	5	1	5	0	
4	0	5	6	7	5	0	5	1	5	2	5	5	5	4	
2	4	1	1	0	1	1	1	5	1	3	1	4	
3	0	1	4	1	0	1	1	1	2	1	3	1	4	
4	6	8	9	3	9	0	3	1	3	2	3	1	3	0	
4	8	9	3	2	3	0	3	1	3	2	3	1	3	0	
3	1	0	5	0	0	0	1	0	2	0	1	0	0	
4	7	6	5	6	5	0	5	1	5	2	5	3	5	4	
3	9	8	7	9	0	9	1	9	2	9	5	9	4	
2	0	1	0	0	0	1	0	2	0	5	1	4	
2	1	0	0	0	0	1	0	2	0	1	0	0	
3	9	3	2	3	0	3	1	3	2	3	3	3	4	
2	2	3	2	0	2	1	2	2	2	3	3	4	
4	0	5	6	8	0	0	0	1	0	2	0	3	0	4	
3	1	3	9	1	0	1	1	1	2	1	1	1	0	
2	3	4	4	0	4	1	4	5	4	3	4	4	
2	2	4	4	0	4	1	4	2	4	5	4	4	
3	0	5	6	5	0	5	1	5	2	5	1	5	0	
4	6	5	0	1	5	0	5	1	5	2	5	3	1	4	
4	8	6	5	4	5	0	5	1	5	2	5	5	5	4	
2	8	9	9	0	9	1	9	5	9	3	9	4	
3	5	6	7	5	0	5	1	5	2	5	1	5	0	
3	0	1	3	0	0	0	1	0	2	0	1	0	0	
4	8	9	3	1	1	0	1	1	1	2	1	3	1	4	
4	1	0	5	6	0	0	0	1	0	2	0	3	0	4	
4	4	5	6	8	5	0	5	1	5	2	5	1	5	0	
3	9	5	0	0	0	0	1	0	5	0	3	0	4	
2	2	1	2	0	2	1	2	5	2	3	2	4	
5	7	6	5	0	2	0	0	2	1	2	2	2	5	2	4	
5	2	0	5	6	7	2	0	2	1	2	5	2	3	0	4	
3	8	6	5	5	0	5	1	5	5	5	3	5	4	
2	0	5	0	0	0	1	0	2	0	3	0	4	
3	6	5	0	0	0	0	1	0	5	0	3	0	4	
3	8	9	3	9	0	9	1	9	5	9	3	9	4	
2	1	4	1	0	1	1	1	5	1	3	1	4	
5	7	6	5	0	1	5	0	5	1	5	2	5	3	1	4	
2	0	2	2	0	2	1	2	2	2	5	2	4	
3	3	9	8	9	0	9	1	9	2	9	1	9	0	
4	7	6	5	4	5	0	5	1	5	2	5	5	4	4	
3	9	3	1	1	0	1	1	1	2	1	3	1	4	
2	2	0	0	0	0	1	0	2	0	3	0	4	
4	6	5	9	8	9	0	9	1	9	5	9	3	9	4	
3	0	5	9	0	0	0	1	0	2	0	3	0	4	
2	3	1	1	0	1	1	1	2	1	1	1	0	
2	6	5	5	0	5	1	5	2	5	5	5	4	
4	1	3	9	8	9	0	9	1	9	5	9	3	9	4	
2	1	2	1	0	1	1	1	5	1	3	1	4	
3	5	9	3	9	0	9	1	9	5	9	3	9	4	
4	0	5	6	7	0	0	0	1	0	5	0	3	0	4	
4	7	8	9	3	9	0	9	1	9	2	9	1	9	0	
4	8	9	3	1	9	0	9	1	9	5	9	3	9	4	
3	6	8	9	9	0	9	1	9	2	9	5	9	4	
4	6	8	9	3	9	0	3	1	3	2	3	5	3	4	
4	8	9	3	2	9	0	9	1	9	2	9	3	9	4	
3	1	0	5	0	0	0	1	0	2	0	3	0	4	
4	7	6	5	6	5	0	5	1	5	2	5	1	5	0	
3	9	8	7	9	0	9	1	9	2	9	1	9	0	
3	5	6	8	5	0	5	1	5	2	5	5	5	4	
2	0	1	1	0	1	1	1	5	1	3	1	4	
3	4	1	0	4	0	4	1	4	5	4	3	0	4	
3	9	3	2	2	0	2	1	2	2	2	1	2	0	
2	2	3	2	0	2	1	2	2	2	1	2	0	
3	6	5	4	4	0	4	1	4	2	4	1	4	0	
3	1	3	9	1	0	1	1	1	2	1	3	1	4	
2	5	4	4	0	4	1	4	2	4	5	4	4	
3	0	5	6	0	0	0	1	0	2	0	3	0	4	
4	6	5	0	1	0	0	1	1	1	2	1	1	1	0	
4	8	6	5	4	5	0	4	1	4	2	4	1	4	0	
4	7	6	5	0	0	0	0	1	0	2	0	3	0	4	
3	5	6	7	5	0	5	1	5	2	5	3	5	4	
3	3	9	5	3	0	5	1	5	5	5	3	5	4	
3	7	8	9	9	0	9	1	9	2	9	5	9	4	
4	1	0	5	6	1	0	1	1	1	2	1	1	5	0	
4	4	5	9	8	9	0	9	1	9	2	9	3	9	4	
3	9	5	0	0	0	0	1	0	2	0	3	0	4	
2	2	1	1	0	1	1	1	2	1	3	1	4	
2	5	9	5	0	5	1	5	2	5	1	5	0	
4	4	5	6	7	5	0	5	1	5	2	5	5	5	4	
2	5	0	0	0	0	1	0	5	0	3	0	4	
4	6	5	6	7	5	0	5	1	5	2	5	3	5	4	
5	7	6	5	0	2	0	0	2	1	2	5	2	3	2	4	
2	0	5	0	0	0	1	0	2	0	1	0	0	
3	6	5	0	0	0	0	1	0	2	0	5	0	4	
3	8	9	3	3	0	3	1	3	2	3	3	3	4	
2	1	4	1	0	1	1	1	2	1	3	1	4	
2	3	2	2	0	2	1	2	2	2	5	2	4	
3	3	9	8	3	0	3	1	3	2	3	5	9	4	
4	2	0	5	6	2	0	2	1	2	5	2	3	0	4	
4	7	6	5	4	4	0	4	1	4	5	4	3	4	4	
3	9	3	1	1	0	1	1	1	5	1	3	1	4	
2	2	0	0	0	0	1	0	5	0	3	0	4	
3	0	5	9	5	0	5	1	5	2	5	1	5	0	
2	3	1	1	0	1	1	1	2	1	3	1	4	
2	6	5	5	0	5	1	5	5	5	3	5	4	
4	1	3	9	8	1	0	1	1	1	2	1	3	1	4	
3	4	5	6	4	0	4	1	4	2	4	1	4	0	
3	5	9	3	5	0	3	1	3	2	3	5	3	4	
4	0	5	6	7	0	0	0	1	5	2	5	3	5	4	
4	7	8	9	3	3	0	3	1	3	2	3	3	3	4	
3	9	5	4	9	0	4	1	4	2	4	5	4	4	
2	5	6	5	0	5	1	5	2	5	3	5	4	
3	6	8	9	9	0	9	1	9	5	9	3	9	4	
2	1	3	1	0	1	1	1	5	1	3	1	4	
4	6	8	9	3	9	0	9	1	9	5	3	3	3	4	
4	8	9	3	2	2	0	2	1	2	5	2	3	2	4	
3	1	0	5	1	0	1	1	1	5	1	3	1	4	
3	4	5	9	5	0	5	1	5	2	5	3	5	4	
3	9	8	7	9	0	9	1	9	2	9	3	9	4	
3	5	6	8	5	0	5	1	5	5	5	3	5	4	
2	8	9	9	0	9	1	9	2	9	5	9	4	
3	4	1	0	1	0	1	1	1	2	1	5	0	4	
3	2	3	9	2	0	2	1	2	2	3	5	9	4	
3	9	3	2	2	0	2	1	2	2	2	5	2	4	
2	2	3	3	0	3	1	3	2	3	5	3	4	
3	6	5	4	5	0	5	1	5	2	5	3	5	4	
4	8	9	8	7	9	0	9	1	9	2	9	5	9	4	
3	1	3	9	1	0	1	1	1	5	1	3	1	4	
2	4	5	5	0	5	1	5	2	5	3	5	4	
2	5	4	5	0	5	1	5	5	5	3	5	4	
3	0	5	6	0	0	0	1	0	5	0	3	0	4	
4	8	6	5	4	5	0	5	1	5	2	5	3	5	4	
4	7	6	5	0	0	0	0	1	0	2	0	1	0	0	
2	9	5	5	0	5	1	5	2	5	1	5	0	
4	6	8	9	8	9	0	9	1	9	2	9	3	9	4	
3	7	8	9	9	0	9	1	9	2	9	1	9	0	
4	1	0	5	6	1	0	1	1	1	2	1	5	0	4	
3	9	5	0	5	0	5	1	5	2	5	1	5	0	
3	7	6	5	5	0	5	1	5	2	5	1	5	0	
2	2	1	1	0	1	1	1	2	1	1	1	0	
2	5	9	5	0	5	1	5	2	5	3	5	4	
3	3	1	0	3	0	3	1	3	2	3	3	0	4	
4	4	5	6	7	4	0	4	1	4	5	4	3	4	4	
4	2	3	9	8	2	0	2	1	2	2	2	1	2	0	
4	6	5	6	7	5	0	5	1	5	2	5	1	5	0	
4	8	9	8	6	9	0	9	1	9	2	9	1	9	0	
5	7	6	5	0	2	0	0	2	1	2	2	2	3	2	4	
3	3	9	5	3	0	5	1	5	2	5	5	5	4	
2	0	5	0	0	0	1	0	2	0	5	5	4	
3	8	9	3	3	0	3	1	3	2	3	1	3	0	
2	1	4	4	0	4	1	4	2	4	1	4	0	
3	9	8	6	9	0	9	1	9	2	9	3	9	4	
2	3	2	2	0	2	1	2	5	2	3	2	4	
3	3	9	8	3	0	3	1	3	5	3	3	3	4	
4	8	9	3	1	1	0	1	1	1	2	1	5	1	4	
4	2	0	5	6	2	0	2	1	2	2	2	5	5	4	
3	9	3	1	9	0	9	1	9	2	9	5	9	4	
2	2	0	0	0	0	1	0	2	0	5	0	4	
3	0	5	9	5	0	5	1	5	2	5	5	5	4	
2	6	5	5	0	5	1	5	2	5	3	5	4	
4	1	3	9	8	3	0	3	1	3	2	3	1	3	0	
3	4	5	6	4	0	4	1	4	2	4	3	4	4	
3	5	9	3	5	0	3	1	3	2	3	1	3	0	
4	0	5	6	7	5	0	5	1	5	2	5	1	5	0	
3	8	6	5	5	0	5	1	5	2	5	3	5	4	
4	7	8	9	3	3	0	3	1	3	5	3	3	3	4	
3	9	5	4	4	0	4	1	4	5	4	3	4	4	
2	5	6	5	0	5	1	5	2	5	1	5	0	
2	4	3	4	0	4	1	4	5	3	3	3	4	
3	6	8	9	9	0	9	1	9	2	9	3	9	4	
2	1	3	3	0	3	1	3	2	3	5	3	4	
4	8	9	3	2	2	0	2	1	2	2	2	5	2	4	
3	1	0	5	1	0	1	1	1	2	1	5	5	4	
3	4	5	9	9	0	9	1	9	2	9	1	9	0	
3	5	6	8	5	0	5	1	5	2	5	3	5	4	
3	4	1	0	1	0	1	1	1	2	1	1	1	0	
3	2	3	9	9	0	9	1	9	5	9	3	9	4	
3	9	3	2	9	0	9	1	9	5	9	3	9	4	
2	2	3	3	0	3	1	3	5	3	3	3	4	
4	6	5	0	2	5	0	5	1	5	5	5	3	5	4	
3	6	5	4	5	0	5	1	5	5	5	3	5	4	
4	8	9	8	7	9	0	9	1	9	5	9	3	9	4	
3	1	3	9	1	0	1	1	1	2	1	5	9	4	
2	4	5	5	0	5	1	5	2	5	1	5	0	
2	5	4	5	0	5	1	5	2	5	3	5	4	
3	0	5	6	0	0	0	1	0	2	5	5	5	4	
4	7	6	5	0	0	0	0	1	0	2	0	5	0	4	
2	9	5	9	0	9	1	9	2	9	3	9	4	
3	3	9	5	3	0	5	1	5	2	5	1	5	0	
3	7	8	9	9	0	9	1	9	2	9	3	9	4	
4	1	0	5	6	1	0	1	1	1	5	1	3	0	4	
2	5	9	9	0	9	1	9	5	9	3	9	4	
3	3	1	0	3	0	3	1	3	2	3	1	0	0	
4	4	5	6	7	4	0	4	1	4	2	4	3	4	4	
4	2	3	9	8	3	0	3	1	3	2	3	3	3	4	
4	6	5	6	7	5	0	5	1	5	2	5	5	5	4	
4	8	9	8	6	9	0	9	1	9	2	9	3	9	4	
5	7	6	5	0	2	0	0	2	1	2	2	2	1	2	0	
2	0	5	0	0	0	1	0	5	0	3	0	4	
3	9	8	6	9	0	9	1	9	2	9	1	9	0	
2	3	2	3	0	3	1	3	2	3	3	3	4	
4	2	0	5	6	2	0	2	1	2	2	2	1	2	0	
2	5	0	0	0	0	1	0	2	0	5	0	4	
3	0	5	9	9	0	9	1	9	5	9	3	9	4	
2	6	5	5	0	5	1	5	2	5	1	5	0	
3	4	5	6	4	0	4	1	4	5	4	3	4	4	
3	5	9	3	5	0	3	1	3	2	3	3	3	4	
2	3	9	3	0	3	1	3	5	3	3	3	4	
3	8	9	5	9	0	9	1	9	2	9	1	9	0	
4	7	8	9	3	3	0	3	1	3	2	3	5	3	4	
3	9	5	4	4	0	4	1	4	2	4	3	4	4	
2	5	6	5	0	5	1	5	2	5	5	5	4	
3	6	8	9	9	0	9	1	9	2	9	1	9	0	
2	1	3	1	0	1	1	1	2	1	1	1	0	
4	7	8	9	8	9	0	9	1	9	2	9	3	9	4	
3	4	5	9	4	0	4	1	4	2	4	5	9	4	
3	5	6	8	5	0	5	1	5	2	5	1	5	0	
3	4	1	0	4	0	4	1	4	2	4	3	0	4	
3	2	3	9	2	0	2	1	2	2	2	3	2	4	
3	5	0	1	1	0	1	1	1	2	1	1	1	0	
4	6	5	0	2	2	0	2	1	2	2	2	5	2	4	
3	6	5	4	4	0	4	1	4	2	4	5	4	4	
4	8	9	8	7	9	0	9	1	9	2	9	3	9	4	
3	7	6	5	5	0	5	1	5	2	5	5	5	4	
2	4	5	4	0	4	1	4	2	4	5	4	4	
2	5	4	5	0	5	1	5	2	5	1	5	0	
4	3	9	8	6	9	0	9	1	9	2	9	5	9	4	
3	7	6	5	5	0	5	1	5	5	5	3	5	4	
2	9	3	3	0	3	1	3	5	3	3	3	4	
4	7	6	5	0	0	0	0	1	0	5	0	3	0	4	
2	9	5	9	0	9	1	9	5	9	3	9	4	
3	3	9	5	3	0	9	1	9	2	9	3	9	4	
4	6	8	9	8	9	0	9	1	9	2	9	1	9	0	
2	4	2	2	0	2	1	2	2	2	1	2	0	
2	5	9	9	0	9	1	9	2	9	5	9	4	
3	3	1	0	1	0	1	1	1	2	1	5	1	4	
4	4	5	6	7	5	0	5	1	5	2	5	1	5	0	
2	9	8	9	0	9	1	9	2	9	5	9	4	
4	2	3	9	8	3	0	3	1	3	5	3	3	3	4	
3	5	0	2	0	0	0	1	0	2	0	3	0	4	
4	8	9	5	0	0	0	0	1	0	5	0	3	0	4	
4	8	9	3	1	1	0	1	1	1	2	1	1	1	0	
5	1	0	5	6	7	1	0	1	1	1	5	1	3	5	4	
4	6	5	6	7	5	0	5	1	5	5	5	3	5	4	
4	8	9	8	6	9	0	9	1	9	5	9	3	9	4	
4	3	9	8	7	3	0	3	1	3	2	3	1	3	0	
3	2	0	5	2	0	2	1	2	2	0	5	5	4	
3	9	8	6	9	0	9	1	9	2	9	5	9	4	
2	3	2	3	0	3	1	3	2	3	1	3	0	
2	4	1	1	0	1	1	1	2	1	3	1	4	
4	2	0	5	6	2	0	2	1	2	2	2	3	2	4	
2	4	3	3	0	3	1	3	2	3	5	3	4	
3	0	1	4	1	0	1	1	1	5	1	3	1	4	
3	4	5	6	4	0	4	1	4	2	4	5	4	4	
2	3	9	3	0	3	1	3	2	3	5	9	4	
2	1	0	1	0	1	1	1	2	1	5	1	4	
3	8	9	5	9	0	9	1	9	2	9	5	5	4	
3	9	5	4	9	0	4	1	4	2	4	1	4	0	
4	0	5	6	8	0	0	0	1	0	5	0	3	0	4	
2	5	6	5	0	5	1	5	5	5	3	5	4	
2	3	4	3	0	3	1	3	2	3	3	3	4	
2	1	3	1	0	1	1	1	2	1	3	3	4	
4	7	8	9	8	9	0	9	1	9	2	9	1	9	0	
2	2	4	2	0	2	1	2	2	2	1	2	0	
3	4	5	9	4	0	9	1	9	5	9	3	9	4	
3	2	3	9	2	0	2	1	2	2	2	1	2	0	
3	5	0	1	0	0	0	1	0	2	0	3	0	4	
3	0	1	3	0	0	0	1	0	2	0	5	3	4	
4	6	5	0	2	5	0	2	1	2	2	2	1	2	0	
4	8	9	8	7	9	0	9	1	9	2	9	1	9	0	
2	4	5	4	0	4	1	4	5	4	3	4	4	
4	7	8	9	8	9	0	9	1	9	2	9	5	9	4	
4	3	9	8	6	3	0	3	1	9	5	9	3	9	4	
2	9	3	3	0	3	1	3	2	3	5	3	4	
2	9	5	9	0	9	1	9	2	9	5	9	4	
2	4	2	2	0	2	1	2	2	2	3	2	4	
5	2	0	5	6	7	2	0	2	1	2	2	2	3	5	4	
