2450.86	2150.75
853
26625.8	18740.8
10
0	0	-1
1	0	-1
2	0	-1
3	0	-1
4	0	-1
5	17646	18361
6	0	-1
7	0	-1
8	0	-1
9	0	-1
34
0	1	53.408272	223.416745	1.000000
0	2	100.487814	229.923362	1.000000
0	5	253.624268	253.783410	1.000000
1	0	54.661448	223.416745	1.000000
1	2	0.000000	249.445666	0.000000
1	3	0.000000	245.107103	0.000000
1	4	44.717948	249.445666	1.000000
2	0	99.187324	229.923362	1.000000
2	1	0.000000	249.445666	0.000000
2	3	0.000000	229.923362	0.000000
2	4	0.000000	221.247055	0.000000
3	1	0.000000	245.107103	0.000000
3	2	0.000000	229.923362	0.000000
3	4	52.779948	214.740438	1.000000
3	9	47.541838	197.387006	1.000000
4	1	46.704562	249.445666	1.000000
4	2	0.000000	221.247055	0.000000
4	3	50.340420	214.740438	1.000000
4	5	198.002874	199.556696	1.000000
5	0	253.781520	253.783410	1.000000
5	4	197.069566	199.556696	1.000000
5	6	210.401792	210.401876	1.000000
5	9	237.838698	238.600487	1.000000
6	5	209.642292	210.401876	1.000000
6	7	99.741490	236.430796	1.000000
6	8	10.153392	245.107103	1.000000
7	6	99.909686	236.430796	1.000000
7	8	0.000000	229.923362	0.000000
8	6	10.273796	245.107103	1.000000
8	7	0.000000	229.923362	0.000000
8	9	90.011776	195.218134	1.000000
9	3	49.654658	197.387006	1.000000
9	5	238.580408	238.600487	1.000000
9	8	89.057326	195.218134	1.000000
360
4	3	9	5	0	5	0	5	1	5	5	5	3	5	4	
4	8	9	5	9	5	0	5	1	5	2	5	3	5	4	
4	8	9	5	9	5	0	5	1	5	2	5	1	5	0	
4	9	5	6	8	5	0	5	1	5	5	5	3	5	4	
5	2	0	5	9	8	5	0	5	1	5	2	5	5	5	4	
3	5	0	2	5	0	5	1	5	2	5	1	5	0	
4	0	5	0	2	5	0	5	1	5	2	5	1	5	0	
4	8	9	5	0	5	0	5	1	5	2	5	5	5	4	
5	1	0	5	6	7	5	0	5	1	5	2	5	5	5	4	
4	8	9	5	6	5	0	5	1	5	2	5	5	5	4	
5	3	9	5	6	7	5	0	5	1	5	2	5	3	5	4	
5	1	0	5	0	2	5	0	5	1	5	2	5	3	5	4	
5	7	6	5	4	1	5	0	5	1	5	5	5	3	5	4	
3	2	0	5	5	0	5	1	5	5	5	3	5	4	
3	9	5	6	5	0	5	1	5	5	5	3	5	4	
4	4	5	4	1	5	0	5	1	5	2	5	1	5	0	
2	5	0	5	0	5	1	5	2	5	3	5	4	
3	0	5	4	5	0	5	1	5	2	5	5	5	4	
4	7	6	5	6	5	0	5	1	5	2	5	5	5	4	
4	0	5	4	1	5	0	5	1	5	2	5	3	5	4	
4	3	4	5	9	5	0	5	1	5	2	5	1	5	0	
4	1	0	5	0	5	0	5	1	5	5	5	3	5	4	
3	7	6	5	5	0	5	1	5	2	5	3	5	4	
4	0	5	9	8	5	0	5	1	5	2	5	5	5	4	
4	3	4	5	4	5	0	5	1	5	2	5	1	5	0	
4	4	5	9	3	5	0	5	1	5	2	5	3	5	4	
4	2	0	5	4	5	0	5	1	5	2	5	3	5	4	
4	6	5	0	1	5	0	5	1	5	2	5	5	5	4	
3	5	6	7	5	0	5	1	5	5	5	3	5	4	
3	5	4	1	5	0	5	1	5	5	5	3	5	4	
4	0	5	9	3	5	0	5	1	5	5	5	3	5	4	
4	6	5	0	2	5	0	5	1	5	2	5	3	5	4	
4	4	5	9	8	5	0	5	1	5	5	5	3	5	4	
4	3	9	5	6	5	0	5	1	5	2	5	3	5	4	
4	9	5	4	3	5	0	5	1	5	2	5	1	5	0	
4	7	6	5	9	5	0	5	1	5	5	5	3	5	4	
4	4	5	0	2	5	0	5	1	5	5	5	3	5	4	
5	2	0	5	6	7	5	0	5	1	5	2	5	1	5	0	
3	6	5	0	5	0	5	1	5	2	5	1	5	0	
5	7	6	5	4	1	5	0	5	1	5	2	5	5	5	4	
4	9	5	9	8	5	0	5	1	5	2	5	3	5	4	
3	5	0	2	5	0	5	1	5	2	5	5	5	4	
4	0	5	0	2	5	0	5	1	5	2	5	3	5	4	
4	8	9	5	0	5	0	5	1	5	2	5	1	5	0	
5	1	4	5	6	7	5	0	5	1	5	2	5	1	5	0	
4	7	6	5	4	5	0	5	1	5	2	5	3	5	4	
5	3	9	5	0	1	5	0	5	1	5	5	5	3	5	4	
5	3	9	5	6	7	5	0	5	1	5	5	5	3	5	4	
5	1	0	5	0	2	5	0	5	1	5	2	5	1	5	0	
3	2	0	5	5	0	5	1	5	2	5	3	5	4	
4	4	5	4	1	5	0	5	1	5	2	5	5	5	4	
2	5	0	5	0	5	1	5	2	5	1	5	0	
3	0	5	4	5	0	5	1	5	2	5	1	5	0	
4	6	5	9	3	5	0	5	1	5	2	5	3	5	4	
4	6	5	9	8	5	0	5	1	5	2	5	5	5	4	
4	7	6	5	6	5	0	5	1	5	5	5	3	5	4	
4	9	5	6	7	5	0	5	1	5	5	5	3	5	4	
4	0	5	4	1	5	0	5	1	5	2	5	1	5	0	
4	3	9	5	9	5	0	5	1	5	2	5	3	5	4	
4	1	0	5	0	5	0	5	1	5	2	5	3	5	4	
4	0	5	9	8	5	0	5	1	5	2	5	1	5	0	
4	3	4	5	4	5	0	5	1	5	2	5	5	5	4	
4	4	5	4	3	5	0	5	1	5	2	5	1	5	0	
4	2	0	5	4	5	0	5	1	5	5	5	3	5	4	
4	6	5	0	1	5	0	5	1	5	5	5	3	5	4	
4	8	6	5	4	5	0	5	1	5	5	5	3	5	4	
3	5	6	7	5	0	5	1	5	2	5	5	5	4	
3	5	4	1	5	0	5	1	5	2	5	5	5	4	
4	0	5	4	3	5	0	5	1	5	2	5	3	5	4	
4	4	5	9	8	5	0	5	1	5	2	5	5	5	4	
3	9	5	0	5	0	5	1	5	2	5	5	5	4	
5	7	6	5	9	8	5	0	5	1	5	5	5	3	5	4	
5	2	0	5	0	1	5	0	5	1	5	2	5	5	5	4	
4	3	4	5	6	5	0	5	1	5	2	5	1	5	0	
4	9	5	4	3	5	0	5	1	5	2	5	3	5	4	
4	4	5	0	2	5	0	5	1	5	2	5	5	5	4	
5	2	0	5	6	7	5	0	5	1	5	2	5	5	5	4	
3	6	5	0	5	0	5	1	5	2	5	3	5	4	
5	8	9	5	9	3	5	0	5	1	5	2	5	5	5	4	
4	1	4	5	4	5	0	5	1	5	2	5	5	5	4	
5	7	6	5	0	1	5	0	5	1	5	2	5	1	5	0	
4	9	5	6	8	5	0	5	1	5	2	5	1	5	0	
3	5	0	2	5	0	5	1	5	5	5	3	5	4	
4	0	5	0	2	5	0	5	1	5	5	5	3	5	4	
5	3	4	5	9	8	5	0	5	1	5	2	5	3	5	4	
4	8	9	5	0	5	0	5	1	5	2	5	3	5	4	
5	1	0	5	6	7	5	0	5	1	5	2	5	3	5	4	
4	7	6	5	4	5	0	5	1	5	2	5	1	5	0	
4	9	5	0	1	5	0	5	1	5	2	5	1	5	0	
4	2	0	5	0	5	0	5	1	5	2	5	1	5	0	
5	3	9	5	0	1	5	0	5	1	5	2	5	5	5	4	
5	1	0	5	6	8	5	0	5	1	5	2	5	5	5	4	
5	3	9	5	6	7	5	0	5	1	5	2	5	5	5	4	
5	1	4	5	0	2	5	0	5	1	5	2	5	5	5	4	
3	2	0	5	5	0	5	1	5	2	5	1	5	0	
4	0	5	6	7	5	0	5	1	5	2	5	5	5	4	
4	4	5	4	1	5	0	5	1	5	5	5	3	5	4	
3	0	5	4	5	0	5	1	5	2	5	3	5	4	
4	6	5	9	3	5	0	5	1	5	2	5	1	5	0	
5	8	9	5	0	2	5	0	5	1	5	2	5	1	5	0	
3	1	4	5	5	0	5	1	5	2	5	1	5	0	
4	7	6	5	6	5	0	5	1	5	2	5	3	5	4	
4	9	5	6	7	5	0	5	1	5	2	5	5	5	4	
4	0	5	0	1	5	0	5	1	5	2	5	5	5	4	
4	1	4	5	0	5	0	5	1	5	2	5	1	5	0	
4	9	5	0	2	5	0	5	1	5	2	5	3	5	4	
5	2	0	5	9	3	5	0	5	1	5	2	5	3	5	4	
4	0	5	9	8	5	0	5	1	5	2	5	3	5	4	
4	1	4	5	9	5	0	5	1	5	2	5	1	5	0	
4	3	9	5	4	5	0	5	1	5	5	5	3	5	4	
4	2	0	5	4	5	0	5	1	5	2	5	5	5	4	
3	0	5	6	5	0	5	1	5	2	5	1	5	0	
4	6	5	0	1	5	0	5	1	5	2	5	3	5	4	
4	8	9	5	4	5	0	5	1	5	2	5	5	5	4	
4	8	6	5	9	5	0	5	1	5	5	5	3	5	4	
3	5	6	7	5	0	5	1	5	2	5	1	5	0	
4	0	5	4	3	5	0	5	1	5	2	5	1	5	0	
5	8	9	5	0	1	5	0	5	1	5	2	5	3	5	4	
4	1	0	5	6	5	0	5	1	5	2	5	3	5	4	
4	4	5	9	8	5	0	5	1	5	2	5	1	5	0	
3	9	5	0	5	0	5	1	5	5	5	3	5	4	
5	2	0	5	0	1	5	0	5	1	5	5	5	3	5	4	
5	7	6	5	0	2	5	0	5	1	5	2	5	5	5	4	
5	2	0	5	6	7	5	0	5	1	5	5	5	3	5	4	
3	8	6	5	5	0	5	1	5	5	5	3	5	4	
2	0	5	5	0	5	1	5	2	5	3	5	4	
3	6	5	0	5	0	5	1	5	5	5	3	5	4	
5	8	6	5	9	3	5	0	5	1	5	5	5	3	5	4	
4	1	0	5	4	5	0	5	1	5	5	5	3	5	4	
5	7	6	5	4	1	5	0	5	1	5	2	5	3	5	4	
4	0	5	0	2	5	0	5	1	5	2	5	5	5	4	
5	3	4	5	9	8	5	0	5	1	5	2	5	1	5	0	
4	7	6	5	4	5	0	5	1	5	2	5	5	5	4	
4	9	5	0	1	5	0	5	1	5	2	5	3	5	4	
4	2	0	5	0	5	0	5	1	5	2	5	3	5	4	
4	6	5	9	8	5	0	5	1	5	5	5	3	5	4	
3	0	5	9	5	0	5	1	5	2	5	3	5	4	
5	3	4	5	4	1	5	0	5	1	5	2	5	1	5	0	
2	6	5	5	0	5	1	5	2	5	5	5	4	
5	1	0	5	6	8	5	0	5	1	5	5	5	3	5	4	
5	1	0	5	0	2	5	0	5	1	5	5	5	3	5	4	
3	5	9	3	5	0	5	1	5	5	5	3	5	4	
4	0	5	6	7	5	0	5	1	5	5	5	3	5	4	
5	7	6	5	9	3	5	0	5	1	5	2	5	1	5	0	
5	8	6	5	0	1	5	0	5	1	5	5	5	3	5	4	
3	6	5	9	5	0	5	1	5	2	5	5	5	4	
4	6	5	9	3	5	0	5	1	5	2	5	5	5	4	
5	8	9	5	0	2	5	0	5	1	5	2	5	3	5	4	
3	1	0	5	5	0	5	1	5	2	5	3	5	4	
4	7	6	5	6	5	0	5	1	5	2	5	1	5	0	
4	9	5	6	7	5	0	5	1	5	2	5	1	5	0	
3	5	9	8	5	0	5	1	5	2	5	5	5	4	
4	0	5	4	1	5	0	5	1	5	5	5	3	5	4	
3	4	5	0	5	0	5	1	5	5	5	3	5	4	
4	9	5	0	2	5	0	5	1	5	2	5	1	5	0	
5	2	0	5	4	3	5	0	5	1	5	2	5	1	5	0	
3	6	5	4	5	0	5	1	5	2	5	1	5	0	
4	1	0	5	9	5	0	5	1	5	2	5	3	5	4	
2	5	4	5	0	5	1	5	2	5	5	5	4	
3	0	5	6	5	0	5	1	5	2	5	3	5	4	
4	6	5	0	1	5	0	5	1	5	2	5	1	5	0	
4	8	9	5	4	5	0	5	1	5	2	5	1	5	0	
4	7	6	5	0	5	0	5	1	5	2	5	3	5	4	
3	5	6	7	5	0	5	1	5	2	5	3	5	4	
3	3	9	5	5	0	5	1	5	5	5	3	5	4	
4	7	6	5	9	5	0	5	1	5	2	5	5	5	4	
4	1	4	5	6	5	0	5	1	5	2	5	1	5	0	
4	4	5	9	8	5	0	5	1	5	2	5	3	5	4	
3	9	5	0	5	0	5	1	5	2	5	3	5	4	
5	2	0	5	0	1	5	0	5	1	5	2	5	3	5	4	
2	5	9	5	0	5	1	5	2	5	1	5	0	
4	4	5	6	7	5	0	5	1	5	2	5	5	5	4	
2	5	0	5	0	5	1	5	5	5	3	5	4	
4	6	5	6	7	5	0	5	1	5	2	5	3	5	4	
5	7	6	5	0	2	5	0	5	1	5	5	5	3	5	4	
2	0	5	5	0	5	1	5	2	5	1	5	0	
3	6	5	0	5	0	5	1	5	2	5	5	5	4	
5	8	9	5	4	3	5	0	5	1	5	2	5	3	5	4	
4	1	4	5	4	5	0	5	1	5	2	5	3	5	4	
5	3	9	5	0	2	5	0	5	1	5	2	5	5	5	4	
5	3	4	5	9	8	5	0	5	1	5	2	5	5	5	4	
4	2	0	5	6	5	0	5	1	5	5	5	3	5	4	
4	7	6	5	4	5	0	5	1	5	5	5	3	5	4	
4	9	5	0	1	5	0	5	1	5	5	5	3	5	4	
4	2	0	5	0	5	0	5	1	5	5	5	3	5	4	
3	0	5	9	5	0	5	1	5	2	5	1	5	0	
5	3	4	5	4	1	5	0	5	1	5	2	5	3	5	4	
2	6	5	5	0	5	1	5	5	5	3	5	4	
5	1	4	5	9	8	5	0	5	1	5	2	5	3	5	4	
3	4	5	6	5	0	5	1	5	2	5	1	5	0	
3	5	9	3	5	0	5	1	5	2	5	5	5	4	
4	0	5	6	7	5	0	5	1	5	2	5	3	5	4	
5	7	6	5	9	3	5	0	5	1	5	2	5	3	5	4	
3	9	5	4	5	0	5	1	5	2	5	5	5	4	
2	5	6	5	0	5	1	5	2	5	3	5	4	
3	6	5	9	5	0	5	1	5	5	5	3	5	4	
5	1	0	5	9	3	5	0	5	1	5	5	5	3	5	4	
4	6	5	9	3	5	0	5	1	5	5	5	3	5	4	
5	8	6	5	0	2	5	0	5	1	5	5	5	3	5	4	
3	1	0	5	5	0	5	1	5	5	5	3	5	4	
3	4	5	9	5	0	5	1	5	2	5	3	5	4	
4	9	5	6	7	5	0	5	1	5	2	5	3	5	4	
3	5	9	8	5	0	5	1	5	5	5	3	5	4	
4	8	6	5	9	5	0	5	1	5	2	5	5	5	4	
3	4	5	0	5	0	5	1	5	2	5	5	5	4	
4	2	0	5	9	5	0	5	1	5	2	5	5	5	4	
4	9	5	0	2	5	0	5	1	5	2	5	5	5	4	
5	2	0	5	4	3	5	0	5	1	5	2	5	5	5	4	
3	6	5	4	5	0	5	1	5	2	5	3	5	4	
5	8	9	5	6	7	5	0	5	1	5	2	5	5	5	4	
4	1	0	5	9	5	0	5	1	5	5	5	3	5	4	
2	4	5	5	0	5	1	5	2	5	3	5	4	
2	5	4	5	0	5	1	5	5	5	3	5	4	
3	0	5	6	5	0	5	1	5	5	5	3	5	4	
4	8	6	5	4	5	0	5	1	5	2	5	3	5	4	
4	7	6	5	0	5	0	5	1	5	2	5	1	5	0	
2	9	5	5	0	5	1	5	2	5	1	5	0	
4	6	5	9	8	5	0	5	1	5	2	5	3	5	4	
4	7	6	5	9	5	0	5	1	5	2	5	1	5	0	
4	1	0	5	6	5	0	5	1	5	2	5	5	5	4	
3	9	5	0	5	0	5	1	5	2	5	1	5	0	
3	7	6	5	5	0	5	1	5	2	5	1	5	0	
5	2	0	5	0	1	5	0	5	1	5	2	5	1	5	0	
2	5	9	5	0	5	1	5	2	5	3	5	4	
4	3	4	5	0	5	0	5	1	5	2	5	3	5	4	
4	4	5	6	7	5	0	5	1	5	5	5	3	5	4	
5	2	0	5	9	8	5	0	5	1	5	2	5	1	5	0	
4	6	5	6	7	5	0	5	1	5	2	5	1	5	0	
4	8	9	5	6	5	0	5	1	5	2	5	1	5	0	
5	7	6	5	0	2	5	0	5	1	5	2	5	3	5	4	
3	3	4	5	5	0	5	1	5	2	5	5	5	4	
2	0	5	5	0	5	1	5	2	5	5	5	4	
5	8	9	5	4	3	5	0	5	1	5	2	5	1	5	0	
4	1	0	5	4	5	0	5	1	5	2	5	1	5	0	
3	9	5	6	5	0	5	1	5	2	5	3	5	4	
5	3	9	5	0	2	5	0	5	1	5	5	5	3	5	4	
5	3	9	5	9	8	5	0	5	1	5	5	5	3	5	4	
5	8	9	5	4	1	5	0	5	1	5	2	5	5	5	4	
4	2	0	5	6	5	0	5	1	5	2	5	5	5	4	
4	9	5	0	1	5	0	5	1	5	2	5	5	5	4	
4	2	0	5	0	5	0	5	1	5	2	5	5	5	4	
3	0	5	9	5	0	5	1	5	2	5	5	5	4	
2	6	5	5	0	5	1	5	2	5	3	5	4	
5	1	0	5	6	8	5	0	5	1	5	2	5	1	5	0	
3	4	5	6	5	0	5	1	5	2	5	3	5	4	
3	5	4	3	5	0	5	1	5	2	5	1	5	0	
4	0	5	6	7	5	0	5	1	5	2	5	1	5	0	
3	8	9	5	5	0	5	1	5	2	5	3	5	4	
5	7	6	5	9	3	5	0	5	1	5	5	5	3	5	4	
3	9	5	4	5	0	5	1	5	5	5	3	5	4	
2	5	6	5	0	5	1	5	2	5	1	5	0	
4	4	5	9	3	5	0	5	1	5	5	5	3	5	4	
3	6	5	9	5	0	5	1	5	2	5	3	5	4	
5	1	4	5	4	3	5	0	5	1	5	2	5	5	5	4	
5	8	9	5	0	2	5	0	5	1	5	2	5	5	5	4	
3	1	0	5	5	0	5	1	5	2	5	5	5	4	
3	4	5	9	5	0	5	1	5	2	5	1	5	0	
3	5	9	8	5	0	5	1	5	2	5	3	5	4	
3	4	5	0	5	0	5	1	5	2	5	1	5	0	
4	2	0	5	9	5	0	5	1	5	5	5	3	5	4	
4	9	5	0	2	5	0	5	1	5	5	5	3	5	4	
5	2	0	5	9	3	5	0	5	1	5	5	5	3	5	4	
4	6	5	0	2	5	0	5	1	5	5	5	3	5	4	
3	6	5	4	5	0	5	1	5	5	5	3	5	4	
5	8	6	5	6	7	5	0	5	1	5	5	5	3	5	4	
4	1	4	5	9	5	0	5	1	5	2	5	5	5	4	
2	4	5	5	0	5	1	5	2	5	1	5	0	
2	5	4	5	0	5	1	5	2	5	3	5	4	
3	0	5	6	5	0	5	1	5	2	5	5	5	4	
4	7	6	5	0	5	0	5	1	5	2	5	5	5	4	
2	9	5	5	0	5	1	5	2	5	3	5	4	
3	3	4	5	5	0	5	1	5	2	5	1	5	0	
4	7	6	5	9	5	0	5	1	5	2	5	3	5	4	
4	1	0	5	6	5	0	5	1	5	5	5	3	5	4	
2	5	9	5	0	5	1	5	5	5	3	5	4	
4	3	4	5	0	5	0	5	1	5	2	5	1	5	0	
4	4	5	6	7	5	0	5	1	5	2	5	3	5	4	
5	2	0	5	9	8	5	0	5	1	5	2	5	3	5	4	
4	6	5	6	7	5	0	5	1	5	2	5	5	5	4	
4	8	9	5	6	5	0	5	1	5	2	5	3	5	4	
5	7	6	5	0	2	5	0	5	1	5	2	5	1	5	0	
2	0	5	5	0	5	1	5	5	5	3	5	4	
3	9	5	6	5	0	5	1	5	2	5	1	5	0	
5	3	9	5	0	2	5	0	5	1	5	2	5	3	5	4	
4	2	0	5	6	5	0	5	1	5	2	5	1	5	0	
2	5	0	5	0	5	1	5	2	5	5	5	4	
3	0	5	9	5	0	5	1	5	5	5	3	5	4	
2	6	5	5	0	5	1	5	2	5	1	5	0	
3	4	5	6	5	0	5	1	5	5	5	3	5	4	
3	5	4	3	5	0	5	1	5	2	5	3	5	4	
4	3	9	5	9	5	0	5	1	5	5	5	3	5	4	
3	8	9	5	5	0	5	1	5	2	5	1	5	0	
5	7	6	5	9	3	5	0	5	1	5	2	5	5	5	4	
3	9	5	4	5	0	5	1	5	2	5	3	5	4	
2	5	6	5	0	5	1	5	2	5	5	5	4	
3	6	5	9	5	0	5	1	5	2	5	1	5	0	
5	1	4	5	4	3	5	0	5	1	5	2	5	1	5	0	
5	7	6	5	9	8	5	0	5	1	5	2	5	3	5	4	
3	4	5	9	5	0	5	1	5	2	5	5	5	4	
3	5	9	8	5	0	5	1	5	2	5	1	5	0	
3	4	5	0	5	0	5	1	5	2	5	3	5	4	
4	2	0	5	9	5	0	5	1	5	2	5	3	5	4	
3	5	4	1	5	0	5	1	5	2	5	1	5	0	
4	6	5	0	2	5	0	5	1	5	2	5	5	5	4	
3	6	5	4	5	0	5	1	5	2	5	5	5	4	
5	8	9	5	6	7	5	0	5	1	5	2	5	3	5	4	
3	7	6	5	5	0	5	1	5	2	5	5	5	4	
2	4	5	5	0	5	1	5	2	5	5	5	4	
2	5	4	5	0	5	1	5	2	5	1	5	0	
4	3	9	5	6	5	0	5	1	5	2	5	5	5	4	
3	7	6	5	5	0	5	1	5	5	5	3	5	4	
4	9	5	9	3	5	0	5	1	5	5	5	3	5	4	
4	7	6	5	0	5	0	5	1	5	5	5	3	5	4	
2	9	5	5	0	5	1	5	5	5	3	5	4	
3	3	4	5	5	0	5	1	5	2	5	3	5	4	
4	6	5	9	8	5	0	5	1	5	2	5	1	5	0	
4	4	5	0	2	5	0	5	1	5	2	5	1	5	0	
2	5	9	5	0	5	1	5	2	5	5	5	4	
4	3	4	5	0	5	0	5	1	5	2	5	5	5	4	
4	4	5	6	7	5	0	5	1	5	2	5	1	5	0	
4	9	5	9	8	5	0	5	1	5	2	5	5	5	4	
5	2	0	5	9	8	5	0	5	1	5	5	5	3	5	4	
3	5	0	2	5	0	5	1	5	2	5	3	5	4	
4	8	6	5	0	5	0	5	1	5	5	5	3	5	4	
5	8	9	5	0	1	5	0	5	1	5	2	5	1	5	0	
5	1	0	5	6	7	5	0	5	1	5	5	5	3	5	4	
4	6	5	6	7	5	0	5	1	5	5	5	3	5	4	
4	8	6	5	6	5	0	5	1	5	5	5	3	5	4	
5	3	4	5	6	7	5	0	5	1	5	2	5	1	5	0	
3	2	0	5	5	0	5	1	5	2	5	5	5	4	
3	9	5	6	5	0	5	1	5	2	5	5	5	4	
5	3	4	5	0	2	5	0	5	1	5	2	5	1	5	0	
4	4	5	4	1	5	0	5	1	5	2	5	3	5	4	
4	2	0	5	6	5	0	5	1	5	2	5	3	5	4	
4	4	5	4	3	5	0	5	1	5	2	5	5	5	4	
3	0	5	4	5	0	5	1	5	5	5	3	5	4	
3	4	5	6	5	0	5	1	5	2	5	5	5	4	
4	3	9	5	9	5	0	5	1	5	2	5	5	5	4	
4	1	0	5	0	5	0	5	1	5	2	5	5	5	4	
3	8	9	5	5	0	5	1	5	2	5	5	5	4	
3	9	5	4	5	0	5	1	5	2	5	1	5	0	
4	0	5	9	8	5	0	5	1	5	5	5	3	5	4	
2	5	6	5	0	5	1	5	5	5	3	5	4	
4	3	4	5	4	5	0	5	1	5	2	5	3	5	4	
5	1	4	5	4	3	5	0	5	1	5	2	5	3	5	4	
5	7	6	5	9	8	5	0	5	1	5	2	5	1	5	0	
4	2	0	5	4	5	0	5	1	5	2	5	1	5	0	
3	4	5	9	5	0	5	1	5	5	5	3	5	4	
4	2	0	5	9	5	0	5	1	5	2	5	1	5	0	
3	5	4	1	5	0	5	1	5	2	5	3	5	4	
4	0	5	4	3	5	0	5	1	5	2	5	5	5	4	
4	6	5	0	2	5	0	5	1	5	2	5	1	5	0	
5	8	9	5	6	7	5	0	5	1	5	2	5	1	5	0	
2	4	5	5	0	5	1	5	5	5	3	5	4	
5	7	6	5	9	8	5	0	5	1	5	2	5	5	5	4	
4	3	9	5	6	5	0	5	1	5	5	5	3	5	4	
4	9	5	9	3	5	0	5	1	5	2	5	5	5	4	
2	9	5	5	0	5	1	5	2	5	5	5	4	
4	4	5	0	2	5	0	5	1	5	2	5	3	5	4	
5	2	0	5	6	7	5	0	5	1	5	2	5	3	5	4	
