2849.2	2149.06
574
14584.3	10588.2
10
0	2993	2994
1	0	-1
2	0	-1
3	3451	4006
4	2281	3447
5	4442	4488
6	0	-1
7	0	-1
8	0	-1
9	4479	4541
34
0	1	66.571588	169.133260	1.000000
0	2	44.418026	174.059302	1.000000
0	5	121.970642	192.122068	1.000000
1	0	66.537402	169.133260	1.000000
1	2	0.000000	188.838348	0.000000
1	3	55.026338	185.553706	1.000000
1	4	22.129186	188.838348	1.000000
2	0	44.217164	174.059302	1.000000
2	1	0.000000	188.838348	0.000000
2	3	43.693482	174.059302	1.000000
2	4	11.276678	167.490939	1.000000
3	1	55.386658	185.553706	1.000000
3	2	44.978330	174.059302	1.000000
3	4	11.041938	162.564898	1.000000
3	9	99.127092	149.428173	1.000000
4	1	22.468118	188.838348	1.000000
4	2	11.091458	167.490939	1.000000
4	3	11.266978	162.564898	1.000000
4	5	55.678424	151.070494	1.000000
5	0	122.315628	192.122068	1.000000
5	4	55.576782	151.070494	1.000000
5	6	158.894904	159.281178	1.000000
5	9	51.761176	180.627664	1.000000
6	5	157.362714	159.281178	1.000000
6	7	66.608684	178.985343	1.000000
6	8	58.790024	185.553706	1.000000
7	6	66.847556	178.985343	1.000000
7	8	33.062130	174.059302	1.000000
8	6	58.067062	185.553706	1.000000
8	7	33.132806	174.059302	1.000000
8	9	142.291354	147.786774	1.000000
9	3	100.220512	149.428173	1.000000
9	5	54.294976	180.627664	1.000000
9	8	140.564214	147.786774	1.000000
360
3	3	1	0	3	0	0	1	0	5	0	3	0	4	
2	8	9	9	0	9	1	9	2	9	3	9	4	
2	8	9	9	0	9	1	9	2	9	1	9	0	
2	9	8	9	0	9	1	9	5	9	3	9	4	
4	2	3	9	8	3	0	3	1	3	2	3	5	9	4	
3	5	0	2	5	0	5	1	5	2	5	1	5	0	
2	0	2	0	0	0	1	0	2	0	1	0	0	
4	8	6	5	0	5	0	5	1	5	2	5	5	0	4	
5	1	0	5	6	7	0	0	0	1	0	2	0	5	5	4	
4	8	9	8	6	9	0	9	1	9	2	9	5	9	4	
4	3	9	8	7	3	0	3	1	3	2	3	3	3	4	
3	1	3	2	3	0	3	1	3	2	3	3	3	4	
5	7	6	5	0	1	5	0	5	1	5	5	5	3	0	4	
3	2	0	5	0	0	0	1	0	5	0	3	0	4	
3	9	8	6	9	0	9	1	9	5	9	3	9	4	
2	4	1	4	0	4	1	4	2	4	1	4	0	
2	5	0	0	0	0	1	0	2	0	3	0	4	
3	0	1	4	0	0	0	1	0	2	0	5	4	4	
4	7	6	5	6	5	0	5	1	5	2	5	5	5	4	
2	0	1	0	0	0	1	0	2	0	3	0	4	
2	3	9	3	0	3	1	3	2	3	1	3	0	
2	1	0	0	0	0	1	0	5	0	3	0	4	
3	7	6	5	5	0	5	1	5	2	5	3	5	4	
4	0	5	9	8	9	0	9	1	9	2	9	5	9	4	
2	3	4	3	0	3	1	3	2	3	1	3	0	
2	4	3	3	0	3	1	3	2	3	3	3	4	
2	2	4	4	0	4	1	4	2	4	3	4	4	
4	6	5	0	1	0	0	0	1	0	2	0	5	0	4	
3	5	6	7	5	0	5	1	5	5	5	3	5	4	
3	5	0	1	5	0	5	1	5	5	5	3	0	4	
3	0	1	3	0	0	0	1	0	5	0	3	3	4	
4	6	5	0	2	5	0	5	1	5	2	5	3	0	4	
4	4	5	9	8	9	0	9	1	9	5	9	3	9	4	
4	3	9	8	6	3	0	9	1	9	2	9	3	9	4	
2	9	3	3	0	3	1	3	2	3	1	3	0	
3	7	8	9	9	0	9	1	9	5	9	3	9	4	
2	4	2	4	0	4	1	4	5	4	3	4	4	
5	2	0	5	6	7	0	0	0	1	0	2	0	1	5	0	
3	6	5	0	5	0	5	1	5	2	5	1	5	0	
5	7	6	5	0	1	5	0	5	1	5	2	5	5	0	4	
2	9	8	9	0	9	1	9	2	9	3	9	4	
3	5	0	2	5	0	5	1	5	2	5	5	0	4	
2	0	2	0	0	0	1	0	2	0	3	0	4	
4	8	9	5	0	9	0	9	1	9	2	9	1	9	0	
5	1	0	5	6	7	0	0	0	1	0	2	0	1	5	0	
4	7	6	5	4	5	0	5	1	5	2	5	3	5	4	
2	3	1	3	0	3	1	3	5	3	3	3	4	
4	3	9	8	7	9	0	9	1	9	5	9	3	9	4	
3	1	3	2	3	0	3	1	3	2	3	1	3	0	
3	2	0	5	0	0	0	1	0	2	0	3	5	4	
2	4	1	4	0	4	1	4	2	4	5	4	4	
2	5	0	5	0	5	1	5	2	5	1	5	0	
3	0	1	4	0	0	0	1	0	2	0	1	4	0	
4	6	8	9	3	9	0	9	1	9	2	9	3	9	4	
4	6	8	9	8	9	0	9	1	9	2	9	5	9	4	
4	7	6	5	6	5	0	5	1	5	5	5	3	5	4	
3	9	8	7	9	0	9	1	9	5	9	3	9	4	
2	0	1	0	0	0	1	0	2	0	1	0	0	
2	3	9	3	0	3	1	3	2	3	3	3	4	
2	1	0	0	0	0	1	0	2	0	3	0	4	
4	0	5	6	8	5	0	5	1	5	2	5	1	5	0	
2	3	4	3	0	3	1	3	2	3	5	3	4	
2	4	3	3	0	3	1	3	2	3	1	3	0	
2	2	4	4	0	4	1	4	5	4	3	4	4	
4	6	5	0	1	5	0	5	1	5	5	5	3	0	4	
4	8	6	5	4	5	0	5	1	5	5	5	3	5	4	
3	5	6	7	5	0	5	1	5	2	5	5	5	4	
3	5	0	1	0	0	0	1	0	2	0	5	0	4	
3	0	1	3	0	0	0	1	0	2	0	3	3	4	
4	4	5	6	8	5	0	5	1	5	2	5	5	5	4	
3	9	5	0	5	0	5	1	5	2	5	5	5	4	
4	7	8	9	8	9	0	9	1	9	5	9	3	9	4	
3	2	3	1	3	0	3	1	3	2	3	5	3	4	
4	3	9	8	6	9	0	9	1	9	2	9	1	9	0	
2	9	3	9	0	9	1	9	2	9	3	9	4	
2	4	2	4	0	4	1	4	2	4	5	4	4	
5	2	0	5	6	7	0	0	0	1	0	2	5	5	5	4	
3	6	5	0	0	0	0	1	0	2	0	3	0	4	
3	8	9	3	9	0	9	1	9	2	9	5	9	4	
2	1	4	4	0	4	1	4	2	4	5	4	4	
5	7	6	5	0	1	5	0	5	1	5	2	5	1	0	0	
2	9	8	9	0	9	1	9	2	9	1	9	0	
3	5	0	2	0	0	0	1	0	5	0	3	0	4	
2	0	2	0	0	0	1	0	5	0	3	0	4	
3	3	9	8	3	0	3	1	3	2	3	3	3	4	
4	8	6	5	0	0	0	0	1	0	2	0	3	0	4	
5	1	0	5	6	7	0	0	0	1	0	2	0	3	5	4	
4	7	6	5	4	5	0	5	1	5	2	5	1	5	0	
3	9	3	1	3	0	3	1	3	2	3	1	3	0	
2	2	0	0	0	0	1	0	2	0	1	0	0	
2	3	1	3	0	3	1	3	2	3	5	3	4	
4	1	3	9	8	9	0	9	1	9	2	9	5	9	4	
4	3	9	8	7	9	0	9	1	9	2	9	5	9	4	
3	1	3	2	3	0	3	1	3	2	3	5	3	4	
3	2	0	5	0	0	0	1	0	2	0	1	5	0	
4	0	5	6	7	5	0	5	1	5	2	5	5	5	4	
2	4	1	4	0	4	1	4	5	4	3	4	4	
3	0	1	4	0	0	0	1	0	2	0	3	4	4	
4	6	8	9	3	9	0	3	1	3	2	3	1	3	0	
4	8	9	3	2	3	0	3	1	3	2	3	1	3	0	
3	1	0	5	0	0	0	1	0	2	0	1	5	0	
4	7	6	5	6	5	0	5	1	5	2	5	3	5	4	
3	9	8	7	9	0	9	1	9	2	9	5	9	4	
2	0	1	0	0	0	1	0	2	0	5	0	4	
2	1	0	0	0	0	1	0	2	0	1	0	0	
3	9	3	2	3	0	3	1	3	2	3	3	3	4	
2	2	3	3	0	3	1	3	2	3	3	3	4	
4	0	5	6	8	5	0	5	1	5	2	5	3	5	4	
3	1	3	9	3	0	3	1	3	2	3	1	3	0	
2	3	4	3	0	3	1	3	5	3	3	3	4	
2	2	4	4	0	4	1	4	2	4	5	4	4	
3	0	5	6	5	0	5	1	5	2	5	1	5	0	
4	6	5	0	1	5	0	5	1	5	2	5	3	0	4	
4	8	6	5	4	5	0	4	1	4	2	4	5	4	4	
2	8	9	9	0	9	1	9	5	9	3	9	4	
3	5	6	7	5	0	5	1	5	2	5	1	5	0	
3	0	1	3	0	0	0	1	0	2	0	1	3	0	
4	8	9	3	1	3	0	3	1	3	2	3	3	3	4	
4	1	0	5	6	0	0	0	1	0	2	0	3	5	4	
4	4	5	6	8	5	0	5	1	5	2	5	1	5	0	
3	9	5	0	5	0	5	1	5	5	5	3	5	4	
3	2	3	1	3	0	3	1	3	5	3	3	3	4	
5	7	6	5	0	2	5	0	5	1	5	2	5	5	0	4	
5	2	0	5	6	7	0	0	0	1	0	5	0	3	0	4	
3	8	6	5	5	0	5	1	5	5	5	3	5	4	
2	0	5	0	0	0	1	0	2	0	3	5	4	
3	6	5	0	0	0	0	1	0	5	0	3	0	4	
3	8	9	3	3	0	3	1	3	5	3	3	3	4	
2	1	4	4	0	4	1	4	5	4	3	4	4	
5	7	6	5	0	1	5	0	5	1	5	2	5	3	0	4	
2	0	2	0	0	0	1	0	2	0	5	0	4	
3	3	9	8	3	0	3	1	3	2	3	1	3	0	
4	7	6	5	4	4	0	4	1	4	2	4	5	4	4	
3	9	3	1	9	0	9	1	9	2	9	3	9	4	
2	2	0	0	0	0	1	0	2	0	3	0	4	
4	6	8	9	8	9	0	9	1	9	5	9	3	9	4	
3	0	5	9	9	0	9	1	9	2	9	3	9	4	
2	3	1	3	0	3	1	3	2	3	1	3	0	
2	6	5	5	0	5	1	5	2	5	5	5	4	
4	1	3	9	8	3	0	3	1	3	5	3	3	3	4	
3	1	3	2	3	0	3	1	3	5	3	3	3	4	
3	5	9	3	9	0	3	1	3	5	3	3	3	4	
4	0	5	6	7	5	0	5	1	5	5	5	3	5	4	
4	7	8	9	3	3	0	3	1	3	2	3	1	3	0	
4	8	9	3	1	3	0	3	1	3	5	3	3	3	4	
3	6	8	9	9	0	9	1	9	2	9	5	9	4	
4	6	8	9	3	9	0	3	1	3	2	3	5	3	4	
4	8	9	3	2	3	0	3	1	3	2	3	3	3	4	
3	1	0	5	0	0	0	1	0	2	0	3	5	4	
4	7	6	5	6	5	0	5	1	5	2	5	1	5	0	
3	9	8	7	9	0	9	1	9	2	9	1	9	0	
3	5	6	8	5	0	5	1	5	2	5	5	5	4	
2	0	1	0	0	0	1	0	5	0	3	0	4	
3	4	1	0	4	0	4	1	4	5	4	3	4	4	
3	9	3	2	9	0	9	1	9	2	9	1	9	0	
2	2	3	3	0	3	1	3	2	3	1	3	0	
3	6	5	4	4	0	4	1	4	2	4	1	4	0	
3	1	3	9	9	0	9	1	9	2	9	3	9	4	
2	5	4	4	0	4	1	4	2	4	5	4	4	
3	0	5	6	0	0	0	1	0	2	0	3	0	4	
4	6	5	0	1	5	0	5	1	5	2	5	1	5	0	
4	8	6	5	4	5	0	4	1	4	2	4	1	4	0	
4	7	6	5	0	0	0	0	1	0	2	0	3	0	4	
3	5	6	7	5	0	5	1	5	2	5	3	5	4	
3	3	9	5	3	0	5	1	5	5	5	3	5	4	
3	7	8	9	9	0	9	1	9	2	9	5	9	4	
4	1	0	5	6	0	0	0	1	0	2	0	1	0	0	
4	4	5	6	8	5	0	5	1	5	2	5	3	5	4	
3	9	5	0	9	0	9	1	9	2	9	3	9	4	
3	2	3	1	3	0	3	1	3	2	3	3	3	4	
2	5	9	9	0	9	1	9	2	9	1	9	0	
4	4	5	6	7	4	0	4	1	4	2	4	5	4	4	
2	5	0	0	0	0	1	0	5	0	3	0	4	
4	6	5	6	7	5	0	5	1	5	2	5	3	5	4	
5	7	6	5	0	2	5	0	5	1	5	5	5	3	0	4	
2	0	5	0	0	0	1	0	2	0	1	0	0	
3	6	5	0	0	0	0	1	0	2	0	5	0	4	
3	8	9	3	3	0	3	1	3	2	3	3	3	4	
2	1	4	4	0	4	1	4	2	4	3	4	4	
2	3	2	3	0	3	1	3	2	3	5	3	4	
3	3	9	8	9	0	9	1	9	2	9	5	9	4	
4	2	0	5	6	0	0	0	1	0	5	0	3	5	4	
4	7	6	5	4	4	0	4	1	4	5	4	3	4	4	
3	9	3	1	3	0	3	1	3	5	3	3	3	4	
2	2	0	0	0	0	1	0	5	0	3	0	4	
3	0	5	9	9	0	9	1	9	2	9	1	9	0	
2	3	1	3	0	3	1	3	2	3	3	3	4	
2	6	5	5	0	5	1	5	5	5	3	5	4	
4	1	3	9	8	3	0	3	1	3	2	3	3	3	4	
3	4	5	6	4	0	4	1	4	2	4	1	4	0	
3	5	9	3	9	0	9	1	9	2	9	5	3	4	
4	0	5	6	7	5	0	5	1	5	2	5	3	5	4	
4	7	8	9	3	9	0	9	1	9	2	9	3	9	4	
3	9	5	4	4	0	4	1	4	2	4	5	4	4	
2	5	6	5	0	5	1	5	2	5	3	5	4	
3	6	8	9	9	0	9	1	9	5	9	3	9	4	
2	1	3	3	0	3	1	3	5	3	3	3	4	
4	6	8	9	3	3	0	3	1	3	5	3	3	3	4	
4	8	9	3	2	3	0	3	1	3	5	3	3	3	4	
3	1	0	5	0	0	0	1	0	5	0	3	0	4	
3	4	5	9	9	0	9	1	9	2	9	3	9	4	
3	9	8	7	9	0	9	1	9	2	9	3	9	4	
3	5	6	8	5	0	5	1	5	5	5	3	5	4	
2	8	9	9	0	9	1	9	2	9	5	9	4	
3	4	1	0	0	0	0	1	0	2	0	5	0	4	
3	2	3	9	3	0	3	1	3	2	3	5	3	4	
3	9	3	2	3	0	3	1	3	2	3	5	3	4	
2	2	3	3	0	3	1	3	2	3	5	3	4	
3	6	5	4	5	0	5	1	5	2	5	3	5	4	
4	8	9	8	7	9	0	9	1	9	2	9	5	9	4	
3	1	3	9	9	0	9	1	9	5	9	3	9	4	
2	4	5	5	0	5	1	5	2	5	3	5	4	
2	5	4	4	0	4	1	4	5	4	3	4	4	
3	0	5	6	5	0	5	1	5	5	5	3	5	4	
4	8	6	5	4	4	0	4	1	4	2	4	3	4	4	
4	7	6	5	0	5	0	5	1	5	2	5	1	5	0	
2	9	5	5	0	5	1	5	2	5	1	5	0	
4	6	8	9	8	9	0	9	1	9	2	9	3	9	4	
3	7	8	9	9	0	9	1	9	2	9	1	9	0	
4	1	0	5	6	5	0	5	1	5	2	5	5	5	4	
3	9	5	0	0	0	0	1	0	2	0	1	0	0	
3	7	6	5	5	0	5	1	5	2	5	1	5	0	
3	2	3	1	3	0	3	1	3	2	3	1	3	0	
2	5	9	5	0	5	1	5	2	5	3	5	4	
3	3	1	0	3	0	3	1	3	2	3	3	0	4	
4	4	5	6	7	4	0	4	1	4	5	4	3	4	4	
4	2	3	9	8	9	0	9	1	9	2	9	1	9	0	
4	6	5	6	7	5	0	5	1	5	2	5	1	5	0	
4	8	9	8	6	9	0	9	1	9	2	9	1	9	0	
5	7	6	5	0	2	5	0	5	1	5	2	5	3	5	4	
3	3	9	5	3	0	5	1	5	2	5	5	5	4	
2	0	5	0	0	0	1	0	2	5	5	5	4	
3	8	9	3	9	0	9	1	9	2	9	1	9	0	
2	1	4	4	0	4	1	4	2	4	1	4	0	
3	9	8	6	9	0	9	1	9	2	9	3	9	4	
2	3	2	3	0	3	1	3	5	3	3	3	4	
3	3	9	8	9	0	9	1	9	5	9	3	9	4	
4	8	9	3	1	9	0	9	1	9	2	9	5	9	4	
4	2	0	5	6	0	0	0	1	0	2	0	5	0	4	
3	9	3	1	3	0	3	1	3	2	3	5	3	4	
2	2	0	0	0	0	1	0	2	0	5	0	4	
3	0	5	9	5	0	5	1	5	2	5	5	5	4	
2	6	5	5	0	5	1	5	2	5	3	5	4	
4	1	3	9	8	9	0	9	1	9	2	9	1	9	0	
3	4	5	6	4	0	4	1	4	2	4	3	4	4	
3	5	9	3	5	0	3	1	3	2	3	1	3	0	
4	0	5	6	7	5	0	5	1	5	2	5	1	5	0	
3	8	6	5	5	0	5	1	5	2	5	3	5	4	
4	7	8	9	3	9	0	9	1	9	5	9	3	9	4	
3	9	5	4	4	0	4	1	4	5	4	3	4	4	
2	5	6	5	0	5	1	5	2	5	1	5	0	
2	4	3	4	0	4	1	4	5	4	3	4	4	
3	6	8	9	9	0	9	1	9	2	9	3	9	4	
2	1	3	3	0	3	1	3	2	3	5	3	4	
4	8	9	3	2	9	0	9	1	9	2	9	5	9	4	
3	1	0	5	0	0	0	1	0	2	0	5	5	4	
3	4	5	9	4	0	9	1	9	2	9	1	9	0	
3	5	6	8	5	0	5	1	5	2	5	3	5	4	
3	4	1	0	4	0	4	1	4	2	4	1	4	0	
3	2	3	9	9	0	9	1	9	5	9	3	9	4	
3	9	3	2	9	0	9	1	9	5	9	3	9	4	
2	2	3	3	0	3	1	3	5	3	3	3	4	
4	6	5	0	2	5	0	5	1	5	5	5	3	5	4	
3	6	5	4	4	0	4	1	4	5	4	3	4	4	
4	8	9	8	7	9	0	9	1	9	5	9	3	9	4	
3	1	3	9	9	0	9	1	9	2	9	5	9	4	
2	4	5	4	0	4	1	4	2	4	1	4	0	
2	5	4	4	0	4	1	4	2	4	3	4	4	
3	0	5	6	5	0	5	1	5	2	5	5	5	4	
4	7	6	5	0	0	0	0	1	0	2	0	5	0	4	
2	9	5	5	0	5	1	5	2	5	3	5	4	
3	3	9	5	3	0	5	1	5	2	5	1	5	0	
3	7	8	9	9	0	9	1	9	2	9	3	9	4	
4	1	0	5	6	0	0	0	1	0	5	0	3	5	4	
2	5	9	5	0	5	1	5	5	5	3	5	4	
3	3	1	0	3	0	3	1	3	2	3	1	0	0	
4	4	5	6	7	4	0	4	1	4	2	4	3	4	4	
4	2	3	9	8	3	0	3	1	3	2	3	3	3	4	
4	6	5	6	7	5	0	5	1	5	2	5	5	5	4	
4	8	9	8	6	9	0	9	1	9	2	9	3	9	4	
5	7	6	5	0	2	5	0	5	1	5	2	5	1	0	0	
2	0	5	0	0	0	1	0	5	0	3	0	4	
3	9	8	6	9	0	9	1	9	2	9	1	9	0	
2	3	2	3	0	3	1	3	2	3	3	3	4	
4	2	0	5	6	0	0	0	1	0	2	0	1	5	0	
2	5	0	0	0	0	1	0	2	0	5	0	4	
3	0	5	9	9	0	9	1	9	5	9	3	9	4	
2	6	5	5	0	5	1	5	2	5	1	5	0	
3	4	5	6	4	0	4	1	4	5	4	3	4	4	
3	5	9	3	5	0	3	1	3	2	3	3	3	4	
2	3	9	3	0	3	1	3	5	3	3	3	4	
3	8	6	5	5	0	5	1	5	2	5	1	5	0	
4	7	8	9	3	3	0	3	1	3	2	3	5	3	4	
3	9	5	4	4	0	4	1	4	2	4	3	4	4	
2	5	6	5	0	5	1	5	2	5	5	5	4	
3	6	8	9	9	0	9	1	9	2	9	1	9	0	
2	1	3	3	0	3	1	3	2	3	1	3	0	
4	7	8	9	8	9	0	9	1	9	2	9	3	9	4	
3	4	5	9	4	0	9	1	9	2	9	5	9	4	
3	5	6	8	5	0	5	1	5	2	5	1	5	0	
3	4	1	0	4	0	4	1	4	2	4	3	4	4	
3	2	3	9	9	0	9	1	9	2	9	3	9	4	
3	5	0	1	5	0	5	1	5	2	5	1	0	0	
4	6	5	0	2	5	0	5	1	5	2	5	5	5	4	
3	6	5	4	4	0	4	1	4	2	4	5	4	4	
4	8	9	8	7	9	0	9	1	9	2	9	3	9	4	
3	7	6	5	5	0	5	1	5	2	5	5	5	4	
2	4	5	4	0	4	1	4	2	4	5	4	4	
2	5	4	5	0	5	1	5	2	5	1	5	0	
4	3	9	8	6	9	0	9	1	9	2	9	5	9	4	
3	7	6	5	5	0	5	1	5	5	5	3	5	4	
2	9	3	3	0	3	1	3	5	3	3	3	4	
4	7	6	5	0	0	0	0	1	0	5	0	3	0	4	
2	9	5	9	0	9	1	9	5	9	3	9	4	
3	3	9	5	3	0	5	1	5	2	5	3	5	4	
4	6	8	9	8	9	0	9	1	9	2	9	1	9	0	
2	4	2	4	0	4	1	4	2	4	1	4	0	
2	5	9	9	0	9	1	9	2	9	5	9	4	
3	3	1	0	3	0	3	1	3	2	3	5	3	4	
4	4	5	6	7	5	0	5	1	5	2	5	1	5	0	
2	9	8	9	0	9	1	9	2	9	5	9	4	
4	2	3	9	8	3	0	3	1	3	5	3	3	3	4	
3	5	0	2	0	0	0	1	0	2	0	3	0	4	
4	8	6	5	0	5	0	0	1	0	5	0	3	0	4	
4	8	9	3	1	3	0	3	1	3	2	3	1	3	0	
5	1	0	5	6	7	0	0	0	1	0	5	0	3	5	4	
4	6	5	6	7	5	0	5	1	5	5	5	3	5	4	
4	8	9	8	6	9	0	9	1	9	5	9	3	9	4	
4	3	9	8	7	3	0	3	1	3	2	3	1	3	0	
3	2	0	5	0	0	0	1	0	2	0	5	5	4	
3	9	8	6	9	0	9	1	9	2	9	5	9	4	
2	3	2	3	0	3	1	3	2	3	1	3	0	
2	4	1	4	0	4	1	4	2	4	3	4	4	
4	2	0	5	6	0	0	0	1	0	2	0	3	5	4	
2	4	3	3	0	3	1	3	2	3	5	3	4	
3	0	1	4	0	0	0	1	0	5	0	3	0	4	
3	4	5	6	4	0	4	1	4	2	5	5	5	4	
2	3	9	3	0	3	1	3	2	3	5	3	4	
2	1	0	0	0	0	1	0	2	0	5	0	4	
3	8	9	5	5	0	5	1	5	2	5	5	5	4	
3	9	5	4	4	0	4	1	4	2	4	1	4	0	
4	0	5	6	8	0	0	0	1	0	5	0	3	0	4	
2	5	6	5	0	5	1	5	5	5	3	5	4	
2	3	4	4	0	4	1	4	2	4	3	4	4	
2	1	3	3	0	3	1	3	2	3	3	3	4	
4	7	8	9	8	9	0	9	1	9	2	9	1	9	0	
2	2	4	4	0	4	1	4	2	4	1	4	0	
3	4	5	9	4	0	4	1	4	5	4	3	4	4	
3	2	3	9	9	0	9	1	9	2	9	1	9	0	
3	5	0	1	5	0	5	1	5	2	5	3	0	4	
3	0	1	3	0	0	0	1	0	2	3	5	3	4	
4	6	5	0	2	0	0	0	1	0	2	0	1	0	0	
4	8	9	8	7	9	0	9	1	9	2	9	1	9	0	
2	4	5	4	0	4	1	4	5	4	3	4	4	
4	7	8	9	8	9	0	9	1	9	2	9	5	9	4	
4	3	9	8	6	3	0	3	1	9	5	9	3	9	4	
2	9	3	9	0	9	1	9	2	9	5	3	4	
2	9	5	9	0	9	1	9	2	9	5	9	4	
2	4	2	4	0	4	1	4	2	4	3	4	4	
5	2	0	5	6	7	0	0	0	1	0	2	0	3	5	4	
