7019.95	5279.27
1098
401207	29933.2
11
0	0	12
1	0	12
2	2	12
3	0	12
4	0	12
5	0	12
6	0	12
7	0	12
8	2	12
9	0	12
10	2	12
68
0	6	0.000000	5933.000000	0.000000
0	7	0.000000	5933.000000	0.000000
0	8	2719.500000	5933.000000	1.000000
0	9	0.000000	5933.000000	0.000000
1	2	3050.250000	5933.000000	1.000000
1	3	2415.000000	5933.000000	1.000000
1	4	1995.000000	5933.000000	1.000000
1	5	1785.000000	5933.000000	1.000000
1	7	3675.000000	5933.000000	1.000000
1	8	110.250000	5933.000000	1.000000
1	9	0.000000	5933.000000	0.000000
1	10	68.250000	5933.000000	1.000000
2	1	1821.750000	5933.000000	1.000000
2	3	0.000000	5933.000000	0.000000
2	4	0.000000	5933.000000	0.000000
2	5	0.000000	5933.000000	0.000000
2	9	0.000000	5933.000000	0.000000
2	10	0.000000	5933.000000	0.000000
3	1	598.500000	5933.000000	1.000000
3	2	0.000000	5933.000000	0.000000
3	4	0.000000	5933.000000	0.000000
3	5	0.000000	5933.000000	0.000000
4	1	1107.750000	5933.000000	1.000000
4	2	0.000000	5933.000000	0.000000
4	3	0.000000	5933.000000	0.000000
4	5	0.000000	5933.000000	0.000000
4	6	0.000000	5933.000000	0.000000
4	7	0.000000	5933.000000	0.000000
5	1	651.000000	5933.000000	1.000000
5	2	0.000000	5933.000000	0.000000
5	3	0.000000	5933.000000	0.000000
5	4	0.000000	5933.000000	0.000000
5	7	0.000000	5933.000000	0.000000
5	8	0.000000	5933.000000	0.000000
6	0	0.000000	5933.000000	0.000000
6	4	0.000000	5933.000000	0.000000
6	7	0.000000	5933.000000	0.000000
6	8	1160.250000	5933.000000	1.000000
6	9	0.000000	5933.000000	0.000000
6	10	0.000000	5933.000000	0.000000
7	0	0.000000	5933.000000	0.000000
7	1	52.500000	5933.000000	1.000000
7	4	0.000000	5933.000000	0.000000
7	5	0.000000	5933.000000	0.000000
7	6	0.000000	5933.000000	0.000000
7	8	0.000000	5933.000000	0.000000
7	9	0.000000	5933.000000	0.000000
7	10	0.000000	5933.000000	0.000000
8	0	52.500000	5933.000000	1.000000
8	1	4798.500000	5933.000000	1.000000
8	5	0.000000	5933.000000	0.000000
8	6	2063.250000	5933.000000	1.000000
8	7	0.000000	5933.000000	0.000000
8	9	2835.000000	5933.000000	1.000000
8	10	0.000000	5933.000000	0.000000
9	0	0.000000	5933.000000	0.000000
9	1	0.000000	5933.000000	0.000000
9	2	0.000000	5933.000000	0.000000
9	6	0.000000	5933.000000	0.000000
9	7	0.000000	5933.000000	0.000000
9	8	1076.250000	5933.000000	1.000000
9	10	2756.250000	5933.000000	1.000000
10	1	1953.000000	5933.000000	1.000000
10	2	0.000000	5933.000000	0.000000
10	6	0.000000	5933.000000	0.000000
10	7	0.000000	5933.000000	0.000000
10	8	0.000000	5933.000000	0.000000
10	9	36.750000	5933.000000	1.000000
440
3	1	10	9	1	0	1	1	1	2	1	5	1	4	
3	3	1	5	1	0	1	1	1	2	1	5	1	4	
3	7	1	3	1	0	1	1	1	5	1	3	1	4	
4	9	8	1	3	1	0	1	1	1	2	1	5	1	4	
3	10	1	7	1	0	1	1	1	2	1	3	1	4	
4	3	1	8	6	1	0	1	1	1	5	1	3	1	4	
3	4	1	7	1	0	1	1	1	2	1	5	1	4	
2	1	8	1	0	1	1	1	2	1	1	1	0	
3	7	1	4	1	0	1	1	1	2	1	3	1	4	
4	0	8	1	2	1	0	1	1	1	2	1	5	1	4	
3	7	1	3	1	0	1	1	1	2	1	1	1	0	
3	5	1	10	1	0	1	1	1	5	1	3	1	4	
3	5	1	2	1	0	1	1	1	2	1	5	1	4	
2	8	1	1	0	1	1	1	2	1	1	1	0	
3	8	1	7	1	0	1	1	1	2	1	3	1	4	
3	6	8	0	8	0	8	1	8	5	8	3	8	4	
3	2	1	5	1	0	1	1	1	5	1	3	1	4	
3	7	1	5	1	0	1	1	1	2	1	5	1	4	
3	5	1	7	1	0	1	1	1	2	1	1	1	0	
2	8	9	8	0	8	1	8	5	8	3	8	4	
3	4	1	10	1	0	1	1	1	2	1	5	1	4	
3	5	1	10	1	0	1	1	1	2	1	5	1	4	
3	8	9	10	8	0	8	1	8	2	8	1	8	0	
2	10	1	1	0	1	1	1	2	1	5	1	4	
4	0	8	1	5	1	0	1	1	1	2	1	3	1	4	
3	3	1	2	1	0	1	1	1	2	1	5	1	4	
2	1	7	1	0	1	1	1	5	1	3	1	4	
3	8	1	4	1	0	1	1	1	5	1	3	1	4	
3	2	1	10	1	0	1	1	1	5	1	3	1	4	
3	2	1	3	1	0	1	1	1	2	1	5	1	4	
2	4	1	1	0	1	1	1	5	1	3	1	4	
4	9	8	1	3	1	0	1	1	1	2	1	3	1	4	
4	0	8	1	3	1	0	1	1	1	2	1	1	1	0	
3	10	1	2	1	0	1	1	1	2	1	3	1	4	
3	7	1	4	1	0	1	1	1	2	1	1	1	0	
4	6	8	1	3	1	0	1	1	1	2	1	3	1	4	
4	9	8	1	5	1	0	1	1	1	5	1	3	1	4	
4	4	1	8	0	1	0	1	1	1	2	1	5	1	4	
3	2	1	7	1	0	1	1	1	2	1	3	1	4	
2	5	1	1	0	1	1	1	2	1	5	1	4	
3	10	1	8	1	0	1	1	1	2	1	5	1	4	
3	3	1	7	1	0	1	1	1	2	1	1	1	0	
4	6	8	1	7	1	0	1	1	1	5	1	3	1	4	
3	3	1	4	1	0	1	1	1	2	1	1	1	0	
3	5	1	8	1	0	1	1	1	2	1	1	1	0	
2	9	8	8	0	8	1	8	2	8	5	8	4	
3	1	8	0	1	0	1	1	1	5	1	3	1	4	
2	1	3	1	0	1	1	1	2	1	1	1	0	
3	2	1	10	1	0	1	1	1	2	1	1	1	0	
2	1	3	1	0	1	1	1	2	1	3	1	4	
3	4	1	7	1	0	1	1	1	2	1	3	1	4	
4	0	8	1	10	1	0	1	1	1	2	1	5	1	4	
3	5	1	8	1	0	1	1	1	2	1	5	1	4	
3	8	1	2	1	0	1	1	1	2	1	5	1	4	
3	6	8	9	8	0	8	1	8	2	8	3	8	4	
3	6	8	0	8	0	8	1	8	2	8	1	8	0	
3	9	8	0	8	0	8	1	8	2	8	3	8	4	
4	5	1	8	6	1	0	1	1	1	2	1	3	1	4	
3	3	1	7	1	0	1	1	1	2	1	5	1	4	
3	9	8	1	1	0	1	1	1	2	1	5	1	4	
3	10	1	5	1	0	1	1	1	2	1	3	1	4	
4	10	1	8	0	1	0	1	1	1	2	1	1	1	0	
2	7	1	1	0	1	1	1	2	1	1	1	0	
3	8	1	7	1	0	1	1	1	5	1	3	1	4	
3	3	1	10	1	0	1	1	1	2	1	5	1	4	
3	3	1	4	1	0	1	1	1	2	1	5	1	4	
3	9	8	6	8	0	8	1	8	5	8	3	8	4	
4	2	1	8	6	1	0	1	1	1	2	1	3	1	4	
3	8	1	5	1	0	1	1	1	2	1	3	1	4	
3	3	1	4	1	0	1	1	1	5	1	3	1	4	
4	7	1	8	6	1	0	1	1	1	2	1	3	1	4	
3	0	8	1	1	0	1	1	1	5	1	3	1	4	
4	6	8	1	2	1	0	1	1	1	5	1	3	1	4	
2	1	2	1	0	1	1	1	2	1	1	1	0	
3	10	1	3	1	0	1	1	1	2	1	5	1	4	
4	10	1	8	6	1	0	1	1	1	5	1	3	1	4	
2	1	3	1	0	1	1	1	2	1	5	1	4	
3	1	8	0	1	0	1	1	1	2	1	3	1	4	
2	1	5	1	0	1	1	1	5	1	3	1	4	
4	4	1	8	6	1	0	1	1	1	2	1	3	1	4	
2	8	6	8	0	8	1	8	5	8	3	8	4	
4	7	1	10	9	1	0	1	1	1	5	1	3	1	4	
2	2	1	1	0	1	1	1	2	1	5	1	4	
3	3	1	10	1	0	1	1	1	5	1	3	1	4	
4	6	8	9	10	8	0	8	1	8	2	8	1	8	0	
3	4	1	3	1	0	1	1	1	5	1	3	1	4	
4	0	8	1	4	1	0	1	1	1	2	1	5	1	4	
3	3	1	8	1	0	1	1	1	2	1	3	1	4	
3	9	8	6	8	0	8	1	8	2	8	5	8	4	
4	10	1	8	0	1	0	1	1	1	2	1	3	1	4	
3	6	8	9	8	0	8	1	8	2	8	1	8	0	
2	3	1	1	0	1	1	1	2	1	1	1	0	
2	1	8	1	0	1	1	1	2	1	5	1	4	
2	3	1	1	0	1	1	1	5	1	3	1	4	
3	4	1	2	1	0	1	1	1	2	1	1	1	0	
2	2	1	1	0	1	1	1	2	1	3	1	4	
2	0	8	8	0	8	1	8	2	8	3	8	4	
3	5	1	8	1	0	1	1	1	5	1	3	1	4	
4	4	1	8	6	1	0	1	1	1	2	1	5	1	4	
4	4	1	10	9	1	0	1	1	1	2	1	3	1	4	
2	0	8	8	0	8	1	8	2	8	1	8	0	
3	8	9	10	8	0	8	1	8	2	8	5	8	4	
3	7	1	2	1	0	1	1	1	2	1	1	1	0	
3	2	1	4	1	0	1	1	1	5	1	3	1	4	
3	5	1	8	1	0	1	1	1	2	1	3	1	4	
2	8	6	8	0	8	1	8	2	8	3	8	4	
4	9	8	1	7	1	0	1	1	1	2	1	1	1	0	
4	3	1	10	9	1	0	1	1	1	2	1	5	1	4	
3	6	8	1	1	0	1	1	1	2	1	5	1	4	
3	7	1	2	1	0	1	1	1	2	1	5	1	4	
3	3	1	8	1	0	1	1	1	2	1	1	1	0	
3	9	8	6	8	0	8	1	8	2	8	3	8	4	
3	5	1	7	1	0	1	1	1	2	1	5	1	4	
2	8	6	8	0	8	1	8	2	8	1	8	0	
3	10	1	2	10	0	10	1	10	2	10	5	10	4	
3	8	1	4	1	0	1	1	1	2	1	5	1	4	
3	10	1	5	1	0	1	1	1	5	1	3	1	4	
4	4	1	8	0	1	0	1	1	1	5	1	3	1	4	
3	6	8	9	8	0	8	1	8	5	8	3	8	4	
3	9	8	0	8	0	8	1	8	5	8	3	8	4	
4	9	8	1	7	1	0	1	1	1	2	1	5	1	4	
3	10	1	3	1	0	1	1	1	2	1	3	1	4	
3	0	8	6	8	0	8	1	8	2	8	5	8	4	
2	6	8	8	0	8	1	8	2	8	5	8	4	
3	4	1	3	1	0	1	1	1	2	1	1	1	0	
2	2	1	1	0	1	1	1	5	1	3	1	4	
4	0	8	1	3	1	0	1	1	1	5	1	3	1	4	
2	1	5	5	0	5	1	5	2	5	5	5	4	
2	4	1	1	0	1	1	1	2	1	5	1	4	
4	7	1	8	0	1	0	1	1	1	2	1	3	1	4	
3	0	8	1	1	0	1	1	1	2	1	3	1	4	
3	10	1	8	1	0	1	1	1	5	1	3	1	4	
3	3	1	5	1	0	1	1	1	2	1	3	1	4	
3	4	1	8	1	0	1	1	1	2	1	1	1	0	
2	1	3	1	0	1	1	1	5	1	3	1	4	
4	5	1	8	6	1	0	1	1	1	2	1	5	1	4	
4	5	1	8	6	1	0	1	1	1	5	1	3	1	4	
4	2	1	10	9	1	0	1	1	1	2	1	1	1	0	
4	9	8	1	7	1	0	1	1	1	2	1	3	1	4	
2	7	1	1	0	1	1	1	2	1	5	1	4	
3	5	1	3	1	0	1	1	1	2	1	1	1	0	
4	0	8	1	5	1	0	1	1	1	5	1	3	1	4	
4	4	1	8	0	1	0	1	1	1	2	1	3	1	4	
4	2	1	8	6	1	0	1	1	1	2	1	1	1	0	
3	7	1	8	1	0	1	1	1	2	1	1	1	0	
2	1	4	1	0	1	1	1	2	1	1	1	0	
4	3	1	8	6	1	0	1	1	1	2	1	5	1	4	
3	2	1	3	1	0	1	1	1	2	1	3	1	4	
3	7	1	10	1	0	1	1	1	2	1	5	1	4	
3	5	1	7	1	0	1	1	1	2	1	3	1	4	
3	4	1	3	1	0	1	1	1	2	1	5	1	4	
3	4	1	5	1	0	1	1	1	5	1	3	1	4	
4	0	8	1	7	1	0	1	1	1	2	1	1	1	0	
3	7	1	2	1	0	1	1	1	5	1	3	1	4	
3	0	8	1	1	0	1	1	1	2	1	5	1	4	
3	2	1	8	1	0	1	1	1	2	1	5	1	4	
3	6	8	0	8	0	8	1	8	2	8	3	8	4	
4	2	1	8	6	1	0	1	1	1	5	1	3	1	4	
3	8	1	4	1	0	1	1	1	2	1	1	1	0	
3	10	1	4	1	0	1	1	1	2	1	5	1	4	
2	9	10	10	0	10	1	10	5	10	3	10	4	
4	6	8	1	3	1	0	1	1	1	5	1	3	1	4	
2	8	6	8	0	8	1	8	2	8	5	8	4	
3	8	9	10	8	0	8	1	8	5	8	3	8	4	
3	5	1	4	1	0	1	1	1	2	1	1	1	0	
3	10	1	7	1	0	1	1	1	5	1	3	1	4	
3	4	1	2	1	0	1	1	1	5	1	3	1	4	
4	9	8	1	4	1	0	1	1	1	2	1	3	1	4	
3	5	1	2	1	0	1	1	1	2	1	3	1	4	
3	4	1	3	1	0	1	1	1	2	1	3	1	4	
4	0	8	1	2	1	0	1	1	1	2	1	1	1	0	
4	9	8	1	5	1	0	1	1	1	2	1	5	1	4	
2	10	1	1	0	1	1	1	2	1	3	1	4	
3	7	1	5	1	0	1	1	1	2	1	1	1	0	
2	4	1	1	0	1	1	1	2	1	1	1	0	
2	10	9	10	0	10	1	10	2	10	1	10	0	
3	7	1	8	1	0	1	1	1	2	1	5	1	4	
4	5	1	10	9	1	0	1	1	1	5	1	3	1	4	
4	6	8	1	5	1	0	1	1	1	2	1	3	1	4	
3	2	1	8	1	0	1	1	1	2	1	3	1	4	
3	3	1	2	1	0	1	1	1	2	1	1	1	0	
3	9	8	0	8	0	8	1	8	2	8	1	8	0	
3	10	1	4	1	0	1	1	1	2	1	1	1	0	
4	5	1	10	9	1	0	1	1	1	2	1	1	1	0	
3	3	1	8	1	0	1	1	1	2	1	5	1	4	
4	0	8	1	5	1	0	1	1	1	2	1	5	1	4	
3	5	1	4	1	0	1	1	1	5	1	3	1	4	
2	8	9	8	0	8	1	8	2	8	3	8	4	
3	3	1	8	1	0	1	1	1	5	1	3	1	4	
3	7	1	2	1	0	1	1	1	2	1	3	1	4	
3	8	1	3	1	0	1	1	1	2	1	1	1	0	
4	6	8	1	4	1	0	1	1	1	2	1	3	1	4	
3	0	8	1	1	0	1	1	1	2	1	1	1	0	
3	7	1	10	1	0	1	1	1	2	1	3	1	4	
4	4	1	8	6	1	0	1	1	1	2	1	1	1	0	
3	4	1	2	1	0	1	1	1	2	1	3	1	4	
2	8	1	8	0	8	1	8	2	8	5	8	4	
2	5	1	1	0	1	1	1	2	1	3	1	4	
3	4	1	7	1	0	1	1	1	5	1	3	1	4	
4	9	8	1	3	1	0	1	1	1	5	1	3	1	4	
4	7	1	10	9	1	0	1	1	1	2	1	3	1	4	
2	1	10	1	0	1	1	1	5	1	3	1	4	
3	4	1	10	1	0	1	1	1	2	1	3	1	4	
4	7	1	8	6	1	0	1	1	1	2	1	1	1	0	
3	1	10	9	1	0	1	1	1	2	1	1	1	0	
4	2	1	8	0	1	0	1	1	1	5	1	3	1	4	
3	3	1	5	1	0	1	1	1	2	1	1	1	0	
3	5	1	10	1	0	1	1	1	2	1	3	1	4	
4	6	8	1	5	1	0	1	1	1	5	1	3	1	4	
2	1	4	4	0	4	1	4	2	4	5	4	4	
3	3	1	5	1	0	1	1	1	5	1	3	1	4	
4	7	1	8	0	1	0	1	1	1	5	1	3	1	4	
3	8	1	2	1	0	1	1	1	2	1	1	1	0	
3	3	1	4	1	0	1	1	1	2	1	3	1	4	
3	4	1	5	1	0	1	1	1	2	1	3	1	4	
3	10	1	3	1	0	1	1	1	2	1	1	1	0	
3	2	1	10	1	0	1	1	1	2	1	3	1	4	
3	5	1	7	1	0	1	1	1	5	1	3	1	4	
3	2	1	8	1	0	1	1	1	2	1	1	1	0	
4	6	8	1	5	1	0	1	1	1	2	1	1	1	0	
4	2	1	8	6	1	0	1	1	1	2	1	5	1	4	
2	9	8	8	0	8	1	8	2	8	1	8	0	
4	0	8	1	4	1	0	1	1	1	2	1	3	1	4	
3	4	1	7	1	0	1	1	1	2	1	1	1	0	
2	6	8	8	0	8	1	8	2	8	1	8	0	
3	2	1	5	1	0	1	1	1	2	1	1	1	0	
2	10	1	1	0	1	1	1	5	1	3	1	4	
4	0	8	1	7	1	0	1	1	1	5	1	3	1	4	
2	8	1	1	0	1	1	1	5	1	3	1	4	
3	5	1	4	1	0	1	1	1	2	1	3	1	4	
3	1	10	9	1	0	1	1	1	2	1	3	1	4	
4	9	8	1	4	1	0	1	1	1	5	1	3	1	4	
3	10	1	2	1	0	1	1	1	2	1	1	1	0	
3	5	1	10	1	0	1	1	1	2	1	1	1	0	
2	10	9	10	0	10	1	10	2	10	5	10	4	
2	3	1	1	0	1	1	1	2	1	3	1	4	
3	1	8	6	1	0	1	1	1	2	1	3	1	4	
3	9	8	6	8	0	8	1	8	2	8	1	8	0	
3	2	1	4	1	0	1	1	1	2	1	3	1	4	
4	9	8	1	2	1	0	1	1	1	2	1	1	1	0	
3	1	8	0	1	0	1	1	1	2	1	1	1	0	
4	0	8	1	10	1	0	1	1	1	5	1	3	1	4	
3	4	1	8	1	0	1	1	1	2	1	5	1	4	
3	10	1	4	1	0	1	1	1	5	1	3	1	4	
4	6	8	1	4	1	0	1	1	1	2	1	5	1	4	
3	8	1	3	1	0	1	1	1	2	1	5	1	4	
3	5	1	3	1	0	1	1	1	2	1	3	1	4	
3	5	1	2	1	0	1	1	1	5	1	3	1	4	
3	10	1	2	1	0	1	1	1	5	1	3	1	4	
2	6	8	8	0	8	1	8	5	8	3	8	4	
4	5	1	10	9	1	0	1	1	1	2	1	5	1	4	
4	7	1	8	6	1	0	1	1	1	5	1	3	1	4	
3	9	8	0	8	0	8	1	8	2	8	5	8	4	
4	0	8	1	4	1	0	1	1	1	5	1	3	1	4	
2	8	0	8	0	8	1	8	2	8	3	8	4	
3	9	8	1	1	0	1	1	1	2	1	1	1	0	
4	4	1	10	9	1	0	1	1	1	5	1	3	1	4	
2	8	0	8	0	8	1	8	2	8	1	8	0	
3	1	8	6	1	0	1	1	1	2	1	5	1	4	
3	7	1	4	1	0	1	1	1	2	1	5	1	4	
2	9	8	8	0	8	1	8	2	8	3	8	4	
4	6	8	1	7	1	0	1	1	1	2	1	1	1	0	
3	2	1	4	2	0	2	1	2	2	2	5	2	4	
4	3	1	8	6	1	0	1	1	1	2	1	3	1	4	
3	7	1	3	1	0	1	1	1	2	1	3	1	4	
3	10	1	8	1	0	1	1	1	2	1	1	1	0	
4	10	1	8	0	1	0	1	1	1	2	1	5	1	4	
4	7	1	10	9	1	0	1	1	1	2	1	1	1	0	
3	4	1	5	1	0	1	1	1	2	1	1	1	0	
4	6	8	1	7	8	0	8	1	8	2	8	5	8	4	
3	2	1	7	1	0	1	1	1	2	1	1	1	0	
3	0	8	6	8	0	8	1	8	2	8	3	8	4	
3	10	1	3	1	0	1	1	1	5	1	3	1	4	
4	4	1	8	6	1	0	1	1	1	5	1	3	1	4	
2	1	8	1	0	1	1	1	5	1	3	1	4	
3	0	8	9	8	0	8	1	8	5	8	3	8	4	
3	8	1	3	1	0	1	1	1	5	1	3	1	4	
4	6	8	9	10	8	0	8	1	8	5	8	3	8	4	
3	0	8	6	8	0	8	1	8	2	8	1	8	0	
2	8	9	8	0	8	1	8	2	8	1	8	0	
4	6	8	1	2	1	0	1	1	1	2	1	1	1	0	
2	7	1	1	0	1	1	1	5	1	3	1	4	
4	2	1	10	9	1	0	1	1	1	2	1	5	1	4	
3	6	8	1	1	0	1	1	1	2	1	3	1	4	
4	3	1	8	6	1	0	1	1	1	2	1	1	1	0	
4	9	8	1	4	1	0	1	1	1	2	1	1	1	0	
3	10	1	8	1	0	1	1	1	2	1	3	1	4	
4	3	1	10	9	1	0	1	1	1	2	1	1	1	0	
3	2	1	7	1	0	1	1	1	5	1	3	1	4	
3	7	1	3	1	0	1	1	1	2	1	5	1	4	
4	9	8	1	2	8	0	8	1	8	2	8	5	8	4	
4	2	1	10	9	1	0	1	1	1	2	1	3	1	4	
3	8	1	7	1	0	1	1	1	2	1	1	1	0	
4	5	1	8	0	1	0	1	1	1	5	1	3	1	4	
4	0	8	1	7	1	0	1	1	1	2	1	3	1	4	
3	2	1	4	1	0	1	1	1	2	1	1	1	0	
3	0	8	6	8	0	8	1	8	5	8	3	8	4	
3	9	8	1	1	0	1	1	1	2	1	3	1	4	
4	0	8	1	5	1	0	1	1	1	2	1	1	1	0	
2	1	10	1	0	1	1	1	2	1	1	1	0	
3	6	8	9	8	0	8	1	8	2	8	5	8	4	
4	5	1	8	0	1	0	1	1	1	2	1	1	1	0	
2	1	8	1	0	1	1	1	2	1	3	1	4	
4	0	8	1	2	1	0	1	1	1	5	1	3	1	4	
3	7	1	4	1	0	1	1	1	5	1	3	1	4	
2	10	1	1	0	1	1	1	2	1	1	1	0	
4	9	8	1	7	1	0	1	1	1	5	1	3	1	4	
4	0	8	1	3	1	0	1	1	1	2	1	5	1	4	
4	3	1	8	0	1	0	1	1	1	2	1	3	1	4	
4	6	8	1	2	1	0	1	1	1	2	1	3	1	4	
3	7	1	5	1	0	1	1	1	2	1	3	1	4	
3	6	8	1	1	0	1	1	1	2	1	1	1	0	
2	0	8	0	0	0	1	0	2	0	5	0	4	
3	6	8	1	1	0	1	1	1	5	1	3	1	4	
3	1	8	0	1	0	1	1	1	2	1	5	1	4	
2	1	5	1	0	1	1	1	2	1	3	1	4	
4	3	1	10	9	1	0	1	1	1	5	1	3	1	4	
2	9	8	8	0	8	1	8	5	8	3	8	4	
4	5	1	8	6	1	0	1	1	1	2	1	1	1	0	
2	4	1	1	0	1	1	1	2	1	3	1	4	
2	8	9	9	0	9	1	9	2	9	5	9	4	
3	5	1	3	1	0	1	1	1	5	1	3	1	4	
3	1	8	6	1	0	1	1	1	5	1	3	1	4	
2	1	5	1	0	1	1	1	2	1	1	1	0	
3	8	1	5	1	0	1	1	1	5	1	3	1	4	
4	5	1	8	0	1	0	1	1	1	2	1	3	1	4	
2	3	1	1	0	1	1	1	2	1	5	1	4	
3	7	1	10	1	0	1	1	1	5	1	3	1	4	
3	3	1	2	1	0	1	1	1	5	1	3	1	4	
4	6	8	1	7	1	0	1	1	1	2	1	3	1	4	
3	7	1	8	1	0	1	1	1	2	1	3	1	4	
4	3	1	8	0	1	0	1	1	1	2	1	1	1	0	
3	0	8	9	8	0	8	1	8	2	8	3	8	4	
3	2	1	10	1	0	1	1	1	2	1	5	1	4	
4	2	1	8	0	1	0	1	1	1	2	1	3	1	4	
3	8	1	3	1	0	1	1	1	2	1	3	1	4	
4	6	8	1	4	1	0	1	1	1	5	1	3	1	4	
2	2	1	1	0	1	1	1	2	1	1	1	0	
3	4	1	8	1	0	1	1	1	5	1	3	1	4	
3	4	1	8	1	0	1	1	1	2	1	3	1	4	
3	4	1	10	1	0	1	1	1	2	1	1	1	0	
4	10	1	8	6	1	0	1	1	1	2	1	5	1	4	
3	4	1	10	1	0	1	1	1	5	1	3	1	4	
4	10	1	8	6	1	0	1	1	1	2	1	1	1	0	
3	10	1	5	1	0	1	1	1	2	1	5	1	4	
2	1	2	1	0	1	1	1	2	1	3	1	4	
3	6	8	0	8	0	8	1	8	2	8	5	8	4	
3	8	1	7	7	0	7	1	7	2	7	5	7	4	
4	6	8	1	4	1	0	1	1	1	2	1	1	1	0	
3	8	1	5	1	0	1	1	1	2	1	1	1	0	
2	9	10	10	0	10	1	10	2	10	1	10	0	
3	2	1	7	1	0	1	1	1	2	1	5	1	4	
3	7	1	10	1	0	1	1	1	2	1	1	1	0	
4	2	1	10	9	1	0	1	1	1	5	1	3	1	4	
4	6	8	9	10	8	0	8	1	8	2	8	3	8	4	
4	9	8	1	4	1	0	1	1	1	2	1	5	1	4	
3	9	8	1	1	0	1	1	1	5	1	3	1	4	
3	0	8	9	9	0	9	1	9	2	9	5	9	4	
2	6	8	8	0	8	1	8	2	8	3	8	4	
4	10	1	8	0	1	0	1	1	1	5	1	3	1	4	
4	4	1	8	0	1	0	1	1	1	2	1	1	1	0	
2	8	0	8	0	8	1	8	5	8	3	8	4	
2	0	8	8	0	8	1	8	5	8	3	8	4	
4	7	1	10	9	1	0	1	1	1	2	1	5	1	4	
3	3	1	7	1	0	1	1	1	5	1	3	1	4	
4	10	1	8	6	1	0	1	1	1	2	1	3	1	4	
4	7	1	8	0	1	0	1	1	1	2	1	1	1	0	
4	6	8	1	3	1	0	1	1	1	2	1	1	1	0	
3	8	1	4	1	0	1	1	1	2	1	3	1	4	
3	3	1	2	1	0	1	1	1	2	1	3	1	4	
2	1	7	1	0	1	1	1	2	1	3	1	4	
4	9	8	1	5	1	0	1	1	1	2	1	1	1	0	
2	10	9	10	0	10	1	10	2	10	3	10	4	
3	10	1	7	1	0	1	1	1	2	1	1	1	0	
2	1	2	2	0	2	1	2	2	2	5	2	4	
4	4	1	10	9	1	0	1	1	1	2	1	1	1	0	
4	6	8	1	3	1	0	1	1	1	2	1	5	1	4	
3	3	1	10	1	0	1	1	1	2	1	3	1	4	
4	7	1	8	0	1	0	1	1	1	2	1	5	1	4	
2	5	1	1	0	1	1	1	5	1	3	1	4	
4	0	8	1	2	1	0	1	1	1	2	1	3	1	4	
4	4	1	10	9	1	0	1	1	1	2	1	5	1	4	
2	1	4	1	0	1	1	1	5	1	3	1	4	
2	1	7	1	0	1	1	1	2	1	1	1	0	
3	4	1	5	4	0	4	1	4	2	4	5	4	4	
4	2	1	8	0	1	0	1	1	1	2	1	5	1	4	
2	1	10	1	0	1	1	1	2	1	5	1	4	
4	0	8	1	10	1	0	1	1	1	2	1	3	1	4	
2	1	10	1	0	1	1	1	2	1	3	1	4	
4	9	8	1	2	1	0	1	1	1	5	1	3	1	4	
3	7	1	5	1	0	1	1	1	5	1	3	1	4	
2	8	1	1	0	1	1	1	2	1	3	1	4	
3	2	1	3	1	0	1	1	1	2	1	1	1	0	
4	3	1	8	0	1	0	1	1	1	5	1	3	1	4	
3	2	1	3	1	0	1	1	1	5	1	3	1	4	
3	0	8	9	8	0	8	1	8	2	8	1	8	0	
3	10	1	7	1	0	1	1	1	2	1	5	1	4	
2	1	7	7	0	7	1	7	2	7	5	7	4	
2	1	4	1	0	1	1	1	2	1	3	1	4	
3	5	1	4	1	0	1	1	1	2	1	5	1	4	
4	5	1	10	9	1	0	1	1	1	2	1	3	1	4	
3	2	1	5	1	0	1	1	1	2	1	5	1	4	
4	0	8	1	3	1	0	1	1	1	2	1	3	1	4	
3	3	1	7	1	0	1	1	1	2	1	3	1	4	
4	6	8	1	2	1	0	1	1	1	2	1	5	1	4	
3	1	8	6	1	0	1	1	1	2	1	1	1	0	
4	9	8	1	5	1	0	1	1	1	2	1	3	1	4	
2	5	1	1	0	1	1	1	2	1	1	1	0	
4	3	1	8	0	1	0	1	1	1	2	1	5	1	4	
3	1	10	9	1	0	1	1	1	5	1	3	1	4	
3	8	1	2	1	0	1	1	1	5	1	3	1	4	
4	6	8	9	10	8	0	8	1	8	2	8	5	8	4	
4	0	8	1	7	1	0	1	1	1	2	1	5	1	4	
3	4	1	2	1	0	1	1	1	2	1	5	1	4	
4	9	8	1	3	1	0	1	1	1	2	1	1	1	0	
4	0	8	1	10	1	0	1	1	1	2	1	1	1	0	
4	2	1	8	0	1	0	1	1	1	2	1	1	1	0	
3	10	1	4	1	0	1	1	1	2	1	3	1	4	
3	8	1	2	1	0	1	1	1	2	1	3	1	4	
4	7	1	8	6	1	0	1	1	1	2	1	5	1	4	
3	2	1	5	1	0	1	1	1	2	1	3	1	4	
3	10	1	5	1	0	1	1	1	2	1	1	1	0	
2	9	10	10	0	10	1	10	2	10	5	10	4	
3	5	1	3	1	0	1	1	1	2	1	5	1	4	
3	3	1	10	1	0	1	1	1	2	1	1	1	0	
3	8	9	10	8	0	8	1	8	2	8	3	8	4	
2	7	1	1	0	1	1	1	2	1	3	1	4	
2	10	9	10	0	10	1	10	5	10	3	10	4	
2	9	10	10	0	10	1	10	2	10	3	10	4	
2	1	2	1	0	1	1	1	5	1	3	1	4	
3	2	1	8	1	0	1	1	1	5	1	3	1	4	
4	6	8	1	5	1	0	1	1	1	2	1	5	1	4	
3	7	1	8	1	0	1	1	1	5	1	3	1	4	
3	5	1	2	1	0	1	1	1	2	1	1	1	0	
3	8	1	5	1	0	1	1	1	2	1	5	1	4	
4	9	8	1	2	1	0	1	1	1	2	1	3	1	4	
4	3	1	10	9	1	0	1	1	1	2	1	3	1	4	
2	8	0	8	0	8	1	8	2	8	5	8	4	
4	0	8	1	4	1	0	1	1	1	2	1	1	1	0	
4	5	1	8	0	1	0	1	1	1	2	1	5	1	4	
