10639.1	9138.64
773
664.658	154.671
11
0	2	8
1	2	8
2	2	8
3	0	8
4	0	8
5	0	8
6	0	8
7	0	8
8	4	8
9	2	8
10	2	8
68
0	6	834.000000	1290.000000	1.000000
0	7	0.000000	60.000000	0.000000
0	8	2274.000000	2340.000000	1.000000
0	9	0.000000	1050.000000	0.000000
1	2	1623.091418	2520.000000	1.000000
1	3	1766.923991	2190.000000	1.000000
1	4	1349.816934	1350.000000	1.000000
1	5	2028.000000	2160.000000	1.000000
1	7	984.000000	1470.000000	1.000000
1	8	96.000000	3480.000000	1.000000
1	9	0.000000	60.000000	0.000000
1	10	1026.000000	2460.000000	1.000000
2	1	42.000000	2520.000000	1.000000
2	3	1296.000000	1950.000000	1.000000
2	4	906.910269	1140.000000	1.000000
2	5	0.000000	30.000000	0.000000
2	9	18.000000	1800.000000	1.000000
2	10	0.000000	930.000000	0.000000
3	1	672.000000	2190.000000	1.000000
3	2	314.923991	1950.000000	1.000000
3	4	0.000000	960.000000	0.000000
3	5	0.000000	30.000000	0.000000
4	1	600.718234	1350.000000	1.000000
4	2	12.000000	1140.000000	1.000000
4	3	0.000000	960.000000	0.000000
4	5	0.000000	870.000000	0.000000
4	6	0.000000	60.000000	0.000000
4	7	653.281766	990.000000	1.000000
5	1	49.807888	2160.000000	1.000000
5	2	0.000000	30.000000	0.000000
5	3	0.000000	30.000000	0.000000
5	4	0.000000	870.000000	0.000000
5	7	694.192112	1050.000000	1.000000
5	8	0.000000	30.000000	0.000000
6	0	12.000000	1290.000000	1.000000
6	4	0.000000	60.000000	0.000000
6	7	1470.788838	1920.000000	1.000000
6	8	36.718234	2250.000000	1.000000
6	9	0.000000	30.000000	0.000000
6	10	0.000000	60.000000	0.000000
7	0	0.000000	60.000000	0.000000
7	1	35.281766	1470.000000	1.000000
7	4	23.272797	990.000000	1.000000
7	5	12.000000	1050.000000	1.000000
7	6	18.000000	1920.000000	1.000000
7	8	0.000000	930.000000	1.000000
7	9	0.000000	30.000000	0.000000
7	10	0.000000	30.000000	0.000000
8	0	48.000000	2340.000000	1.000000
8	1	3358.919315	3480.000000	1.000000
8	5	0.000000	30.000000	0.000000
8	6	1699.507072	2250.000000	1.000000
8	7	426.291847	930.000000	1.000000
8	9	2274.000000	2370.000000	1.000000
8	10	0.000000	1470.000000	0.000000
9	0	0.000000	1050.000000	0.000000
9	1	0.000000	60.000000	0.000000
9	2	1716.894860	1800.000000	1.000000
9	6	0.000000	30.000000	0.000000
9	7	0.000000	30.000000	0.000000
9	8	48.000000	2370.000000	1.000000
9	10	2184.000000	3300.000000	1.000000
10	1	1697.105140	2460.000000	1.000000
10	2	0.000000	930.000000	0.000000
10	6	0.000000	60.000000	0.000000
10	7	0.000000	30.000000	0.000000
10	8	0.000000	1470.000000	0.000000
10	9	558.894860	3300.000000	1.000000
440
3	1	10	9	10	0	10	1	10	2	10	5	10	4	
3	3	1	5	1	0	1	1	1	2	1	5	1	4	
3	7	1	3	1	0	1	1	1	5	1	3	1	4	
3	9	2	3	9	0	9	1	9	2	9	5	9	4	
3	10	1	7	10	0	10	1	10	2	7	3	7	4	
4	3	1	8	6	1	0	1	1	1	5	1	3	1	4	
2	4	7	7	0	7	1	7	2	7	5	7	4	
2	1	8	1	0	1	1	1	2	1	1	1	0	
2	7	4	7	0	7	1	7	2	7	3	7	4	
4	0	8	1	2	8	0	8	1	8	2	8	5	2	4	
3	7	1	3	1	0	1	1	1	2	1	1	1	0	
3	5	1	10	1	0	1	1	1	5	1	3	1	4	
3	5	1	2	1	0	1	1	1	2	1	5	1	4	
2	8	1	1	0	1	1	1	2	1	1	1	0	
3	8	6	7	7	0	7	1	7	2	7	3	7	4	
2	6	0	6	0	6	1	6	5	6	3	6	4	
3	2	1	5	1	0	1	1	1	5	1	3	1	4	
2	7	5	7	0	7	1	7	2	7	5	7	4	
2	5	7	7	0	7	1	7	2	7	1	7	0	
2	8	9	9	0	9	1	9	5	9	3	9	4	
3	4	1	10	1	0	1	1	1	2	1	5	1	4	
3	5	1	10	1	0	1	1	1	2	1	5	1	4	
3	8	1	10	10	0	10	1	10	2	10	1	10	0	
2	10	1	1	0	1	1	1	2	1	5	1	4	
4	0	8	1	5	5	0	5	1	5	2	5	3	5	4	
2	3	2	2	0	2	1	2	2	2	5	2	4	
2	1	7	7	0	7	1	7	5	7	3	7	4	
3	8	1	4	1	0	1	1	1	5	1	3	1	4	
3	2	1	10	1	0	1	1	1	5	1	3	1	4	
2	2	3	2	0	2	1	2	2	2	5	2	4	
2	4	1	1	0	1	1	1	5	1	3	1	4	
3	9	2	3	9	0	9	1	9	2	9	3	9	4	
4	0	8	1	3	8	0	8	1	8	2	8	1	3	0	
3	10	9	2	10	0	10	1	10	2	10	3	10	4	
2	7	4	7	0	7	1	7	2	7	1	7	0	
4	6	8	1	3	1	0	1	1	1	2	1	3	1	4	
4	9	8	1	5	9	0	9	1	9	5	5	3	5	4	
4	4	1	8	0	8	0	8	1	8	2	8	5	8	4	
3	2	1	7	1	0	1	1	1	2	1	3	1	4	
2	5	1	1	0	1	1	1	2	1	5	1	4	
3	10	1	8	1	0	1	1	1	2	1	5	1	4	
3	3	1	7	1	0	1	1	1	2	1	1	1	0	
2	6	7	7	0	7	1	7	5	7	3	7	4	
3	3	1	4	1	0	1	1	1	2	1	1	1	0	
3	5	1	8	1	0	1	1	1	2	1	1	1	0	
2	9	8	9	0	9	1	9	2	9	5	9	4	
3	1	8	0	8	0	8	1	8	5	8	3	8	4	
2	1	3	1	0	1	1	1	2	1	1	1	0	
3	2	1	10	1	0	1	1	1	2	1	1	1	0	
2	1	3	1	0	1	1	1	2	1	3	1	4	
2	4	7	7	0	7	1	7	2	7	3	7	4	
4	0	8	1	10	10	0	10	1	10	2	10	5	10	4	
3	5	1	8	1	0	1	1	1	2	1	5	1	4	
3	8	1	2	2	0	2	1	2	2	2	5	2	4	
3	6	8	9	6	0	6	1	8	2	8	3	9	4	
2	6	0	6	0	6	1	6	2	6	1	6	0	
3	9	8	0	9	0	9	1	9	2	9	3	9	4	
4	5	1	8	6	8	0	8	1	8	2	8	3	8	4	
3	3	1	7	1	0	1	1	1	2	1	5	1	4	
3	9	8	1	9	0	9	1	9	2	9	5	8	4	
3	10	1	5	1	0	1	1	1	2	1	3	1	4	
4	10	9	8	0	0	0	0	1	0	2	0	1	0	0	
2	7	1	1	0	1	1	1	2	1	1	1	0	
3	8	6	7	7	0	7	1	7	5	7	3	7	4	
3	3	1	10	1	0	1	1	1	2	1	5	1	4	
3	3	1	4	1	0	1	1	1	2	1	5	1	4	
3	9	8	6	9	0	9	1	9	5	9	3	9	4	
4	2	1	8	6	1	0	1	1	1	2	1	3	1	4	
3	8	1	5	1	0	1	1	1	2	1	3	1	4	
3	3	1	4	3	0	3	1	3	5	3	3	3	4	
2	7	6	7	0	7	1	7	2	7	3	7	4	
3	0	8	1	8	0	8	1	8	5	8	3	8	4	
4	6	8	1	2	1	0	1	1	1	5	1	3	1	4	
2	1	2	1	0	1	1	1	2	1	1	1	0	
3	10	1	3	1	0	1	1	1	2	1	5	1	4	
4	10	9	8	6	10	0	10	1	10	5	10	3	10	4	
2	1	3	3	0	3	1	3	2	3	5	3	4	
3	1	8	0	1	0	1	1	8	2	8	3	8	4	
2	1	5	5	0	5	1	5	5	5	3	5	4	
3	4	7	6	7	0	7	1	7	2	7	3	7	4	
2	8	6	8	0	8	1	8	5	8	3	8	4	
4	7	1	10	9	7	0	7	1	7	5	7	3	7	4	
2	2	1	1	0	1	1	1	2	1	5	1	4	
3	3	1	10	1	0	1	1	1	5	1	3	1	4	
4	6	8	1	10	10	0	10	1	10	2	10	1	10	0	
3	4	1	3	1	0	1	1	1	5	1	3	1	4	
4	0	8	1	4	4	0	4	1	4	2	4	5	4	4	
3	3	1	8	1	0	1	1	1	2	1	3	1	4	
3	9	8	6	9	0	9	1	9	2	9	5	8	4	
4	10	9	8	0	8	0	8	1	8	2	8	3	8	4	
3	6	8	9	9	0	9	1	9	2	9	1	9	0	
2	3	1	1	0	1	1	1	2	1	1	1	0	
2	1	8	1	0	1	1	1	2	1	5	1	4	
2	3	1	1	0	1	1	1	5	1	3	1	4	
2	4	2	2	0	2	1	2	2	2	1	2	0	
2	2	1	1	0	1	1	1	2	1	3	1	4	
2	0	8	8	0	8	1	8	2	8	3	8	4	
3	5	1	8	1	0	1	1	1	5	1	3	1	4	
3	4	7	6	7	0	7	1	7	2	7	5	7	4	
3	4	2	9	4	0	2	1	2	2	9	3	9	4	
2	0	8	8	0	8	1	8	2	8	1	8	0	
3	8	1	10	8	0	1	1	1	2	1	5	1	4	
3	7	1	2	1	0	1	1	1	2	1	1	1	0	
2	2	4	2	0	2	1	2	5	2	3	2	4	
3	5	1	8	1	0	1	1	1	2	1	3	1	4	
2	8	6	8	0	8	1	8	2	8	3	8	4	
4	9	8	1	7	1	0	1	1	1	2	1	1	7	0	
3	3	2	9	9	0	9	1	9	2	9	5	9	4	
3	6	8	1	1	0	1	1	1	2	1	5	1	4	
3	7	1	2	1	0	1	1	1	2	1	5	1	4	
3	3	1	8	1	0	1	1	1	2	1	1	1	0	
3	9	8	6	9	0	9	1	9	2	9	3	9	4	
2	5	7	7	0	7	1	7	2	7	5	7	4	
2	8	6	8	0	8	1	8	2	8	1	8	0	
3	10	9	2	10	0	2	1	2	2	2	5	2	4	
3	8	7	4	8	0	8	1	7	2	7	5	7	4	
3	10	1	5	1	0	1	1	1	5	1	3	1	4	
4	4	1	8	0	4	0	4	1	4	5	1	3	8	4	
3	6	8	9	8	0	8	1	8	5	8	3	9	4	
3	9	8	0	9	0	9	1	9	5	9	3	9	4	
4	9	8	1	7	7	0	7	1	7	2	7	5	7	4	
3	10	1	3	1	0	1	1	1	2	1	3	1	4	
2	0	6	6	0	6	1	6	2	6	5	6	4	
2	6	8	8	0	8	1	8	2	8	5	8	4	
3	4	1	3	1	0	1	1	1	2	1	1	1	0	
2	2	1	1	0	1	1	1	5	1	3	1	4	
4	0	8	1	3	8	0	8	1	8	5	3	3	3	4	
2	1	5	5	0	5	1	5	2	5	5	5	4	
2	4	1	1	0	1	1	1	2	1	5	1	4	
3	7	6	0	7	0	7	1	7	2	7	3	7	4	
3	0	8	1	0	0	0	1	8	2	8	3	8	4	
3	10	1	8	1	0	1	1	1	5	1	3	1	4	
3	3	1	5	1	0	1	1	1	2	1	3	1	4	
3	4	1	8	1	0	1	1	1	2	1	1	1	0	
2	1	3	3	0	3	1	3	5	3	3	3	4	
4	5	1	8	6	8	0	8	1	8	2	8	5	8	4	
4	5	1	8	6	8	0	8	1	8	5	8	3	8	4	
2	2	9	9	0	9	1	9	2	9	1	9	0	
4	9	8	1	7	7	0	7	1	7	2	7	3	7	4	
2	7	1	1	0	1	1	1	2	1	5	1	4	
3	5	1	3	1	0	1	1	1	2	1	1	1	0	
4	0	8	1	5	8	0	8	1	8	5	5	3	5	4	
4	4	1	8	0	8	0	8	1	8	2	8	3	8	4	
4	2	1	8	6	1	0	1	1	1	2	1	1	1	0	
3	7	6	8	8	0	8	1	8	2	8	1	8	0	
2	1	4	1	0	1	1	1	2	1	1	1	0	
4	3	1	8	6	1	0	1	1	1	2	1	5	1	4	
2	2	3	2	0	2	1	2	2	2	3	2	4	
3	7	1	10	7	0	7	1	1	2	1	5	10	4	
2	5	7	7	0	7	1	7	2	7	3	7	4	
3	4	1	3	1	0	1	1	1	2	1	5	1	4	
3	4	1	5	4	0	4	1	4	5	4	3	4	4	
3	0	6	7	7	0	7	1	7	2	7	1	7	0	
3	7	1	2	1	0	1	1	1	5	1	3	1	4	
3	0	8	1	8	0	8	1	8	2	8	5	8	4	
3	2	1	8	1	0	1	1	1	2	1	5	1	4	
2	6	0	6	0	6	1	6	2	6	3	6	4	
4	2	1	8	6	1	0	1	1	1	5	1	3	1	4	
3	8	1	4	1	0	1	1	1	2	1	1	1	0	
3	10	1	4	1	0	1	1	1	2	1	5	1	4	
2	9	10	9	0	9	1	9	5	9	3	9	4	
4	6	8	1	3	1	0	1	1	1	5	1	3	1	4	
2	8	6	8	0	8	1	8	2	8	5	8	4	
3	8	1	10	8	0	8	1	10	5	10	3	10	4	
3	5	1	4	1	0	1	1	1	2	1	1	1	0	
3	10	1	7	10	0	10	1	7	5	7	3	7	4	
2	4	2	2	0	2	1	2	5	2	3	2	4	
3	9	2	4	9	0	9	1	9	2	9	3	9	4	
3	5	1	2	1	0	1	1	1	2	1	3	1	4	
3	4	1	3	1	0	1	1	1	2	1	3	1	4	
4	0	8	1	2	8	0	8	1	8	2	8	1	2	0	
4	9	8	1	5	9	0	5	1	5	2	5	5	5	4	
2	10	1	1	0	1	1	1	2	1	3	1	4	
2	7	5	7	0	7	1	7	2	7	1	7	0	
2	4	1	1	0	1	1	1	2	1	1	1	0	
2	10	9	9	0	9	1	9	2	9	1	9	0	
3	7	1	8	1	0	1	1	1	2	1	5	1	4	
4	5	1	10	9	5	0	5	1	5	5	5	3	10	4	
3	6	7	5	7	0	7	1	7	2	7	3	7	4	
3	2	1	8	1	0	1	1	1	2	1	3	1	4	
2	3	2	2	0	2	1	2	2	2	1	2	0	
3	9	8	0	9	0	9	1	9	2	0	1	0	0	
3	10	1	4	1	0	1	1	1	2	1	1	1	0	
4	5	1	10	9	5	0	10	1	10	2	10	1	10	0	
3	3	1	8	1	0	1	1	1	2	1	5	1	4	
4	0	8	1	5	8	0	5	1	5	2	5	5	5	4	
3	5	1	4	1	0	1	1	1	5	1	3	1	4	
2	8	9	9	0	9	1	9	2	9	3	9	4	
3	3	1	8	1	0	1	1	1	5	1	3	1	4	
3	7	1	2	1	0	1	1	1	2	1	3	1	4	
3	8	1	3	1	0	1	1	1	2	1	1	1	0	
3	6	7	4	7	0	7	1	7	2	7	3	7	4	
3	0	8	1	8	0	8	1	8	2	8	1	8	0	
3	7	1	10	7	0	10	1	10	2	10	3	10	4	
4	4	1	8	6	8	0	8	1	8	2	8	1	8	0	
2	4	2	2	0	2	1	2	2	2	3	2	4	
2	8	1	8	0	8	1	8	2	8	5	8	4	
2	5	1	1	0	1	1	1	2	1	3	1	4	
2	4	7	7	0	7	1	7	5	7	3	7	4	
3	9	2	3	9	0	9	1	9	5	9	3	9	4	
4	7	1	10	9	7	0	10	1	10	2	10	3	10	4	
2	1	10	1	0	1	1	1	5	1	3	1	4	
3	4	1	10	1	0	1	1	1	2	1	3	1	4	
2	7	6	7	0	7	1	7	2	7	1	7	0	
3	1	10	9	1	0	1	1	10	2	10	1	9	0	
4	2	1	8	0	2	0	2	1	2	5	1	3	8	4	
3	3	1	5	1	0	1	1	1	2	1	1	1	0	
3	5	1	10	1	0	1	1	1	2	1	3	1	4	
3	6	7	5	7	0	7	1	7	5	7	3	7	4	
2	1	4	4	0	4	1	4	2	4	5	4	4	
3	3	1	5	1	0	1	1	1	5	1	3	1	4	
3	7	6	0	7	0	7	1	7	5	7	3	7	4	
3	8	1	2	8	0	8	1	8	2	1	1	1	0	
3	3	1	4	1	0	1	1	1	2	1	3	1	4	
3	4	1	5	1	0	1	1	1	2	1	3	1	4	
3	10	1	3	1	0	1	1	1	2	1	1	1	0	
3	2	1	10	1	0	1	1	1	2	1	3	1	4	
2	5	7	7	0	7	1	7	5	7	3	7	4	
3	2	1	8	1	0	1	1	1	2	1	1	1	0	
3	6	7	5	7	0	7	1	7	2	7	1	7	0	
4	2	1	8	6	1	0	1	1	1	2	1	5	1	4	
2	9	8	9	0	9	1	9	2	9	1	9	0	
4	0	8	7	4	0	0	0	1	7	2	7	3	7	4	
2	4	7	7	0	7	1	7	2	7	1	7	0	
2	6	8	8	0	8	1	8	2	8	1	8	0	
3	2	1	5	1	0	1	1	1	2	1	1	1	0	
2	10	1	10	0	10	1	10	5	10	3	10	4	
3	0	6	7	7	0	7	1	7	5	7	3	7	4	
2	8	1	8	0	8	1	8	5	8	3	8	4	
3	5	1	4	1	0	1	1	1	2	1	3	1	4	
3	1	10	9	1	0	1	1	10	2	10	3	10	4	
3	9	2	4	9	0	9	1	9	5	9	3	9	4	
3	10	1	2	1	0	1	1	1	2	1	1	1	0	
3	5	1	10	1	0	1	1	1	2	1	1	1	0	
2	10	9	9	0	9	1	9	2	9	5	9	4	
2	3	1	1	0	1	1	1	2	1	3	1	4	
3	1	8	6	1	0	1	1	1	2	1	3	1	4	
3	9	8	6	9	0	9	1	9	2	9	1	9	0	
2	2	4	2	0	2	1	2	2	2	3	2	4	
2	9	2	9	0	9	1	9	2	9	1	9	0	
3	1	8	0	1	0	1	1	1	2	1	1	1	0	
4	0	8	1	10	8	0	8	1	8	5	10	3	10	4	
3	4	1	8	1	0	1	1	1	2	1	5	1	4	
3	10	1	4	1	0	1	1	1	5	1	3	1	4	
3	6	7	4	7	0	7	1	7	2	7	5	7	4	
3	8	1	3	1	0	1	1	1	2	1	5	1	4	
3	5	1	3	1	0	1	1	1	2	1	3	1	4	
3	5	1	2	1	0	1	1	1	5	1	3	1	4	
3	10	1	2	2	0	2	1	2	5	2	3	2	4	
2	6	8	8	0	8	1	8	5	8	3	8	4	
4	5	1	10	9	5	0	1	1	1	2	1	5	10	4	
2	7	6	7	0	7	1	7	5	7	3	7	4	
3	9	8	0	9	0	9	1	9	2	9	5	8	4	
4	0	8	1	4	8	0	8	1	8	5	8	3	4	4	
2	8	0	8	0	8	1	8	2	8	3	8	4	
3	9	8	1	1	0	1	1	1	2	1	1	1	0	
3	4	2	9	4	0	4	1	4	5	2	3	9	4	
2	8	0	8	0	8	1	8	2	8	1	8	0	
3	1	8	6	1	0	1	1	1	2	1	5	1	4	
2	7	4	7	0	7	1	7	2	7	5	7	4	
2	9	8	9	0	9	1	9	2	9	3	9	4	
2	6	7	7	0	7	1	7	2	7	1	7	0	
2	2	4	2	0	2	1	2	2	2	5	2	4	
4	3	1	8	6	1	0	1	1	1	2	1	3	1	4	
3	7	1	3	1	0	1	1	1	2	1	3	1	4	
3	10	1	8	1	0	1	1	1	2	1	1	1	0	
4	10	9	8	0	10	0	9	1	9	2	9	5	9	4	
4	7	1	10	9	10	0	10	1	10	2	10	1	10	0	
3	4	1	5	1	0	1	1	1	2	1	1	1	0	
2	6	7	7	0	7	1	7	2	7	5	7	4	
3	2	1	7	1	0	1	1	1	2	1	1	1	0	
2	0	6	6	0	6	1	6	2	6	3	6	4	
3	10	1	3	1	0	1	1	1	5	1	3	1	4	
4	4	1	8	6	4	0	4	1	4	5	1	3	8	4	
2	1	8	1	0	1	1	1	5	1	3	1	4	
3	0	8	9	8	0	9	1	9	5	9	3	9	4	
3	8	1	3	1	0	1	1	1	5	1	3	1	4	
4	6	8	1	10	8	0	8	1	8	5	8	3	10	4	
2	0	6	6	0	6	1	6	2	6	1	6	0	
2	8	9	9	0	9	1	9	2	9	1	9	0	
4	6	8	1	2	1	0	1	1	1	2	1	1	1	0	
2	7	1	1	0	1	1	1	5	1	3	1	4	
2	2	9	9	0	9	1	9	2	9	5	9	4	
3	6	8	1	1	0	1	1	1	2	1	3	1	4	
4	3	1	8	6	1	0	1	1	1	2	1	1	1	0	
3	9	2	4	9	0	9	1	9	2	9	1	9	0	
3	10	1	8	1	0	1	1	1	2	1	3	1	4	
3	3	2	9	9	0	9	1	9	2	9	1	9	0	
3	2	1	7	1	0	1	1	1	5	1	3	1	4	
3	7	1	3	1	0	1	1	1	2	1	5	1	4	
2	9	2	9	0	9	1	9	2	9	5	9	4	
2	2	9	9	0	9	1	9	2	9	3	9	4	
3	8	6	7	7	0	7	1	7	2	7	1	7	0	
4	5	1	8	0	8	0	8	1	8	5	8	3	8	4	
3	0	6	7	7	0	7	1	7	2	7	3	7	4	
2	2	4	2	0	2	1	2	2	2	1	2	0	
2	0	6	6	0	6	1	6	5	6	3	6	4	
3	9	8	1	9	0	9	1	9	2	9	3	9	4	
4	0	8	1	5	8	0	8	1	8	2	5	1	5	0	
2	1	10	1	0	1	1	1	2	1	1	1	0	
3	6	8	9	9	0	9	1	9	2	9	5	9	4	
4	5	1	8	0	5	0	8	1	0	2	0	1	0	0	
2	1	8	1	0	1	1	1	2	1	3	1	4	
4	0	8	1	2	8	0	8	1	8	5	2	3	2	4	
2	7	4	7	0	7	1	7	5	7	3	7	4	
2	10	1	1	0	1	1	1	2	1	1	1	0	
4	9	8	1	7	9	0	9	1	9	5	9	3	9	4	
4	0	8	1	3	3	0	3	1	3	2	3	5	3	4	
4	3	1	8	0	8	0	8	1	8	2	8	3	8	4	
4	6	8	1	2	1	0	1	1	1	2	1	3	1	4	
2	7	5	7	0	7	1	7	2	7	3	7	4	
3	6	8	1	1	0	1	1	1	2	1	1	1	0	
2	0	8	0	0	0	1	0	2	0	5	0	4	
3	6	8	1	1	0	1	1	1	5	1	3	1	4	
3	1	8	0	8	0	8	1	8	2	8	5	8	4	
2	1	5	1	0	1	1	1	2	1	3	1	4	
3	3	2	9	9	0	9	1	9	5	9	3	9	4	
2	9	8	9	0	9	1	9	5	9	3	9	4	
4	5	1	8	6	5	0	5	1	5	2	5	1	8	0	
2	4	1	1	0	1	1	1	2	1	3	1	4	
2	8	9	9	0	9	1	9	2	9	5	9	4	
3	5	1	3	1	0	1	1	1	5	1	3	1	4	
3	1	8	6	1	0	1	1	1	5	1	3	1	4	
2	1	5	1	0	1	1	1	2	1	1	1	0	
3	8	1	5	1	0	1	1	1	5	1	3	1	4	
4	5	1	8	0	8	0	8	1	8	2	0	3	0	4	
2	3	1	1	0	1	1	1	2	1	5	1	4	
3	7	1	10	7	0	7	1	7	5	7	3	7	4	
2	3	2	2	0	2	1	2	5	2	3	2	4	
2	6	7	7	0	7	1	7	2	7	3	7	4	
3	7	1	8	1	0	1	1	1	2	1	3	1	4	
4	3	1	8	0	3	0	8	1	0	2	0	1	0	0	
3	0	8	9	9	0	9	1	9	2	9	3	9	4	
3	2	1	10	1	0	1	1	1	2	1	5	1	4	
4	2	1	8	0	8	0	8	1	8	2	8	3	8	4	
3	8	1	3	1	0	1	1	1	2	1	3	1	4	
3	6	7	4	7	0	7	1	7	5	7	3	7	4	
2	2	1	1	0	1	1	1	2	1	1	1	0	
3	4	1	8	1	0	1	1	1	5	1	3	1	4	
3	4	1	8	1	0	1	1	1	2	1	3	1	4	
3	4	1	10	1	0	1	1	1	2	1	1	1	0	
4	10	9	8	6	10	0	9	1	9	2	9	5	9	4	
3	4	1	10	1	0	1	1	1	5	1	3	1	4	
4	10	9	8	6	10	0	10	1	10	2	10	1	10	0	
3	10	1	5	1	0	1	1	1	2	1	5	1	4	
3	1	3	2	1	0	1	1	1	2	3	3	3	4	
2	6	0	6	0	6	1	6	2	6	5	6	4	
2	8	7	8	0	8	1	8	2	8	5	8	4	
3	6	7	4	7	0	7	1	7	2	7	1	7	0	
3	8	1	5	1	0	1	1	1	2	1	1	1	0	
2	9	10	9	0	9	1	9	2	9	1	9	0	
3	2	1	7	1	0	1	1	1	2	1	5	1	4	
3	7	1	10	10	0	10	1	10	2	10	1	10	0	
2	2	9	9	0	9	1	9	5	9	3	9	4	
4	6	8	1	10	6	0	6	1	8	2	10	3	10	4	
3	9	2	4	9	0	9	1	9	2	9	5	9	4	
3	9	8	1	9	0	9	1	9	5	9	3	9	4	
3	0	8	9	8	0	9	1	9	2	9	5	9	4	
2	6	8	8	0	8	1	8	2	8	3	8	4	
4	10	9	8	0	10	0	10	1	10	5	10	3	10	4	
4	4	1	8	0	8	0	8	1	8	2	8	1	8	0	
2	8	0	8	0	8	1	8	5	8	3	8	4	
2	0	8	8	0	8	1	8	5	8	3	8	4	
4	7	1	10	9	7	0	7	1	1	2	1	5	10	4	
3	3	1	7	1	0	1	1	1	5	1	3	1	4	
4	10	9	8	6	8	0	8	1	8	2	8	3	8	4	
3	7	6	0	7	0	7	1	7	2	7	1	7	0	
4	6	8	1	3	1	0	1	1	1	2	1	1	1	0	
3	8	7	4	8	0	7	1	7	2	7	3	7	4	
2	3	2	2	0	2	1	2	2	2	3	2	4	
2	1	7	1	0	1	1	1	2	1	3	1	4	
4	9	8	1	5	1	0	1	1	1	2	1	1	1	0	
2	10	9	9	0	9	1	9	2	9	3	9	4	
3	10	1	7	10	0	1	1	1	2	1	1	1	0	
2	1	2	2	0	2	1	2	2	2	5	2	4	
3	4	2	9	9	0	9	1	9	2	9	1	9	0	
4	6	8	1	3	1	0	1	1	1	2	1	5	1	4	
3	3	1	10	1	0	1	1	1	2	1	3	1	4	
3	7	6	0	7	0	7	1	7	2	7	5	7	4	
2	5	1	1	0	1	1	1	5	1	3	1	4	
4	0	8	1	2	2	0	2	1	2	2	2	3	2	4	
3	4	2	9	4	0	4	1	2	2	2	5	9	4	
2	1	4	4	0	4	1	4	5	4	3	4	4	
2	1	7	1	0	1	1	1	2	1	1	1	0	
3	4	1	5	1	0	1	1	1	2	1	5	1	4	
4	2	1	8	0	8	0	8	1	8	2	8	5	8	4	
2	1	10	1	0	1	1	1	2	1	5	1	4	
4	0	8	1	10	10	0	10	1	10	2	10	3	10	4	
2	1	10	1	0	1	1	1	2	1	3	1	4	
2	9	2	9	0	9	1	9	5	9	3	9	4	
2	7	5	7	0	7	1	7	5	7	3	7	4	
2	8	1	1	0	1	1	1	2	1	3	1	4	
2	2	3	2	0	2	1	2	2	2	1	2	0	
4	3	1	8	0	3	0	3	1	3	5	3	3	8	4	
2	2	3	2	0	2	1	2	5	2	3	2	4	
3	0	8	9	9	0	9	1	9	2	9	1	9	0	
3	10	1	7	7	0	7	1	7	2	7	5	7	4	
2	1	7	7	0	7	1	7	2	7	5	7	4	
3	1	2	4	1	0	1	1	1	2	1	3	1	4	
3	5	7	4	7	0	7	1	7	2	7	5	7	4	
4	5	1	10	9	10	0	10	1	10	2	10	3	10	4	
3	2	1	5	1	0	1	1	1	2	1	5	1	4	
4	0	8	1	3	3	0	3	1	3	2	3	3	3	4	
3	3	1	7	1	0	1	1	1	2	1	3	1	4	
4	6	8	1	2	1	0	1	1	1	2	1	5	1	4	
3	1	8	6	1	0	1	1	1	2	1	1	1	0	
4	9	8	1	5	9	0	9	1	9	2	5	3	5	4	
2	5	1	1	0	1	1	1	2	1	1	1	0	
4	3	1	8	0	3	0	1	1	1	2	1	5	8	4	
3	1	10	9	10	0	10	1	10	5	10	3	10	4	
3	8	1	2	8	0	8	1	8	5	8	3	8	4	
4	6	8	1	10	10	0	10	1	10	2	10	5	10	4	
3	0	6	7	7	0	7	1	7	2	7	5	7	4	
2	4	2	2	0	2	1	2	2	2	5	2	4	
3	9	2	3	9	0	9	1	9	2	9	1	9	0	
4	0	8	1	10	8	0	8	1	8	2	8	1	10	0	
4	2	1	8	0	0	0	0	1	0	2	0	1	0	0	
3	10	1	4	10	0	4	1	4	2	4	3	4	4	
3	8	1	2	8	0	1	1	1	2	2	3	2	4	
2	7	6	7	0	7	1	7	2	7	5	7	4	
3	2	1	5	1	0	1	1	1	2	1	3	1	4	
3	10	1	5	1	0	1	1	1	2	1	1	1	0	
2	9	10	10	0	10	1	10	2	10	5	10	4	
3	5	1	3	3	0	3	1	3	2	3	5	3	4	
3	3	1	10	1	0	1	1	1	2	1	1	1	0	
3	8	1	10	1	0	1	1	1	2	1	3	1	4	
2	7	1	1	0	1	1	1	2	1	3	1	4	
2	10	9	9	0	9	1	9	5	9	3	9	4	
2	9	10	9	0	9	1	9	2	9	3	9	4	
2	1	2	2	0	2	1	2	5	2	3	2	4	
3	2	1	8	1	0	1	1	1	5	1	3	1	4	
3	6	7	5	7	0	7	1	7	2	7	5	7	4	
3	7	6	8	7	0	7	1	7	5	7	3	8	4	
3	5	1	2	1	0	1	1	1	2	1	1	1	0	
3	8	1	5	8	0	8	1	8	2	8	5	8	4	
2	9	2	9	0	9	1	9	2	9	3	9	4	
3	3	2	9	9	0	9	1	9	2	9	3	9	4	
2	8	0	8	0	8	1	8	2	8	5	8	4	
4	0	8	7	4	8	0	8	1	8	2	8	1	8	0	
4	5	1	8	0	8	0	8	1	8	2	8	5	8	4	
