5882.16	1900.76
1172
53741	37754.7
11
0	0	8
1	0	8
2	0	8
3	0	8
4	0	8
5	0	8
6	0	8
7	0	8
8	0	8
9	0	8
10	0	8
68
0	6	846.000000	1290.000000	1.000000
0	7	0.000000	60.000000	0.000000
0	8	2262.000000	2340.000000	1.000000
0	9	0.000000	1050.000000	0.000000
1	2	2444.718157	2520.000000	1.000000
1	3	1464.000000	2190.000000	1.000000
1	4	1349.807965	1350.000000	1.000000
1	5	2022.000000	2160.000000	1.000000
1	7	979.089655	1470.000000	1.000000
1	8	101.281766	3480.000000	1.000000
1	9	0.000000	60.000000	0.000000
1	10	1144.525356	2460.000000	1.000000
2	1	48.000000	2520.000000	1.000000
2	3	1296.000000	1950.000000	1.000000
2	4	906.910269	1140.000000	1.000000
2	5	0.000000	30.000000	0.000000
2	9	19.807888	1800.000000	1.000000
2	10	0.000000	930.000000	0.000000
3	1	672.000000	2190.000000	1.000000
3	2	12.000000	1950.000000	1.000000
3	4	0.000000	960.000000	0.000000
3	5	0.000000	30.000000	0.000000
4	1	594.000000	1350.000000	1.000000
4	2	12.000000	1140.000000	1.000000
4	3	0.000000	960.000000	0.000000
4	5	0.000000	870.000000	0.000000
4	6	0.000000	60.000000	0.000000
4	7	660.000000	990.000000	1.000000
5	1	43.807888	2160.000000	1.000000
5	2	0.000000	30.000000	0.000000
5	3	0.000000	30.000000	0.000000
5	4	0.000000	870.000000	0.000000
5	7	700.192112	1050.000000	1.000000
5	8	0.000000	30.000000	0.000000
6	0	18.000000	1290.000000	1.000000
6	4	0.000000	60.000000	0.000000
6	7	1908.000000	1920.000000	1.000000
6	8	40.910345	2250.000000	1.000000
6	9	0.000000	30.000000	0.000000
6	10	0.000000	60.000000	0.000000
7	0	0.000000	60.000000	0.000000
7	1	31.089655	1470.000000	1.000000
7	4	23.281766	990.000000	1.000000
7	5	18.000000	1050.000000	1.000000
7	6	34.910345	1920.000000	1.000000
7	8	0.000000	930.000000	0.000000
7	9	0.000000	30.000000	0.000000
7	10	0.000000	30.000000	0.000000
8	0	42.000000	2340.000000	1.000000
8	1	3462.333244	3480.000000	1.000000
8	5	0.000000	30.000000	0.000000
8	6	2118.000000	2250.000000	1.000000
8	7	0.000000	930.000000	0.000000
8	9	2159.666756	2370.000000	1.000000
8	10	0.000000	1470.000000	0.000000
9	0	0.000000	1050.000000	0.000000
9	1	0.000000	60.000000	0.000000
9	2	1206.000000	1800.000000	1.000000
9	6	0.000000	30.000000	0.000000
9	7	0.000000	30.000000	0.000000
9	8	25.807888	2370.000000	1.000000
9	10	3160.192112	3300.000000	1.000000
10	1	2236.192112	2460.000000	1.000000
10	2	0.000000	930.000000	0.000000
10	6	0.000000	60.000000	0.000000
10	7	0.000000	30.000000	0.000000
10	8	0.000000	1470.000000	0.000000
10	9	1114.525356	3300.000000	1.000000
440
3	1	10	9	1	0	1	1	1	2	1	5	1	4	
3	3	1	5	1	0	1	1	1	2	1	5	1	4	
3	7	1	3	1	0	1	1	1	5	1	3	1	4	
3	9	2	3	2	0	2	1	2	2	2	5	2	4	
3	10	1	7	1	0	1	1	1	2	1	3	1	4	
4	3	1	8	6	1	0	1	1	1	5	1	3	1	4	
2	4	7	7	0	7	1	7	2	7	5	7	4	
2	1	8	1	0	1	1	1	2	1	1	1	0	
2	7	4	7	0	7	1	7	2	7	3	7	4	
4	0	8	9	2	8	0	8	1	8	2	8	5	8	4	
3	7	1	3	1	0	1	1	1	2	1	1	1	0	
3	5	1	10	1	0	1	1	1	5	1	3	1	4	
3	5	1	2	1	0	1	1	1	2	1	5	1	4	
2	8	1	1	0	1	1	1	2	1	1	1	0	
3	8	6	7	8	0	8	1	8	2	8	3	8	4	
2	6	0	6	0	6	1	6	5	6	3	6	4	
3	2	1	5	1	0	1	1	1	5	1	3	1	4	
2	7	5	7	0	7	1	7	2	7	5	7	4	
2	5	7	7	0	7	1	7	2	7	1	7	0	
2	8	9	8	0	8	1	8	5	8	3	8	4	
3	4	1	10	1	0	1	1	1	2	1	5	1	4	
3	5	1	10	1	0	1	1	1	2	1	5	1	4	
3	8	9	10	8	0	8	1	8	2	8	1	8	0	
2	10	1	1	0	1	1	1	2	1	5	1	4	
4	0	6	7	5	7	0	7	1	7	2	7	3	7	4	
2	3	2	2	0	2	1	2	2	2	5	2	4	
2	1	7	1	0	1	1	1	5	1	3	1	4	
3	8	1	4	1	0	1	1	1	5	1	3	1	4	
3	2	1	10	1	0	1	1	1	5	1	3	1	4	
2	2	3	2	0	2	1	2	2	2	5	2	4	
2	4	1	1	0	1	1	1	5	1	3	1	4	
3	9	2	3	2	0	2	1	2	2	2	3	2	4	
4	0	8	1	3	1	0	1	1	1	2	1	1	1	0	
3	10	1	2	1	0	1	1	1	2	1	3	1	4	
2	7	4	7	0	7	1	7	2	7	1	7	0	
4	6	8	1	3	1	0	1	1	1	2	1	3	1	4	
4	9	2	1	5	1	0	1	1	1	5	1	3	1	4	
4	4	7	6	0	7	0	7	1	7	2	7	5	7	4	
3	2	1	7	1	0	1	1	1	2	1	3	1	4	
2	5	1	1	0	1	1	1	2	1	5	1	4	
3	10	1	8	1	0	1	1	1	2	1	5	1	4	
3	3	1	7	1	0	1	1	1	2	1	1	1	0	
2	6	7	7	0	7	1	7	5	7	3	7	4	
3	3	1	4	1	0	1	1	1	2	1	1	1	0	
3	5	1	8	1	0	1	1	1	2	1	1	1	0	
2	9	8	8	0	8	1	8	2	8	5	8	4	
3	1	8	0	1	0	1	1	1	5	1	3	1	4	
2	1	3	1	0	1	1	1	2	1	1	1	0	
3	2	1	10	1	0	1	1	1	2	1	1	1	0	
2	1	3	1	0	1	1	1	2	1	3	1	4	
2	4	7	7	0	7	1	7	2	7	3	7	4	
4	0	8	9	10	8	0	8	1	8	2	8	5	8	4	
3	5	1	8	1	0	1	1	1	2	1	5	1	4	
3	8	1	2	8	0	8	1	8	2	1	5	1	4	
3	6	8	9	8	0	8	1	8	2	8	3	8	4	
2	6	0	6	0	6	1	6	2	6	1	6	0	
3	9	8	0	8	0	8	1	8	2	8	3	8	4	
3	5	7	6	7	0	7	1	7	2	7	3	7	4	
3	3	1	7	1	0	1	1	1	2	1	5	1	4	
3	9	10	1	9	0	1	1	1	2	1	5	1	4	
3	10	1	5	1	0	1	1	1	2	1	3	1	4	
4	10	1	8	0	1	0	1	1	1	2	1	1	1	0	
2	7	1	1	0	1	1	1	2	1	1	1	0	
3	8	6	7	8	0	8	1	8	5	8	3	8	4	
3	3	1	10	1	0	1	1	1	2	1	5	1	4	
3	3	1	4	1	0	1	1	1	2	1	5	1	4	
3	9	8	6	8	0	8	1	8	5	8	3	8	4	
4	2	1	8	6	2	0	2	1	2	2	2	3	6	4	
3	8	1	5	1	0	1	1	1	2	1	3	1	4	
3	3	1	4	1	0	1	1	1	5	1	3	1	4	
2	7	6	7	0	7	1	7	2	7	3	7	4	
3	0	8	1	1	0	1	1	1	5	1	3	1	4	
4	6	8	1	2	1	0	1	1	2	5	2	3	2	4	
2	1	2	1	0	1	1	1	2	1	1	1	0	
3	10	1	3	1	0	1	1	1	2	1	5	1	4	
4	10	1	8	6	1	0	1	1	1	5	1	3	1	4	
2	1	3	1	0	1	1	1	2	1	5	1	4	
3	1	8	0	1	0	1	1	1	2	1	3	1	4	
2	1	5	1	0	1	1	1	5	1	3	1	4	
3	4	7	6	7	0	7	1	7	2	7	3	7	4	
2	8	6	8	0	8	1	8	5	8	3	8	4	
4	7	1	2	9	1	0	1	1	1	5	1	3	1	4	
2	2	1	1	0	1	1	1	2	1	5	1	4	
3	3	1	10	1	0	1	1	1	5	1	3	1	4	
4	6	8	9	10	8	0	8	1	8	2	8	1	8	0	
3	4	1	3	1	0	1	1	1	5	1	3	1	4	
4	0	6	7	4	7	0	7	1	7	2	7	5	7	4	
3	3	1	8	1	0	1	1	1	2	1	3	1	4	
3	9	8	6	8	0	8	1	8	2	8	5	8	4	
4	10	1	8	0	1	0	1	1	1	2	1	3	1	4	
3	6	8	9	8	0	8	1	8	2	8	1	8	0	
2	3	1	1	0	1	1	1	2	1	1	1	0	
2	1	8	1	0	1	1	1	2	1	5	1	4	
2	3	1	1	0	1	1	1	5	1	3	1	4	
2	4	2	2	0	2	1	2	2	2	1	2	0	
2	2	1	1	0	1	1	1	2	1	3	1	4	
2	0	8	8	0	8	1	8	2	8	3	8	4	
3	5	1	8	1	0	1	1	1	5	1	3	1	4	
3	4	7	6	7	0	7	1	7	2	7	5	7	4	
3	4	2	9	2	0	2	1	2	2	2	3	2	4	
2	0	8	8	0	8	1	8	2	8	1	8	0	
3	8	9	10	8	0	8	1	8	2	8	5	8	4	
3	7	1	2	1	0	1	1	1	2	1	1	1	0	
2	2	4	2	0	2	1	2	5	2	3	2	4	
3	5	1	8	1	0	1	1	1	2	1	3	1	4	
2	8	6	8	0	8	1	8	2	8	3	8	4	
4	9	8	6	7	8	0	8	1	8	2	8	1	8	0	
3	3	2	9	2	0	2	1	2	2	2	5	2	4	
3	6	8	1	1	0	1	1	1	2	1	5	1	4	
3	7	1	2	1	0	1	1	1	2	1	5	1	4	
3	3	1	8	1	0	1	1	1	2	1	1	1	0	
3	9	8	6	8	0	8	1	8	2	8	3	8	4	
2	5	7	7	0	7	1	7	2	7	5	7	4	
2	8	6	8	0	8	1	8	2	8	1	8	0	
3	10	1	2	1	0	1	1	1	2	1	5	1	4	
3	8	1	4	1	0	1	1	1	2	1	5	1	4	
3	10	1	5	1	0	1	1	1	5	1	3	1	4	
4	4	7	6	0	7	0	7	1	7	5	7	3	7	4	
3	6	8	9	8	0	8	1	8	5	8	3	8	4	
3	9	8	0	8	0	8	1	8	5	8	3	8	4	
4	9	8	6	7	8	0	8	1	8	2	8	5	8	4	
3	10	1	3	1	0	1	1	1	2	1	3	1	4	
2	0	6	6	0	6	1	6	2	6	5	6	4	
2	6	8	8	0	8	1	8	2	8	5	8	4	
3	4	1	3	1	0	1	1	1	2	1	1	1	0	
2	2	1	1	0	1	1	1	5	1	3	1	4	
4	0	8	1	3	1	0	1	1	1	5	1	3	1	4	
2	1	5	1	0	1	1	1	2	1	5	1	4	
2	4	1	1	0	1	1	1	2	1	5	1	4	
3	7	6	0	7	0	7	1	7	2	7	3	7	4	
3	0	8	1	1	0	1	1	1	2	1	3	1	4	
3	10	1	8	1	0	1	1	1	5	1	3	1	4	
3	3	1	5	1	0	1	1	1	2	1	3	1	4	
3	4	1	8	1	0	1	1	1	2	1	1	1	0	
2	1	3	1	0	1	1	1	5	1	3	1	4	
3	5	7	6	7	0	7	1	7	2	7	5	7	4	
3	5	7	6	7	0	7	1	7	5	7	3	7	4	
2	2	9	2	0	2	1	2	2	2	1	2	0	
4	9	8	6	7	8	0	8	1	8	2	8	3	8	4	
2	7	1	1	0	1	1	1	2	1	5	1	4	
3	5	1	3	1	0	1	1	1	2	1	1	1	0	
4	0	6	7	5	7	0	7	1	7	5	7	3	7	4	
4	4	7	6	0	7	0	7	1	7	2	7	3	7	4	
4	2	1	8	6	2	0	2	1	2	2	2	1	2	0	
3	7	6	8	7	0	7	1	7	2	7	1	8	0	
2	1	4	1	0	1	1	1	2	1	1	1	0	
4	3	1	8	6	1	0	1	1	1	2	1	5	1	4	
2	2	3	2	0	2	1	2	2	2	3	2	4	
3	7	1	10	1	0	1	1	1	2	1	5	1	4	
2	5	7	7	0	7	1	7	2	7	3	7	4	
3	4	1	3	1	0	1	1	1	2	1	5	1	4	
3	4	1	5	1	0	1	1	1	5	1	3	1	4	
3	0	6	7	7	0	7	1	7	2	7	1	7	0	
3	7	1	2	1	0	1	1	1	5	1	3	1	4	
3	0	8	1	1	0	1	1	1	2	1	5	1	4	
3	2	1	8	1	0	1	1	1	2	1	5	1	4	
2	6	0	6	0	6	1	6	2	6	3	6	4	
4	2	1	8	6	8	0	8	1	6	5	6	3	6	4	
3	8	1	4	1	0	1	1	1	2	1	1	1	0	
3	10	1	4	1	0	1	1	1	2	1	5	1	4	
2	9	10	9	0	9	1	9	5	9	3	9	4	
4	6	8	1	3	1	0	1	1	1	5	1	3	1	4	
2	8	6	8	0	8	1	8	2	8	5	8	4	
3	8	9	10	8	0	8	1	8	5	8	3	8	4	
3	5	1	4	1	0	1	1	1	2	1	1	1	0	
3	10	1	7	1	0	1	1	1	5	1	3	1	4	
2	4	2	2	0	2	1	2	5	2	3	2	4	
3	9	2	4	2	0	2	1	2	2	2	3	2	4	
3	5	1	2	1	0	1	1	1	2	1	3	1	4	
3	4	1	3	1	0	1	1	1	2	1	3	1	4	
4	0	8	9	2	8	0	8	1	8	2	8	1	8	0	
4	9	2	1	5	1	0	1	1	1	2	1	5	1	4	
2	10	1	1	0	1	1	1	2	1	3	1	4	
2	7	5	7	0	7	1	7	2	7	1	7	0	
2	4	1	1	0	1	1	1	2	1	1	1	0	
2	10	9	9	0	9	1	9	2	9	1	9	0	
3	7	1	8	1	0	1	1	1	2	1	5	1	4	
4	5	1	8	9	1	0	1	1	1	5	1	3	1	4	
3	6	7	5	7	0	7	1	7	2	7	3	7	4	
3	2	1	8	1	0	1	1	1	2	1	3	1	4	
2	3	2	2	0	2	1	2	2	2	1	2	0	
3	9	8	0	8	0	8	1	8	2	8	1	8	0	
3	10	1	4	1	0	1	1	1	2	1	1	1	0	
4	5	1	8	9	1	0	1	1	1	2	1	1	1	0	
3	3	1	8	1	0	1	1	1	2	1	5	1	4	
4	0	6	7	5	7	0	7	1	7	2	7	5	7	4	
3	5	1	4	1	0	1	1	1	5	1	3	1	4	
2	8	9	8	0	8	1	8	2	8	3	8	4	
3	3	1	8	1	0	1	1	1	5	1	3	1	4	
3	7	1	2	1	0	1	1	1	2	1	3	1	4	
3	8	1	3	1	0	1	1	1	2	1	1	1	0	
3	6	7	4	7	0	7	1	7	2	7	3	7	4	
3	0	8	1	1	0	1	1	1	2	1	1	1	0	
3	7	1	10	1	0	1	1	1	2	1	3	1	4	
3	4	7	6	7	0	7	1	7	2	7	1	7	0	
2	4	2	2	0	2	1	2	2	2	3	2	4	
2	8	1	1	0	1	1	1	2	1	5	1	4	
2	5	1	1	0	1	1	1	2	1	3	1	4	
2	4	7	7	0	7	1	7	5	7	3	7	4	
3	9	2	3	2	0	2	1	2	5	2	3	2	4	
4	7	1	2	9	1	0	1	1	1	2	1	3	1	4	
2	1	10	1	0	1	1	1	5	1	3	1	4	
3	4	1	10	1	0	1	1	1	2	1	3	1	4	
2	7	6	7	0	7	1	7	2	7	1	7	0	
3	1	10	9	1	0	1	1	1	2	1	1	1	0	
4	2	1	8	0	1	0	1	1	1	5	1	3	1	4	
3	3	1	5	1	0	1	1	1	2	1	1	1	0	
3	5	1	10	1	0	1	1	1	2	1	3	1	4	
3	6	7	5	7	0	7	1	7	5	7	3	7	4	
2	1	4	1	0	1	1	1	2	1	5	1	4	
3	3	1	5	1	0	1	1	1	5	1	3	1	4	
3	7	6	0	7	0	7	1	7	5	7	3	7	4	
3	8	1	2	1	0	1	1	1	2	1	1	1	0	
3	3	1	4	1	0	1	1	1	2	1	3	1	4	
3	4	1	5	1	0	1	1	1	2	1	3	1	4	
3	10	1	3	1	0	1	1	1	2	1	1	1	0	
3	2	1	10	1	0	1	1	1	2	1	3	1	4	
2	5	7	7	0	7	1	7	5	7	3	7	4	
3	2	1	8	1	0	1	1	1	2	1	1	1	0	
3	6	7	5	7	0	7	1	7	2	7	1	7	0	
4	2	1	8	6	2	0	2	1	6	2	6	5	6	4	
2	9	8	8	0	8	1	8	2	8	1	8	0	
4	0	6	7	4	7	0	7	1	7	2	7	3	7	4	
2	4	7	7	0	7	1	7	2	7	1	7	0	
2	6	8	8	0	8	1	8	2	8	1	8	0	
3	2	1	5	1	0	1	1	1	2	1	1	1	0	
2	10	1	1	0	1	1	1	5	1	3	1	4	
3	0	6	7	7	0	7	1	7	5	7	3	7	4	
2	8	1	1	0	1	1	1	5	1	3	1	4	
3	5	1	4	1	0	1	1	1	2	1	3	1	4	
3	1	10	9	1	0	1	1	1	2	1	3	1	4	
3	9	2	4	2	0	2	1	2	5	2	3	2	4	
3	10	1	2	1	0	1	1	1	2	1	1	1	0	
3	5	1	10	1	0	1	1	1	2	1	1	1	0	
2	10	9	9	0	9	1	9	2	9	5	9	4	
2	3	1	1	0	1	1	1	2	1	3	1	4	
3	1	8	6	1	0	1	1	1	2	1	3	1	4	
3	9	8	6	8	0	8	1	8	2	8	1	8	0	
2	2	4	2	0	2	1	2	2	2	3	2	4	
2	9	2	2	0	2	1	2	2	2	1	2	0	
3	1	8	0	1	0	1	1	1	2	1	1	1	0	
4	0	8	9	10	8	0	8	1	8	5	8	3	8	4	
3	4	1	8	1	0	1	1	1	2	1	5	1	4	
3	10	1	4	1	0	1	1	1	5	1	3	1	4	
3	6	7	4	7	0	7	1	7	2	7	5	7	4	
3	8	1	3	1	0	1	1	1	2	1	5	1	4	
3	5	1	3	1	0	1	1	1	2	1	3	1	4	
3	5	1	2	1	0	1	1	1	5	1	3	1	4	
3	10	1	2	1	0	1	1	1	5	1	3	1	4	
2	6	8	8	0	8	1	8	5	8	3	8	4	
4	5	1	8	9	1	0	1	1	1	2	1	5	1	4	
2	7	6	7	0	7	1	7	5	7	3	7	4	
3	9	8	0	8	0	8	1	8	2	8	5	8	4	
4	0	6	7	4	7	0	7	1	7	5	7	3	7	4	
2	8	0	8	0	8	1	8	2	8	3	8	4	
3	9	8	1	8	0	8	1	8	2	8	1	8	0	
3	4	2	9	2	0	2	1	2	5	2	3	2	4	
2	8	0	8	0	8	1	8	2	8	1	8	0	
3	1	8	6	1	0	1	1	1	2	1	5	1	4	
2	7	4	7	0	7	1	7	2	7	5	7	4	
2	9	8	8	0	8	1	8	2	8	3	8	4	
2	6	7	7	0	7	1	7	2	7	1	7	0	
2	2	4	2	0	2	1	2	2	2	5	2	4	
4	3	1	8	6	1	0	1	1	1	2	1	3	1	4	
3	7	1	3	1	0	1	1	1	2	1	3	1	4	
3	10	1	8	1	0	1	1	1	2	1	1	1	0	
4	10	1	8	0	1	0	1	1	1	2	1	5	1	4	
4	7	1	2	9	1	0	1	1	1	2	1	1	1	0	
3	4	1	5	1	0	1	1	1	2	1	1	1	0	
2	6	7	7	0	7	1	7	2	7	5	7	4	
3	2	1	7	1	0	1	1	1	2	1	1	1	0	
2	0	6	6	0	6	1	6	2	6	3	6	4	
3	10	1	3	1	0	1	1	1	5	1	3	1	4	
3	4	7	6	7	0	7	1	7	5	7	3	7	4	
2	1	8	1	0	1	1	1	5	1	3	1	4	
3	0	8	9	8	0	8	1	8	5	8	3	8	4	
3	8	1	3	1	0	1	1	1	5	1	3	1	4	
4	6	8	9	10	8	0	8	1	8	5	8	3	8	4	
2	0	6	6	0	6	1	6	2	6	1	6	0	
2	8	9	8	0	8	1	8	2	8	1	8	0	
4	6	8	1	2	6	0	6	1	6	2	6	1	6	0	
2	7	1	1	0	1	1	1	5	1	3	1	4	
2	2	9	2	0	2	1	2	2	2	5	2	4	
3	6	8	1	1	0	1	1	1	2	1	3	1	4	
4	3	1	8	6	1	0	1	1	1	2	1	1	1	0	
3	9	2	4	2	0	2	1	2	2	2	1	2	0	
3	10	1	8	1	0	1	1	1	2	1	3	1	4	
3	3	2	9	2	0	2	1	2	2	2	1	2	0	
3	2	1	7	1	0	1	1	1	5	1	3	1	4	
3	7	1	3	1	0	1	1	1	2	1	5	1	4	
2	9	2	2	0	2	1	2	2	2	5	2	4	
2	2	9	2	0	2	1	2	2	2	3	2	4	
3	8	6	7	8	0	8	1	8	2	8	1	8	0	
4	5	1	8	0	1	0	1	1	1	5	1	3	1	4	
3	0	6	7	7	0	7	1	7	2	7	3	7	4	
2	2	4	2	0	2	1	2	2	2	1	2	0	
2	0	6	6	0	6	1	6	5	6	3	6	4	
3	9	8	1	9	0	9	1	9	2	8	3	8	4	
4	0	6	7	5	7	0	7	1	7	2	7	1	7	0	
2	1	10	1	0	1	1	1	2	1	1	1	0	
3	6	8	9	8	0	8	1	8	2	8	5	8	4	
4	5	1	8	0	1	0	1	1	1	2	1	1	1	0	
2	1	8	1	0	1	1	1	2	1	3	1	4	
4	0	8	9	2	8	0	8	1	8	5	8	3	8	4	
2	7	4	7	0	7	1	7	5	7	3	7	4	
2	10	1	1	0	1	1	1	2	1	1	1	0	
4	9	8	6	7	8	0	8	1	8	5	8	3	8	4	
4	0	8	1	3	1	0	1	1	1	2	1	5	1	4	
4	3	1	8	0	1	0	1	1	1	2	1	3	1	4	
4	6	8	1	2	6	0	1	1	1	2	1	3	1	4	
2	7	5	7	0	7	1	7	2	7	3	7	4	
3	6	8	1	1	0	1	1	1	2	1	1	1	0	
2	0	8	8	0	8	1	8	2	8	5	8	4	
3	6	8	1	1	0	1	1	1	5	1	3	1	4	
3	1	8	0	1	0	1	1	1	2	1	5	1	4	
2	1	5	1	0	1	1	1	2	1	3	1	4	
3	3	2	9	2	0	2	1	2	5	2	3	2	4	
2	9	8	8	0	8	1	8	5	8	3	8	4	
3	5	7	6	7	0	7	1	7	2	7	1	7	0	
2	4	1	1	0	1	1	1	2	1	3	1	4	
4	8	1	10	9	1	0	1	1	1	2	1	5	1	4	
3	5	1	3	1	0	1	1	1	5	1	3	1	4	
3	1	8	6	1	0	1	1	1	5	1	3	1	4	
2	1	5	1	0	1	1	1	2	1	1	1	0	
3	8	1	5	1	0	1	1	1	5	1	3	1	4	
4	5	1	8	0	1	0	1	1	1	2	1	3	1	4	
2	3	1	1	0	1	1	1	2	1	5	1	4	
3	7	1	10	1	0	1	1	1	5	1	3	1	4	
2	3	2	2	0	2	1	2	5	2	3	2	4	
2	6	7	7	0	7	1	7	2	7	3	7	4	
3	7	1	8	1	0	1	1	1	2	1	3	1	4	
4	3	1	8	0	1	0	1	1	1	2	1	1	1	0	
3	0	8	9	8	0	8	1	8	2	8	3	8	4	
3	2	1	10	1	0	1	1	1	2	1	5	1	4	
4	2	1	8	0	1	0	1	1	1	2	1	3	1	4	
3	8	1	3	1	0	1	1	1	2	1	3	1	4	
3	6	7	4	7	0	7	1	7	5	7	3	7	4	
2	2	1	1	0	1	1	1	2	1	1	1	0	
3	4	1	8	1	0	1	1	1	5	1	3	1	4	
3	4	1	8	1	0	1	1	1	2	1	3	1	4	
3	4	1	10	1	0	1	1	1	2	1	1	1	0	
4	10	1	8	6	1	0	1	1	1	2	1	5	1	4	
3	4	1	10	1	0	1	1	1	5	1	3	1	4	
4	10	1	8	6	1	0	1	1	1	2	1	1	1	0	
3	10	1	5	1	0	1	1	1	2	1	5	1	4	
2	1	2	1	0	1	1	1	2	1	3	1	4	
2	6	0	6	0	6	1	6	2	6	5	6	4	
3	8	6	7	8	0	8	1	8	2	8	5	8	4	
3	6	7	4	7	0	7	1	7	2	7	1	7	0	
3	8	1	5	1	0	1	1	1	2	1	1	1	0	
2	9	10	9	0	9	1	9	2	9	1	9	0	
3	2	1	7	1	0	1	1	1	2	1	5	1	4	
3	7	1	10	1	0	1	1	1	2	1	1	1	0	
2	2	9	2	0	2	1	2	5	2	3	2	4	
4	6	8	9	10	8	0	8	1	8	2	8	3	8	4	
3	9	2	4	2	0	2	1	2	2	2	5	2	4	
3	9	8	1	8	0	8	1	1	5	1	3	1	4	
3	0	8	9	8	0	8	1	8	2	8	5	8	4	
2	6	8	8	0	8	1	8	2	8	3	8	4	
4	10	1	8	0	1	0	1	1	1	5	1	3	1	4	
4	4	7	6	0	7	0	7	1	7	2	7	1	7	0	
2	8	0	8	0	8	1	8	5	8	3	8	4	
2	0	8	8	0	8	1	8	5	8	3	8	4	
4	7	6	8	9	7	0	7	1	7	2	7	5	9	4	
3	3	1	7	1	0	1	1	1	5	1	3	1	4	
4	10	1	8	6	1	0	1	1	1	2	1	3	1	4	
3	7	6	0	7	0	7	1	7	2	7	1	7	0	
4	6	8	1	3	1	0	1	1	1	2	1	1	1	0	
3	8	1	4	1	0	1	1	1	2	1	3	1	4	
2	3	2	2	0	2	1	2	2	2	3	2	4	
2	1	7	1	0	1	1	1	2	1	3	1	4	
4	9	2	1	5	1	0	1	1	1	2	1	1	1	0	
2	10	9	9	0	9	1	9	2	9	3	9	4	
3	10	1	7	1	0	1	1	1	2	1	1	1	0	
2	1	2	1	0	1	1	1	2	1	5	1	4	
3	4	2	9	2	0	2	1	2	2	2	1	2	0	
4	6	8	1	3	1	0	1	1	1	2	1	5	1	4	
3	3	1	10	1	0	1	1	1	2	1	3	1	4	
3	7	6	0	7	0	7	1	7	2	7	5	7	4	
2	5	1	1	0	1	1	1	5	1	3	1	4	
4	0	8	9	2	8	0	8	1	8	2	8	3	8	4	
3	4	2	9	2	0	2	1	2	2	2	5	2	4	
2	1	4	1	0	1	1	1	5	1	3	1	4	
2	1	7	1	0	1	1	1	2	1	1	1	0	
3	4	1	5	1	0	1	1	1	2	1	5	1	4	
4	2	1	8	0	1	0	1	1	1	2	1	5	1	4	
2	1	10	1	0	1	1	1	2	1	5	1	4	
4	0	8	9	10	8	0	8	1	8	2	8	3	8	4	
2	1	10	1	0	1	1	1	2	1	3	1	4	
2	9	2	2	0	2	1	2	5	2	3	2	4	
2	7	5	7	0	7	1	7	5	7	3	7	4	
2	8	1	1	0	1	1	1	2	1	3	1	4	
2	2	3	2	0	2	1	2	2	2	1	2	0	
4	3	1	8	0	1	0	1	1	1	5	1	3	1	4	
2	2	3	2	0	2	1	2	5	2	3	2	4	
3	0	8	9	8	0	8	1	8	2	8	1	8	0	
3	10	1	7	1	0	1	1	1	2	1	5	1	4	
2	1	7	1	0	1	1	1	2	1	5	1	4	
3	1	2	4	1	0	1	1	1	2	1	3	1	4	
3	5	7	4	7	0	7	1	7	2	7	5	7	4	
4	5	1	8	9	1	0	1	1	1	2	1	3	1	4	
3	2	1	5	1	0	1	1	1	2	1	5	1	4	
4	0	8	1	3	1	0	1	1	1	2	1	3	1	4	
3	3	1	7	1	0	1	1	1	2	1	3	1	4	
4	6	8	1	2	6	0	2	1	2	2	2	5	2	4	
3	1	8	6	1	0	1	1	1	2	1	1	1	0	
4	9	2	1	5	1	0	1	1	1	2	1	3	1	4	
2	5	1	1	0	1	1	1	2	1	1	1	0	
4	3	1	8	0	1	0	1	1	1	2	1	5	1	4	
3	1	10	9	1	0	1	1	1	5	1	3	1	4	
3	8	1	2	1	0	1	1	2	5	2	3	2	4	
4	6	8	9	10	8	0	8	1	8	2	8	5	8	4	
3	0	6	7	7	0	7	1	7	2	7	5	7	4	
2	4	2	2	0	2	1	2	2	2	5	2	4	
3	9	2	3	2	0	2	1	2	2	2	1	2	0	
4	0	8	9	10	8	0	8	1	8	2	8	1	8	0	
4	2	1	8	0	1	0	1	1	1	2	1	1	1	0	
4	10	1	7	4	1	0	1	1	1	2	1	3	1	4	
3	8	1	2	8	0	8	1	8	2	8	3	1	4	
2	7	6	7	0	7	1	7	2	7	5	7	4	
3	2	1	5	1	0	1	1	1	2	1	3	1	4	
3	10	1	5	1	0	1	1	1	2	1	1	1	0	
2	9	10	9	0	9	1	9	2	9	5	9	4	
3	5	1	3	1	0	1	1	1	2	1	5	1	4	
3	3	1	10	1	0	1	1	1	2	1	1	1	0	
3	8	9	10	8	0	8	1	8	2	8	3	8	4	
2	7	1	1	0	1	1	1	2	1	3	1	4	
2	10	9	9	0	9	1	9	5	9	3	9	4	
2	9	10	9	0	9	1	9	2	9	3	9	4	
2	1	2	1	0	1	1	1	5	1	3	1	4	
3	2	1	8	1	0	1	1	1	5	1	3	1	4	
3	6	7	5	7	0	7	1	7	2	7	5	7	4	
3	7	6	8	6	0	6	1	8	5	8	3	8	4	
3	5	1	2	1	0	1	1	1	2	1	1	1	0	
3	8	1	5	1	0	1	1	1	2	1	5	1	4	
2	9	2	2	0	2	1	2	2	2	3	2	4	
3	3	2	9	2	0	2	1	2	2	2	3	2	4	
2	8	0	8	0	8	1	8	2	8	5	8	4	
4	0	6	7	4	7	0	7	1	7	2	7	1	7	0	
4	5	1	8	0	1	0	1	1	1	2	1	5	1	4	
