10860.6	8459.7
853
34377.4	20144.9
11
0	2	8
1	2	8
2	2	8
3	2	8
4	0	8
5	2	8
6	0	8
7	0	8
8	4	8
9	2	8
10	2	8
68
0	6	868.750000	1290.000000	1.000000
0	7	0.000000	60.000000	0.000000
0	8	2283.786031	2340.000000	1.000000
0	9	84.963969	1050.000000	1.000000
1	2	2387.500000	2520.000000	1.000000
1	3	1518.750000	2190.000000	1.000000
1	4	931.250000	1350.000000	1.000000
1	5	2118.750000	2160.000000	1.000000
1	7	1092.631713	1470.000000	1.000000
1	8	106.250000	3480.000000	1.000000
1	9	0.000000	60.000000	0.000000
1	10	37.500000	2460.000000	1.000000
2	1	43.750000	2520.000000	1.000000
2	3	1350.000000	1950.000000	1.000000
2	4	781.250000	1140.000000	1.000000
2	5	0.000000	30.000000	0.000000
2	9	18.750000	1800.000000	1.000000
2	10	0.000000	930.000000	0.000000
3	1	43.750000	2190.000000	1.000000
3	2	12.500000	1950.000000	1.000000
3	4	656.250000	960.000000	1.000000
3	5	0.000000	30.000000	0.000000
4	1	625.000000	1350.000000	1.000000
4	2	12.500000	1140.000000	1.000000
4	3	6.250000	960.000000	1.000000
4	5	0.000000	870.000000	0.000000
4	6	0.000000	60.000000	0.000000
4	7	675.000000	990.000000	1.000000
5	1	56.250000	2160.000000	1.000000
5	2	0.000000	30.000000	0.000000
5	3	0.000000	30.000000	0.000000
5	4	0.000000	870.000000	0.000000
5	7	718.750000	1050.000000	1.000000
5	8	0.000000	30.000000	0.000000
6	0	12.500000	1290.000000	1.000000
6	4	0.000000	60.000000	0.000000
6	7	1888.618287	1920.000000	1.000000
6	8	62.500000	2250.000000	1.000000
6	9	0.000000	30.000000	0.000000
6	10	0.000000	60.000000	0.000000
7	0	0.000000	60.000000	0.000000
7	1	25.000000	1470.000000	1.000000
7	4	6.250000	990.000000	1.000000
7	5	6.250000	1050.000000	1.000000
7	6	25.000000	1920.000000	1.000000
7	8	0.000000	930.000000	0.000000
7	9	0.000000	30.000000	0.000000
7	10	0.000000	30.000000	0.000000
8	0	50.000000	2340.000000	1.000000
8	1	2573.881713	3480.000000	1.000000
8	5	0.000000	30.000000	0.000000
8	6	2144.868287	2250.000000	1.000000
8	7	0.000000	930.000000	0.000000
8	9	2302.536031	2370.000000	1.000000
8	10	1012.500000	1470.000000	1.000000
9	0	0.000000	1050.000000	1.000000
9	1	0.000000	60.000000	0.000000
9	2	1243.750000	1800.000000	1.000000
9	6	0.000000	30.000000	0.000000
9	7	0.000000	30.000000	0.000000
9	8	37.500000	2370.000000	1.000000
9	10	2275.000000	3300.000000	1.000000
10	1	2306.250000	2460.000000	1.000000
10	2	0.000000	930.000000	0.000000
10	6	0.000000	60.000000	0.000000
10	7	0.000000	30.000000	0.000000
10	8	18.750000	1470.000000	1.000000
10	9	6.250000	3300.000000	1.000000
440
3	1	8	9	9	0	9	1	9	2	9	5	9	4	
3	3	1	5	3	0	3	1	3	2	3	5	3	4	
3	7	1	3	7	0	7	1	3	5	3	3	3	4	
3	9	2	3	2	0	2	1	2	2	2	5	2	4	
3	10	1	7	1	0	1	1	1	2	1	3	1	4	
4	3	1	8	6	8	0	6	1	6	5	6	3	6	4	
2	4	7	7	0	7	1	7	2	7	5	7	4	
2	1	8	1	0	1	1	1	2	1	1	1	0	
2	7	4	7	0	7	1	7	2	7	3	7	4	
4	0	8	1	2	2	0	2	1	2	2	2	5	2	4	
3	7	1	3	7	0	7	1	7	2	7	1	3	0	
3	5	1	10	1	0	1	1	1	5	1	3	1	4	
3	5	1	2	1	0	1	1	1	2	1	5	1	4	
2	8	1	8	0	8	1	8	2	8	1	8	0	
3	8	6	7	8	0	8	1	8	2	6	3	7	4	
2	6	0	6	0	6	1	6	5	6	3	6	4	
3	2	1	5	5	0	5	1	5	5	5	3	5	4	
2	7	5	7	0	7	1	7	2	7	5	7	4	
2	5	7	7	0	7	1	7	2	7	1	7	0	
2	8	9	9	0	9	1	9	5	9	3	9	4	
3	4	1	10	4	0	4	1	4	2	4	5	10	4	
3	5	1	10	1	0	1	1	1	2	1	5	1	4	
2	8	10	10	0	10	1	10	2	10	1	10	0	
2	10	1	1	0	1	1	1	2	1	5	1	4	
4	0	8	1	5	0	0	0	1	0	2	5	3	5	4	
2	3	2	2	0	2	1	2	2	2	5	2	4	
2	1	7	7	0	7	1	7	5	7	3	7	4	
3	8	1	4	4	0	4	1	4	5	4	3	4	4	
3	2	1	10	1	0	1	1	1	5	1	3	1	4	
2	2	3	2	0	2	1	2	2	2	5	2	4	
2	4	1	4	0	4	1	4	5	4	3	4	4	
3	9	2	3	2	0	2	1	2	2	2	3	2	4	
4	0	8	1	3	0	0	3	1	3	2	3	1	3	0	
3	10	1	2	10	0	10	1	10	2	10	3	10	4	
2	7	4	7	0	7	1	7	2	7	1	7	0	
4	6	8	1	3	6	0	6	1	6	2	6	3	6	4	
4	9	8	1	5	5	0	5	1	5	5	5	3	5	4	
4	4	1	8	0	4	0	4	1	4	2	0	5	0	4	
3	2	1	7	2	0	7	1	7	2	7	3	7	4	
2	5	1	1	0	1	1	1	2	1	5	1	4	
2	10	8	10	0	10	1	10	2	10	5	10	4	
3	3	1	7	3	0	3	1	7	2	7	1	7	0	
2	6	7	6	0	6	1	6	5	6	3	6	4	
2	3	4	3	0	3	1	3	2	3	1	3	0	
3	5	1	8	5	0	5	1	5	2	5	1	5	0	
2	9	8	9	0	9	1	9	2	9	5	9	4	
3	1	8	0	0	0	0	1	0	5	0	3	0	4	
2	1	3	3	0	3	1	3	2	3	1	3	0	
3	2	1	10	1	0	1	1	1	2	1	1	1	0	
2	1	3	3	0	3	1	3	2	3	3	3	4	
2	4	7	7	0	7	1	7	2	7	3	7	4	
3	0	8	10	0	0	0	1	0	2	10	5	10	4	
3	5	1	8	1	0	1	1	1	2	1	5	1	4	
3	8	1	2	1	0	1	1	1	2	1	5	1	4	
3	6	8	9	6	0	6	1	6	2	6	3	6	4	
2	6	0	6	0	6	1	6	2	6	1	6	0	
3	9	8	0	9	0	9	1	9	2	9	3	9	4	
4	5	1	8	6	1	0	1	1	8	2	8	3	6	4	
3	3	1	7	3	0	3	1	3	2	3	5	3	4	
3	9	8	1	9	0	9	1	9	2	9	5	9	4	
3	10	1	5	1	0	1	1	1	2	1	3	1	4	
3	10	8	0	10	0	10	1	0	2	0	1	0	0	
2	7	1	7	0	7	1	7	2	7	1	7	0	
3	8	6	7	8	0	8	1	8	5	8	3	8	4	
3	3	1	10	3	0	3	1	3	2	3	5	3	4	
2	3	4	3	0	3	1	3	2	3	5	3	4	
3	9	8	6	6	0	6	1	6	5	6	3	6	4	
4	2	1	8	6	1	0	1	1	8	2	8	3	8	4	
3	8	1	5	5	0	5	1	5	2	5	3	5	4	
2	3	4	3	0	3	1	3	5	3	3	3	4	
2	7	6	6	0	6	1	6	2	6	3	6	4	
3	0	8	1	0	0	0	1	0	5	0	3	0	4	
4	6	8	1	2	6	0	6	1	2	5	2	3	2	4	
2	1	2	1	0	1	1	1	2	1	1	1	0	
3	10	1	3	3	0	3	1	3	2	3	5	3	4	
3	10	8	6	10	0	10	1	6	5	6	3	6	4	
2	1	3	3	0	3	1	3	2	3	5	3	4	
3	1	8	0	0	0	0	1	0	2	0	3	0	4	
2	1	5	1	0	1	1	1	5	1	3	1	4	
4	4	1	8	6	4	0	4	1	4	2	4	3	4	4	
2	8	6	6	0	6	1	6	5	6	3	6	4	
4	7	6	8	9	9	0	9	1	9	5	9	3	9	4	
2	2	1	1	0	1	1	1	2	1	5	1	4	
3	3	1	10	1	0	1	1	1	5	1	3	1	4	
3	6	8	10	6	0	6	1	6	2	10	1	10	0	
2	4	3	4	0	4	1	3	5	3	3	3	4	
4	0	8	1	4	0	0	0	1	4	2	4	5	4	4	
3	3	1	8	3	0	3	1	3	2	3	3	3	4	
3	9	8	6	9	0	6	1	6	2	6	5	6	4	
3	10	8	0	10	0	10	1	10	2	10	3	10	4	
3	6	8	9	6	0	6	1	6	2	6	1	9	0	
2	3	1	3	0	3	1	3	2	3	1	3	0	
2	1	8	1	0	1	1	1	2	1	5	1	4	
2	3	1	3	0	3	1	3	5	3	3	3	4	
2	4	2	2	0	2	1	2	2	2	1	2	0	
2	2	1	1	0	1	1	1	2	1	3	1	4	
2	0	8	0	0	0	1	0	2	0	3	0	4	
3	5	1	8	5	0	5	1	5	5	5	3	5	4	
4	4	1	8	6	4	0	4	1	4	2	6	5	6	4	
3	4	2	9	2	0	2	1	2	2	2	3	2	4	
2	0	8	0	0	0	1	0	2	0	1	0	0	
2	8	10	10	0	10	1	10	2	10	5	10	4	
3	7	1	2	7	0	7	1	7	2	7	1	2	0	
2	2	4	4	0	4	1	4	5	4	3	4	4	
3	5	1	8	5	0	5	1	5	2	5	3	5	4	
2	8	6	6	0	6	1	6	2	6	3	6	4	
4	9	8	6	7	9	0	7	1	7	2	7	1	7	0	
3	3	2	9	2	0	2	1	2	2	2	5	2	4	
3	6	8	1	1	0	1	1	1	2	1	5	1	4	
3	7	1	2	7	0	7	1	7	2	7	5	2	4	
3	3	1	8	3	0	3	1	3	2	3	1	3	0	
3	9	8	6	9	0	9	1	6	2	6	3	6	4	
2	5	7	7	0	7	1	7	2	7	5	7	4	
2	8	6	6	0	6	1	6	2	6	1	6	0	
3	10	1	2	1	0	1	1	1	2	1	5	1	4	
3	8	1	4	4	0	4	1	4	2	4	5	4	4	
3	10	1	5	5	0	5	1	5	5	5	3	5	4	
4	4	1	8	0	4	0	4	1	4	5	4	3	4	4	
3	6	8	9	9	0	9	1	9	5	9	3	9	4	
3	9	8	0	0	0	0	1	0	5	0	3	0	4	
4	9	8	6	7	8	0	8	1	6	2	6	5	7	4	
3	10	1	3	1	0	1	1	1	2	1	3	1	4	
2	0	6	6	0	6	1	6	2	6	5	6	4	
2	6	8	6	0	6	1	6	2	6	5	6	4	
2	4	3	4	0	3	1	3	2	3	1	3	0	
2	2	1	2	0	2	1	2	5	2	3	2	4	
4	0	8	1	3	3	0	3	1	3	5	3	3	3	4	
2	1	5	5	0	5	1	5	2	5	5	5	4	
2	4	1	4	0	4	1	4	2	4	5	4	4	
3	7	6	0	6	0	6	1	6	2	6	3	6	4	
3	0	8	1	0	0	0	1	0	2	0	3	0	4	
2	10	8	10	0	10	1	10	5	10	3	10	4	
3	3	1	5	3	0	3	1	3	2	3	3	3	4	
3	4	1	8	4	0	4	1	4	2	4	1	4	0	
2	1	3	3	0	3	1	3	5	3	3	3	4	
4	5	1	8	6	5	0	5	1	5	2	5	5	5	4	
4	5	1	8	6	6	0	6	1	6	5	6	3	6	4	
2	2	9	2	0	2	1	2	2	2	1	2	0	
4	9	8	6	7	6	0	6	1	6	2	6	3	6	4	
2	7	1	7	0	7	1	7	2	7	5	7	4	
3	5	1	3	5	0	3	1	3	2	3	1	3	0	
4	0	8	1	5	5	0	5	1	5	5	5	3	5	4	
4	4	1	8	0	4	0	4	1	4	2	4	3	4	4	
4	2	1	8	6	2	0	2	1	2	2	6	1	6	0	
3	7	6	8	7	0	7	1	7	2	7	1	8	0	
2	1	4	4	0	4	1	4	2	4	1	4	0	
4	3	1	8	6	3	0	3	1	3	2	3	5	3	4	
2	2	3	2	0	2	1	2	2	2	3	2	4	
3	7	1	10	1	0	1	1	1	2	1	5	1	4	
2	5	7	7	0	7	1	7	2	7	3	7	4	
2	4	3	4	0	4	1	4	2	3	5	3	4	
3	4	1	5	1	0	1	1	1	5	1	3	1	4	
3	0	6	7	6	0	6	1	6	2	6	1	6	0	
3	7	1	2	7	0	7	1	7	5	7	3	7	4	
3	0	8	1	0	0	0	1	0	2	0	5	0	4	
3	2	1	8	1	0	1	1	1	2	1	5	1	4	
2	6	0	6	0	6	1	6	2	6	3	6	4	
4	2	1	8	6	6	0	6	1	6	5	6	3	6	4	
3	8	1	4	4	0	4	1	4	2	4	1	4	0	
3	10	1	4	10	0	10	1	10	2	4	5	4	4	
2	9	10	10	0	10	1	10	5	10	3	10	4	
4	6	8	1	3	3	0	3	1	3	5	3	3	3	4	
2	8	6	8	0	8	1	8	2	8	5	8	4	
2	8	10	10	0	10	1	10	5	10	3	10	4	
3	5	1	4	1	0	1	1	1	2	1	1	1	0	
3	10	1	7	1	0	1	1	1	5	1	3	1	4	
2	4	2	2	0	2	1	2	5	2	3	2	4	
3	9	2	4	2	0	2	1	2	2	2	3	2	4	
3	5	1	2	1	0	1	1	1	2	1	3	1	4	
2	4	3	4	0	3	1	3	2	3	3	3	4	
4	0	8	1	2	0	0	2	1	2	2	2	1	2	0	
4	9	8	1	5	9	0	9	1	5	2	5	5	5	4	
2	10	1	10	0	10	1	10	2	10	3	10	4	
2	7	5	7	0	7	1	5	2	5	1	5	0	
2	4	1	4	0	4	1	4	2	4	1	4	0	
2	10	9	10	0	10	1	10	2	10	1	10	0	
3	7	6	8	6	0	6	1	6	2	6	5	8	4	
4	5	1	8	9	9	0	9	1	9	5	9	3	9	4	
4	6	8	1	5	8	0	8	1	8	2	8	3	1	4	
3	2	1	8	2	0	2	1	2	2	2	3	2	4	
2	3	2	2	0	2	1	2	2	2	1	2	0	
3	9	8	0	9	0	9	1	9	2	0	1	0	0	
3	10	1	4	1	0	1	1	1	2	1	1	1	0	
4	5	1	8	9	5	0	5	1	5	2	5	1	9	0	
3	3	1	8	3	0	3	1	3	2	3	5	3	4	
4	0	8	1	5	5	0	5	1	5	2	5	5	5	4	
3	5	1	4	1	0	1	1	1	5	1	3	1	4	
2	8	9	9	0	9	1	9	2	9	3	9	4	
3	3	1	8	3	0	3	1	3	5	3	3	3	4	
3	7	1	2	1	0	1	1	1	2	1	3	1	4	
3	8	1	3	3	0	3	1	3	2	3	1	3	0	
4	6	8	1	4	6	0	6	1	6	2	6	3	6	4	
3	0	8	1	0	0	0	1	0	2	0	1	0	0	
3	7	1	10	1	0	1	1	1	2	1	3	1	4	
4	4	1	8	6	4	0	6	1	6	2	6	1	6	0	
2	4	2	2	0	2	1	2	2	2	3	2	4	
2	8	1	8	0	8	1	8	2	8	5	8	4	
2	5	1	5	0	5	1	5	2	5	3	5	4	
2	4	7	7	0	7	1	7	5	7	3	7	4	
3	9	2	3	2	0	2	1	2	5	2	3	2	4	
4	7	6	8	9	6	0	9	1	9	2	9	3	9	4	
2	1	10	1	0	1	1	1	5	1	3	1	4	
3	4	1	10	1	0	1	1	1	2	1	3	1	4	
2	7	6	6	0	6	1	6	2	6	1	6	0	
3	1	8	9	9	0	9	1	9	2	9	1	9	0	
4	2	1	8	0	8	0	0	1	0	5	0	3	0	4	
3	3	1	5	3	0	5	1	5	2	5	1	5	0	
3	5	1	10	1	0	1	1	1	2	1	3	1	4	
4	6	8	1	5	6	0	6	1	6	5	8	3	8	4	
2	1	4	4	0	4	1	4	2	4	5	4	4	
3	3	1	5	5	0	5	1	5	5	5	3	5	4	
3	7	6	0	6	0	6	1	6	5	6	3	6	4	
3	8	1	2	2	0	2	1	2	2	2	1	2	0	
2	3	4	3	0	3	1	3	2	3	3	3	4	
3	4	1	5	1	0	1	1	1	2	1	3	1	4	
3	10	1	3	1	0	1	1	1	2	1	1	1	0	
3	2	1	10	1	0	1	1	1	2	1	3	1	4	
2	5	7	7	0	7	1	7	5	7	3	7	4	
3	2	1	8	2	0	2	1	2	2	2	1	2	0	
4	6	8	1	5	6	0	6	1	6	2	6	1	5	0	
4	2	1	8	6	2	0	2	1	2	2	6	5	6	4	
2	9	8	9	0	9	1	9	2	9	1	9	0	
4	0	8	1	4	0	0	0	1	4	2	4	3	4	4	
2	4	7	7	0	7	1	7	2	7	1	7	0	
2	6	8	6	0	6	1	6	2	6	1	6	0	
3	2	1	5	1	0	1	1	1	2	1	1	1	0	
2	10	1	1	0	1	1	1	5	1	3	1	4	
3	0	6	7	6	0	6	1	6	5	6	3	6	4	
2	8	1	8	0	8	1	8	5	8	3	8	4	
3	5	1	4	1	0	1	1	1	2	1	3	1	4	
3	1	8	9	9	0	9	1	9	2	9	3	9	4	
3	9	2	4	2	0	2	1	2	5	2	3	2	4	
3	10	1	2	10	0	10	1	10	2	10	1	2	0	
3	5	1	10	1	0	1	1	1	2	1	1	1	0	
2	10	9	10	0	10	1	10	2	10	5	10	4	
2	3	1	3	0	3	1	3	2	3	3	3	4	
3	1	8	6	1	0	1	1	8	2	8	3	8	4	
3	9	8	6	9	0	9	1	9	2	9	1	9	0	
2	2	4	2	0	2	1	2	2	2	3	2	4	
2	9	2	2	0	2	1	2	2	2	1	2	0	
3	1	8	0	0	0	0	1	0	2	0	1	0	0	
3	0	8	10	0	0	0	1	0	5	10	3	10	4	
3	4	1	8	4	0	4	1	4	2	4	5	4	4	
3	10	1	4	1	0	1	1	1	5	1	3	1	4	
4	6	8	1	4	1	0	1	1	4	2	4	5	4	4	
3	8	1	3	3	0	3	1	3	2	3	5	3	4	
3	5	1	3	3	0	3	1	3	2	3	3	3	4	
3	5	1	2	2	0	2	1	2	5	2	3	2	4	
3	10	1	2	10	0	10	1	10	5	1	3	1	4	
2	6	8	6	0	6	1	6	5	6	3	6	4	
4	5	1	8	9	5	0	5	1	9	2	9	5	9	4	
2	7	6	6	0	6	1	6	5	6	3	6	4	
3	9	8	0	0	0	0	1	0	2	0	5	0	4	
4	0	8	1	4	0	0	0	1	0	5	4	3	4	4	
2	8	0	0	0	0	1	0	2	0	3	0	4	
3	9	8	1	9	0	9	1	9	2	9	1	9	0	
3	4	2	9	2	0	2	1	2	5	2	3	2	4	
2	8	0	0	0	0	1	0	2	0	1	0	0	
3	1	8	6	8	0	8	1	6	2	6	5	6	4	
2	7	4	7	0	7	1	7	2	7	5	7	4	
2	9	8	9	0	9	1	9	2	9	3	9	4	
2	6	7	6	0	6	1	6	2	6	1	6	0	
2	2	4	2	0	2	1	2	2	2	5	2	4	
4	3	1	8	6	3	0	3	1	3	2	3	3	3	4	
3	7	1	3	7	0	7	1	7	2	7	3	3	4	
2	10	8	10	0	10	1	10	2	10	1	10	0	
3	10	8	0	10	0	10	1	10	2	0	5	0	4	
4	7	6	8	9	7	0	7	1	7	2	7	1	7	0	
3	4	1	5	1	0	1	1	1	2	1	1	1	0	
2	6	7	6	0	6	1	6	2	6	5	6	4	
3	2	1	7	2	0	2	1	7	2	7	1	7	0	
2	0	6	6	0	6	1	6	2	6	3	6	4	
3	10	1	3	3	0	3	1	3	5	3	3	3	4	
4	4	1	8	6	4	0	4	1	4	5	4	3	4	4	
2	1	8	1	0	1	1	1	5	1	3	1	4	
3	0	8	9	0	0	0	1	0	5	9	3	9	4	
3	8	1	3	3	0	3	1	3	5	3	3	3	4	
3	6	8	10	6	0	6	1	6	5	10	3	10	4	
2	0	6	6	0	6	1	6	2	6	1	6	0	
2	8	9	9	0	9	1	9	2	9	1	9	0	
4	6	8	1	2	6	0	2	1	2	2	2	1	2	0	
2	7	1	7	0	7	1	7	5	7	3	7	4	
2	2	9	2	0	2	1	2	2	2	5	2	4	
3	6	8	1	6	0	6	1	6	2	6	3	6	4	
4	3	1	8	6	3	0	6	1	6	2	6	1	6	0	
3	9	2	4	2	0	2	1	2	2	2	1	2	0	
2	10	8	10	0	10	1	10	2	10	3	10	4	
3	3	2	9	2	0	2	1	2	2	2	1	2	0	
3	2	1	7	2	0	7	1	7	5	7	3	7	4	
3	7	1	3	7	0	7	1	7	2	7	5	3	4	
2	9	2	2	0	2	1	2	2	2	5	2	4	
2	2	9	2	0	2	1	2	2	2	3	2	4	
3	8	1	7	7	0	7	1	7	2	7	1	7	0	
4	5	1	8	0	0	0	0	1	0	5	0	3	0	4	
3	0	6	7	6	0	6	1	6	2	6	3	6	4	
2	2	4	2	0	2	1	2	2	2	1	2	0	
2	0	6	6	0	6	1	6	5	6	3	6	4	
3	9	8	1	9	0	9	1	9	2	9	3	9	4	
4	0	8	1	5	0	0	0	1	0	2	0	1	5	0	
2	1	10	1	0	1	1	1	2	1	1	1	0	
3	6	8	9	9	0	9	1	9	2	9	5	9	4	
4	5	1	8	0	5	0	0	1	0	2	0	1	0	0	
2	1	8	1	0	1	1	1	2	1	3	1	4	
4	0	8	1	2	0	0	0	1	0	5	0	3	0	4	
2	7	4	7	0	7	1	7	5	7	3	7	4	
2	10	1	1	0	1	1	1	2	1	1	1	0	
4	9	8	6	7	6	0	6	1	7	5	7	3	7	4	
4	0	8	1	3	3	0	3	1	3	2	3	5	3	4	
4	3	1	8	0	3	0	3	1	3	2	3	3	3	4	
4	6	8	1	2	6	0	6	1	6	2	6	3	6	4	
2	7	5	7	0	7	1	7	2	7	3	5	4	
3	6	8	1	6	0	6	1	6	2	6	1	6	0	
2	0	8	0	0	0	1	0	2	0	5	0	4	
3	6	8	1	6	0	6	1	6	5	6	3	6	4	
3	1	8	0	0	0	0	1	0	2	0	5	0	4	
2	1	5	1	0	1	1	1	2	1	3	1	4	
3	3	2	9	2	0	2	1	2	5	2	3	2	4	
2	9	8	9	0	9	1	9	5	9	3	9	4	
4	5	1	8	6	5	0	6	1	6	2	6	1	6	0	
2	4	1	4	0	4	1	4	2	4	3	4	4	
2	8	9	9	0	9	1	9	2	9	5	9	4	
3	5	1	3	3	0	3	1	3	5	3	3	3	4	
3	1	8	6	6	0	6	1	6	5	6	3	6	4	
2	1	5	1	0	1	1	1	2	1	1	1	0	
3	8	1	5	5	0	5	1	5	5	5	3	5	4	
4	5	1	8	0	5	0	0	1	0	2	0	3	0	4	
2	3	1	3	0	3	1	3	2	3	5	3	4	
3	7	1	10	1	0	1	1	1	5	1	3	1	4	
2	3	2	2	0	2	1	2	5	2	3	2	4	
2	6	7	6	0	6	1	6	2	6	3	6	4	
3	7	6	8	6	0	8	1	8	2	8	3	8	4	
4	3	1	8	0	3	0	3	1	3	2	3	1	0	0	
3	0	8	9	0	0	0	1	0	2	9	3	9	4	
3	2	1	10	1	0	1	1	1	2	1	5	1	4	
4	2	1	8	0	0	0	0	1	0	2	0	3	0	4	
3	8	1	3	3	0	3	1	3	2	3	3	3	4	
4	6	8	1	4	6	0	6	1	4	5	4	3	4	4	
2	2	1	2	0	2	1	2	2	2	1	2	0	
3	4	1	8	4	0	4	1	4	5	4	3	4	4	
3	4	1	8	4	0	4	1	4	2	4	3	4	4	
3	4	1	10	4	0	4	1	4	2	4	1	4	0	
3	10	8	6	10	0	10	1	10	2	8	5	6	4	
3	4	1	10	1	0	1	1	1	5	1	3	1	4	
3	10	8	6	10	0	10	1	6	2	6	1	6	0	
3	10	1	5	1	0	1	1	1	2	1	5	1	4	
2	1	2	1	0	1	1	1	2	1	3	1	4	
2	6	0	6	0	6	1	6	2	6	5	6	4	
3	8	6	7	6	0	6	1	6	2	6	5	6	4	
4	6	8	1	4	6	0	4	1	4	2	4	1	4	0	
3	8	1	5	5	0	5	1	5	2	5	1	5	0	
2	9	10	10	0	10	1	10	2	10	1	10	0	
3	2	1	7	2	0	2	1	7	2	7	5	7	4	
3	7	1	10	1	0	1	1	1	2	1	1	1	0	
2	2	9	2	0	2	1	2	5	2	3	2	4	
3	6	8	10	10	0	10	1	10	2	10	3	10	4	
3	9	2	4	2	0	2	1	2	2	2	5	2	4	
3	9	8	1	9	0	9	1	9	5	9	3	9	4	
3	0	8	9	0	0	0	1	0	2	0	5	0	4	
2	6	8	6	0	6	1	6	2	6	3	6	4	
3	10	8	0	10	0	10	1	0	5	0	3	0	4	
4	4	1	8	0	4	0	4	1	4	2	4	1	0	0	
2	8	0	0	0	0	1	0	5	0	3	0	4	
2	0	8	0	0	0	1	0	5	0	3	0	4	
4	7	6	8	9	7	0	7	1	7	2	7	5	7	4	
3	3	1	7	3	0	3	1	7	5	7	3	7	4	
3	10	8	6	10	0	10	1	10	2	10	3	10	4	
3	7	6	0	6	0	6	1	6	2	6	1	6	0	
4	6	8	1	3	6	0	6	1	6	2	6	1	3	0	
3	8	1	4	4	0	4	1	4	2	4	3	4	4	
2	3	2	2	0	2	1	2	2	2	3	2	4	
2	1	7	1	0	1	1	1	2	1	3	1	4	
4	9	8	1	5	9	0	5	1	5	2	5	1	5	0	
2	10	9	10	0	10	1	10	2	10	3	10	4	
3	10	1	7	1	0	1	1	1	2	1	1	1	0	
2	1	2	2	0	2	1	2	2	2	5	2	4	
3	4	2	9	2	0	2	1	2	2	2	1	2	0	
4	6	8	1	3	6	0	6	1	6	2	3	5	3	4	
3	3	1	10	1	0	1	1	1	2	1	3	1	4	
3	7	6	0	6	0	6	1	6	2	6	5	6	4	
2	5	1	5	0	5	1	5	5	5	3	5	4	
4	0	8	1	2	0	0	0	1	2	2	2	3	2	4	
3	4	2	9	9	0	9	1	9	2	9	5	9	4	
2	1	4	4	0	4	1	4	5	4	3	4	4	
2	1	7	7	0	7	1	7	2	7	1	7	0	
3	4	1	5	5	0	5	1	5	2	5	5	5	4	
4	2	1	8	0	2	0	2	1	0	2	0	5	0	4	
2	1	10	1	0	1	1	1	2	1	5	1	4	
3	0	8	10	10	0	10	1	10	2	10	3	10	4	
2	1	10	1	0	1	1	1	2	1	3	1	4	
2	9	2	9	0	9	1	9	5	9	3	9	4	
2	7	5	7	0	7	1	7	5	7	3	7	4	
2	8	1	1	0	1	1	1	2	1	3	1	4	
2	2	3	2	0	2	1	2	2	2	1	2	0	
4	3	1	8	0	0	0	0	1	0	5	0	3	0	4	
2	2	3	3	0	3	1	3	5	3	3	3	4	
2	0	9	9	0	9	1	9	2	9	1	9	0	
3	10	1	7	10	0	10	1	10	2	7	5	7	4	
2	1	7	7	0	7	1	7	2	7	5	7	4	
2	1	4	4	0	4	1	4	2	4	3	4	4	
3	5	1	4	1	0	1	1	1	2	1	5	1	4	
4	5	1	8	9	5	0	5	1	5	2	5	3	9	4	
3	2	1	5	5	0	5	1	5	2	5	5	5	4	
4	0	8	1	3	0	0	0	1	0	2	0	3	0	4	
3	3	1	7	3	0	7	1	7	2	7	3	7	4	
4	6	8	1	2	1	0	1	1	1	2	1	5	1	4	
3	1	8	6	6	0	6	1	6	2	6	1	6	0	
4	9	8	1	5	5	0	5	1	5	2	5	3	5	4	
2	5	1	5	0	5	1	5	2	5	1	5	0	
4	3	1	8	0	3	0	3	1	3	2	3	5	3	4	
3	1	8	9	9	0	9	1	9	5	9	3	9	4	
3	8	1	2	2	0	2	1	2	5	2	3	2	4	
3	6	8	10	6	0	6	1	6	2	6	5	10	4	
3	0	6	7	6	0	6	1	6	2	6	5	6	4	
2	4	2	4	0	4	1	4	2	4	5	4	4	
3	9	2	3	2	0	2	1	2	2	2	1	2	0	
3	0	8	10	0	0	0	1	0	2	10	1	10	0	
4	2	1	8	0	2	0	2	1	2	2	2	1	0	0	
3	10	1	4	1	0	1	1	1	2	1	3	1	4	
3	8	1	2	1	0	1	1	1	2	1	3	1	4	
2	7	6	6	0	6	1	6	2	6	5	6	4	
3	2	1	5	1	0	1	1	1	2	1	3	1	4	
3	10	1	5	1	0	1	1	1	2	1	1	1	0	
2	9	10	10	0	10	1	10	2	10	5	10	4	
3	5	1	3	5	0	5	1	5	2	5	5	5	4	
3	3	1	10	1	0	1	1	1	2	1	1	1	0	
2	8	10	8	0	8	1	8	2	10	3	10	4	
2	7	1	7	0	7	1	7	2	7	3	7	4	
2	10	9	10	0	10	1	10	5	10	3	10	4	
2	9	10	10	0	10	1	10	2	10	3	10	4	
2	1	2	2	0	2	1	2	5	2	3	2	4	
3	2	1	8	2	0	2	1	2	5	2	3	2	4	
4	6	8	1	5	1	0	1	1	1	2	1	5	1	4	
3	7	6	8	7	0	7	1	7	5	7	3	7	4	
3	5	1	2	1	0	1	1	1	2	1	1	1	0	
3	8	1	5	1	0	1	1	1	2	1	5	1	4	
2	9	2	2	0	2	1	2	2	2	3	2	4	
3	3	2	9	2	0	2	1	2	2	2	3	2	4	
2	8	0	0	0	0	1	0	2	0	5	0	4	
4	0	8	1	4	0	0	4	1	4	2	4	1	4	0	
4	5	1	8	0	5	0	5	1	0	2	0	5	0	4	
