9795.02	9132.38
3023
1.26856e+07	1.70046e+06
11
0	2	8
1	2	8
2	2	8
3	0	8
4	0	8
5	0	8
6	0	8
7	0	8
8	2	8
9	2	8
10	4	8
68
0	6	1073.890529	1290.000000	1.000000
0	7	0.000000	60.000000	0.000000
0	8	2303.254168	2340.000000	1.000000
0	9	0.000000	1050.000000	0.000000
1	2	2418.478593	2520.000000	1.000000
1	3	1473.473878	2190.000000	1.000000
1	4	1349.899958	1350.000000	1.000000
1	5	2154.891870	2160.000000	1.000000
1	7	1469.431944	1470.000000	1.000000
1	8	247.156579	3480.000000	1.000000
1	9	0.000000	60.000000	0.000000
1	10	1009.252022	2460.000000	1.000000
2	1	190.783165	2520.000000	1.000000
2	3	1291.807888	1950.000000	1.000000
2	4	930.100042	1140.000000	1.000000
2	5	0.000000	30.000000	0.000000
2	9	15.820691	1800.000000	1.000000
2	10	0.000000	930.000000	0.000000
3	1	479.069263	2190.000000	1.000000
3	2	210.212503	1950.000000	1.000000
3	4	0.000000	960.000000	0.000000
3	5	0.000000	30.000000	0.000000
4	1	1246.705431	1350.000000	1.000000
4	2	19.294569	1140.000000	1.000000
4	3	0.000000	960.000000	0.000000
4	5	0.000000	870.000000	0.000000
4	6	0.000000	60.000000	0.000000
4	7	0.000000	990.000000	0.000000
5	1	54.000000	2160.000000	1.000000
5	2	0.000000	30.000000	0.000000
5	3	0.000000	30.000000	0.000000
5	4	0.000000	870.000000	0.000000
5	7	810.891870	1050.000000	1.000000
5	8	0.000000	30.000000	0.000000
6	0	12.000000	1290.000000	1.000000
6	4	0.000000	60.000000	0.000000
6	7	1919.676185	1920.000000	1.000000
6	8	185.310284	2250.000000	1.000000
6	9	0.000000	30.000000	0.000000
6	10	0.000000	60.000000	0.000000
7	0	0.000000	60.000000	0.000000
7	1	30.000000	1470.000000	1.000000
7	4	0.000000	990.000000	0.000000
7	5	6.000000	1050.000000	1.000000
7	6	24.000000	1920.000000	1.000000
7	8	0.000000	930.000000	0.000000
7	9	0.000000	30.000000	0.000000
7	10	0.000000	30.000000	0.000000
8	0	317.144697	2340.000000	1.000000
8	1	3458.360995	3480.000000	1.000000
8	5	0.000000	30.000000	0.000000
8	6	2051.095941	2250.000000	1.000000
8	7	0.000000	930.000000	0.000000
8	9	2300.384223	2370.000000	1.000000
8	10	0.000000	1470.000000	0.000000
9	0	0.000000	1050.000000	0.000000
9	1	0.000000	60.000000	0.000000
9	2	1184.526122	1800.000000	1.000000
9	6	0.000000	30.000000	0.000000
9	7	0.000000	30.000000	0.000000
9	8	39.264824	2370.000000	1.000000
9	10	2194.401165	3300.000000	1.000000
10	1	2245.665990	2460.000000	1.000000
10	2	0.000000	930.000000	0.000000
10	6	0.000000	60.000000	0.000000
10	7	0.000000	30.000000	0.000000
10	8	0.000000	1470.000000	0.000000
10	9	3.987198	3300.000000	1.000000
440
3	1	8	9	8	0	8	1	8	2	8	5	8	4	
3	3	1	5	3	0	3	1	3	2	3	5	5	4	
3	7	1	3	7	0	7	1	7	5	7	3	3	4	
4	9	8	1	3	9	0	9	1	9	2	9	5	8	4	
3	10	1	7	10	0	10	1	10	2	7	3	7	4	
4	3	1	8	6	3	0	3	1	6	5	6	3	6	4	
3	4	1	7	1	0	1	1	1	2	1	5	1	4	
2	1	8	1	0	1	1	1	2	1	1	1	0	
4	7	1	2	4	7	0	7	1	7	2	1	3	1	4	
4	0	8	1	2	0	0	0	1	0	2	1	5	2	4	
3	7	1	3	1	0	1	1	1	2	1	1	1	0	
3	5	1	10	5	0	5	1	5	5	5	3	10	4	
4	5	1	3	2	5	0	5	1	5	2	5	5	1	4	
2	8	1	1	0	1	1	1	2	1	1	1	0	
3	8	6	7	8	0	8	1	8	2	8	3	8	4	
2	6	0	6	0	6	1	6	5	6	3	6	4	
3	2	1	5	1	0	1	1	1	5	1	3	1	4	
2	7	5	7	0	7	1	7	2	7	5	7	4	
2	5	7	7	0	7	1	7	2	7	1	7	0	
2	8	9	9	0	9	1	9	5	9	3	9	4	
4	4	2	9	10	4	0	4	1	4	2	4	5	4	4	
3	5	1	10	1	0	1	1	1	2	1	5	1	4	
3	8	1	10	8	0	8	1	10	2	10	1	10	0	
2	10	1	10	0	10	1	10	2	10	5	10	4	
4	0	8	1	5	8	0	8	1	1	2	5	3	5	4	
2	3	2	2	0	2	1	2	2	2	5	2	4	
2	1	7	7	0	7	1	7	5	7	3	7	4	
3	8	1	4	8	0	8	1	8	5	8	3	8	4	
3	2	1	10	2	0	2	1	2	5	2	3	2	4	
2	2	3	2	0	2	1	2	2	2	5	2	4	
2	4	1	1	0	1	1	1	5	1	3	1	4	
4	9	8	1	3	1	0	1	1	1	2	3	3	3	4	
4	0	8	1	3	0	0	1	1	1	2	1	1	1	0	
3	10	1	2	10	0	10	1	10	2	1	3	1	4	
3	7	1	4	7	0	4	1	4	2	4	1	4	0	
4	6	8	1	3	8	0	8	1	8	2	8	3	8	4	
4	9	8	1	5	9	0	9	1	8	5	8	3	8	4	
4	4	1	8	0	4	0	4	1	4	2	1	5	1	4	
3	2	1	7	7	0	7	1	7	2	7	3	7	4	
2	5	1	5	0	5	1	5	2	5	5	5	4	
3	10	1	8	10	0	10	1	10	2	8	5	8	4	
4	3	1	5	7	7	0	7	1	7	2	7	1	7	0	
2	6	7	7	0	7	1	7	5	7	3	7	4	
3	3	2	4	3	0	3	1	3	2	3	1	3	0	
3	5	1	8	5	0	5	1	5	2	5	1	5	0	
2	9	8	9	0	9	1	9	2	9	5	9	4	
3	1	8	0	1	0	1	1	8	5	8	3	0	4	
2	1	3	3	0	3	1	3	2	3	1	3	0	
3	2	1	10	2	0	2	1	2	2	2	1	10	0	
2	1	3	1	0	1	1	1	2	1	3	1	4	
5	4	1	8	6	7	4	0	7	1	7	2	7	3	7	4	
4	0	8	1	10	0	0	0	1	0	2	1	5	1	4	
3	5	1	8	8	0	8	1	8	2	8	5	8	4	
3	8	1	2	8	0	8	1	2	2	2	5	2	4	
3	6	8	9	6	0	6	1	6	2	6	3	6	4	
2	6	0	6	0	6	1	6	2	6	1	6	0	
3	9	8	0	9	0	9	1	9	2	9	3	9	4	
4	5	1	8	6	6	0	6	1	6	2	6	3	6	4	
4	3	1	5	7	3	0	3	1	3	2	3	5	5	4	
3	9	8	1	9	0	9	1	9	2	1	5	1	4	
3	10	1	5	10	0	10	1	10	2	10	3	5	4	
4	10	1	8	0	10	0	8	1	8	2	8	1	8	0	
2	7	1	7	0	7	1	7	2	7	1	7	0	
3	8	1	7	7	0	7	1	7	5	7	3	7	4	
4	3	2	1	10	3	0	3	1	3	2	2	5	2	4	
3	3	1	4	3	0	3	1	3	2	3	5	3	4	
3	9	8	6	9	0	9	1	6	5	6	3	6	4	
4	2	1	8	6	1	0	1	1	1	2	1	3	1	4	
3	8	1	5	8	0	8	1	8	2	8	3	8	4	
3	3	2	4	3	0	3	1	3	5	4	3	4	4	
2	7	6	7	0	7	1	7	2	7	3	7	4	
3	0	8	1	0	0	0	1	0	5	0	3	8	4	
4	6	8	1	2	6	0	2	1	2	5	2	3	2	4	
2	1	2	2	0	2	1	2	2	2	1	2	0	
3	10	1	3	10	0	10	1	10	2	3	5	3	4	
4	10	1	8	6	10	0	10	1	6	5	6	3	6	4	
2	1	3	3	0	3	1	3	2	3	5	3	4	
3	1	8	0	1	0	1	1	8	2	8	3	8	4	
2	1	5	5	0	5	1	5	5	5	3	5	4	
4	4	1	8	6	4	0	4	1	4	2	6	3	6	4	
2	8	6	6	0	6	1	6	5	6	3	6	4	
4	7	6	8	9	7	0	7	1	8	5	9	3	9	4	
2	2	1	2	0	2	1	2	2	2	5	2	4	
3	3	1	10	3	0	3	1	3	5	3	3	10	4	
4	6	8	1	10	8	0	8	1	8	2	10	1	10	0	
3	4	1	3	1	0	1	1	1	5	1	3	1	4	
5	0	8	1	2	4	0	0	0	1	0	2	1	5	2	4	
3	3	1	8	1	0	1	1	1	2	1	3	1	4	
3	9	8	6	9	0	9	1	9	2	8	5	6	4	
4	10	1	8	0	1	0	1	1	1	2	1	3	1	4	
3	6	8	9	8	0	8	1	8	2	8	1	8	0	
2	3	1	3	0	3	1	3	2	3	1	3	0	
2	1	8	8	0	8	1	8	2	8	5	8	4	
2	3	1	3	0	3	1	3	5	3	3	3	4	
2	4	2	2	0	2	1	2	2	2	1	2	0	
2	2	1	2	0	2	1	2	2	2	3	2	4	
2	0	8	0	0	0	1	0	2	0	3	0	4	
3	5	1	8	5	0	5	1	8	5	8	3	8	4	
4	4	1	8	6	4	0	4	1	4	2	1	5	6	4	
4	4	1	10	9	4	0	4	1	4	2	4	3	4	4	
2	0	8	0	0	0	1	0	2	0	1	8	0	
3	8	1	10	1	0	1	1	1	2	1	5	1	4	
3	7	1	2	7	0	7	1	7	2	7	1	2	0	
2	2	4	2	0	2	1	2	5	2	3	2	4	
3	5	1	8	5	0	5	1	8	2	8	3	8	4	
3	8	0	6	0	0	0	1	0	2	0	3	0	4	
5	9	8	1	5	7	7	0	7	1	7	2	7	1	7	0	
3	3	2	9	3	0	3	1	3	2	3	5	3	4	
3	6	8	1	6	0	6	1	6	2	6	5	8	4	
3	7	1	2	7	0	7	1	7	2	7	5	2	4	
3	3	1	8	3	0	8	1	8	2	8	1	8	0	
3	9	8	6	6	0	6	1	6	2	6	3	6	4	
2	5	7	7	0	7	1	7	2	7	5	7	4	
2	8	6	6	0	6	1	6	2	6	1	6	0	
3	10	1	2	1	0	1	1	1	2	1	5	1	4	
3	8	1	4	8	0	8	1	8	2	4	5	4	4	
3	10	1	5	5	0	5	1	5	5	5	3	5	4	
4	4	1	8	0	4	0	4	1	4	5	4	3	1	4	
3	6	8	9	6	0	6	1	6	5	6	3	9	4	
3	9	8	0	9	0	9	1	0	5	0	3	0	4	
4	9	10	1	7	10	0	10	1	10	2	1	5	7	4	
3	10	1	3	10	0	10	1	3	2	3	3	3	4	
2	0	6	6	0	6	1	6	2	6	5	6	4	
2	6	8	6	0	6	1	6	2	6	5	6	4	
3	4	1	3	1	0	1	1	1	2	1	1	1	0	
2	2	1	2	0	2	1	2	5	2	3	2	4	
4	0	8	1	3	0	0	0	1	0	5	0	3	3	4	
2	1	5	5	0	5	1	5	2	5	5	5	4	
3	4	2	1	4	0	4	1	4	2	4	5	4	4	
3	7	6	0	7	0	7	1	7	2	7	3	7	4	
3	0	8	1	8	0	8	1	8	2	8	3	8	4	
3	10	1	8	10	0	10	1	10	5	10	3	1	4	
3	3	1	5	1	0	1	1	1	2	1	3	1	4	
3	4	1	8	1	0	1	1	1	2	1	1	1	0	
2	1	3	3	0	3	1	3	5	3	3	3	4	
4	5	1	8	6	5	0	5	1	5	2	5	5	5	4	
4	5	1	8	6	5	0	5	1	5	5	5	3	6	4	
2	2	9	9	0	9	1	9	2	9	1	9	0	
4	9	8	1	7	7	0	7	1	7	2	7	3	7	4	
2	7	1	7	0	7	1	7	2	7	5	7	4	
3	5	1	3	5	0	5	1	5	2	5	1	5	0	
4	0	8	1	5	0	0	0	1	0	5	8	3	8	4	
4	4	1	8	0	4	0	4	1	4	2	1	3	8	4	
4	2	1	8	6	2	0	2	1	2	2	8	1	8	0	
3	7	6	8	6	0	6	1	6	2	6	1	6	0	
3	1	2	4	2	0	2	1	2	2	2	1	2	0	
4	3	1	8	6	3	0	3	1	3	2	3	5	3	4	
2	2	3	2	0	2	1	2	2	2	3	2	4	
3	7	1	10	7	0	7	1	7	2	10	5	10	4	
2	5	7	7	0	7	1	7	2	7	3	7	4	
3	4	1	3	1	0	1	1	1	2	1	5	1	4	
3	4	1	5	4	0	4	1	4	5	4	3	4	4	
3	0	6	7	7	0	7	1	7	2	7	1	7	0	
3	7	1	2	7	0	7	1	7	5	7	3	7	4	
3	0	8	1	0	0	0	1	0	2	8	5	8	4	
3	2	1	8	2	0	2	1	2	2	8	5	8	4	
2	6	0	6	0	6	1	6	2	6	3	6	4	
4	2	1	8	6	8	0	8	1	8	5	8	3	8	4	
4	8	1	2	4	1	0	2	1	2	2	2	1	2	0	
4	10	1	2	4	10	0	10	1	10	2	1	5	2	4	
4	9	8	1	10	9	0	9	1	9	5	9	3	10	4	
4	6	8	1	3	6	0	6	1	1	5	1	3	3	4	
2	8	6	8	0	8	1	8	2	8	5	8	4	
3	8	1	10	1	0	10	1	10	5	10	3	10	4	
3	5	1	4	5	0	4	1	4	2	4	1	4	0	
3	10	1	7	7	0	7	1	7	5	7	3	7	4	
2	4	2	2	0	2	1	2	5	2	3	2	4	
4	9	8	1	4	8	0	8	1	8	2	8	3	8	4	
3	5	1	2	5	0	5	1	2	2	2	3	2	4	
3	4	1	3	1	0	1	1	1	2	1	3	1	4	
4	0	8	1	2	0	0	1	1	1	2	1	1	1	0	
4	9	8	1	5	9	0	9	1	9	2	9	5	9	4	
2	10	1	10	0	10	1	10	2	10	3	10	4	
2	7	5	7	0	7	1	7	2	7	1	7	0	
2	4	1	1	0	1	1	1	2	1	1	1	0	
2	10	9	9	0	9	1	9	2	9	1	9	0	
3	7	6	8	7	0	7	1	7	2	7	5	7	4	
4	5	1	8	9	5	0	5	1	8	5	9	3	9	4	
4	6	8	1	5	6	0	6	1	6	2	6	3	6	4	
3	2	1	8	2	0	2	1	2	2	2	3	2	4	
2	3	2	3	0	3	1	3	2	3	1	2	0	
3	9	8	0	0	0	0	1	0	2	0	1	0	0	
4	10	1	2	4	2	0	2	1	2	2	2	1	2	0	
4	5	1	8	9	8	0	8	1	8	2	8	1	8	0	
3	3	1	8	3	0	3	1	3	2	8	5	8	4	
4	0	8	1	5	0	0	0	1	0	2	0	5	8	4	
3	5	1	4	4	0	4	1	4	5	4	3	4	4	
2	8	9	9	0	9	1	9	2	9	3	9	4	
3	3	1	8	3	0	3	1	3	5	3	3	1	4	
3	7	1	2	7	0	7	1	7	2	2	3	2	4	
3	8	1	3	8	0	3	1	3	2	3	1	3	0	
4	6	8	1	4	4	0	4	1	4	2	4	3	4	4	
3	0	8	1	8	0	8	1	8	2	8	1	8	0	
3	7	1	10	7	0	7	1	7	2	10	3	10	4	
4	4	1	8	6	1	0	6	1	6	2	6	1	6	0	
2	4	2	2	0	2	1	2	2	2	3	2	4	
2	8	1	1	0	1	1	1	2	1	5	1	4	
2	5	1	5	0	5	1	5	2	5	3	5	4	
3	4	1	7	7	0	7	1	7	5	7	3	7	4	
3	9	2	3	9	0	9	1	9	5	9	3	9	4	
4	7	6	8	9	8	0	8	1	9	2	9	3	9	4	
2	1	10	10	0	10	1	10	5	10	3	10	4	
3	4	1	10	1	0	1	1	1	2	1	3	1	4	
2	7	6	7	0	7	1	7	2	7	1	7	0	
3	1	8	9	8	0	8	1	8	2	8	1	8	0	
4	2	1	8	0	2	0	2	1	0	5	0	3	0	4	
3	3	1	5	1	0	1	1	1	2	1	1	1	0	
3	5	1	10	5	0	5	1	10	2	10	3	10	4	
4	6	8	1	5	6	0	6	1	6	5	5	3	5	4	
2	1	4	4	0	4	1	4	2	4	5	4	4	
3	3	1	5	3	0	3	1	3	5	3	3	3	4	
3	7	6	0	7	0	7	1	7	5	7	3	7	4	
3	8	1	2	8	0	8	1	8	2	8	1	2	0	
3	3	2	4	4	0	4	1	4	2	4	3	4	4	
3	4	1	5	4	0	4	1	4	2	5	3	5	4	
3	10	1	3	10	0	3	1	3	2	3	1	3	0	
3	2	1	10	2	0	2	1	2	2	2	3	2	4	
2	5	7	7	0	7	1	7	5	7	3	7	4	
3	2	1	8	2	0	8	1	8	2	8	1	8	0	
4	6	8	1	5	8	0	8	1	8	2	5	1	5	0	
4	2	1	8	6	1	0	1	1	1	2	1	5	1	4	
2	9	8	9	0	9	1	9	2	9	1	9	0	
5	0	8	1	2	4	4	0	4	1	4	2	4	3	4	4	
3	4	1	7	4	0	4	1	4	2	7	1	7	0	
2	6	8	6	0	6	1	6	2	6	1	6	0	
3	2	1	5	2	0	5	1	5	2	5	1	5	0	
2	10	1	10	0	10	1	10	5	10	3	10	4	
3	0	6	7	7	0	7	1	7	5	7	3	7	4	
2	8	1	1	0	1	1	1	5	1	3	1	4	
4	5	1	2	4	4	0	4	1	4	2	4	3	4	4	
3	1	8	9	1	0	1	1	8	2	9	3	9	4	
3	9	2	4	9	0	9	1	9	5	9	3	9	4	
3	10	1	2	10	0	10	1	10	2	10	1	2	0	
3	5	1	10	5	0	5	1	5	2	5	1	5	0	
4	10	1	8	9	10	0	10	1	10	2	10	5	8	4	
2	3	1	3	0	3	1	3	2	3	3	3	4	
3	1	8	6	6	0	6	1	6	2	6	3	6	4	
3	9	8	6	6	0	6	1	6	2	6	1	6	0	
3	2	1	4	2	0	2	1	4	2	4	3	4	4	
2	9	2	9	0	9	1	9	2	9	1	2	0	
3	1	8	0	8	0	8	1	8	2	8	1	8	0	
4	0	8	1	10	0	0	0	1	0	5	0	3	10	4	
3	4	1	8	1	0	1	1	1	2	1	5	1	4	
3	10	1	4	4	0	4	1	4	5	4	3	4	4	
5	6	8	1	2	4	6	0	6	1	6	2	1	5	1	4	
3	8	1	3	8	0	8	1	3	2	3	5	3	4	
3	5	1	3	5	0	5	1	3	2	3	3	3	4	
3	5	1	2	5	0	5	1	5	5	2	3	2	4	
3	10	1	2	2	0	2	1	2	5	2	3	2	4	
2	6	8	6	0	6	1	6	5	6	3	6	4	
4	5	1	8	9	5	0	5	1	5	2	8	5	8	4	
2	7	6	7	0	7	1	7	5	7	3	7	4	
3	9	8	0	9	0	9	1	9	2	8	5	8	4	
4	0	8	1	4	0	0	0	1	0	5	4	3	4	4	
2	8	0	8	0	8	1	8	2	8	3	8	4	
3	9	8	1	8	0	8	1	8	2	8	1	8	0	
3	4	2	9	4	0	4	1	9	5	9	3	9	4	
2	8	0	0	0	0	1	0	2	0	1	0	0	
3	1	8	6	8	0	8	1	8	2	8	5	6	4	
4	7	1	2	4	7	0	7	1	7	2	1	5	1	4	
4	9	10	1	8	9	0	10	1	10	2	10	3	10	4	
2	6	7	7	0	7	1	7	2	7	1	7	0	
2	2	4	2	0	2	1	2	2	2	5	2	4	
4	3	1	8	6	6	0	6	1	6	2	6	3	6	4	
3	7	1	3	1	0	1	1	1	2	1	3	1	4	
3	10	1	8	1	0	1	1	1	2	1	1	1	0	
4	10	1	8	0	10	0	0	1	0	2	0	5	0	4	
4	7	6	8	9	6	0	6	1	6	2	6	1	6	0	
3	4	1	5	4	0	5	1	5	2	5	1	5	0	
2	6	7	6	0	6	1	6	2	6	5	6	4	
4	2	1	5	7	7	0	7	1	7	2	7	1	7	0	
3	0	8	6	0	0	0	1	0	2	0	3	0	4	
3	10	1	3	3	0	3	1	3	5	3	3	3	4	
4	4	1	8	6	4	0	6	1	6	5	6	3	6	4	
2	1	8	8	0	8	1	8	5	8	3	8	4	
3	0	8	9	0	0	0	1	0	5	0	3	0	4	
3	8	1	3	1	0	1	1	3	5	3	3	3	4	
4	6	8	1	10	6	0	6	1	6	5	6	3	10	4	
2	0	6	6	0	6	1	6	2	6	1	6	0	
2	8	9	9	0	9	1	9	2	9	1	9	0	
4	6	8	1	2	8	0	2	1	2	2	2	1	2	0	
2	7	1	7	0	7	1	7	5	7	3	7	4	
4	2	1	8	9	2	0	2	1	2	2	2	5	8	4	
3	6	8	1	6	0	6	1	6	2	6	3	6	4	
4	3	1	8	6	8	0	8	1	8	2	8	1	8	0	
3	9	2	4	9	0	9	1	9	2	9	1	9	0	
3	10	1	8	8	0	8	1	8	2	8	3	8	4	
3	3	2	9	2	0	2	1	2	2	2	1	9	0	
3	2	1	7	7	0	7	1	7	5	7	3	7	4	
3	7	1	3	1	0	1	1	1	2	1	5	1	4	
2	9	2	9	0	9	1	9	2	9	5	9	4	
5	2	3	1	10	9	2	0	2	1	2	2	2	3	3	4	
3	8	1	7	1	0	1	1	1	2	1	1	1	0	
4	5	1	8	0	5	0	5	1	8	5	8	3	0	4	
3	0	6	7	7	0	7	1	7	2	7	3	7	4	
2	2	4	2	0	2	1	2	2	2	1	2	0	
2	0	6	6	0	6	1	6	5	6	3	6	4	
3	9	2	1	2	0	2	1	2	2	2	3	2	4	
4	0	8	1	5	8	0	8	1	8	2	8	1	1	0	
2	1	10	10	0	10	1	10	2	10	1	10	0	
3	6	8	9	6	0	6	1	6	2	6	5	8	4	
4	5	1	8	0	8	0	8	1	8	2	8	1	8	0	
2	1	8	1	0	1	1	1	2	1	3	1	4	
4	0	8	1	2	0	0	0	1	0	5	0	3	0	4	
3	7	1	4	7	0	7	1	7	5	4	3	4	4	
2	10	1	10	0	10	1	10	2	10	1	10	0	
4	9	8	6	7	9	0	9	1	6	5	6	3	7	4	
4	0	8	1	3	0	0	0	1	0	2	0	5	8	4	
4	3	1	8	0	1	0	1	1	1	2	1	3	8	4	
4	6	8	1	2	8	0	8	1	8	2	8	3	8	4	
2	7	5	7	0	7	1	7	2	7	3	7	4	
3	6	8	1	1	0	1	1	1	2	1	1	1	0	
2	0	8	0	0	0	1	0	2	0	5	0	4	
3	6	8	1	8	0	8	1	8	5	8	3	8	4	
3	1	8	0	1	0	1	1	1	2	1	5	1	4	
2	1	5	5	0	5	1	5	2	5	3	5	4	
3	3	2	9	3	0	3	1	3	5	3	3	9	4	
2	9	8	9	0	9	1	9	5	9	3	9	4	
4	5	1	8	6	5	0	5	1	5	2	5	1	5	0	
2	4	1	1	0	1	1	1	2	1	3	1	4	
2	8	9	9	0	9	1	9	2	9	5	9	4	
3	5	1	3	3	0	3	1	3	5	3	3	3	4	
3	1	8	6	8	0	8	1	8	5	8	3	8	4	
2	1	5	5	0	5	1	5	2	5	1	5	0	
3	8	1	5	1	0	1	1	5	5	5	3	5	4	
4	5	1	8	0	5	0	5	1	8	2	8	3	8	4	
2	3	1	3	0	3	1	3	2	3	5	3	4	
3	7	1	10	7	0	7	1	7	5	7	3	7	4	
2	3	2	3	0	3	1	3	5	3	3	3	4	
2	6	7	7	0	7	1	7	2	7	3	7	4	
3	7	6	8	6	0	6	1	6	2	6	3	6	4	
4	3	1	8	0	1	0	1	1	1	2	1	1	8	0	
4	0	6	8	9	6	0	6	1	6	2	6	3	8	4	
3	2	1	10	2	0	2	1	2	2	10	5	10	4	
4	2	1	8	0	2	0	2	1	2	2	2	3	2	4	
3	8	1	3	1	0	1	1	1	2	1	3	1	4	
4	6	8	1	4	6	0	6	1	6	5	4	3	4	4	
2	2	1	2	0	2	1	2	2	2	1	2	0	
3	4	1	8	4	0	4	1	4	5	1	3	1	4	
3	4	1	8	1	0	1	1	1	2	1	3	1	4	
3	4	1	10	1	0	1	1	1	2	1	1	1	0	
4	10	1	8	6	10	0	10	1	6	2	6	5	6	4	
3	4	1	10	4	0	4	1	4	5	4	3	4	4	
4	10	1	8	6	1	0	1	1	1	2	1	1	1	0	
3	10	1	5	10	0	10	1	10	2	5	5	5	4	
2	1	2	2	0	2	1	2	2	2	3	2	4	
2	6	0	6	0	6	1	6	2	6	5	6	4	
3	8	6	7	6	0	6	1	6	2	6	5	6	4	
4	6	8	1	4	8	0	4	1	4	2	4	1	4	0	
3	8	1	5	8	0	5	1	5	2	5	1	5	0	
2	9	10	9	0	9	1	9	2	9	1	9	0	
3	2	1	7	2	0	2	1	2	2	2	5	7	4	
3	7	1	10	7	0	7	1	7	2	7	1	10	0	
2	2	9	9	0	9	1	9	5	9	3	9	4	
4	6	8	1	10	8	0	8	1	8	2	8	3	8	4	
4	9	10	1	4	10	0	4	1	4	2	4	5	4	4	
3	9	8	1	9	0	9	1	8	5	8	3	8	4	
3	0	8	9	0	0	0	1	0	2	0	5	0	4	
2	6	8	6	0	6	1	6	2	6	3	6	4	
4	10	1	8	0	10	0	10	1	10	5	10	3	0	4	
4	4	1	8	0	1	0	1	1	1	2	1	1	8	0	
2	8	0	0	0	0	1	0	5	0	3	0	4	
2	0	8	8	0	8	1	8	5	8	3	8	4	
4	7	6	8	9	7	0	7	1	7	2	7	5	8	4	
3	3	1	7	7	0	7	1	7	5	7	3	7	4	
4	10	1	8	6	6	0	6	1	6	2	6	3	6	4	
3	7	6	0	7	0	7	1	7	2	7	1	7	0	
4	6	8	1	3	8	0	8	1	8	2	8	1	3	0	
4	8	1	2	4	4	0	4	1	4	2	4	3	4	4	
2	3	2	3	0	3	1	3	2	3	3	2	4	
2	1	7	1	0	1	1	1	2	1	3	1	4	
4	9	8	1	5	8	0	8	1	8	2	8	1	8	0	
2	10	9	9	0	9	1	9	2	9	3	9	4	
3	10	1	7	10	0	7	1	7	2	7	1	7	0	
2	1	2	2	0	2	1	2	2	2	5	2	4	
3	4	2	9	2	0	2	1	2	2	2	1	9	0	
4	6	8	1	3	1	0	1	1	1	2	1	5	1	4	
3	3	1	10	1	0	1	1	1	2	1	3	1	4	
3	7	6	0	7	0	7	1	7	2	7	5	7	4	
2	5	1	5	0	5	1	5	5	5	3	5	4	
4	0	8	1	2	8	0	8	1	8	2	8	3	8	4	
3	4	2	9	4	0	4	1	4	2	4	5	4	4	
2	1	4	4	0	4	1	4	5	4	3	4	4	
3	1	5	7	7	0	7	1	7	2	7	1	7	0	
3	4	1	5	1	0	1	1	1	2	1	5	1	4	
4	2	1	8	0	2	0	2	1	2	2	2	5	8	4	
2	1	10	10	0	10	1	10	2	10	5	10	4	
4	0	8	1	10	0	0	0	1	0	2	0	3	0	4	
2	1	10	10	0	10	1	10	2	10	3	10	4	
2	9	2	9	0	9	1	9	5	2	3	2	4	
2	7	5	7	0	7	1	7	5	7	3	7	4	
2	8	1	8	0	8	1	8	2	8	3	8	4	
2	2	3	2	0	2	1	2	2	2	1	2	0	
4	3	1	8	0	3	0	3	1	3	5	3	3	1	4	
2	2	3	2	0	2	1	2	5	2	3	2	4	
3	0	8	9	0	0	9	1	9	2	9	1	9	0	
3	10	1	7	7	0	7	1	7	2	7	5	7	4	
2	1	7	7	0	7	1	7	2	7	5	7	4	
2	1	4	4	0	4	1	4	2	4	3	4	4	
4	5	1	2	4	5	0	5	1	5	2	1	5	4	4	
4	5	1	8	9	1	0	1	1	8	2	8	3	9	4	
3	2	1	5	2	0	2	1	2	2	2	5	2	4	
4	0	8	1	3	1	0	1	1	1	2	3	3	3	4	
4	3	1	5	7	7	0	7	1	7	2	7	3	7	4	
4	6	8	1	2	8	0	8	1	8	2	8	5	8	4	
3	1	8	6	8	0	8	1	8	2	8	1	8	0	
4	9	8	1	5	8	0	8	1	5	2	5	3	5	4	
2	5	1	5	0	5	1	5	2	5	1	5	0	
4	3	1	8	0	3	0	3	1	3	2	3	5	1	4	
3	1	8	9	1	0	1	1	8	5	9	3	9	4	
3	8	1	2	8	0	8	1	2	5	2	3	2	4	
4	6	8	1	10	6	0	6	1	6	2	6	5	1	4	
4	0	8	1	7	0	0	0	1	0	2	0	5	1	4	
2	4	2	2	0	2	1	2	2	2	5	2	4	
3	9	2	3	9	0	9	1	9	2	9	1	9	0	
4	0	8	1	10	8	0	8	1	8	2	8	1	10	0	
4	2	1	8	0	1	0	1	1	1	2	1	1	0	0	
4	10	1	2	4	4	0	4	1	4	2	4	3	4	4	
3	8	1	2	8	0	8	1	8	2	8	3	1	4	
2	7	6	7	0	7	1	7	2	7	5	7	4	
3	2	1	5	2	0	2	1	2	2	2	3	2	4	
3	10	1	5	10	0	5	1	5	2	5	1	5	0	
2	9	10	10	0	10	1	10	2	10	5	10	4	
3	5	1	3	3	0	3	1	3	2	3	5	3	4	
3	3	1	10	3	0	3	1	3	2	3	1	10	0	
3	8	1	10	8	0	8	1	8	2	10	3	10	4	
2	7	1	7	0	7	1	7	2	7	3	7	4	
2	10	9	9	0	9	1	9	5	9	3	9	4	
2	9	10	9	0	9	1	9	2	9	3	9	4	
2	1	2	2	0	2	1	2	5	2	3	2	4	
3	2	1	8	2	0	2	1	2	5	2	3	2	4	
4	6	8	1	5	6	0	6	1	6	2	6	5	8	4	
3	7	6	8	7	0	7	1	6	5	6	3	6	4	
3	5	1	2	5	0	5	1	5	2	5	1	5	0	
3	8	1	5	1	0	1	1	5	2	5	5	5	4	
2	9	2	9	0	9	1	9	2	9	3	9	4	
3	3	2	9	2	0	2	1	9	2	9	3	9	4	
2	8	0	8	0	8	1	8	2	8	5	8	4	
5	0	8	1	2	4	1	0	2	1	2	2	2	1	2	0	
4	5	1	8	0	5	0	5	1	5	2	5	5	1	4	
