3030.73	2891.47
5392
4.99069e+06	421803
11
0	0	12
1	0	12
2	0	12
3	0	12
4	0	12
5	0	12
6	0	12
7	0	12
8	0	12
9	0	12
10	0	12
68
0	6	0	5933	0
0	7	0	5933	0
0	8	518	5933	1
0	9	0	5933	0
1	2	581	5933	1
1	3	460	5933	1
1	4	380	5933	1
1	5	340	5933	1
1	7	700	5933	1
1	8	30	5933	1
1	9	0	5933	0
1	10	0	5933	0
2	1	347	5933	1
2	3	0	5933	0
2	4	0	5933	0
2	5	0	5933	0
2	9	0	5933	-0
2	10	0	5933	0
3	1	114	5933	1
3	2	0	5933	0
3	4	0	5933	0
3	5	0	5933	0
4	1	211	5933	1
4	2	0	5933	0
4	3	0	5933	0
4	5	0	5933	0
4	6	0	5933	0
4	7	0	5933	0
5	1	124	5933	1
5	2	0	5933	0
5	3	0	5933	0
5	4	0	5933	0
5	7	0	5933	0
5	8	0	5933	0
6	0	0	5933	0
6	4	0	5933	0
6	7	0	5933	0
6	8	221	5933	1
6	9	0	5933	0
6	10	0	5933	0
7	0	0	5933	0
7	1	10	5933	1
7	4	0	5933	0
7	5	0	5933	0
7	6	0	5933	0
7	8	0	5933	0
7	9	0	5933	0
7	10	0	5933	0
8	0	10	5933	1
8	1	1282	5933	1
8	5	0	5933	0
8	6	393	5933	1
8	7	0	5933	0
8	9	553	5933	1
8	10	0	5933	0
9	0	0	5933	0
9	1	0	5933	0
9	2	0	5933	-0
9	6	0	5933	0
9	7	0	5933	0
9	8	577	5933	1
9	10	532	5933	1
10	1	0	5933	0
10	2	0	5933	0
10	6	0	5933	0
10	7	0	5933	0
10	8	0	5933	0
10	9	373	5933	1
440
3	1	8	9	1	0	1	1	1	2	1	5	1	4	
3	3	1	5	1	0	1	1	1	2	1	5	1	4	
3	7	1	3	1	0	1	1	1	5	1	3	1	4	
4	9	8	1	3	1	0	1	1	1	2	1	5	1	4	
5	10	9	8	1	7	1	0	1	1	1	2	1	3	1	4	
4	3	1	8	6	1	0	1	1	1	5	1	3	1	4	
3	4	1	7	1	0	1	1	1	2	1	5	1	4	
2	1	8	1	0	1	1	1	2	1	1	1	0	
3	7	1	4	1	0	1	1	1	2	1	3	1	4	
4	0	8	1	2	1	0	1	1	1	2	1	5	1	4	
3	7	1	3	1	0	1	1	1	2	1	1	1	0	
5	5	1	8	9	10	1	0	1	1	1	5	1	3	1	4	
3	5	1	2	1	0	1	1	1	2	1	5	1	4	
2	8	1	1	0	1	1	1	2	1	1	1	0	
3	8	1	7	1	0	1	1	1	2	1	3	1	4	
3	6	8	0	8	0	8	1	8	5	8	3	8	4	
3	2	1	5	1	0	1	1	1	5	1	3	1	4	
3	7	1	5	1	0	1	1	1	2	1	5	1	4	
3	5	1	7	1	0	1	1	1	2	1	1	1	0	
2	8	9	8	0	8	1	8	5	8	3	8	4	
5	4	1	8	9	10	1	0	1	1	1	2	1	5	1	4	
5	5	1	8	9	10	1	0	1	1	1	2	1	5	1	4	
3	8	9	10	8	0	8	1	8	2	8	1	8	0	
4	10	9	8	1	1	0	1	1	1	2	1	5	1	4	
4	0	8	1	5	1	0	1	1	1	2	1	3	1	4	
3	3	1	2	1	0	1	1	1	2	1	5	1	4	
2	1	7	1	0	1	1	1	5	1	3	1	4	
3	8	1	4	1	0	1	1	1	5	1	3	1	4	
5	2	1	8	9	10	1	0	1	1	1	5	1	3	1	4	
3	2	1	3	1	0	1	1	1	2	1	5	1	4	
2	4	1	1	0	1	1	1	5	1	3	1	4	
4	9	8	1	3	1	0	1	1	1	2	1	3	1	4	
4	0	8	1	3	1	0	1	1	1	2	1	1	1	0	
5	10	9	8	1	2	1	0	1	1	1	2	1	3	1	4	
3	7	1	4	1	0	1	1	1	2	1	1	1	0	
4	6	8	1	3	1	0	1	1	1	2	1	3	1	4	
4	9	8	1	5	1	0	1	1	1	5	1	3	1	4	
4	4	1	8	0	1	0	1	1	1	2	1	5	1	4	
3	2	1	7	1	0	1	1	1	2	1	3	1	4	
2	5	1	1	0	1	1	1	2	1	5	1	4	
3	10	9	8	8	0	8	1	8	2	8	5	8	4	
3	3	1	7	1	0	1	1	1	2	1	1	1	0	
4	6	8	1	7	1	0	1	1	1	5	1	3	1	4	
3	3	1	4	1	0	1	1	1	2	1	1	1	0	
3	5	1	8	1	0	1	1	1	2	1	1	1	0	
2	9	8	8	0	8	1	8	2	8	5	8	4	
3	1	8	0	1	0	1	1	1	5	1	3	1	4	
2	1	3	1	0	1	1	1	2	1	1	1	0	
5	2	1	8	9	10	1	0	1	1	1	2	1	1	1	0	
2	1	3	1	0	1	1	1	2	1	3	1	4	
3	4	1	7	1	0	1	1	1	2	1	3	1	4	
4	0	8	9	10	8	0	8	1	8	2	8	5	8	4	
3	5	1	8	1	0	1	1	1	2	1	5	1	4	
3	8	1	2	1	0	1	1	1	2	1	5	1	4	
3	6	8	9	8	0	8	1	8	2	8	3	8	4	
3	6	8	0	8	0	8	1	8	2	8	1	8	0	
3	9	8	0	8	0	8	1	8	2	8	3	8	4	
4	5	1	8	6	1	0	1	1	1	2	1	3	1	4	
3	3	1	7	1	0	1	1	1	2	1	5	1	4	
3	9	8	1	1	0	1	1	1	2	1	5	1	4	
5	10	9	8	1	5	1	0	1	1	1	2	1	3	1	4	
4	10	9	8	0	8	0	8	1	8	2	8	1	8	0	
2	7	1	1	0	1	1	1	2	1	1	1	0	
3	8	1	7	1	0	1	1	1	5	1	3	1	4	
5	3	1	8	9	10	1	0	1	1	1	2	1	5	1	4	
3	3	1	4	1	0	1	1	1	2	1	5	1	4	
3	9	8	6	8	0	8	1	8	5	8	3	8	4	
4	2	1	8	6	1	0	1	1	1	2	1	3	1	4	
3	8	1	5	1	0	1	1	1	2	1	3	1	4	
3	3	1	4	1	0	1	1	1	5	1	3	1	4	
4	7	1	8	6	1	0	1	1	1	2	1	3	1	4	
3	0	8	1	1	0	1	1	1	5	1	3	1	4	
4	6	8	1	2	1	0	1	1	1	5	1	3	1	4	
2	1	2	1	0	1	1	1	2	1	1	1	0	
5	10	9	8	1	3	1	0	1	1	1	2	1	5	1	4	
4	10	9	8	6	8	0	8	1	8	5	8	3	8	4	
2	1	3	1	0	1	1	1	2	1	5	1	4	
3	1	8	0	1	0	1	1	1	2	1	3	1	4	
2	1	5	1	0	1	1	1	5	1	3	1	4	
4	4	1	8	6	1	0	1	1	1	2	1	3	1	4	
2	8	6	8	0	8	1	8	5	8	3	8	4	
4	7	1	8	9	1	0	1	1	1	5	1	3	1	4	
2	2	1	1	0	1	1	1	2	1	5	1	4	
5	3	1	8	9	10	1	0	1	1	1	5	1	3	1	4	
4	6	8	9	10	8	0	8	1	8	2	8	1	8	0	
3	4	1	3	1	0	1	1	1	5	1	3	1	4	
4	0	8	1	4	1	0	1	1	1	2	1	5	1	4	
3	3	1	8	1	0	1	1	1	2	1	3	1	4	
3	9	8	6	8	0	8	1	8	2	8	5	8	4	
4	10	9	8	0	8	0	8	1	8	2	8	3	8	4	
3	6	8	9	8	0	8	1	8	2	8	1	8	0	
2	3	1	1	0	1	1	1	2	1	1	1	0	
2	1	8	1	0	1	1	1	2	1	5	1	4	
2	3	1	1	0	1	1	1	5	1	3	1	4	
3	4	1	2	1	0	1	1	1	2	1	1	1	0	
2	2	1	1	0	1	1	1	2	1	3	1	4	
2	0	8	8	0	8	1	8	2	8	3	8	4	
3	5	1	8	1	0	1	1	1	5	1	3	1	4	
4	4	1	8	6	1	0	1	1	1	2	1	5	1	4	
4	4	1	8	9	1	0	1	1	1	2	1	3	1	4	
2	0	8	8	0	8	1	8	2	8	1	8	0	
3	8	9	10	8	0	8	1	8	2	8	5	8	4	
3	7	1	2	1	0	1	1	1	2	1	1	1	0	
3	2	1	4	1	0	1	1	1	5	1	3	1	4	
3	5	1	8	1	0	1	1	1	2	1	3	1	4	
2	8	6	8	0	8	1	8	2	8	3	8	4	
4	9	8	1	7	1	0	1	1	1	2	1	1	1	0	
4	3	1	8	9	1	0	1	1	1	2	1	5	1	4	
3	6	8	1	1	0	1	1	1	2	1	5	1	4	
3	7	1	2	1	0	1	1	1	2	1	5	1	4	
3	3	1	8	1	0	1	1	1	2	1	1	1	0	
3	9	8	6	8	0	8	1	8	2	8	3	8	4	
3	5	1	7	1	0	1	1	1	2	1	5	1	4	
2	8	6	8	0	8	1	8	2	8	1	8	0	
5	10	9	8	1	2	1	0	1	1	1	2	1	5	1	4	
3	8	1	4	1	0	1	1	1	2	1	5	1	4	
5	10	9	8	1	5	1	0	1	1	1	5	1	3	1	4	
4	4	1	8	0	1	0	1	1	1	5	1	3	1	4	
3	6	8	9	8	0	8	1	8	5	8	3	8	4	
3	9	8	0	8	0	8	1	8	5	8	3	8	4	
4	9	8	1	7	1	0	1	1	1	2	1	5	1	4	
5	10	9	8	1	3	1	0	1	1	1	2	1	3	1	4	
3	0	8	6	8	0	8	1	8	2	8	5	8	4	
2	6	8	8	0	8	1	8	2	8	5	8	4	
3	4	1	3	1	0	1	1	1	2	1	1	1	0	
2	2	1	1	0	1	1	1	5	1	3	1	4	
4	0	8	1	3	1	0	1	1	1	5	1	3	1	4	
2	1	5	1	0	1	1	1	2	1	5	1	4	
2	4	1	1	0	1	1	1	2	1	5	1	4	
4	7	1	8	0	1	0	1	1	1	2	1	3	1	4	
3	0	8	1	1	0	1	1	1	2	1	3	1	4	
3	10	9	8	8	0	8	1	8	5	8	3	8	4	
3	3	1	5	1	0	1	1	1	2	1	3	1	4	
3	4	1	8	1	0	1	1	1	2	1	1	1	0	
2	1	3	1	0	1	1	1	5	1	3	1	4	
4	5	1	8	6	1	0	1	1	1	2	1	5	1	4	
4	5	1	8	6	1	0	1	1	1	5	1	3	1	4	
4	2	1	8	9	1	0	1	1	1	2	1	1	1	0	
4	9	8	1	7	1	0	1	1	1	2	1	3	1	4	
2	7	1	1	0	1	1	1	2	1	5	1	4	
3	5	1	3	1	0	1	1	1	2	1	1	1	0	
4	0	8	1	5	1	0	1	1	1	5	1	3	1	4	
4	4	1	8	0	1	0	1	1	1	2	1	3	1	4	
4	2	1	8	6	1	0	1	1	1	2	1	1	1	0	
3	7	1	8	1	0	1	1	1	2	1	1	1	0	
2	1	4	1	0	1	1	1	2	1	1	1	0	
4	3	1	8	6	1	0	1	1	1	2	1	5	1	4	
3	2	1	3	1	0	1	1	1	2	1	3	1	4	
5	7	1	8	9	10	1	0	1	1	1	2	1	5	1	4	
3	5	1	7	1	0	1	1	1	2	1	3	1	4	
3	4	1	3	1	0	1	1	1	2	1	5	1	4	
3	4	1	5	1	0	1	1	1	5	1	3	1	4	
4	0	8	1	7	1	0	1	1	1	2	1	1	1	0	
3	7	1	2	1	0	1	1	1	5	1	3	1	4	
3	0	8	1	1	0	1	1	1	2	1	5	1	4	
3	2	1	8	1	0	1	1	1	2	1	5	1	4	
3	6	8	0	8	0	8	1	8	2	8	3	8	4	
4	2	1	8	6	1	0	1	1	1	5	1	3	1	4	
3	8	1	4	1	0	1	1	1	2	1	1	1	0	
5	10	9	8	1	4	1	0	1	1	1	2	1	5	1	4	
2	9	10	9	0	9	1	9	5	9	3	9	4	
4	6	8	1	3	1	0	1	1	1	5	1	3	1	4	
2	8	6	8	0	8	1	8	2	8	5	8	4	
3	8	9	10	8	0	8	1	8	5	8	3	8	4	
3	5	1	4	1	0	1	1	1	2	1	1	1	0	
5	10	9	8	1	7	1	0	1	1	1	5	1	3	1	4	
3	4	1	2	1	0	1	1	1	5	1	3	1	4	
4	9	8	1	4	1	0	1	1	1	2	1	3	1	4	
3	5	1	2	1	0	1	1	1	2	1	3	1	4	
3	4	1	3	1	0	1	1	1	2	1	3	1	4	
4	0	8	1	2	1	0	1	1	1	2	1	1	1	0	
4	9	8	1	5	1	0	1	1	1	2	1	5	1	4	
4	10	9	8	1	1	0	1	1	1	2	1	3	1	4	
3	7	1	5	1	0	1	1	1	2	1	1	1	0	
2	4	1	1	0	1	1	1	2	1	1	1	0	
2	10	9	9	0	9	1	9	2	9	1	9	0	
3	7	1	8	1	0	1	1	1	2	1	5	1	4	
4	5	1	8	9	1	0	1	1	1	5	1	3	1	4	
4	6	8	1	5	1	0	1	1	1	2	1	3	1	4	
3	2	1	8	1	0	1	1	1	2	1	3	1	4	
3	3	1	2	1	0	1	1	1	2	1	1	1	0	
3	9	8	0	8	0	8	1	8	2	8	1	8	0	
5	10	9	8	1	4	1	0	1	1	1	2	1	1	1	0	
4	5	1	8	9	1	0	1	1	1	2	1	1	1	0	
3	3	1	8	1	0	1	1	1	2	1	5	1	4	
4	0	8	1	5	1	0	1	1	1	2	1	5	1	4	
3	5	1	4	1	0	1	1	1	5	1	3	1	4	
2	8	9	8	0	8	1	8	2	8	3	8	4	
3	3	1	8	1	0	1	1	1	5	1	3	1	4	
3	7	1	2	1	0	1	1	1	2	1	3	1	4	
3	8	1	3	1	0	1	1	1	2	1	1	1	0	
4	6	8	1	4	1	0	1	1	1	2	1	3	1	4	
3	0	8	1	1	0	1	1	1	2	1	1	1	0	
5	7	1	8	9	10	1	0	1	1	1	2	1	3	1	4	
4	4	1	8	6	1	0	1	1	1	2	1	1	1	0	
3	4	1	2	1	0	1	1	1	2	1	3	1	4	
2	8	1	1	0	1	1	1	2	1	5	1	4	
2	5	1	1	0	1	1	1	2	1	3	1	4	
3	4	1	7	1	0	1	1	1	5	1	3	1	4	
4	9	8	1	3	1	0	1	1	1	5	1	3	1	4	
4	7	1	8	9	1	0	1	1	1	2	1	3	1	4	
4	1	8	9	10	1	0	1	1	1	5	1	3	1	4	
5	4	1	8	9	10	1	0	1	1	1	2	1	3	1	4	
4	7	1	8	6	1	0	1	1	1	2	1	1	1	0	
3	1	8	9	1	0	1	1	1	2	1	1	1	0	
4	2	1	8	0	1	0	1	1	1	5	1	3	1	4	
3	3	1	5	1	0	1	1	1	2	1	1	1	0	
5	5	1	8	9	10	1	0	1	1	1	2	1	3	1	4	
4	6	8	1	5	1	0	1	1	1	5	1	3	1	4	
2	1	4	1	0	1	1	1	2	1	5	1	4	
3	3	1	5	1	0	1	1	1	5	1	3	1	4	
4	7	1	8	0	1	0	1	1	1	5	1	3	1	4	
3	8	1	2	1	0	1	1	1	2	1	1	1	0	
3	3	1	4	1	0	1	1	1	2	1	3	1	4	
3	4	1	5	1	0	1	1	1	2	1	3	1	4	
5	10	9	8	1	3	1	0	1	1	1	2	1	1	1	0	
5	2	1	8	9	10	1	0	1	1	1	2	1	3	1	4	
3	5	1	7	1	0	1	1	1	5	1	3	1	4	
3	2	1	8	1	0	1	1	1	2	1	1	1	0	
4	6	8	1	5	1	0	1	1	1	2	1	1	1	0	
4	2	1	8	6	1	0	1	1	1	2	1	5	1	4	
2	9	8	8	0	8	1	8	2	8	1	8	0	
4	0	8	1	4	1	0	1	1	1	2	1	3	1	4	
3	4	1	7	1	0	1	1	1	2	1	1	1	0	
2	6	8	8	0	8	1	8	2	8	1	8	0	
3	2	1	5	1	0	1	1	1	2	1	1	1	0	
4	10	9	8	1	1	0	1	1	1	5	1	3	1	4	
4	0	8	1	7	1	0	1	1	1	5	1	3	1	4	
2	8	1	1	0	1	1	1	5	1	3	1	4	
3	5	1	4	1	0	1	1	1	2	1	3	1	4	
3	1	8	9	1	0	1	1	1	2	1	3	1	4	
4	9	8	1	4	1	0	1	1	1	5	1	3	1	4	
5	10	9	8	1	2	1	0	1	1	1	2	1	1	1	0	
5	5	1	8	9	10	1	0	1	1	1	2	1	1	1	0	
2	10	9	9	0	9	1	9	2	9	5	9	4	
2	3	1	1	0	1	1	1	2	1	3	1	4	
3	1	8	6	1	0	1	1	1	2	1	3	1	4	
3	9	8	6	8	0	8	1	8	2	8	1	8	0	
3	2	1	4	1	0	1	1	1	2	1	3	1	4	
4	9	8	1	2	1	0	1	1	1	2	1	1	1	0	
3	1	8	0	1	0	1	1	1	2	1	1	1	0	
4	0	8	9	10	8	0	8	1	8	5	8	3	8	4	
3	4	1	8	1	0	1	1	1	2	1	5	1	4	
5	10	9	8	1	4	1	0	1	1	1	5	1	3	1	4	
4	6	8	1	4	1	0	1	1	1	2	1	5	1	4	
3	8	1	3	1	0	1	1	1	2	1	5	1	4	
3	5	1	3	1	0	1	1	1	2	1	3	1	4	
3	5	1	2	1	0	1	1	1	5	1	3	1	4	
5	10	9	8	1	2	1	0	1	1	1	5	1	3	1	4	
2	6	8	8	0	8	1	8	5	8	3	8	4	
4	5	1	8	9	1	0	1	1	1	2	1	5	1	4	
4	7	1	8	6	1	0	1	1	1	5	1	3	1	4	
3	9	8	0	8	0	8	1	8	2	8	5	8	4	
4	0	8	1	4	1	0	1	1	1	5	1	3	1	4	
2	8	0	8	0	8	1	8	2	8	3	8	4	
3	9	8	1	1	0	1	1	1	2	1	1	1	0	
4	4	1	8	9	1	0	1	1	1	5	1	3	1	4	
2	8	0	8	0	8	1	8	2	8	1	8	0	
3	1	8	6	1	0	1	1	1	2	1	5	1	4	
3	7	1	4	1	0	1	1	1	2	1	5	1	4	
2	9	8	8	0	8	1	8	2	8	3	8	4	
4	6	8	1	7	1	0	1	1	1	2	1	1	1	0	
3	2	1	4	1	0	1	1	1	2	1	5	1	4	
4	3	1	8	6	1	0	1	1	1	2	1	3	1	4	
3	7	1	3	1	0	1	1	1	2	1	3	1	4	
3	10	9	8	8	0	8	1	8	2	8	1	8	0	
4	10	9	8	0	8	0	8	1	8	2	8	5	8	4	
4	7	1	8	9	1	0	1	1	1	2	1	1	1	0	
3	4	1	5	1	0	1	1	1	2	1	1	1	0	
4	6	8	1	7	1	0	1	1	1	2	1	5	1	4	
3	2	1	7	1	0	1	1	1	2	1	1	1	0	
3	0	8	6	8	0	8	1	8	2	8	3	8	4	
5	10	9	8	1	3	1	0	1	1	1	5	1	3	1	4	
4	4	1	8	6	1	0	1	1	1	5	1	3	1	4	
2	1	8	1	0	1	1	1	5	1	3	1	4	
3	0	8	9	8	0	8	1	8	5	8	3	8	4	
3	8	1	3	1	0	1	1	1	5	1	3	1	4	
4	6	8	9	10	8	0	8	1	8	5	8	3	8	4	
3	0	8	6	8	0	8	1	8	2	8	1	8	0	
2	8	9	8	0	8	1	8	2	8	1	8	0	
4	6	8	1	2	1	0	1	1	1	2	1	1	1	0	
2	7	1	1	0	1	1	1	5	1	3	1	4	
4	2	1	8	9	1	0	1	1	1	2	1	5	1	4	
3	6	8	1	1	0	1	1	1	2	1	3	1	4	
4	3	1	8	6	1	0	1	1	1	2	1	1	1	0	
4	9	8	1	4	1	0	1	1	1	2	1	1	1	0	
3	10	9	8	8	0	8	1	8	2	8	3	8	4	
4	3	1	8	9	1	0	1	1	1	2	1	1	1	0	
3	2	1	7	1	0	1	1	1	5	1	3	1	4	
3	7	1	3	1	0	1	1	1	2	1	5	1	4	
4	9	8	1	2	1	0	1	1	1	2	1	5	1	4	
4	2	1	8	9	1	0	1	1	1	2	1	3	1	4	
3	8	1	7	1	0	1	1	1	2	1	1	1	0	
4	5	1	8	0	1	0	1	1	1	5	1	3	1	4	
4	0	8	1	7	1	0	1	1	1	2	1	3	1	4	
3	2	1	4	1	0	1	1	1	2	1	1	1	0	
3	0	8	6	8	0	8	1	8	5	8	3	8	4	
3	9	8	1	1	0	1	1	1	2	1	3	1	4	
4	0	8	1	5	1	0	1	1	1	2	1	1	1	0	
4	1	8	9	10	1	0	1	1	1	2	1	1	1	0	
3	6	8	9	8	0	8	1	8	2	8	5	8	4	
4	5	1	8	0	1	0	1	1	1	2	1	1	1	0	
2	1	8	1	0	1	1	1	2	1	3	1	4	
4	0	8	1	2	1	0	1	1	1	5	1	3	1	4	
3	7	1	4	1	0	1	1	1	5	1	3	1	4	
4	10	9	8	1	1	0	1	1	1	2	1	1	1	0	
4	9	8	1	7	1	0	1	1	1	5	1	3	1	4	
4	0	8	1	3	1	0	1	1	1	2	1	5	1	4	
4	3	1	8	0	1	0	1	1	1	2	1	3	1	4	
4	6	8	1	2	1	0	1	1	1	2	1	3	1	4	
3	7	1	5	1	0	1	1	1	2	1	3	1	4	
3	6	8	1	1	0	1	1	1	2	1	1	1	0	
2	0	8	8	0	8	1	8	2	8	5	8	4	
3	6	8	1	1	0	1	1	1	5	1	3	1	4	
3	1	8	0	1	0	1	1	1	2	1	5	1	4	
2	1	5	1	0	1	1	1	2	1	3	1	4	
4	3	1	8	9	1	0	1	1	1	5	1	3	1	4	
2	9	8	8	0	8	1	8	5	8	3	8	4	
4	5	1	8	6	1	0	1	1	1	2	1	1	1	0	
2	4	1	1	0	1	1	1	2	1	3	1	4	
2	8	9	8	0	8	1	8	2	8	5	8	4	
3	5	1	3	1	0	1	1	1	5	1	3	1	4	
3	1	8	6	1	0	1	1	1	5	1	3	1	4	
2	1	5	1	0	1	1	1	2	1	1	1	0	
3	8	1	5	1	0	1	1	1	5	1	3	1	4	
4	5	1	8	0	1	0	1	1	1	2	1	3	1	4	
2	3	1	1	0	1	1	1	2	1	5	1	4	
5	7	1	8	9	10	1	0	1	1	1	5	1	3	1	4	
3	3	1	2	1	0	1	1	1	5	1	3	1	4	
4	6	8	1	7	1	0	1	1	1	2	1	3	1	4	
3	7	1	8	1	0	1	1	1	2	1	3	1	4	
4	3	1	8	0	1	0	1	1	1	2	1	1	1	0	
3	0	8	9	8	0	8	1	8	2	8	3	8	4	
5	2	1	8	9	10	1	0	1	1	1	2	1	5	1	4	
4	2	1	8	0	1	0	1	1	1	2	1	3	1	4	
3	8	1	3	1	0	1	1	1	2	1	3	1	4	
4	6	8	1	4	1	0	1	1	1	5	1	3	1	4	
2	2	1	1	0	1	1	1	2	1	1	1	0	
3	4	1	8	1	0	1	1	1	5	1	3	1	4	
3	4	1	8	1	0	1	1	1	2	1	3	1	4	
5	4	1	8	9	10	1	0	1	1	1	2	1	1	1	0	
4	10	9	8	6	8	0	8	1	8	2	8	5	8	4	
5	4	1	8	9	10	1	0	1	1	1	5	1	3	1	4	
4	10	9	8	6	8	0	8	1	8	2	8	1	8	0	
5	10	9	8	1	5	1	0	1	1	1	2	1	5	1	4	
2	1	2	1	0	1	1	1	2	1	3	1	4	
3	6	8	0	8	0	8	1	8	2	8	5	8	4	
3	8	1	7	1	0	1	1	1	2	1	5	1	4	
4	6	8	1	4	1	0	1	1	1	2	1	1	1	0	
3	8	1	5	1	0	1	1	1	2	1	1	1	0	
2	9	10	9	0	9	1	9	2	9	1	9	0	
3	2	1	7	1	0	1	1	1	2	1	5	1	4	
5	7	1	8	9	10	1	0	1	1	1	2	1	1	1	0	
4	2	1	8	9	1	0	1	1	1	5	1	3	1	4	
4	6	8	9	10	8	0	8	1	8	2	8	3	8	4	
4	9	8	1	4	1	0	1	1	1	2	1	5	1	4	
3	9	8	1	1	0	1	1	1	5	1	3	1	4	
3	0	8	9	8	0	8	1	8	2	8	5	8	4	
2	6	8	8	0	8	1	8	2	8	3	8	4	
4	10	9	8	0	8	0	8	1	8	5	8	3	8	4	
4	4	1	8	0	1	0	1	1	1	2	1	1	1	0	
2	8	0	8	0	8	1	8	5	8	3	8	4	
2	0	8	8	0	8	1	8	5	8	3	8	4	
4	7	1	8	9	1	0	1	1	1	2	1	5	1	4	
3	3	1	7	1	0	1	1	1	5	1	3	1	4	
4	10	9	8	6	8	0	8	1	8	2	8	3	8	4	
4	7	1	8	0	1	0	1	1	1	2	1	1	1	0	
4	6	8	1	3	1	0	1	1	1	2	1	1	1	0	
3	8	1	4	1	0	1	1	1	2	1	3	1	4	
3	3	1	2	1	0	1	1	1	2	1	3	1	4	
2	1	7	1	0	1	1	1	2	1	3	1	4	
4	9	8	1	5	1	0	1	1	1	2	1	1	1	0	
2	10	9	9	0	9	1	9	2	9	3	9	4	
5	10	9	8	1	7	1	0	1	1	1	2	1	1	1	0	
2	1	2	1	0	1	1	1	2	1	5	1	4	
4	4	1	8	9	1	0	1	1	1	2	1	1	1	0	
4	6	8	1	3	1	0	1	1	1	2	1	5	1	4	
5	3	1	8	9	10	1	0	1	1	1	2	1	3	1	4	
4	7	1	8	0	1	0	1	1	1	2	1	5	1	4	
2	5	1	1	0	1	1	1	5	1	3	1	4	
4	0	8	1	2	1	0	1	1	1	2	1	3	1	4	
4	4	1	8	9	1	0	1	1	1	2	1	5	1	4	
2	1	4	1	0	1	1	1	5	1	3	1	4	
2	1	7	1	0	1	1	1	2	1	1	1	0	
3	4	1	5	1	0	1	1	1	2	1	5	1	4	
4	2	1	8	0	1	0	1	1	1	2	1	5	1	4	
4	1	8	9	10	1	0	1	1	1	2	1	5	1	4	
4	0	8	9	10	8	0	8	1	8	2	8	3	8	4	
4	1	8	9	10	1	0	1	1	1	2	1	3	1	4	
4	9	8	1	2	1	0	1	1	1	5	1	3	1	4	
3	7	1	5	1	0	1	1	1	5	1	3	1	4	
2	8	1	1	0	1	1	1	2	1	3	1	4	
3	2	1	3	1	0	1	1	1	2	1	1	1	0	
4	3	1	8	0	1	0	1	1	1	5	1	3	1	4	
3	2	1	3	1	0	1	1	1	5	1	3	1	4	
3	0	8	9	8	0	8	1	8	2	8	1	8	0	
5	10	9	8	1	7	1	0	1	1	1	2	1	5	1	4	
2	1	7	1	0	1	1	1	2	1	5	1	4	
2	1	4	1	0	1	1	1	2	1	3	1	4	
3	5	1	4	1	0	1	1	1	2	1	5	1	4	
4	5	1	8	9	1	0	1	1	1	2	1	3	1	4	
3	2	1	5	1	0	1	1	1	2	1	5	1	4	
4	0	8	1	3	1	0	1	1	1	2	1	3	1	4	
3	3	1	7	1	0	1	1	1	2	1	3	1	4	
4	6	8	1	2	1	0	1	1	1	2	1	5	1	4	
3	1	8	6	1	0	1	1	1	2	1	1	1	0	
4	9	8	1	5	1	0	1	1	1	2	1	3	1	4	
2	5	1	1	0	1	1	1	2	1	1	1	0	
4	3	1	8	0	1	0	1	1	1	2	1	5	1	4	
3	1	8	9	1	0	1	1	1	5	1	3	1	4	
3	8	1	2	1	0	1	1	1	5	1	3	1	4	
4	6	8	9	10	8	0	8	1	8	2	8	5	8	4	
4	0	8	1	7	1	0	1	1	1	2	1	5	1	4	
3	4	1	2	1	0	1	1	1	2	1	5	1	4	
4	9	8	1	3	1	0	1	1	1	2	1	1	1	0	
4	0	8	9	10	8	0	8	1	8	2	8	1	8	0	
4	2	1	8	0	1	0	1	1	1	2	1	1	1	0	
5	10	9	8	1	4	1	0	1	1	1	2	1	3	1	4	
3	8	1	2	1	0	1	1	1	2	1	3	1	4	
4	7	1	8	6	1	0	1	1	1	2	1	5	1	4	
3	2	1	5	1	0	1	1	1	2	1	3	1	4	
5	10	9	8	1	5	1	0	1	1	1	2	1	1	1	0	
2	9	10	9	0	9	1	9	2	9	5	9	4	
3	5	1	3	1	0	1	1	1	2	1	5	1	4	
5	3	1	8	9	10	1	0	1	1	1	2	1	1	1	0	
3	8	9	10	8	0	8	1	8	2	8	3	8	4	
2	7	1	1	0	1	1	1	2	1	3	1	4	
2	10	9	9	0	9	1	9	5	9	3	9	4	
2	9	10	9	0	9	1	9	2	9	3	9	4	
2	1	2	1	0	1	1	1	5	1	3	1	4	
3	2	1	8	1	0	1	1	1	5	1	3	1	4	
4	6	8	1	5	1	0	1	1	1	2	1	5	1	4	
3	7	1	8	1	0	1	1	1	5	1	3	1	4	
3	5	1	2	1	0	1	1	1	2	1	1	1	0	
3	8	1	5	1	0	1	1	1	2	1	5	1	4	
4	9	8	1	2	1	0	1	1	1	2	1	3	1	4	
4	3	1	8	9	1	0	1	1	1	2	1	3	1	4	
2	8	0	8	0	8	1	8	2	8	5	8	4	
4	0	8	1	4	1	0	1	1	1	2	1	1	1	0	
4	5	1	8	0	1	0	1	1	1	2	1	5	1	4	
