36	16	20
0	16	1
1	16	1
2	17	1
3	17	1
4	18	1
5	18	1
6	19	1
7	19	1
8	20	1
9	20	1
10	21	1
11	21	1
12	22	1
13	22	1
14	23	1
15	23	1
16	0	1
16	1	1
16	24	1
16	25	1
17	2	1
17	3	1
17	24	10
17	25	10
18	4	1
18	5	1
18	26	10
18	27	10
19	6	1
19	7	1
19	26	10
19	27	10
20	8	1
20	9	1
20	28	10
20	29	10
21	1	1
21	11	1
21	28	10
21	29	10
22	12	1
22	13	1
22	30	10
22	31	10
23	14	1
23	15	1
23	30	10
23	31	10
24	16	1
24	17	1
24	32	10
24	33	10
25	16	1
25	17	1
25	34	10
25	35	10
26	18	1
26	19	1
26	32	10
26	33	10
27	18	1
27	19	1
27	34	10
27	35	10
28	20	1
28	21	1
28	32	10
28	33	10
29	20	1
29	21	1
29	34	10
29	35	10
30	22	1
30	23	1
30	32	10
30	33	10
31	22	1
31	23	1
31	34	10
31	35	10
32	24	100
32	26	100
32	28	100
32	30	100
33	24	100
33	26	100
33	28	100
33	30	100
34	25	100
34	27	100
34	29	100
34	31	100
35	25	100
35	27	100
35	29	100
35	31	100
