11	11	11
0	6	1290.0
0	7	60.0
0	8	2340.0
0	9	1050.0
1	10	2460.0
1	2	2520.0
1	3	2190.0
1	4	1350.0
1	7	1470.0
1	8	3480.0
1	9	60.0
1	5	2160.0
2	10	930.0
2	3	1950.0
2	4	1140.0
2	9	1800.0
2	5	30.0
3	4	960.0
3	5	30.0
4	6	60.0
4	7	990.0
4	5	870.0
5	7	1050.0
5	8	30.0
6	10	60.0
6	7	1920.0
6	8	2250.0
6	9	30.0
7	10	30.0
7	8	930.0
7	9	30.0
8	10	1470.0
8	9	2370.0
9	10	3300.0
