15	15	15
0	5	94.80408829223963
0	6	97.5653950216435
0	7	107.69038038378102
1	2	105.84912118886513
1	4	104.00883209889919
1	5	105.84912118886513
2	4	97.5653950216435
2	7	93.88365271577167
3	4	91.12234598636783
3	5	83.75895838511914
5	12	84.6793939615871
6	9	89.28147483343189
6	13	101.24694330652535
7	8	100.32631370906743
7	14	104.00883209889919
8	9	97.5653950216435
8	11	82.83852280865119
8	14	88.36113626745895
9	11	103.08820250144123
10	12	97.5653950216435
10	13	92.96321713930372
12	13	90.20191040989984
