15	15	15
0	5	201.98110695072307
0	6	207.8640455126586
0	7	229.43460391548396
1	2	225.51286119846506
1	4	221.59111848144624
1	5	225.51286119846506
2	4	207.8640455126586
2	7	200.01991110580659
3	4	194.13697254387097
3	5	178.44935270298123
5	12	180.41054854789783
6	9	190.21522982685227
6	13	215.70817991951077
7	8	213.74698407459428
7	14	221.59111848144624
8	9	207.8640455126586
8	11	176.4881568580647
8	14	188.2540339819354
9	11	219.6299226365297
10	12	207.8640455126586
10	13	198.05936423370431
12	13	192.17642567176884
