50	50	50
0	29	39.898611859395054
0	46	41.06070918469971
0	48	45.32173271081678
1	34	44.5470011606137
1	47	43.772269610410596
1	49	44.5470011606137
2	8	41.06070918469971
2	31	39.5112460842935
2	37	38.349148758988854
3	11	35.25022255817644
3	20	35.63758833327795
3	31	37.574417208785746
3	32	42.61017228510594
3	43	42.222806510004375
4	5	43.772269610410596
4	22	41.06070918469971
4	35	34.86285678307489
4	44	37.18705143368418
5	21	43.384903835309046
5	22	41.06070918469971
5	25	39.12388030919195
5	32	37.96178298388728
6	7	45.32173271081678
6	22	38.349148758988854
6	38	35.63758833327795
7	15	42.61017228510594
8	11	35.63758833327795
8	13	39.898611859395054
9	16	37.574417208785746
9	23	44.5470011606137
9	33	46.09646426101989
10	14	39.5112460842935
10	25	39.5112460842935
10	35	41.83544073490285
10	44	46.09646426101989
11	13	45.32173271081678
11	31	39.898611859395054
12	14	41.06070918469971
12	29	35.25022255817644
13	25	43.384903835309046
13	31	38.349148758988854
13	49	36.024954108379546
14	48	42.99753806020749
15	27	46.09646426101989
16	18	40.28597763449662
16	19	37.574417208785746
16	28	37.96178298388728
17	24	40.28597763449662
17	30	36.79968565858263
18	19	34.86285678307489
18	25	43.772269610410596
18	49	41.06070918469971
19	25	35.25022255817644
19	44	42.61017228510594
20	43	44.93436693571525
21	22	36.024954108379546
21	27	35.63758833327795
21	43	42.61017228510594
22	39	41.06070918469971
23	24	35.25022255817644
23	28	40.673343409598175
23	42	40.673343409598175
24	33	40.28597763449662
24	42	45.32173271081678
24	45	44.93436693571525
26	30	36.79968565858263
26	34	41.06070918469971
27	43	38.349148758988854
28	29	39.898611859395054
28	44	41.44807495980127
28	46	44.159635385512146
30	45	40.673343409598175
31	32	39.5112460842935
32	43	40.673343409598175
34	37	40.28597763449662
34	40	45.32173271081678
34	41	40.28597763449662
35	39	40.28597763449662
36	38	36.024954108379546
36	48	42.61017228510594
37	41	37.574417208785746
37	49	41.83544073490285
38	39	37.18705143368418
38	48	37.96178298388728
40	41	37.96178298388728
42	46	44.159635385512146
45	47	36.024954108379546
45	49	39.12388030919195
