50	50	50
0	29	41.60387867309532
0	46	42.81566408015316
0	48	47.258775396677336
1	34	46.45095919571394
1	47	45.64308188913779
1	49	46.45095919571394
2	8	42.81566408015316
2	31	41.19997057261362
2	37	39.98818516555575
3	11	36.75685925608946
3	20	37.16076735657117
3	31	39.18036896459239
3	32	44.43135758769273
3	43	44.02744948721104
4	5	45.64308188913779
4	22	42.81566408015316
4	35	36.35289004999497
4	44	38.77646086411072
5	21	45.2391737886561
5	22	42.81566408015316
5	25	40.79606247213195
5	32	39.58427706507408
6	7	47.258775396677336
6	22	39.98818516555575
6	38	37.16076735657117
7	15	44.43135758769273
8	11	37.16076735657117
8	13	41.60387867309532
9	16	39.18036896459239
9	23	46.45095919571394
9	33	48.06665270325348
10	14	41.19997057261362
10	25	41.19997057261362
10	35	43.62348028111656
10	44	48.06665270325348
11	13	47.258775396677336
11	31	41.60387867309532
12	14	42.81566408015316
12	29	36.75685925608946
13	25	45.2391737886561
13	31	39.98818516555575
13	49	37.56467545705284
14	48	44.835265688174424
15	27	48.06665270325348
16	18	42.00784787918981
16	19	39.18036896459239
16	28	39.58427706507408
17	24	42.00784787918981
17	30	38.37255276362898
18	19	36.35289004999497
18	25	45.64308188913779
18	49	42.81566408015316
19	25	36.75685925608946
19	44	44.43135758769273
20	43	46.85486729619564
21	22	37.56467545705284
21	27	37.16076735657117
21	43	44.43135758769273
22	39	42.81566408015316
23	24	36.75685925608946
23	28	42.41175597967147
23	42	42.41175597967147
24	33	42.00784787918981
24	42	47.258775396677336
24	45	46.85486729619564
26	30	38.37255276362898
26	34	42.81566408015316
27	43	39.98818516555575
28	29	41.60387867309532
28	44	43.21957218063485
28	46	46.047051095232256
30	45	42.41175597967147
31	32	41.19997057261362
32	43	42.41175597967147
34	37	42.00784787918981
34	40	47.258775396677336
34	41	42.00784787918981
35	39	42.00784787918981
36	38	37.56467545705284
36	48	44.43135758769273
37	41	39.18036896459239
37	49	43.62348028111656
38	39	38.77646086411072
38	48	39.58427706507408
40	41	39.58427706507408
42	46	46.047051095232256
45	47	37.56467545705284
45	49	40.79606247213195
