10	10	10
0	1	130.94142900882872
0	2	134.75498212362209
0	5	148.738619161795
1	2	146.19655489389805
1	3	143.65357720010525
1	4	146.19655489389805
2	3	134.75498212362209
2	4	129.66994016193235
3	4	125.85547362124325
3	9	115.68538969786376
4	5	116.95687854476012
5	6	123.31340935334624
5	9	139.84002408531188
6	7	138.56853523841548
6	8	143.65357720010525
7	8	134.75498212362209
8	9	114.41481427686311
