0	1317
1	1747
2	1292
3	1144
4	1378
5	1432
6	923
7	-1
8	1475
9	2565
10	-1
11	-1
12	2839
13	1576
14	1998
15	1479
16	-1
17	-1
18	-1
19	1423
20	-1
21	1346
22	-1
23	2651
24	1679
25	1116
26	1497
27	4209
28	800
29	6578
30	2176
31	934
32	1270
33	1994
34	2081
35	1330
36	-1
37	1520
38	1223
39	2501
40	-1
41	1468
42	-1
43	-1
44	2268
45	2373
46	1952
47	1601
48	1421
49	1212
50	1382
51	1629
52	1914
53	-1
54	3290
55	2384
56	1267
57	1621
58	2900
59	1026
60	-1
61	-1
62	4204
63	-1
64	1670
