0	1065
1	1061
2	1108
3	982
4	1097
5	1085
6	812
7	919
8	1082
9	2320
10	-1
11	1081
12	1962
13	1296
14	1678
15	1264
16	1212
17	-1
18	1074
19	1194
20	1238
21	1030
22	1094
23	2335
24	1348
25	931
26	1128
27	3811
28	728
29	5849
30	2012
31	784
32	1232
33	1577
34	1619
35	1125
36	1184
37	1178
38	1131
39	2450
40	1069
41	1243
42	920
43	1271
44	1545
45	1638
46	1673
47	1351
48	1276
49	1061
50	1132
51	1487
52	1520
53	1106
54	2747
55	1688
56	1109
57	1469
58	2612
59	1026
60	1005
61	941
62	3585
63	1084
64	1541
