65	65	65
0	13	39.940021983077735
0	30	41.10329880505681
0	42	45.368902480852114
1	9	44.593129270994126
1	38	43.81778160870047
1	53	44.593129270994126
2	27	41.10329880505681
2	29	39.552220487661586
2	51	38.38894366568247
3	48	35.286787030892064
3	58	35.67454597155175
4	24	37.613383229606676
4	50	42.65433456769561
5	16	42.26661818179236
5	62	43.81778160870047
6	15	41.10329880505681
6	39	34.89902809023235
7	34	37.225624288947
7	44	43.43010777755364
8	20	41.10329880505681
8	29	39.164461547001935
8	32	38.00118472502281
9	27	45.368902480852114
9	29	38.38894366568247
9	32	35.67454597155175
9	41	42.65433456769561
9	46	35.67454597155175
10	34	39.940021983077735
11	34	37.613383229606676
11	59	44.593129270994126
12	15	46.1442501431458
12	22	39.552220487661586
12	39	39.552220487661586
12	42	41.87885924113269
12	61	46.1442501431458
12	64	45.368902480852114
13	21	39.940021983077735
13	30	41.10329880505681
13	40	35.286787030892064
14	23	43.43010777755364
14	25	38.38894366568247
14	58	36.062347466967836
15	39	43.04200839884246
15	61	46.1442501431458
16	18	40.32778092373745
16	26	37.613383229606676
17	43	38.00118472502281
17	63	40.32778092373745
18	44	36.837865348287266
19	37	34.89902809023235
19	57	43.81778160870047
20	57	41.10329880505681
21	40	35.286787030892064
21	52	42.65433456769561
22	40	44.98080310214092
23	25	36.062347466967836
23	47	35.67454597155175
23	50	42.65433456769561
23	54	41.10329880505681
24	37	35.286787030892064
24	60	40.71553986439714
24	62	40.71553986439714
25	48	40.32778092373745
26	48	45.368902480852114
26	62	44.98080310214092
27	28	36.837865348287266
27	29	41.10329880505681
27	30	38.38894366568247
27	31	39.940021983077735
27	38	41.49105774571657
27	45	44.20545543984727
27	52	40.71553986439714
27	54	39.552220487661586
28	29	40.71553986439714
29	32	40.32778092373745
29	39	45.368902480852114
29	51	40.32778092373745
29	57	40.32778092373745
29	62	36.062347466967836
30	31	42.65433456769561
30	38	37.613383229606676
32	37	41.87885924113269
32	62	37.225624288947
33	54	38.00118472502281
33	63	38.00118472502281
34	44	44.20545543984727
34	58	36.062347466967836
35	49	39.164461547001935
35	52	40.32778092373745
36	45	42.26661818179236
36	53	39.552220487661586
38	45	34.89902809023235
39	49	44.98080310214092
41	44	41.87885924113269
41	46	42.26661818179236
42	64	43.43010777755364
43	55	41.10329880505681
44	46	37.225624288947
44	58	44.20545543984727
45	64	46.1442501431458
47	60	40.71553986439714
50	54	38.776702606342205
51	54	40.32778092373745
54	55	45.756576311998934
56	58	41.49105774571657
56	59	43.04200839884246
58	59	41.49105774571657
58	62	35.67454597155175
