0	-1
1	2413
2	1760
3	-1
4	-1
5	-1
6	-1
7	-1
8	2069
9	3898
10	-1
11	-1
12	-1
13	-1
14	-1
15	-1
16	-1
17	-1
18	-1
19	-1
20	-1
21	-1
22	-1
23	4696
24	3359
25	-1
26	-1
27	5910
28	1247
29	8047
30	5073
31	1420
32	2259
33	-1
34	-1
35	-1
36	-1
37	-1
38	1696
39	8309
40	-1
41	2409
42	-1
43	-1
44	-1
45	4019
46	3024
47	-1
48	-1
49	-1
50	2071
51	2755
52	3539
53	-1
54	6650
55	-1
56	-1
57	3008
58	7402
59	-1
60	-1
61	-1
62	6586
63	-1
64	-1
