0	1395
1	1824
2	1282
3	-1
4	1496
5	1612
6	-1
7	-1
8	1507
9	2931
10	-1
11	-1
12	3110
13	1889
14	2070
15	1511
16	-1
17	-1
18	-1
19	-1
20	-1
21	-1
22	-1
23	3493
24	1942
25	1233
26	1605
27	4508
28	971
29	6711
30	2330
31	948
32	1477
33	2182
34	1989
35	-1
36	-1
37	1826
38	1256
39	3252
40	-1
41	1602
42	-1
43	-1
44	2235
45	2489
46	2221
47	-1
48	1529
49	1374
50	1431
51	1904
52	2777
53	-1
54	3614
55	2817
56	-1
57	2165
58	4774
59	-1
60	-1
61	-1
62	3794
63	-1
64	1752
