0	1116
1	1094
2	1144
3	992
4	1073
5	1149
6	822
7	924
8	1119
9	2214
10	-1
11	-1
12	2067
13	1356
14	1688
15	1252
16	1311
17	-1
18	1111
19	1254
20	1266
21	1087
22	1069
23	2403
24	1339
25	926
26	1161
27	3883
28	774
29	6251
30	2079
31	894
32	1237
33	1638
34	2092
35	1169
36	1126
37	1267
38	1136
39	2274
40	1068
41	1199
42	958
43	1298
44	1574
45	1617
46	1788
47	1334
48	1319
49	1085
50	1215
51	1556
52	1556
53	1157
54	3030
55	1725
56	1209
57	1490
58	2313
59	926
60	1056
61	948
62	3569
63	-1
64	1446
