65	65	65
0	13	41.32334783621383
0	30	42.52674794885179
0	42	46.940140517514465
1	9	46.137741563042944
1	38	45.33534260857145
1	53	46.137741563042944
2	27	42.52674794885179
2	29	40.92195003990872
2	51	39.71854992727082
3	48	36.50887478175701
3	58	36.91007425899276
4	24	38.91603198135768
4	50	44.13154585779481
5	16	43.730544699628375
5	62	45.33534260857145
6	15	42.52674794885179
6	39	36.107675304521244
7	34	38.514832504121934
7	44	44.93394481226631
8	20	42.52674794885179
8	29	40.52094888174232
8	32	39.31723145859344
9	27	46.940140517514465
9	29	39.71854992727082
9	32	36.91007425899276
9	41	44.13154585779481
9	46	36.91007425899276
10	34	41.32334783621383
11	34	38.91603198135768
11	59	46.137741563042944
12	15	47.74253947198598
12	22	40.92195003990872
12	39	40.92195003990872
12	42	43.3291469033233
12	61	47.74253947198598
12	64	46.940140517514465
13	21	41.32334783621383
13	30	42.52674794885179
13	40	36.50887478175701
14	23	44.93394481226631
14	25	39.71854992727082
14	58	37.31127373622852
15	39	44.53294365409989
15	61	47.74253947198598
16	18	41.72434899438025
16	26	38.91603198135768
17	43	39.31723145859344
17	63	41.72434899438025
18	44	38.11367269070004
19	37	36.107675304521244
19	57	45.33534260857145
20	57	42.52674794885179
21	40	36.50887478175701
21	52	44.13154585779481
22	40	46.538742721209374
23	25	37.31127373622852
23	47	36.91007425899276
23	50	44.13154585779481
23	54	42.52674794885179
24	37	36.50887478175701
24	60	42.125746790685334
24	62	42.125746790685334
25	48	41.72434899438025
26	48	46.940140517514465
26	62	46.538742721209374
27	28	38.11367269070004
27	29	42.52674794885179
27	30	39.71854992727082
27	31	41.32334783621383
27	38	42.92814574515688
27	45	45.73634376673786
27	52	42.125746790685334
27	54	40.92195003990872
28	29	42.125746790685334
29	32	41.72434899438025
29	39	46.940140517514465
29	51	41.72434899438025
29	57	41.72434899438025
29	62	37.31127373622852
30	31	44.13154585779481
30	38	38.91603198135768
32	37	43.3291469033233
32	62	38.514832504121934
33	54	39.31723145859344
33	63	39.31723145859344
34	44	45.73634376673786
34	58	37.31127373622852
35	49	40.52094888174232
35	52	41.72434899438025
36	45	43.730544699628375
36	53	40.92195003990872
38	45	36.107675304521244
39	49	46.538742721209374
41	44	43.3291469033233
41	46	43.730544699628375
42	64	44.93394481226631
43	55	42.52674794885179
44	46	38.514832504121934
44	58	45.73634376673786
45	64	47.74253947198598
47	60	42.125746790685334
50	54	40.11955108543727
51	54	41.72434899438025
54	55	47.341141675680916
56	58	42.92814574515688
56	59	44.53294365409989
58	59	42.92814574515688
58	62	36.91007425899276
