65	65	65
0	13	46.846569974807686
0	30	48.2111654295679
0	42	53.214014356047585
1	9	52.30455114926381
1	38	51.395087942480046
1	53	52.30455114926381
2	27	48.2111654295679
2	29	46.3918383714158
2	51	45.02724291665569
3	48	41.38898944493604
3	58	41.84372104832792
4	24	44.11777970987189
4	50	50.03049248771988
5	16	49.575760884328005
5	62	51.395087942480046
6	15	48.2111654295679
6	39	40.93385719695971
7	34	43.66304810647999
7	44	50.93995569450367
8	20	48.2111654295679
8	29	45.93710676802394
8	32	44.57251131326375
9	27	53.214014356047585
9	29	45.02724291665569
9	32	41.84372104832792
9	41	50.03049248771988
9	46	41.84372104832792
10	34	46.846569974807686
11	34	44.11777970987189
11	59	52.30455114926381
12	15	54.123878207415835
12	22	46.3918383714158
12	39	46.3918383714158
12	42	49.120628636351626
12	61	54.123878207415835
12	64	53.214014356047585
13	21	46.846569974807686
13	30	48.2111654295679
13	40	41.38898944493604
14	23	50.93995569450367
14	25	45.02724291665569
14	58	42.29845265171981
15	39	50.48522409111179
15	61	54.123878207415835
16	18	47.3013015781996
16	26	44.11777970987189
17	43	44.57251131326375
17	63	47.3013015781996
18	44	43.207915858503604
19	37	40.93385719695971
19	57	51.395087942480046
20	57	48.2111654295679
21	40	41.38898944493604
21	52	50.03049248771988
22	40	52.75928275265573
23	25	42.29845265171981
23	47	41.84372104832792
23	50	50.03049248771988
23	54	48.2111654295679
24	37	41.38898944493604
24	60	47.75643382617598
24	62	47.75643382617598
25	48	47.3013015781996
26	48	53.214014356047585
26	62	52.75928275265573
27	28	43.207915858503604
27	29	48.2111654295679
27	30	45.02724291665569
27	31	46.846569974807686
27	38	48.66589703295969
27	45	51.84981954587191
27	52	47.75643382617598
27	54	46.3918383714158
28	29	47.75643382617598
29	32	47.3013015781996
29	39	53.214014356047585
29	51	47.3013015781996
29	57	47.3013015781996
29	62	42.29845265171981
30	31	50.03049248771988
30	38	44.11777970987189
32	37	49.120628636351626
32	62	43.66304810647999
33	54	44.57251131326375
33	63	44.57251131326375
34	44	51.84981954587191
34	58	42.29845265171981
35	49	45.93710676802394
35	52	47.3013015781996
36	45	49.575760884328005
36	53	46.3918383714158
38	45	40.93385719695971
39	49	52.75928275265573
41	44	49.120628636351626
41	46	49.575760884328005
42	64	50.93995569450367
43	55	48.2111654295679
44	46	43.66304810647999
44	58	51.84981954587191
45	64	54.123878207415835
47	60	47.75643382617598
50	54	45.48237516463203
51	54	47.3013015781996
54	55	53.66914660402394
56	58	48.66589703295969
56	59	50.48522409111179
58	59	48.66589703295969
58	62	41.84372104832792
