65	65	65
0	13	40.10613855836929
0	30	41.27428811488349
0	42	45.557660765644606
1	9	44.7787797690286
1	38	43.999898772412564
1	53	44.7787797690286
2	27	41.27428811488349
2	29	39.71674104466369
2	51	38.548591488149505
3	48	35.43358331691486
3	58	35.822937846017986
4	24	37.769839445340814
4	50	42.83179220050082
5	16	42.44239468679525
5	62	43.999898772412564
6	15	41.27428811488349
6	39	35.044185803209295
7	34	37.380484916237734
7	44	43.610458274104545
8	20	41.27428811488349
8	29	39.327386515560605
8	32	38.159236959046346
9	27	45.557660765644606
9	29	38.548591488149505
9	32	35.822937846017986
9	41	42.83179220050082
9	46	35.822937846017986
10	34	40.10613855836929
11	34	37.769839445340814
11	59	44.7787797690286
12	15	46.33611191623608
12	22	39.71674104466369
12	39	39.71674104466369
12	42	42.05304015769216
12	61	46.33611191623608
12	64	45.557660765644606
13	21	40.10613855836929
13	30	41.27428811488349
13	40	35.43358331691486
14	23	43.610458274104545
14	25	38.548591488149505
14	58	36.21233535972348
15	39	43.22101777579653
15	61	46.33611191623608
16	18	40.49549308747239
16	26	37.769839445340814
17	43	38.159236959046346
17	63	40.49549308747239
18	44	36.991087402532145
19	37	35.044185803209295
19	57	43.999898772412564
20	57	41.27428811488349
21	40	35.43358331691486
21	52	42.83179220050082
22	40	45.16822026733663
23	25	36.21233535972348
23	47	35.822937846017986
23	50	42.83179220050082
23	54	41.27428811488349
24	37	35.43358331691486
24	60	40.884890601177936
24	62	40.884890601177936
25	48	40.49549308747239
26	48	45.557660765644606
26	62	45.16822026733663
27	28	36.991087402532145
27	29	41.27428811488349
27	30	38.548591488149505
27	31	40.10613855836929
27	38	41.66364264398662
27	45	44.389339270720555
27	52	40.884890601177936
27	54	39.71674104466369
28	29	40.884890601177936
29	32	40.49549308747239
29	39	45.557660765644606
29	51	40.49549308747239
29	57	40.49549308747239
29	62	36.21233535972348
30	31	42.83179220050082
30	38	37.769839445340814
32	37	42.05304015769216
32	62	37.380484916237734
33	54	38.159236959046346
33	63	38.159236959046346
34	44	44.389339270720555
34	58	36.21233535972348
35	49	39.327386515560605
35	52	40.49549308747239
36	45	42.44239468679525
36	53	39.71674104466369
38	45	35.044185803209295
39	49	45.16822026733663
41	44	42.05304015769216
41	46	42.44239468679525
42	64	43.610458274104545
43	55	41.27428811488349
44	46	37.380484916237734
44	58	44.389339270720555
45	64	46.33611191623608
47	60	40.884890601177936
50	54	38.93798900185506
51	54	40.49549308747239
54	55	45.94667141792807
56	58	41.66364264398662
56	59	43.22101777579653
58	59	41.66364264398662
58	62	35.822937846017986
