0	882
1	1103
2	983
3	812
4	1062
5	1144
6	826
7	1010
8	982
9	2170
10	927
11	1120
12	1910
13	1215
14	1608
15	1195
16	1160
17	1034
18	1215
19	1234
20	1141
21	1008
22	1001
23	2421
24	1343
25	875
26	1160
27	3706
28	787
29	6244
30	2125
31	752
32	1190
33	1415
34	1222
35	1101
36	1164
37	1221
38	1067
39	2539
40	1016
41	1188
42	800
43	1331
44	1517
45	1586
46	1656
47	1273
48	1223
49	1093
50	1150
51	1482
52	1479
53	1125
54	2675
55	1512
56	1149
57	1402
58	2111
59	894
60	966
61	925
62	4118
63	1136
64	1518
