15	15	15
0	5	142.627
0	6	160.286
0	7	124.968
1	2	139.91
1	4	145.344
1	5	126.327
2	4	137.194
2	7	161.644
3	4	126.327
3	5	153.494
5	12	141.269
6	9	127.685
6	13	152.135
7	8	146.702
7	14	153.494
8	9	154.852
8	11	160.286
8	14	134.477
9	11	135.835
10	12	152.135
10	13	148.06
12	13	143.985
