15	15	15
0	5	147.497
0	6	158.323
0	7	121.787
1	2	148.85
1	4	129.906
1	5	142.085
2	4	154.263
2	7	138.025
3	4	127.199
3	5	125.846
5	12	124.493
6	9	131.259
6	13	142.085
7	8	129.906
7	14	139.378
8	9	121.787
8	11	154.263
8	14	140.731
9	11	150.204
10	12	150.204
10	13	143.438
12	13	154.263
