15	15	15
0	5	110.572
0	6	93.6379
0	7	113.561
1	2	113.561
1	4	93.6379
1	5	118.542
2	4	99.6148
2	7	106.588
3	4	91.6456
3	5	89.6533
5	12	116.549
6	9	103.599
6	13	93.6379
7	8	89.6533
7	14	93.6379
8	9	114.557
8	11	96.6264
8	14	93.6379
9	11	97.6225
10	12	114.557
10	13	92.6418
12	13	93.6379
