15	15	15
0	5	435.081
0	6	444.438
0	7	523.969
1	2	435.081
1	4	439.759
1	5	500.577
2	4	458.473
2	7	542.682
3	4	458.473
3	5	472.507
5	12	472.507
6	9	523.969
6	13	533.325
7	8	439.759
7	14	500.577
8	9	477.186
8	11	458.473
8	14	500.577
9	11	463.151
10	12	500.577
10	13	481.864
12	13	425.724
