15	15	15
0	5	104.489
0	6	100.508
0	7	92.5473
1	2	107.474
1	4	107.474
1	5	101.503
2	4	108.469
2	7	108.469
3	4	117.426
3	5	95.5326
5	12	90.557
6	9	115.435
6	13	113.445
7	8	101.503
7	14	115.435
8	9	115.435
8	11	117.426
8	14	111.455
9	11	112.45
10	12	113.445
10	13	115.435
12	13	106.479
