15	15	15
0	5	88.9764
0	6	86.1367
0	7	101.282
1	2	105.068
1	4	110.747
1	5	107.907
2	4	94.6557
2	7	104.121
3	4	109.801
3	5	107.907
5	12	106.014
6	9	110.747
6	13	112.64
7	8	90.8695
7	14	89.9229
8	9	85.1901
8	11	90.8695
8	14	108.854
9	11	96.5488
10	12	109.801
10	13	107.907
12	13	104.121
