15	15	15
0	5	99.0977
0	6	112.658
0	7	111.615
1	2	94.9251
1	4	115.788
1	5	121.003
2	4	124.133
2	7	95.9683
3	4	122.047
3	5	111.615
5	12	122.047
6	9	122.047
6	13	118.917
7	8	99.0977
7	14	109.529
8	9	102.227
8	11	117.874
8	14	112.658
9	11	119.96
10	12	119.96
10	13	112.658
12	13	115.788
