15	15	15
0	5	106.816
0	6	90.991
0	7	115.717
1	2	108.794
1	4	89.013
1	5	89.013
2	4	107.805
2	7	90.991
3	4	94.9472
3	5	116.706
5	12	90.002
6	9	116.706
6	13	105.827
7	8	89.013
7	14	113.739
8	9	104.838
8	11	100.881
8	14	108.794
9	11	102.859
10	12	93.9581
10	13	97.9143
12	13	90.002
