15	15	15
0	5	192.299
0	6	190.376
0	7	192.299
1	2	180.761
1	4	226.913
1	5	213.452
2	4	201.914
2	7	228.836
3	4	182.684
3	5	213.452
5	12	205.76
6	9	219.221
6	13	221.144
7	8	228.836
7	14	223.067
8	9	209.606
8	11	174.992
8	14	201.914
9	11	182.684
10	12	184.607
10	13	188.453
12	13	173.069
