15	15	15
0	5	622.491
0	6	662.467
0	7	628.202
1	2	588.225
1	4	576.803
1	5	513.983
2	4	593.936
2	7	639.624
3	4	679.6
3	5	553.96
5	12	679.6
6	9	656.756
6	13	656.756
7	8	679.6
7	14	519.694
8	9	513.983
8	11	599.647
8	14	668.178
9	11	679.6
10	12	519.694
10	13	548.249
12	13	673.889
