15	15	15
0	5	126.679
0	6	120.149
0	7	129.291
1	2	141.045
1	4	150.187
1	5	141.045
2	4	150.187
2	7	131.903
3	4	124.067
3	5	141.045
5	12	150.187
6	9	139.739
6	13	117.538
7	8	124.067
7	14	125.373
8	9	122.761
8	11	133.209
8	14	155.411
9	11	126.679
10	12	126.679
10	13	120.149
12	13	144.963
