15	15	15
0	5	96.1406
0	6	106.611
0	7	113.275
1	2	85.6699
1	4	99.9482
1	5	91.3812
2	4	100.9
2	7	106.611
3	4	102.804
3	5	93.285
5	12	100.9
6	9	85.6699
6	13	86.6218
7	8	85.6699
7	14	111.371
8	9	91.3812
8	11	113.275
8	14	85.6699
9	11	97.0925
10	12	108.515
10	13	98.0444
12	13	85.6699
