15	15	15
0	5	111.352
0	6	93.6144
0	7	88.6873
1	2	116.279
1	4	98.5415
1	5	112.337
2	4	95.5852
2	7	97.5561
3	4	111.352
3	5	99.5269
5	12	93.6144
6	9	109.381
6	13	92.629
7	8	112.337
7	14	114.308
8	9	88.6873
8	11	116.279
8	14	102.483
9	11	98.5415
10	12	97.5561
10	13	113.323
12	13	102.483
