15	15	15
0	5	93.9724
0	6	114.181
0	7	111.15
1	2	93.9724
1	4	90.941
1	5	116.202
2	4	110.14
2	7	95.9933
3	4	108.119
3	5	100.035
5	12	101.046
6	9	112.161
6	13	110.14
7	8	115.192
7	14	97.0037
8	9	93.9724
8	11	114.181
8	14	113.171
9	11	109.129
10	12	105.087
10	13	95.9933
12	13	91.9514
