15	15	15
0	5	109.361
0	6	90.6414
0	7	97.538
1	2	108.376
1	4	109.361
1	5	112.317
2	4	114.287
2	7	114.287
3	4	115.272
3	5	114.287
5	12	98.5232
6	9	107.39
6	13	101.479
7	8	104.435
7	14	101.479
8	9	101.479
8	11	92.6119
8	14	94.5823
9	11	109.361
10	12	108.376
10	13	89.6562
12	13	113.302
