15	15	15
0	5	110.995
0	6	94.7282
0	7	90.9008
1	2	89.9439
1	4	88.0302
1	5	110.038
2	4	110.995
2	7	90.9008
3	4	90.9008
3	5	88.0302
5	12	91.8576
6	9	99.5124
6	13	113.865
7	8	108.124
7	14	93.7713
8	9	100.469
8	11	96.6419
8	14	113.865
9	11	99.5124
10	12	86.1165
10	13	102.383
12	13	112.908
