15	15	15
0	5	115.335
0	6	110.044
0	7	122.742
1	2	116.393
1	4	116.393
1	5	124.858
2	4	112.161
2	7	108.986
3	4	95.2308
3	5	124.858
5	12	96.2889
6	9	122.742
6	13	95.2308
7	8	124.858
7	14	112.161
8	9	123.8
8	11	115.335
8	14	113.219
9	11	106.87
10	12	123.8
10	13	124.858
12	13	108.986
