15	15	15
0	5	96.4057
0	6	123.358
0	7	111.955
1	2	112.992
1	4	114.028
1	5	99.5156
2	4	112.992
2	7	106.772
3	4	115.065
3	5	119.211
5	12	123.358
6	9	100.552
6	13	114.028
7	8	109.882
7	14	98.4789
8	9	121.285
8	11	93.2958
8	14	100.552
9	11	119.211
10	12	94.3325
10	13	107.809
12	13	116.101
