15	15	15
0	5	114.271
0	6	103.883
0	7	97.6498
1	2	101.805
1	4	119.465
1	5	112.193
2	4	121.543
2	7	116.349
3	4	105.96
3	5	96.611
5	12	122.582
6	9	104.922
6	13	101.805
7	8	110.116
7	14	97.6498
8	9	94.5333
8	11	111.155
8	14	103.883
9	11	114.271
10	12	123.621
10	13	106.999
12	13	121.543
