15	15	15
0	5	108.58
0	6	101.607
0	7	100.611
1	2	94.6341
1	4	111.569
1	5	110.572
2	4	115.553
2	7	96.6264
3	4	96.6264
3	5	94.6341
5	12	117.545
6	9	110.572
6	13	109.576
7	8	96.6264
7	14	99.6148
8	9	90.6495
8	11	98.6187
8	14	102.603
9	11	93.6379
10	12	108.58
10	13	102.603
12	13	89.6533
