15	15	15
0	5	168.521
0	6	161.257
0	7	136.56
1	2	164.163
1	4	136.56
1	5	148.182
2	4	165.615
2	7	145.277
3	4	143.824
3	5	165.615
5	12	151.088
6	9	158.351
6	13	162.71
7	8	156.899
7	14	146.729
8	9	164.163
8	11	164.163
8	14	136.56
9	11	136.56
10	12	133.654
10	13	145.277
12	13	143.824
