15	15	15
0	5	114.782
0	6	115.754
0	7	113.809
1	2	102.136
1	4	114.782
1	5	107.973
2	4	115.754
2	7	115.754
3	4	97.2725
3	5	112.836
5	12	109.918
6	9	108.945
6	13	96.2998
7	8	113.809
7	14	103.109
8	9	110.891
8	11	95.3271
8	14	105.054
9	11	100.191
10	12	107
10	13	92.4089
12	13	103.109
