15	15	15
0	5	113.904
0	6	98.0568
0	7	103.009
1	2	91.1235
1	4	115.885
1	5	95.0854
2	4	97.0663
2	7	107.962
3	4	100.038
3	5	109.942
5	12	92.114
6	9	94.0949
6	13	108.952
7	8	117.866
7	14	110.933
8	9	117.866
8	11	93.1045
8	14	103.009
9	11	115.885
10	12	95.0854
10	13	108.952
12	13	94.0949
