15	15	15
0	5	107.054
0	6	109.922
0	7	88.8932
1	2	108.01
1	4	89.849
1	5	108.966
2	4	88.8932
2	7	91.7607
3	4	96.5399
3	5	99.4074
5	12	105.142
6	9	108.01
6	13	95.5841
7	8	110.878
7	14	101.319
8	9	95.5841
8	11	105.142
8	14	95.5841
9	11	95.5841
10	12	100.363
10	13	108.966
12	13	105.142
