15	15	15
0	5	151.28
0	6	130.592
0	7	126.713
1	2	146.108
1	4	122.834
1	5	122.834
2	4	125.42
2	7	139.643
3	4	143.522
3	5	140.936
5	12	125.42
6	9	144.815
6	13	131.885
7	8	130.592
7	14	117.662
8	9	142.229
8	11	148.694
8	14	120.248
9	11	133.178
10	12	130.592
10	13	121.541
12	13	118.955
