15	15	15
0	5	134.578
0	6	138.784
0	7	145.793
1	2	165.419
1	4	145.793
1	5	144.391
2	4	128.971
2	7	137.382
3	4	147.195
3	5	131.775
5	12	135.98
6	9	158.41
6	13	152.803
7	8	145.793
7	14	144.391
8	9	135.98
8	11	130.373
8	14	133.177
9	11	161.214
10	12	151.401
10	13	131.775
12	13	155.606
