15	15	15
0	5	228.482
0	6	226.545
0	7	189.756
1	2	228.482
1	4	230.418
1	5	178.138
2	4	195.565
2	7	189.756
3	4	185.883
3	5	230.418
5	12	182.011
6	9	176.202
6	13	193.628
7	8	230.418
7	14	212.991
8	9	183.947
8	11	222.673
8	14	226.545
9	11	199.437
10	12	222.673
10	13	216.864
12	13	187.82
