15	15	15
0	5	95.2082
0	6	92.2937
0	7	103.952
1	2	110.752
1	4	102.009
1	5	105.895
2	4	87.4361
2	7	108.809
3	4	106.866
3	5	114.638
5	12	111.724
6	9	107.838
6	13	102.98
7	8	93.2652
7	14	95.2082
8	9	111.724
8	11	90.3507
8	14	112.695
9	11	100.066
10	12	91.3222
10	13	101.037
12	13	110.752
