15	15	15
0	5	175.048
0	6	147.65
0	7	175.048
1	2	150.694
1	4	153.738
1	5	178.093
2	4	144.605
2	7	138.517
3	4	164.393
3	5	176.571
5	12	152.216
6	9	165.915
6	13	153.738
7	8	176.571
7	14	165.915
8	9	146.127
8	11	178.093
8	14	158.305
9	11	179.615
10	12	161.349
10	13	141.561
12	13	136.994
