15	15	15
0	5	156.032
0	6	168.168
0	7	202.842
1	2	201.108
1	4	195.907
1	5	185.505
2	4	202.842
2	7	159.499
3	4	180.304
3	5	206.309
5	12	171.635
6	9	171.635
6	13	192.439
7	8	173.369
7	14	175.103
8	9	206.309
8	11	183.771
8	14	197.641
9	11	197.641
10	12	156.032
10	13	188.972
12	13	166.434
