15	15	15
0	5	326.157
0	6	297.036
0	7	291.212
1	2	297.036
1	4	329.07
1	5	279.564
2	4	326.157
2	7	267.915
3	4	299.948
3	5	273.739
5	12	270.827
6	9	343.63
6	13	308.685
7	8	291.212
7	14	294.124
8	9	288.3
8	11	285.388
8	14	340.718
9	11	308.685
10	12	343.63
10	13	276.651
12	13	331.982
