15	15	15
0	5	101.046
0	6	95.9933
0	7	90.941
1	2	95.9933
1	4	95.9933
1	5	117.213
2	4	95.9933
2	7	114.181
3	4	112.161
3	5	115.192
5	12	113.171
6	9	115.192
6	13	98.0142
7	8	95.9933
7	14	120.244
8	9	113.171
8	11	119.234
8	14	116.202
9	11	118.223
10	12	98.0142
10	13	114.181
12	13	104.077
