15	15	15
0	5	108.499
0	6	111.405
0	7	102.687
1	2	101.718
1	4	88.1556
1	5	87.1869
2	4	115.28
2	7	92.9994
3	4	107.531
3	5	90.0931
5	12	101.718
6	9	102.687
6	13	105.593
7	8	106.562
7	14	92.9994
8	9	103.656
8	11	92.9994
8	14	92.9994
9	11	93.9681
10	12	96.8743
10	13	109.468
12	13	96.8743
