15	15	15
0	5	136.02
0	6	149.226
0	7	138.661
1	2	121.494
1	4	126.776
1	5	151.867
2	4	145.264
2	7	155.829
3	4	147.905
3	5	120.173
5	12	128.096
6	9	137.341
6	13	118.852
7	8	153.188
7	14	150.546
8	9	128.096
8	11	132.058
8	14	157.149
9	11	118.852
10	12	134.699
10	13	122.814
12	13	121.494
