15	15	15
0	5	114.713
0	6	94.7626
0	7	107.73
1	2	96.7576
1	4	91.7701
1	5	105.735
2	4	94.7626
2	7	104.738
3	4	108.728
3	5	102.743
5	12	115.71
6	9	117.705
6	13	109.725
7	8	117.705
7	14	92.7676
8	9	94.7626
8	11	96.7576
8	14	90.7726
9	11	115.71
10	12	96.7576
10	13	115.71
12	13	103.74
