15	15	15
0	5	101.046
0	6	104.077
0	7	119.234
1	2	91.9514
1	4	107.108
1	5	91.9514
2	4	94.9828
2	7	91.9514
3	4	107.108
3	5	120.244
5	12	109.129
6	9	106.098
6	13	91.9514
7	8	114.181
7	14	118.223
8	9	94.9828
8	11	107.108
8	14	97.0037
9	11	117.213
10	12	97.0037
10	13	94.9828
12	13	114.181
