15	15	15
0	5	265.216
0	6	317.676
0	7	306.018
1	2	308.932
1	4	294.36
1	5	317.676
2	4	265.216
2	7	276.873
3	4	346.82
3	5	311.847
5	12	314.761
6	9	320.59
6	13	268.13
7	8	288.531
7	14	288.531
8	9	262.301
8	11	273.959
8	14	300.189
9	11	323.505
10	12	297.275
10	13	317.676
12	13	279.788
