15	15	15
0	5	366.89
0	6	295.46
0	7	308.447
1	2	344.162
1	4	334.422
1	5	376.63
2	4	324.681
2	7	295.46
3	4	292.213
3	5	311.694
5	12	363.643
6	9	366.89
6	13	353.902
7	8	292.213
7	14	334.422
8	9	301.953
8	11	366.89
8	14	301.953
9	11	321.434
10	12	350.656
10	13	308.447
12	13	379.877
