15	15	15
0	5	93.636
0	6	93.636
0	7	93.636
1	2	89.8141
1	4	107.013
1	5	98.4134
2	4	103.191
2	7	96.5024
3	4	107.968
3	5	101.28
5	12	109.879
6	9	89.8141
6	13	89.8141
7	8	111.79
7	14	91.7251
8	9	100.324
8	11	91.7251
8	14	107.013
9	11	96.5024
10	12	105.102
10	13	105.102
12	13	92.6805
