15	15	15
0	5	116.939
0	6	112.907
0	7	107.866
1	2	92.7448
1	4	91.7367
1	5	107.866
2	4	99.8015
2	7	109.882
3	4	110.891
3	5	103.834
5	12	104.842
6	9	90.7286
6	13	103.834
7	8	115.931
7	14	110.891
8	9	119.963
8	11	116.939
8	14	103.834
9	11	102.826
10	12	99.8015
10	13	102.826
12	13	117.947
