15	15	15
0	5	103.066
0	6	113.171
0	7	115.192
1	2	111.15
1	4	116.202
1	5	91.9514
2	4	101.046
2	7	94.9828
3	4	90.941
3	5	102.056
5	12	97.0037
6	9	91.9514
6	13	111.15
7	8	118.223
7	14	120.244
8	9	102.056
8	11	98.0142
8	14	100.035
9	11	94.9828
10	12	104.077
10	13	92.9619
12	13	90.941
