15	15	15
0	5	95.9933
0	6	111.15
0	7	92.9619
1	2	119.234
1	4	115.192
1	5	112.161
2	4	98.0142
2	7	102.056
3	4	99.0246
3	5	98.0142
5	12	116.202
6	9	111.15
6	13	120.244
7	8	104.077
7	14	98.0142
8	9	112.161
8	11	107.108
8	14	115.192
9	11	113.171
10	12	115.192
10	13	99.0246
12	13	105.087
