15	15	15
0	5	119.375
0	6	123.756
0	7	117.185
1	2	116.09
1	4	110.614
1	5	112.804
2	4	105.138
2	7	111.709
3	4	121.565
3	5	100.757
5	12	110.614
6	9	111.709
6	13	106.233
7	8	119.375
7	14	117.185
8	9	99.6618
8	11	107.328
8	14	116.09
9	11	114.994
10	12	124.851
10	13	113.899
12	13	108.423
