0	-1
1	-1
2	-1
3	-1
4	2528
5	4171
6	-1
7	-1
8	-1
9	-1
10	4738
11	2278
12	-1
13	3624
14	-1
15	-1
16	3047
17	-1
18	3576
19	2337
20	-1
21	-1
22	5021
23	-1
24	-1
25	3719
26	-1
27	-1
28	5358
29	-1
30	-1
31	4009
32	3323
33	-1
34	-1
35	-1
36	-1
37	-1
38	-1
39	-1
40	-1
41	-1
42	-1
43	-1
44	2946
45	5446
46	-1
47	-1
48	-1
49	4307
