50	50	50
0	29	40.210785024365265
0	46	41.38195451727998
0	48	45.676321712253944
1	34	44.89552228673914
1	47	44.11472286122433
1	49	44.89552228673914
2	8	41.38195451727998
2	31	39.820355666250364
2	37	38.64918617333565
3	11	35.52598847127644
3	20	35.91641782939132
3	31	37.86838674782083
3	32	42.94355336830961
3	43	42.5531240101947
4	5	44.11472286122433
4	22	41.38195451727998
4	35	35.135618403876514
4	44	37.47801668042093
5	21	43.724352793824416
5	22	41.38195451727998
5	25	39.42998559885046
5	32	38.25875681522077
6	7	45.676321712253944
6	22	38.64918617333565
6	38	35.91641782939132
7	15	42.94355336830961
8	11	35.91641782939132
8	13	40.210785024365265
9	16	37.86838674782083
9	23	44.89552228673914
9	33	46.45712113776875
10	14	39.820355666250364
10	25	39.820355666250364
10	35	42.16275394279478
10	44	46.45712113776875
11	13	45.676321712253944
11	31	40.210785024365265
12	14	41.38195451727998
12	29	35.52598847127644
13	25	43.724352793824416
13	31	38.64918617333565
13	49	36.306787896791235
14	48	43.33392343570951
15	27	46.45712113776875
16	18	40.60115509176519
16	19	37.86838674782083
16	28	38.25875681522077
17	24	40.60115509176519
17	30	37.087587322306064
18	19	35.135618403876514
18	25	44.11472286122433
18	49	41.38195451727998
19	25	35.52598847127644
19	44	42.94355336830961
20	43	45.28589235413904
21	22	36.306787896791235
21	27	35.91641782939132
21	43	42.94355336830961
22	39	41.38195451727998
23	24	35.52598847127644
23	28	40.99152515916507
23	42	40.99152515916507
24	33	40.60115509176519
24	42	45.676321712253944
24	45	45.28589235413904
26	30	37.087587322306064
26	34	41.38195451727998
27	43	38.64918617333565
28	29	40.210785024365265
28	44	41.77232458467991
28	46	44.50509292862427
30	45	40.99152515916507
31	32	39.820355666250364
32	43	40.99152515916507
34	37	40.60115509176519
34	40	45.676321712253944
34	41	40.60115509176519
35	39	40.60115509176519
36	38	36.306787896791235
36	48	42.94355336830961
37	41	37.86838674782083
37	49	42.16275394279478
38	39	37.47801668042093
38	48	38.25875681522077
40	41	38.25875681522077
42	46	44.50509292862427
45	47	36.306787896791235
45	49	39.42998559885046
