50	50	50
0	29	480.738
0	46	550.178
0	48	614.276
1	34	582.227
1	47	635.642
1	49	614.276
2	8	592.91
2	31	566.202
2	37	528.812
3	11	491.421
3	20	592.91
3	31	587.568
3	32	598.252
3	43	571.544
4	5	582.227
4	22	619.618
4	35	592.91
4	44	534.153
5	21	624.959
5	22	518.129
5	25	630.301
5	32	528.812
6	7	624.959
6	22	523.47
6	38	592.91
7	15	598.252
8	11	630.301
8	13	486.079
9	16	539.495
9	23	582.227
9	33	480.738
10	14	502.104
10	25	614.276
10	35	571.544
10	44	603.593
11	13	608.935
11	31	544.836
12	14	512.787
12	29	496.762
13	25	592.91
13	31	523.47
13	49	566.202
14	48	496.762
15	27	598.252
16	18	614.276
16	19	560.861
16	28	534.153
17	24	571.544
17	30	614.276
18	19	523.47
18	25	566.202
18	49	560.861
19	25	571.544
19	44	507.445
20	43	603.593
21	22	480.738
21	27	624.959
21	43	592.91
22	39	603.593
23	24	486.079
23	28	496.762
23	42	603.593
24	33	507.445
24	42	587.568
24	45	491.421
26	30	587.568
26	34	512.787
27	43	555.519
28	29	619.618
28	44	528.812
28	46	630.301
30	45	619.618
31	32	619.618
32	43	486.079
34	37	582.227
34	40	550.178
34	41	523.47
35	39	635.642
36	38	480.738
36	48	496.762
37	41	635.642
37	49	566.202
38	39	534.153
38	48	523.47
40	41	555.519
42	46	496.762
45	47	528.812
45	49	539.495
