50	50	50
0	29	61.6991
0	46	71.8692
0	48	67.1232
1	34	77.2933
1	47	67.8012
1	49	65.7671
2	8	75.9373
2	31	65.0891
2	37	79.3274
3	11	61.021
3	20	75.2593
3	31	65.0891
3	32	76.6153
3	43	69.1572
4	5	69.8352
4	22	73.9033
4	35	65.0891
4	44	69.1572
5	21	68.4792
5	22	75.2593
5	25	75.9373
5	32	69.1572
6	7	69.1572
6	22	80.0054
6	38	79.3274
7	15	65.7671
8	11	74.5813
8	13	61.6991
9	16	61.021
9	23	68.4792
9	33	62.3771
10	14	77.2933
10	25	73.9033
10	35	69.1572
10	44	73.2253
11	13	80.6834
11	31	68.4792
12	14	63.0551
12	29	79.3274
13	25	61.021
13	31	77.9713
13	49	73.2253
14	48	65.0891
15	27	73.2253
16	18	61.6991
16	19	68.4792
16	28	80.6834
17	24	80.6834
17	30	76.6153
18	19	62.3771
18	25	74.5813
18	49	65.7671
19	25	65.0891
19	44	77.9713
20	43	64.4111
21	22	63.0551
21	27	62.3771
21	43	77.9713
22	39	78.6493
23	24	77.2933
23	28	80.0054
23	42	80.6834
24	33	73.2253
24	42	72.5472
24	45	63.0551
26	30	80.6834
26	34	67.1232
27	43	65.0891
28	29	62.3771
28	44	65.0891
28	46	65.0891
30	45	79.3274
31	32	77.9713
32	43	63.7331
34	37	65.7671
34	40	73.2253
34	41	71.1912
35	39	80.0054
36	38	67.1232
36	48	61.021
37	41	61.6991
37	49	80.6834
38	39	65.7671
38	48	65.7671
40	41	71.8692
42	46	63.7331
45	47	68.4792
45	49	67.8012
