0	-1
1	2589
2	-1
3	-1
4	2792
5	4714
6	-1
7	-1
8	-1
9	-1
10	-1
11	2512
12	-1
13	-1
14	-1
15	-1
16	3555
17	-1
18	-1
19	-1
20	-1
21	-1
22	-1
23	-1
24	-1
25	5119
26	2149
27	-1
28	4459
29	-1
30	-1
31	4268
32	-1
33	-1
34	2757
35	2017
36	-1
37	3837
38	3545
39	-1
40	-1
41	-1
42	-1
43	3029
44	3079
45	-1
46	-1
47	-1
48	3807
49	5789
