50	50	50
0	29	40.12119603664106
0	46	41.28976064138209
0	48	45.57451830545556
1	34	44.79545445560502
1	47	44.01645294582411
1	49	44.79545445560502
2	8	41.28976064138209
2	31	39.73163294168101
2	37	38.56306833694001
3	11	35.4468752776075
3	20	35.83637603249796
3	31	37.78400448708946
3	32	42.847826001013516
3	43	42.45832524612305
4	5	44.01645294582411
4	22	41.28976064138209
4	35	35.0573121826474
4	44	37.394503732199
5	21	43.62688985086403
5	22	41.28976064138209
5	25	39.34213218679054
5	32	38.173505241979925
6	7	45.57451830545556
6	22	38.56306833694001
6	38	35.83637603249796
7	15	42.847826001013516
8	11	35.83637603249796
8	13	40.12119603664106
9	16	37.78400448708946
9	23	44.79545445560502
9	33	46.3535821553061
10	14	39.73163294168101
10	25	39.73163294168101
10	35	42.06882449123258
10	44	46.3535821553061
11	13	45.57451830545556
11	31	40.12119603664106
12	14	41.28976064138209
12	29	35.4468752776075
13	25	43.62688985086403
13	31	38.56306833694001
13	49	36.22587678738842
14	48	43.237389095973555
15	27	46.3535821553061
16	18	40.51069679153153
16	19	37.78400448708946
16	28	38.173505241979925
17	24	40.51069679153153
17	30	37.004940637238924
18	19	35.0573121826474
18	25	44.01645294582411
18	49	41.28976064138209
19	25	35.4468752776075
19	44	42.847826001013516
20	43	45.185017550565064
21	22	36.22587678738842
21	27	35.83637603249796
21	43	42.847826001013516
22	39	41.28976064138209
23	24	35.4468752776075
23	28	40.90019754642198
23	42	40.90019754642198
24	33	40.51069679153153
24	42	45.57451830545556
24	45	45.185017550565064
26	30	37.004940637238924
26	34	41.28976064138209
27	43	38.56306833694001
28	29	40.12119603664106
28	44	41.679261396272516
28	46	44.40595370071456
30	45	40.90019754642198
31	32	39.73163294168101
32	43	40.90019754642198
34	37	40.51069679153153
34	40	45.57451830545556
34	41	40.51069679153153
35	39	40.51069679153153
36	38	36.22587678738842
36	48	42.847826001013516
37	41	37.78400448708946
37	49	42.06882449123258
38	39	37.394503732199
38	48	38.173505241979925
40	41	38.173505241979925
42	46	44.40595370071456
45	47	36.22587678738842
45	49	39.34213218679054
