50	50	50
0	29	39.943822490676865
0	46	41.107273358025026
0	48	45.37311729187186
1	34	44.597503748843955
1	47	43.8218902058161
1	49	44.597503748843955
2	8	41.107273358025026
2	31	39.55604627196933
2	37	38.39265651023393
3	11	35.29020233812251
3	20	35.677978556830055
3	31	37.617042967206075
3	32	42.65850044408073
3	43	42.270663119760414
4	5	43.8218902058161
4	22	41.107273358025026
4	35	34.90236501380221
4	44	37.22920564288578
5	21	43.43411398710856
5	22	41.107273358025026
5	25	39.168270053261786
5	32	38.0048191859136
6	7	45.37311729187186
6	22	38.39265651023393
6	38	35.677978556830055
7	15	42.65850044408073
8	11	35.677978556830055
8	13	39.943822490676865
9	16	37.617042967206075
9	23	44.597503748843955
9	33	46.14873083489965
10	14	39.55604627196933
10	25	39.55604627196933
10	35	41.88288690105287
10	44	46.14873083489965
11	13	45.37311729187186
11	31	39.943822490676865
12	14	41.107273358025026
12	29	35.29020233812251
13	25	43.43411398710856
13	31	38.39265651023393
13	49	36.065815881150364
14	48	43.046276662788266
15	27	46.14873083489965
16	18	40.33165981499717
16	19	37.617042967206075
16	28	38.0048191859136
17	24	40.33165981499717
17	30	36.841429424178216
18	19	34.90236501380221
18	25	43.8218902058161
18	49	41.107273358025026
19	25	35.29020233812251
19	44	42.65850044408073
20	43	44.9852799675515
21	22	36.065815881150364
21	27	35.677978556830055
21	43	42.65850044408073
22	39	41.107273358025026
23	24	35.29020233812251
23	28	40.71943603370469
23	42	40.71943603370469
24	33	40.33165981499717
24	42	45.37311729187186
24	45	44.9852799675515
26	30	36.841429424178216
26	34	41.107273358025026
27	43	38.39265651023393
28	29	39.943822490676865
28	44	41.495049576732555
28	46	44.209727530136426
30	45	40.71943603370469
31	32	39.55604627196933
32	43	40.71943603370469
34	37	40.33165981499717
34	40	45.37311729187186
34	41	40.33165981499717
35	39	40.33165981499717
36	38	36.065815881150364
36	48	42.65850044408073
37	41	37.617042967206075
37	49	41.88288690105287
38	39	37.22920564288578
38	48	38.0048191859136
40	41	38.0048191859136
42	46	44.209727530136426
45	47	36.065815881150364
45	49	39.168270053261786
