0	-1
1	-1
2	-1
3	3390
4	-1
5	5492
6	-1
7	-1
8	-1
9	-1
10	-1
11	-1
12	-1
13	5200
14	-1
15	-1
16	-1
17	-1
18	-1
19	-1
20	-1
21	-1
22	-1
23	-1
24	4688
25	6650
26	-1
27	3184
28	6362
29	-1
30	2721
31	-1
32	3459
33	-1
34	3959
35	2812
36	2066
37	-1
38	4603
39	-1
40	-1
41	-1
42	-1
43	-1
44	-1
45	4532
46	-1
47	-1
48	-1
49	-1
