0	1497
1	1659
2	1534
3	1287
4	1520
5	2184
6	1793
7	-1
8	967
9	1221
10	2104
11	1197
12	1173
13	2179
14	1530
15	-1
16	1651
17	-1
18	2147
19	1297
20	-1
21	1840
22	1604
23	1474
24	1598
25	2092
26	-1
27	-1
28	1883
29	1159
30	1263
31	1720
32	1502
33	-1
34	-1
35	1207
36	-1
37	2749
38	1333
39	1174
40	-1
41	-1
42	1324
43	1953
44	1534
45	1798
46	1463
47	-1
48	1377
49	1828
