0	-1
1	-1
2	-1
3	-1
4	-1
5	11487
6	-1
7	-1
8	-1
9	-1
10	6449
11	-1
12	-1
13	6197
14	-1
15	-1
16	-1
17	-1
18	5236
19	3515
20	-1
21	-1
22	-1
23	-1
24	-1
25	5383
26	-1
27	-1
28	8500
29	-1
30	-1
31	-1
32	-1
33	-1
34	-1
35	-1
36	-1
37	-1
38	-1
39	-1
40	-1
41	-1
42	-1
43	-1
44	4968
45	-1
46	-1
47	-1
48	-1
49	8857
