0	1	1.0
0	2	1.0
0	3	1.0
0	4	1.0
0	5	1.0
0	6	138.0
0	7	1.0
0	8	258.0
0	9	115.0
0	10	1.0
1	0	1.0
1	2	278.0
1	3	237.0
1	4	144.0
1	5	237.0
1	6	1.0
1	7	160.0
1	8	1.0
1	9	1.0
1	10	1.0
2	0	1.0
2	1	1.0
2	3	215.0
2	4	124.0
2	5	1.0
2	6	1.0
2	7	1.0
2	8	1.0
2	9	1.0
2	10	1.0
3	0	1.0
3	1	1.0
3	2	1.0
3	4	105.0
3	5	1.0
3	6	1.0
3	7	1.0
3	8	1.0
3	9	1.0
3	10	1.0
4	0	1.0
4	1	1.0
4	2	1.0
4	3	1.0
4	5	95.0
4	6	1.0
4	7	108.0
4	8	1.0
4	9	1.0
4	10	1.0
5	0	1.0
5	1	1.0
5	2	1.0
5	3	1.0
5	4	1.0
5	6	1.0
5	7	115.0
5	8	1.0
5	9	1.0
5	10	1.0
6	0	1.0
6	1	1.0
6	2	1.0
6	3	1.0
6	4	1.0
6	5	1.0
6	7	212.0
6	8	1.0
6	9	1.0
6	10	1.0
7	0	1.0
7	1	1.0
7	2	1.0
7	3	1.0
7	4	1.0
7	5	1.0
7	6	1.0
7	8	1.0
7	9	1.0
7	10	1.0
8	0	1.0
8	1	384.0
8	2	1.0
8	3	1.0
8	4	1.0
8	5	1.0
8	6	247.0
8	7	100.0
8	9	263.0
8	10	160.0
9	0	1.0
9	1	1.0
9	2	197.0
9	3	1.0
9	4	1.0
9	5	1.0
9	6	1.0
9	7	1.0
9	8	1.0
9	10	364.0
10	0	1.0
10	1	266.0
10	2	99.0
10	3	1.0
10	4	1.0
10	5	1.0
10	6	1.0
10	7	1.0
10	8	1.0
10	9	1.0
