0	-1
1	-1
2	2183
3	-1
4	-1
5	-1
6	-1
7	-1
8	-1
9	7660
10	-1
11	-1
12	-1
13	-1
14	-1
15	-1
16	-1
17	-1
18	-1
19	-1
20	-1
21	-1
22	-1
23	-1
24	-1
25	-1
26	-1
27	8530
28	1634
29	11670
30	6194
31	-1
32	3858
33	-1
34	-1
35	-1
36	-1
37	-1
38	2367
39	10280
40	-1
41	-1
42	-1
43	-1
44	-1
45	4947
46	-1
47	-1
48	-1
49	-1
50	-1
51	3649
52	-1
53	-1
54	10922
55	-1
56	-1
57	-1
58	10242
59	-1
60	-1
61	-1
62	9605
63	-1
64	-1
