65	65	65
0	13	40.03292684645629
0	30	41.19891336808436
0	42	45.47414167016512
1	9	44.69712318046947
1	38	43.91968761160595
1	53	44.69712318046947
2	27	41.19891336808436
2	29	39.644250769941294
2	51	38.478222540396395
3	48	35.36889734411023
3	58	35.75753171270841
4	24	37.70091209528328
4	50	42.75353425831069
5	16	42.36481647387895
5	62	43.91968761160595
6	15	41.19891336808436
6	39	34.980221267595255
7	34	37.31223601876831
7	44	43.53096982717418
8	20	41.19891336808436
8	29	39.255574693426325
8	32	38.08954646388143
9	27	45.47414167016512
9	29	38.478222540396395
9	32	35.75753171270841
9	41	42.75353425831069
9	46	35.75753171270841
10	34	40.03292684645629
11	34	37.70091209528328
11	59	44.69712318046947
12	15	46.2515772390286
12	22	39.644250769941294
12	39	39.644250769941294
12	42	41.9760986894472
12	61	46.2515772390286
12	64	45.47414167016512
13	21	40.03292684645629
13	30	41.19891336808436
13	40	35.36889734411023
14	23	43.53096982717418
14	25	38.478222540396395
14	58	36.14620778922339
15	39	43.14225204274242
15	61	46.2515772390286
16	18	40.42156121505444
16	26	37.70091209528328
17	43	38.08954646388143
17	63	40.42156121505444
18	44	36.923559942253334
19	37	34.980221267595255
19	57	43.91968761160595
20	57	41.19891336808436
21	40	35.36889734411023
21	52	42.75353425831069
22	40	45.08542388573336
23	25	36.14620778922339
23	47	35.75753171270841
23	50	42.75353425831069
23	54	41.19891336808436
24	37	35.36889734411023
24	60	40.81023729156944
24	62	40.81023729156944
25	48	40.42156121505444
26	48	45.47414167016512
26	62	45.08542388573336
27	28	36.923559942253334
27	29	41.19891336808436
27	30	38.478222540396395
27	31	40.03292684645629
27	38	41.587589444599374
27	45	44.30840539603771
27	52	40.81023729156944
27	54	39.644250769941294
28	29	40.81023729156944
29	32	40.42156121505444
29	39	45.47414167016512
29	51	40.42156121505444
29	57	40.42156121505444
29	62	36.14620778922339
30	31	42.75353425831069
30	38	37.70091209528328
32	37	41.9760986894472
32	62	37.31223601876831
33	54	38.08954646388143
33	63	38.08954646388143
34	44	44.30840539603771
34	58	36.14620778922339
35	49	39.255574693426325
35	52	40.42156121505444
36	45	42.36481647387895
36	53	39.644250769941294
38	45	34.980221267595255
39	49	45.08542388573336
41	44	41.9760986894472
41	46	42.36481647387895
42	64	43.53096982717418
43	55	41.19891336808436
44	46	37.31223601876831
44	58	44.30840539603771
45	64	46.2515772390286
47	60	40.81023729156944
50	54	38.86689861691137
51	54	40.42156121505444
54	55	45.862859454596816
56	58	41.587589444599374
56	59	43.14225204274242
58	59	41.587589444599374
58	62	35.75753171270841
