65	65	65
0	13	40.00951390034039
0	30	41.174875905384944
0	42	45.44762878026176
1	9	44.671004475275005
1	38	43.89395462272388
1	53	44.671004475275005
2	27	41.174875905384944
2	29	39.62107408357769
2	51	38.45575463328959
3	48	35.348236099187964
3	58	35.7366759159507
4	24	37.67887499976415
4	50	42.728805391461506
5	16	42.340195355673046
5	62	43.89395462272388
6	15	41.174875905384944
6	39	34.95979628242529
7	34	37.290435183001456
7	44	43.50542969644825
8	20	41.174875905384944
8	29	39.23263426681497
8	32	38.06731481652689
9	27	45.44762878026176
9	29	38.45575463328959
9	32	35.7366759159507
9	41	42.728805391461506
9	46	35.7366759159507
10	34	40.00951390034039
11	34	37.67887499976415
11	59	44.671004475275005
12	15	46.22467863281293
12	22	39.62107408357769
12	39	39.62107408357769
12	42	41.95175553891032
12	61	46.22467863281293
12	64	45.44762878026176
13	21	40.00951390034039
13	30	41.174875905384944
13	40	35.348236099187964
14	23	43.50542969644825
14	25	38.45575463328959
14	58	36.12511573271337
15	39	43.11690477017268
15	61	46.22467863281293
16	18	40.39795371710311
16	26	37.67887499976415
17	43	38.06731481652689
17	63	40.39795371710311
18	44	36.901995366238786
19	37	34.95979628242529
19	57	43.89395462272388
20	57	41.174875905384944
21	40	35.348236099187964
21	52	42.728805391461506
22	40	45.05910385398618
23	25	36.12511573271337
23	47	35.7366759159507
23	50	42.728805391461506
23	54	41.174875905384944
24	37	35.348236099187964
24	60	40.786393533865784
24	62	40.786393533865784
25	48	40.39795371710311
26	48	45.44762878026176
26	62	45.05910385398618
27	28	36.901995366238786
27	29	41.174875905384944
27	30	38.45575463328959
27	31	40.00951390034039
27	38	41.56331572214764
27	45	44.28247954899942
27	52	40.786393533865784
27	54	39.62107408357769
28	29	40.786393533865784
29	32	40.39795371710311
29	39	45.44762878026176
29	51	40.39795371710311
29	57	40.39795371710311
29	62	36.12511573271337
30	31	42.728805391461506
30	38	37.67887499976415
32	37	41.95175553891032
32	62	37.290435183001456
33	54	38.06731481652689
33	63	38.06731481652689
34	44	44.28247954899942
34	58	36.12511573271337
35	49	39.23263426681497
35	52	40.39795371710311
36	45	42.340195355673046
36	53	39.62107408357769
38	45	34.95979628242529
39	49	45.05910385398618
41	44	41.95175553891032
41	46	42.340195355673046
42	64	43.50542969644825
43	55	41.174875905384944
44	46	37.290435183001456
44	58	44.28247954899942
45	64	46.22467863281293
47	60	40.786393533865784
50	54	38.84419445005228
51	54	40.39795371710311
54	55	45.8361537065373
56	58	41.56331572214764
56	59	43.11690477017268
58	59	41.56331572214764
58	62	35.7366759159507
