65	65	65
0	13	39.90133970947593
0	30	41.06351010778763
0	42	45.324645534157014
1	9	44.550148966992104
1	38	43.77522685226284
1	53	44.550148966992104
2	27	41.06351010778763
2	29	39.51392120686775
2	51	38.351750808555984
3	48	35.252615561472595
3	58	35.64003406408083
4	24	37.57695635809605
4	50	42.61305645395113
5	16	42.22568050609935
5	62	43.77522685226284
6	15	41.06351010778763
6	39	34.865239613620865
7	34	37.18958041024431
7	44	43.38797856868044
8	20	41.06351010778763
8	29	39.126545259016
8	32	37.964374860704275
9	27	45.324645534157014
9	29	38.351750808555984
9	32	35.64003406408083
9	41	42.61305645395113
9	46	35.64003406408083
10	34	39.90133970947593
11	34	37.57695635809605
11	59	44.550148966992104
12	15	46.09956764888629
12	22	39.51392120686775
12	39	39.51392120686775
12	42	41.8382620034912
12	61	46.09956764888629
12	64	45.324645534157014
13	21	39.90133970947593
13	30	41.06351010778763
13	40	35.252615561472595
14	23	43.38797856868044
14	25	38.351750808555984
14	58	36.027410011932616
15	39	43.00030473753359
15	61	46.09956764888629
16	18	40.28871565732774
16	26	37.57695635809605
17	43	37.964374860704275
17	63	40.28871565732774
18	44	36.802204462392545
19	37	34.865239613620865
19	57	43.77522685226284
20	57	41.06351010778763
21	40	35.252615561472595
21	52	42.61305645395113
22	40	44.937397250574584
23	25	36.027410011932616
23	47	35.64003406408083
23	50	42.61305645395113
23	54	41.06351010778763
24	37	35.252615561472595
24	60	40.67609160517945
24	62	40.67609160517945
25	48	40.28871565732774
26	48	45.324645534157014
26	62	44.937397250574584
27	28	36.802204462392545
27	29	41.06351010778763
27	30	38.351750808555984
27	31	39.90133970947593
27	38	41.45088605563942
27	45	44.16247513584529
27	52	40.67609160517945
27	54	39.51392120686775
28	29	40.67609160517945
29	32	40.28871565732774
29	39	45.324645534157014
29	51	40.28871565732774
29	57	40.28871565732774
29	62	36.027410011932616
30	31	42.61305645395113
30	38	37.57695635809605
32	37	41.8382620034912
32	62	37.18958041024431
33	54	37.964374860704275
33	63	37.964374860704275
34	44	44.16247513584529
34	58	36.027410011932616
35	49	39.126545259016
35	52	40.28871565732774
36	45	42.22568050609935
36	53	39.51392120686775
38	45	34.865239613620865
39	49	44.937397250574584
41	44	41.8382620034912
41	46	42.22568050609935
42	64	43.38797856868044
43	55	41.06351010778763
44	46	37.18958041024431
44	58	44.16247513584529
45	64	46.09956764888629
47	60	40.67609160517945
50	54	38.739126756407785
51	54	40.28871565732774
54	55	45.71231936530384
56	58	41.45088605563942
56	59	43.00030473753359
58	59	41.45088605563942
58	62	35.64003406408083
