65	65	65
0	13	40.066141514731946
0	30	41.23312060052111
0	42	45.51218434577765
1	9	44.73405785788862
1	38	43.95593136999961
1	53	44.73405785788862
2	27	41.23312060052111
2	29	39.67716252920519
2	51	38.510183443415976
3	48	35.39822517157528
3	58	35.787246286310896
4	24	37.7321833431536
4	50	42.78895228421043
5	16	42.4000996863103
5	62	43.95593136999961
6	15	41.23312060052111
6	39	35.009246186048514
7	34	37.343204357626824
7	44	43.567078772099464
8	20	41.23312060052111
8	29	39.28814141446954
8	32	38.12116232868037
9	27	45.51218434577765
9	29	38.510183443415976
9	32	35.787246286310896
9	41	42.78895228421043
9	46	35.787246286310896
10	34	40.066141514731946
11	34	37.7321833431536
11	59	44.73405785788862
12	15	46.28988954157794
12	22	39.67716252920519
12	39	39.67716252920519
12	42	42.01107857157466
12	61	46.28988954157794
12	64	45.51218434577765
13	21	40.066141514731946
13	30	41.23312060052111
13	40	35.39822517157528
14	23	43.567078772099464
14	25	38.510183443415976
14	58	36.17622527183766
15	39	43.17822617419929
15	61	46.28988954157794
16	18	40.45512050025872
16	26	37.7321833431536
17	43	38.12116232868037
17	63	40.45512050025872
18	44	36.95422537210008
19	37	35.009246186048514
19	57	43.95593136999961
20	57	41.23312060052111
21	40	35.39822517157528
21	52	42.78895228421043
22	40	45.12291045578873
23	25	36.17622527183766
23	47	35.787246286310896
23	50	42.78895228421043
23	54	41.23312060052111
24	37	35.39822517157528
24	60	40.84414161499438
24	62	40.84414161499438
25	48	40.45512050025872
26	48	45.51218434577765
26	62	45.12291045578873
27	28	36.95422537210008
27	29	41.23312060052111
27	30	38.510183443415976
27	31	40.066141514731946
27	38	41.62209958604787
27	45	44.34520525998846
27	52	40.84414161499438
27	54	39.67716252920519
28	29	40.84414161499438
29	32	40.45512050025872
29	39	45.51218434577765
29	51	40.45512050025872
29	57	40.45512050025872
29	62	36.17622527183766
30	31	42.78895228421043
30	38	37.7321833431536
32	37	42.01107857157466
32	62	37.343204357626824
33	54	38.12116232868037
33	63	38.12116232868037
34	44	44.34520525998846
34	58	36.17622527183766
35	49	39.28814141446954
35	52	40.45512050025872
36	45	42.4000996863103
36	53	39.67716252920519
38	45	35.009246186048514
39	49	45.12291045578873
41	44	42.01107857157466
41	46	42.4000996863103
42	64	43.567078772099464
43	55	41.23312060052111
44	46	37.343204357626824
44	58	44.34520525998846
45	64	46.28988954157794
47	60	40.84414161499438
50	54	38.899162428942766
51	54	40.45512050025872
54	55	45.901036943677795
56	58	41.62209958604787
56	59	43.17822617419929
58	59	41.62209958604787
58	62	35.787246286310896
