65
1	3	38
1	5	38
1	6	38
1	7	38
1	8	38
1	9	38
1	10	38
1	11	38
1	15	38
1	16	38
1	18	38
1	19	38
1	20	38
1	24	38
1	26	38
1	29	38
1	32	38
1	34	38
1	37	38
1	39	38
1	41	38
1	44	38
1	46	38
1	48	38
1	49	38
1	51	38
1	56	38
1	57	38
1	58	38
1	59	38
1	60	38
1	62	38
2	1	27
2	3	27
2	4	27
2	5	27
2	6	27
2	7	27
2	8	27
2	9	27
2	10	27
2	11	27
2	12	27
2	14	27
2	15	27
2	16	27
2	18	27
2	19	27
2	20	27
2	22	27
2	24	27
2	26	27
2	28	27
2	29	27
2	32	27
2	34	27
2	37	27
2	39	27
2	41	27
2	42	27
2	44	27
2	46	27
2	48	27
2	49	27
2	53	27
2	56	27
2	57	27
2	58	27
2	59	27
2	60	27
2	61	27
2	62	27
3	0	48
3	1	48
3	2	48
3	4	48
3	5	48
3	6	48
3	7	25
3	8	48
3	9	48
3	10	25
3	11	26
3	12	48
3	13	48
3	14	48
3	15	48
3	17	48
3	18	48
3	19	48
3	20	48
3	21	48
3	22	48
3	23	48
3	24	48
3	27	48
3	28	48
3	29	48
3	30	48
3	31	48
3	32	48
3	33	48
3	34	25
3	35	48
3	36	48
3	37	48
3	38	48
3	39	48
3	40	48
3	41	25
3	42	48
3	43	48
3	44	25
3	45	48
3	46	25
3	47	48
3	49	48
3	50	48
3	51	48
3	52	48
3	53	48
3	54	48
3	55	48
3	56	26
3	57	48
3	58	25
3	59	26
3	60	48
3	61	48
3	62	48
3	63	48
3	64	48
7	0	34
7	1	34
7	9	58
7	13	34
7	16	34
7	18	58
7	21	34
7	27	34
7	30	34
7	31	34
7	35	34
7	36	34
7	38	34
7	40	34
7	41	58
7	44	58
7	45	34
7	46	58
7	52	34
7	53	34
7	64	34
8	0	32
8	1	32
8	2	32
8	3	32
8	4	32
8	5	32
8	6	32
8	7	32
8	9	32
8	10	32
8	11	32
8	12	32
8	13	32
8	14	32
8	15	32
8	16	32
8	17	32
8	18	32
8	19	20
8	21	32
8	22	32
8	23	32
8	24	32
8	25	32
8	26	32
8	27	32
8	28	32
8	29	32
8	30	32
8	31	32
8	33	32
8	34	32
8	35	32
8	36	32
8	38	32
8	39	32
8	40	32
8	41	32
8	42	32
8	43	32
8	44	32
8	45	32
8	46	32
8	47	32
8	48	32
8	49	32
8	50	32
8	51	32
8	52	32
8	53	32
8	54	32
8	55	32
8	56	32
8	57	20
8	58	32
8	59	32
8	60	32
8	61	32
8	62	32
8	63	32
8	64	32
14	3	25
14	5	48
14	6	23
14	7	54
14	8	50
14	10	26
14	11	54
14	12	23
14	15	23
14	18	48
14	19	23
14	20	50
14	22	23
14	24	23
14	29	23
14	32	48
14	34	26
14	37	23
14	39	23
14	41	54
14	44	54
14	46	54
14	49	23
14	56	54
14	57	50
14	58	26
14	59	54
14	61	23
14	62	48
15	0	39
15	12	39
15	13	39
15	21	39
15	22	39
15	36	39
15	40	39
15	42	39
15	45	39
15	64	39
18	0	16
18	1	16
18	3	16
18	7	62
18	9	16
18	10	5
18	11	5
18	13	16
18	14	16
18	17	16
18	21	16
18	23	16
18	27	16
18	30	16
18	31	16
18	33	16
18	34	5
18	35	16
18	36	16
18	38	16
18	40	16
18	41	62
18	43	16
18	44	62
18	45	16
18	46	62
18	47	16
18	50	16
18	52	16
18	53	16
18	54	16
18	55	16
18	56	16
18	58	16
18	59	16
18	63	16
18	64	16
22	0	40
22	1	40
22	2	40
22	3	40
22	4	40
22	5	40
22	6	21
22	7	40
22	8	40
22	9	40
22	10	40
22	11	40
22	12	13
22	14	40
22	15	52
22	16	40
22	17	40
22	18	40
22	19	40
22	20	40
22	23	40
22	24	40
22	25	40
22	26	40
22	27	40
22	28	40
22	29	40
22	32	40
22	33	40
22	34	40
22	35	40
22	36	40
22	37	40
22	38	40
22	39	21
22	41	40
22	42	40
22	43	40
22	44	40
22	45	40
22	46	40
22	47	40
22	48	40
22	49	40
22	50	40
22	51	40
22	53	40
22	54	40
22	55	40
22	56	40
22	57	40
22	58	40
22	59	40
22	60	40
22	61	13
22	62	40
22	63	40
22	64	13
28	1	27
28	2	27
28	3	27
28	4	27
28	5	27
28	6	27
28	7	27
28	8	27
28	9	27
28	10	27
28	11	27
28	12	27
28	14	27
28	15	27
28	16	27
28	18	27
28	19	27
28	20	27
28	22	27
28	24	27
28	26	27
28	29	27
28	32	27
28	34	27
28	37	27
28	39	27
28	41	27
28	42	27
28	44	27
28	46	27
28	48	27
28	49	27
28	51	27
28	53	27
28	56	27
28	57	27
28	58	27
28	59	27
28	60	27
28	61	27
28	62	27
31	2	30
31	3	30
31	4	30
31	5	30
31	6	30
31	7	30
31	8	30
31	9	30
31	10	30
31	11	30
31	14	30
31	15	30
31	16	30
31	17	30
31	18	30
31	19	30
31	20	30
31	23	30
31	24	30
31	25	30
31	26	30
31	27	30
31	28	30
31	29	30
31	32	30
31	33	30
31	34	30
31	35	30
31	36	30
31	37	30
31	39	30
31	41	30
31	43	30
31	44	30
31	45	30
31	46	30
31	47	30
31	48	30
31	49	30
31	50	30
31	51	30
31	52	30
31	54	30
31	55	30
31	56	30
31	57	30
31	58	30
31	59	30
31	60	30
31	62	30
31	63	30
31	64	30
32	0	62
32	1	62
32	2	62
32	6	62
32	7	62
32	9	62
32	12	62
32	13	62
32	15	62
32	17	62
32	18	62
32	21	62
32	22	62
32	23	62
32	27	62
32	28	62
32	29	62
32	30	62
32	31	62
32	33	62
32	35	62
32	36	62
32	38	62
32	39	62
32	40	62
32	41	62
32	42	62
32	43	62
32	44	62
32	45	62
32	46	62
32	49	62
32	50	37
32	51	62
32	52	62
32	53	62
32	54	62
32	55	62
32	57	8
32	61	62
32	63	62
32	64	62
34	1	58
34	9	7
34	16	58
34	18	7
34	41	7
34	44	7
34	46	7
34	53	58
38	2	45
38	3	45
38	4	45
38	5	45
38	6	45
38	7	30
38	8	30
38	9	45
38	10	30
38	11	30
38	14	45
38	16	45
38	17	45
38	18	45
38	19	30
38	20	30
38	23	45
38	24	45
38	25	45
38	26	45
38	27	45
38	28	45
38	29	30
38	32	30
38	33	45
38	34	30
38	35	30
38	37	30
38	39	30
38	41	30
38	43	30
38	44	30
38	46	30
38	47	45
38	48	30
38	49	30
38	50	45
38	51	30
38	52	30
38	54	45
38	55	30
38	56	30
38	57	30
38	58	30
38	59	30
38	60	30
38	62	30
38	63	45
39	0	29
39	12	29
39	22	29
39	40	29
39	42	29
39	64	29
41	0	46
41	1	46
41	2	46
41	3	46
41	4	46
41	5	46
41	6	46
41	7	46
41	8	46
41	9	46
41	10	46
41	11	46
41	12	46
41	13	46
41	14	46
41	15	46
41	16	46
41	17	46
41	18	46
41	19	46
41	20	46
41	21	46
41	22	46
41	23	46
41	24	46
41	25	46
41	26	46
41	27	46
41	28	46
41	29	46
41	30	46
41	31	46
41	32	46
41	33	46
41	34	46
41	35	46
41	36	46
41	37	46
41	38	46
41	39	46
41	40	46
41	42	46
41	43	46
41	44	46
41	45	46
41	47	46
41	48	46
41	49	46
41	50	46
41	51	46
41	52	46
41	53	46
41	54	46
41	55	46
41	56	46
41	57	46
41	58	46
41	59	46
41	60	46
41	61	46
41	62	46
41	63	46
41	64	46
42	3	0
42	5	0
42	6	64
42	8	0
42	10	0
42	11	0
42	12	64
42	15	64
42	16	0
42	19	0
42	20	0
42	22	64
42	24	0
42	26	0
42	29	0
42	32	0
42	34	0
42	35	0
42	37	0
42	39	64
42	48	0
42	49	64
42	51	0
42	56	0
42	57	0
42	58	0
42	59	0
42	60	0
42	61	64
42	62	0
46	3	9
46	4	9
46	5	9
46	7	9
46	10	9
46	11	9
46	14	9
46	16	9
46	18	9
46	23	9
46	24	9
46	25	9
46	26	9
46	34	9
46	44	9
46	47	9
46	48	9
46	56	9
46	58	9
46	59	9
46	60	9
46	62	9
50	0	23
50	1	23
50	2	23
50	6	4
50	8	4
50	9	23
50	12	4
50	13	23
50	15	4
50	17	23
50	20	4
50	21	23
50	22	23
50	27	23
50	28	23
50	29	4
50	30	23
50	31	23
50	33	23
50	35	23
50	36	23
50	38	23
50	39	4
50	40	23
50	41	23
50	42	23
50	43	23
50	45	23
50	46	23
50	49	4
50	51	23
50	52	23
50	53	23
50	54	23
50	55	23
50	57	4
50	61	4
50	63	23
50	64	23
51	1	2
51	3	2
51	4	2
51	5	2
51	6	2
51	7	2
51	8	2
51	9	2
51	10	2
51	11	2
51	12	2
51	14	2
51	15	2
51	16	2
51	17	2
51	18	2
51	19	2
51	20	2
51	22	2
51	23	2
51	24	2
51	25	2
51	26	2
51	28	2
51	29	2
51	32	2
51	33	2
51	34	2
51	37	2
51	39	2
51	41	2
51	42	2
51	43	2
51	44	2
51	46	2
51	47	2
51	48	2
51	49	2
51	50	2
51	53	2
51	54	2
51	55	2
51	56	2
51	57	2
51	58	2
51	59	2
51	60	2
51	61	2
51	62	2
51	63	2
52	1	21
52	2	13
52	3	35
52	4	49
52	5	35
52	6	35
52	7	49
52	8	35
52	9	49
52	10	35
52	11	35
52	14	49
52	15	35
52	16	35
52	17	13
52	18	49
52	19	35
52	20	35
52	23	13
52	24	35
52	25	13
52	26	35
52	27	13
52	28	49
52	29	35
52	30	21
52	31	21
52	32	35
52	33	13
52	34	35
52	36	13
52	37	35
52	38	21
52	39	35
52	41	49
52	43	13
52	44	49
52	45	13
52	46	49
52	47	13
52	48	35
52	50	13
52	51	35
52	53	21
52	54	13
52	55	13
52	56	35
52	57	35
52	58	35
52	59	35
52	60	35
52	62	35
52	63	13
52	64	35
55	0	17
55	1	17
55	2	17
55	3	17
55	4	17
55	5	17
55	6	17
55	7	17
55	8	17
55	9	17
55	10	17
55	11	17
55	12	17
55	13	17
55	14	17
55	15	17
55	16	17
55	18	17
55	19	17
55	20	17
55	21	17
55	22	17
55	23	17
55	24	17
55	25	17
55	26	17
55	27	17
55	28	17
55	29	17
55	30	17
55	31	17
55	32	17
55	33	17
55	34	17
55	35	17
55	36	17
55	37	17
55	38	17
55	39	17
55	40	17
55	41	17
55	42	17
55	44	17
55	45	17
55	46	17
55	47	17
55	48	17
55	49	17
55	50	17
55	51	17
55	52	17
55	53	17
55	54	17
55	56	17
55	57	17
55	58	17
55	59	17
55	60	17
55	61	17
55	62	17
55	63	43
55	64	17
56	0	59
56	1	59
56	2	59
56	3	59
56	4	59
56	5	59
56	6	59
56	7	59
56	8	59
56	9	59
56	10	59
56	12	59
56	13	59
56	14	59
56	15	59
56	16	59
56	17	59
56	18	59
56	19	59
56	20	59
56	21	59
56	22	59
56	23	59
56	24	59
56	25	59
56	26	59
56	27	59
56	28	59
56	29	59
56	30	59
56	31	59
56	32	59
56	33	59
56	34	59
56	35	59
56	36	59
56	37	59
56	38	59
56	39	59
56	40	59
56	41	59
56	42	59
56	43	59
56	44	59
56	45	59
56	46	59
56	47	59
56	48	59
56	49	59
56	50	59
56	51	59
56	52	59
56	53	59
56	54	59
56	55	59
56	57	59
56	58	59
56	60	59
56	61	59
56	62	59
56	63	59
56	64	59
57	0	20
57	1	20
57	2	20
57	3	20
57	5	20
57	6	20
57	7	20
57	8	20
57	9	20
57	10	20
57	11	20
57	12	20
57	13	20
57	14	20
57	15	20
57	16	20
57	17	20
57	18	19
57	21	20
57	22	20
57	23	19
57	25	20
57	26	20
57	27	20
57	28	20
57	29	20
57	30	20
57	31	20
57	32	20
57	33	20
57	34	20
57	35	20
57	36	20
57	38	20
57	39	20
57	40	20
57	41	20
57	42	20
57	43	20
57	44	20
57	45	20
57	46	20
57	48	20
57	49	20
57	50	19
57	51	20
57	52	20
57	53	20
57	54	20
57	55	20
57	56	20
57	58	20
57	59	20
57	61	20
57	62	20
57	63	20
57	64	20
59	0	11
59	1	11
59	2	11
59	3	11
59	4	11
59	5	11
59	6	11
59	7	11
59	8	11
59	9	11
59	10	11
59	12	11
59	13	11
59	14	11
59	15	11
59	16	11
59	17	11
59	18	11
59	19	11
59	20	11
59	21	11
59	22	11
59	23	11
59	24	11
59	25	11
59	26	11
59	27	11
59	28	11
59	29	11
59	30	11
59	31	11
59	32	11
59	33	11
59	34	11
59	35	11
59	36	11
59	37	11
59	38	11
59	39	11
59	40	11
59	41	11
59	42	11
59	43	11
59	44	11
59	45	11
59	46	11
59	47	11
59	48	11
59	49	11
59	50	11
59	51	11
59	52	11
59	53	11
59	54	11
59	55	11
59	57	11
59	58	11
59	60	11
59	61	11
59	62	11
59	63	11
59	64	11
61	0	15
61	12	15
61	13	15
61	21	15
61	22	15
61	30	15
61	36	15
61	38	15
61	40	15
61	42	15
61	45	15
61	53	15
61	64	15