0	1825
1	1871
2	1334
3	-1
4	1612
5	1728
6	-1
7	-1
8	1512
9	3073
10	-1
11	-1
12	3375
13	-1
14	2021
15	1715
16	-1
17	-1
18	-1
19	-1
20	-1
21	-1
22	-1
23	3499
24	2100
25	1374
26	1857
27	4827
28	1009
29	6976
30	2859
31	1115
32	1499
33	2344
34	2061
35	-1
36	-1
37	1893
38	1306
39	3804
40	-1
41	1703
42	-1
43	-1
44	2324
45	2586
46	2240
47	-1
48	-1
49	-1
50	1516
51	2007
52	2592
53	-1
54	3783
55	2978
56	-1
57	2185
58	4978
59	-1
60	-1
61	-1
62	3647
63	-1
64	1799
