0	-1
1	2377
2	1774
3	-1
4	-1
5	-1
6	-1
7	-1
8	1984
9	3726
10	-1
11	-1
12	-1
13	-1
14	2840
15	-1
16	-1
17	-1
18	-1
19	-1
20	-1
21	-1
22	-1
23	4559
24	3200
25	-1
26	2163
27	5525
28	1237
29	8006
30	4828
31	1255
32	2059
33	-1
34	-1
35	-1
36	-1
37	-1
38	1583
39	8130
40	-1
41	2429
42	-1
43	-1
44	-1
45	3808
46	3030
47	-1
48	-1
49	-1
50	2164
51	2593
52	3316
53	-1
54	6303
55	-1
56	-1
57	2999
58	6564
59	-1
60	-1
61	-1
62	5381
63	-1
64	-1
