65	65	65
0	13	40.13836970283357
0	30	41.307433971688134
0	42	45.59401714240723
1	9	44.814839552034165
1	38	44.035236414096744
1	53	44.814839552034165
2	27	41.307433971688134
2	29	39.74865324337769
2	51	38.57958897452311
3	48	35.46202751790222
3	58	35.851743977358026
4	24	37.80019861036787
4	50	42.86625725475499
5	16	42.47649824054278
5	62	44.035236414096744
6	15	41.307433971688134
6	39	35.07235361320279
7	34	37.410524705668465
7	44	43.64543484512811
8	20	41.307433971688134
8	29	39.35897933867831
8	32	38.18991506982371
9	27	45.59401714240723
9	29	38.57958897452311
9	32	35.851743977358026
9	41	42.86625725475499
9	46	35.851743977358026
10	34	40.13836970283357
11	34	37.80019861036787
11	59	44.814839552034165
12	15	46.373620280344646
12	22	39.74865324337769
12	39	39.74865324337769
12	42	42.08682433584338
12	61	46.373620280344646
12	64	45.59401714240723
13	21	40.13836970283357
13	30	41.307433971688134
13	40	35.46202751790222
14	23	43.64543484512811
14	25	38.57958897452311
14	58	36.24141788205741
15	39	43.25605882372378
15	61	46.373620280344646
16	18	40.528043607532915
16	26	37.80019861036787
17	43	38.18991506982371
17	63	40.528043607532915
18	44	37.02080824621262
19	37	35.07235361320279
19	57	44.035236414096744
20	57	41.307433971688134
21	40	35.46202751790222
21	52	42.86625725475499
22	40	45.204215573438525
23	25	36.24141788205741
23	47	35.851743977358026
23	50	42.86625725475499
23	54	41.307433971688134
24	37	35.46202751790222
24	60	40.91776006698878
24	62	40.91776006698878
25	48	40.528043607532915
26	48	45.59401714240723
26	62	45.204215573438525
27	28	37.02080824621262
27	29	41.307433971688134
27	30	38.57958897452311
27	31	40.13836970283357
27	38	41.697150431143996
27	45	44.42503798306547
27	52	40.91776006698878
27	54	39.74865324337769
28	29	40.91776006698878
29	32	40.528043607532915
29	39	45.59401714240723
29	51	40.528043607532915
29	57	40.528043607532915
29	62	36.24141788205741
30	31	42.86625725475499
30	38	37.80019861036787
32	37	42.08682433584338
32	62	37.410524705668465
33	54	38.18991506982371
33	63	38.18991506982371
34	44	44.42503798306547
34	58	36.24141788205741
35	49	39.35897933867831
35	52	40.528043607532915
36	45	42.47649824054278
36	53	39.74865324337769
38	45	35.07235361320279
39	49	45.204215573438525
41	44	42.08682433584338
41	46	42.47649824054278
42	64	43.64543484512811
43	55	41.307433971688134
44	46	37.410524705668465
44	58	44.42503798306547
45	64	46.373620280344646
47	60	40.91776006698878
50	54	38.969262879222484
51	54	40.528043607532915
54	55	45.98381871137591
56	58	41.697150431143996
56	59	43.25605882372378
58	59	41.697150431143996
58	62	35.851743977358026
