0	-1
1	2373
2	1777
3	-1
4	-1
5	-1
6	-1
7	-1
8	2010
9	3667
10	-1
11	-1
12	-1
13	-1
14	2919
15	-1
16	-1
17	-1
18	-1
19	-1
20	-1
21	-1
22	-1
23	4526
24	3220
25	-1
26	-1
27	5648
28	1264
29	7945
30	4915
31	1298
32	2183
33	-1
34	-1
35	-1
36	-1
37	-1
38	1586
39	8224
40	-1
41	2430
42	-1
43	-1
44	-1
45	3853
46	3033
47	-1
48	-1
49	-1
50	2095
51	2735
52	3393
53	-1
54	6349
55	-1
56	-1
57	2962
58	6764
59	-1
60	-1
61	-1
62	6520
63	-1
64	-1
