100000	100000	100000	10000	1000	1000
0	1	28544	0	1	2	1	0
0	1	68600	0	1	2	3	4
0	1	1.12435e+07	0	1	2	5	4
0	1	150	0	1	5	3	4
0	2	28736	0	1	2	1	0
0	2	70700	0	1	2	3	4
0	2	1.06127e+07	0	1	2	5	4
0	2	450	0	1	5	3	4
0	3	29568	0	1	2	1	0
0	3	74800	0	1	2	3	4
0	3	1.08831e+07	0	1	2	5	4
0	3	250	0	1	5	3	4
0	4	27968	0	1	2	1	0
0	4	69900	0	1	2	3	4
0	4	1.09527e+07	0	1	2	5	4
0	4	250	0	1	5	3	4
0	5	28352	0	1	2	1	0
0	5	70700	0	1	2	3	4
0	5	1.08954e+07	0	1	2	5	4
0	5	450	0	1	5	3	4
0	6	30528	0	1	2	1	0
0	6	72300	0	1	2	3	4
0	6	1.08831e+07	0	1	2	5	4
0	6	200	0	1	5	3	4
0	7	30464	0	1	2	1	0
0	7	70600	0	1	2	3	4
0	7	1.08216e+07	0	1	2	5	4
0	7	300	0	1	5	3	4
0	8	27392	0	1	2	1	0
0	8	69300	0	1	2	3	4
0	8	1.06332e+07	0	1	2	5	4
0	8	350	0	1	5	3	4
0	9	29376	0	1	2	1	0
0	9	72100	0	1	2	3	4
0	9	1.06742e+07	0	1	2	5	4
0	9	50	0	1	5	3	4
1	0	26304	0	1	2	1	0
1	0	74600	0	1	2	3	4
1	0	1.14524e+07	0	1	2	5	4
1	0	300	0	1	5	3	4
1	2	28672	0	1	2	1	0
1	2	67200	0	1	2	3	4
1	2	1.10797e+07	0	1	2	5	4
1	2	400	0	1	5	3	4
1	3	28800	0	1	2	1	0
1	3	71400	0	1	2	3	4
1	3	1.12476e+07	0	1	2	5	4
1	3	250	0	1	5	3	4
1	4	27328	0	1	2	1	0
1	4	65300	0	1	2	3	4
1	4	1.11985e+07	0	1	2	5	4
1	4	400	0	1	5	3	4
1	5	27328	0	1	2	1	0
1	5	69400	0	1	2	3	4
1	5	1.10223e+07	0	1	2	5	4
1	5	450	0	1	5	3	4
1	6	28352	0	1	2	1	0
1	6	68400	0	1	2	3	4
1	6	1.10633e+07	0	1	2	5	4
1	6	300	0	1	5	3	4
1	7	26752	0	1	2	1	0
1	7	70000	0	1	2	3	4
1	7	1.13951e+07	0	1	2	5	4
1	7	350	0	1	5	3	4
1	8	25920	0	1	2	1	0
1	8	73000	0	1	2	3	4
1	8	1.13582e+07	0	1	2	5	4
1	8	300	0	1	5	3	4
1	9	30080	0	1	2	1	0
1	9	70500	0	1	2	3	4
1	9	1.09978e+07	0	1	2	5	4
1	9	250	0	1	5	3	4
2	0	29824	0	1	2	1	0
2	0	72500	0	1	2	3	4
2	0	1.12722e+07	0	1	2	5	4
2	0	150	0	1	5	3	4
2	1	30784	0	1	2	1	0
2	1	67200	0	1	2	3	4
2	1	1.13336e+07	0	1	2	5	4
2	1	250	0	1	5	3	4
2	3	30208	0	1	2	1	0
2	3	71200	0	1	2	3	4
2	3	1.10592e+07	0	1	2	5	4
2	3	300	0	1	5	3	4
2	4	29696	0	1	2	1	0
2	4	69300	0	1	2	3	4
2	4	1.10141e+07	0	1	2	5	4
2	4	450	0	1	5	3	4
2	5	28032	0	1	2	1	0
2	5	71300	0	1	2	3	4
2	5	1.08585e+07	0	1	2	5	4
2	5	200	0	1	5	3	4
2	6	30656	0	1	2	1	0
2	6	69100	0	1	2	3	4
2	6	1.06578e+07	0	1	2	5	4
2	6	400	0	1	5	3	4
2	7	28288	0	1	2	1	0
2	7	67600	0	1	2	3	4
2	7	1.15098e+07	0	1	2	5	4
2	7	100	0	1	5	3	4
2	8	28864	0	1	2	1	0
2	8	68100	0	1	2	3	4
2	8	1.09076e+07	0	1	2	5	4
2	8	250	0	1	5	3	4
2	9	30592	0	1	2	1	0
2	9	71800	0	1	2	3	4
2	9	1.07848e+07	0	1	2	5	4
2	9	300	0	1	5	3	4
3	0	27648	0	1	2	1	0
3	0	67300	0	1	2	3	4
3	0	1.1051e+07	0	1	2	5	4
3	0	150	0	1	5	3	4
3	1	29888	0	1	2	1	0
3	1	69900	0	1	2	3	4
3	1	1.08831e+07	0	1	2	5	4
3	1	300	0	1	5	3	4
3	2	31040	0	1	2	1	0
3	2	69900	0	1	2	3	4
3	2	1.12353e+07	0	1	2	5	4
3	2	650	0	1	5	3	4
3	4	29760	0	1	2	1	0
3	4	71000	0	1	2	3	4
3	4	1.101e+07	0	1	2	5	4
3	4	300	0	1	5	3	4
3	5	31168	0	1	2	1	0
3	5	68700	0	1	2	3	4
3	5	1.09363e+07	0	1	2	5	4
3	5	100	0	1	5	3	4
3	6	29312	0	1	2	1	0
3	6	73700	0	1	2	3	4
3	6	1.08872e+07	0	1	2	5	4
3	6	150	0	1	5	3	4
3	7	30464	0	1	2	1	0
3	7	70600	0	1	2	3	4
3	7	1.11903e+07	0	1	2	5	4
3	7	400	0	1	5	3	4
3	8	29056	0	1	2	1	0
3	8	70600	0	1	2	3	4
3	8	1.09486e+07	0	1	2	5	4
3	8	50	0	1	5	3	4
3	9	28032	0	1	2	1	0
3	9	70500	0	1	2	3	4
3	9	1.11985e+07	0	1	2	5	4
3	9	100	0	1	5	3	4
4	0	28352	0	1	2	1	0
4	0	67500	0	1	2	3	4
4	0	1.0838e+07	0	1	2	5	4
4	0	350	0	1	5	3	4
4	1	30528	0	1	2	1	0
4	1	67700	0	1	2	3	4
4	1	1.09199e+07	0	1	2	5	4
4	1	300	0	1	5	3	4
4	2	29568	0	1	2	1	0
4	2	70400	0	1	2	3	4
4	2	1.12148e+07	0	1	2	5	4
4	2	50	0	1	5	3	4
4	3	29824	0	1	2	1	0
4	3	68000	0	1	2	3	4
4	3	1.11616e+07	0	1	2	5	4
4	3	200	0	1	5	3	4
4	5	30208	0	1	2	1	0
4	5	74600	0	1	2	3	4
4	5	1.11288e+07	0	1	2	5	4
4	5	250	0	1	5	3	4
4	6	27328	0	1	2	1	0
4	6	73600	0	1	2	3	4
4	6	1.08216e+07	0	1	2	5	4
4	6	450	0	1	5	3	4
4	7	27904	0	1	2	1	0
4	7	68600	0	1	2	3	4
4	7	1.09855e+07	0	1	2	5	4
4	7	500	0	1	5	3	4
4	8	28480	0	1	2	1	0
4	8	67300	0	1	2	3	4
4	8	1.09568e+07	0	1	2	5	4
4	8	250	0	1	5	3	4
4	9	27328	0	1	2	1	0
4	9	66000	0	1	2	3	4
4	9	1.09036e+07	0	1	2	5	4
4	9	300	0	1	5	3	4
5	0	30400	0	1	2	1	0
5	0	72900	0	1	2	3	4
5	0	1.07561e+07	0	1	2	5	4
5	0	100	0	1	5	3	4
5	1	28096	0	1	2	1	0
5	1	73700	0	1	2	3	4
5	1	1.12067e+07	0	1	2	5	4
5	1	250	0	1	5	3	4
5	2	31040	0	1	2	1	0
5	2	67600	0	1	2	3	4
5	2	1.08216e+07	0	1	2	5	4
5	2	150	0	1	5	3	4
5	3	32192	0	1	2	1	0
5	3	68800	0	1	2	3	4
5	3	1.09322e+07	0	1	2	5	4
5	3	250	0	1	5	3	4
5	4	28928	0	1	2	1	0
5	4	70400	0	1	2	3	4
5	4	1.09322e+07	0	1	2	5	4
5	4	200	0	1	5	3	4
5	6	29696	0	1	2	1	0
5	6	69100	0	1	2	3	4
5	6	1.08626e+07	0	1	2	5	4
5	6	200	0	1	5	3	4
5	7	30784	0	1	2	1	0
5	7	69600	0	1	2	3	4
5	7	1.09691e+07	0	1	2	5	4
5	7	450	0	1	5	3	4
5	8	29440	0	1	2	1	0
5	8	68300	0	1	2	3	4
5	8	1.09896e+07	0	1	2	5	4
5	8	150	0	1	5	3	4
5	9	28672	0	1	2	1	0
5	9	66900	0	1	2	3	4
5	9	1.07725e+07	0	1	2	5	4
5	9	200	0	1	5	3	4
6	0	29632	0	1	2	1	0
6	0	70000	0	1	2	3	4
6	0	1.08012e+07	0	1	2	5	4
6	0	400	0	1	5	3	4
6	1	32960	0	1	2	1	0
6	1	76100	0	1	2	3	4
6	1	1.08626e+07	0	1	2	5	4
6	1	350	0	1	5	3	4
6	2	29696	0	1	2	1	0
6	2	71300	0	1	2	3	4
6	2	1.11165e+07	0	1	2	5	4
6	2	200	0	1	5	3	4
6	3	30272	0	1	2	1	0
6	3	66900	0	1	2	3	4
6	3	1.14811e+07	0	1	2	5	4
6	3	300	0	1	5	3	4
6	4	31296	0	1	2	1	0
6	4	69600	0	1	2	3	4
6	4	1.12886e+07	0	1	2	5	4
6	4	300	0	1	5	3	4
6	5	29632	0	1	2	1	0
6	5	71500	0	1	2	3	4
6	5	1.08749e+07	0	1	2	5	4
6	5	400	0	1	5	3	4
6	7	28672	0	1	2	1	0
6	7	73900	0	1	2	3	4
6	7	1.11124e+07	0	1	2	5	4
6	7	300	0	1	5	3	4
6	8	29184	0	1	2	1	0
6	8	66400	0	1	2	3	4
6	8	1.08954e+07	0	1	2	5	4
6	8	100	0	1	5	3	4
6	9	28544	0	1	2	1	0
6	9	75600	0	1	2	3	4
6	9	1.10756e+07	0	1	2	5	4
6	9	350	0	1	5	3	4
7	0	29440	0	1	2	1	0
7	0	71400	0	1	2	3	4
7	0	1.09855e+07	0	1	2	5	4
7	0	400	0	1	5	3	4
7	1	26880	0	1	2	1	0
7	1	71500	0	1	2	3	4
7	1	1.08872e+07	0	1	2	5	4
7	1	350	0	1	5	3	4
7	2	29248	0	1	2	1	0
7	2	72000	0	1	2	3	4
7	2	1.12681e+07	0	1	2	5	4
7	2	300	0	1	5	3	4
7	3	32256	0	1	2	1	0
7	3	68500	0	1	2	3	4
7	3	1.04612e+07	0	1	2	5	4
7	3	150	0	1	5	3	4
7	4	29120	0	1	2	1	0
7	4	73400	0	1	2	3	4
7	4	1.08421e+07	0	1	2	5	4
7	4	450	0	1	5	3	4
7	5	29120	0	1	2	1	0
7	5	69900	0	1	2	3	4
7	5	1.09322e+07	0	1	2	5	4
7	5	250	0	1	5	3	4
7	6	30912	0	1	2	1	0
7	6	69900	0	1	2	3	4
7	6	1.11821e+07	0	1	2	5	4
7	6	400	0	1	5	3	4
7	8	27712	0	1	2	1	0
7	8	69600	0	1	2	3	4
7	8	1.08134e+07	0	1	2	5	4
7	8	650	0	1	5	3	4
7	9	30272	0	1	2	1	0
7	9	71900	0	1	2	3	4
7	9	1.13213e+07	0	1	2	5	4
7	9	400	0	1	5	3	4
8	0	31616	0	1	2	1	0
8	0	67700	0	1	2	3	4
8	0	1.08954e+07	0	1	2	5	4
8	0	400	0	1	5	3	4
8	1	26240	0	1	2	1	0
8	1	74300	0	1	2	3	4
8	1	1.11247e+07	0	1	2	5	4
8	1	250	0	1	5	3	4
8	2	28800	0	1	2	1	0
8	2	72900	0	1	2	3	4
8	2	1.09445e+07	0	1	2	5	4
8	2	150	0	1	5	3	4
8	3	28736	0	1	2	1	0
8	3	69700	0	1	2	3	4
8	3	1.13992e+07	0	1	2	5	4
8	3	250	0	1	5	3	4
8	4	28352	0	1	2	1	0
8	4	64000	0	1	2	3	4
8	4	1.09158e+07	0	1	2	5	4
8	4	400	0	1	5	3	4
8	5	31360	0	1	2	1	0
8	5	69000	0	1	2	3	4
8	5	1.08052e+07	0	1	2	5	4
8	5	400	0	1	5	3	4
8	6	29504	0	1	2	1	0
8	6	72300	0	1	2	3	4
8	6	1.09773e+07	0	1	2	5	4
8	6	400	0	1	5	3	4
8	7	29376	0	1	2	1	0
8	7	68000	0	1	2	3	4
8	7	1.12271e+07	0	1	2	5	4
8	7	150	0	1	5	3	4
8	9	26688	0	1	2	1	0
8	9	70500	0	1	2	3	4
8	9	1.12968e+07	0	1	2	5	4
8	9	250	0	1	5	3	4
9	0	29440	0	1	2	1	0
9	0	69400	0	1	2	3	4
9	0	1.08913e+07	0	1	2	5	4
9	0	500	0	1	5	3	4
9	1	27968	0	1	2	1	0
9	1	67100	0	1	2	3	4
9	1	1.10182e+07	0	1	2	5	4
9	1	250	0	1	5	3	4
9	2	29120	0	1	2	1	0
9	2	68700	0	1	2	3	4
9	2	1.1051e+07	0	1	2	5	4
9	2	300	0	1	5	3	4
9	3	31424	0	1	2	1	0
9	3	73500	0	1	2	3	4
9	3	1.10387e+07	0	1	2	5	4
9	3	150	0	1	5	3	4
9	4	28096	0	1	2	1	0
9	4	69100	0	1	2	3	4
9	4	1.08872e+07	0	1	2	5	4
9	4	300	0	1	5	3	4
9	5	29824	0	1	2	1	0
9	5	71100	0	1	2	3	4
9	5	1.09158e+07	0	1	2	5	4
9	5	250	0	1	5	3	4
9	6	31296	0	1	2	1	0
9	6	70000	0	1	2	3	4
9	6	1.08954e+07	0	1	2	5	4
9	6	350	0	1	5	3	4
9	7	29120	0	1	2	1	0
9	7	69000	0	1	2	3	4
9	7	1.09978e+07	0	1	2	5	4
9	7	100	0	1	5	3	4
9	8	26624	0	1	2	1	0
9	8	69200	0	1	2	3	4
9	8	1.1223e+07	0	1	2	5	4
9	8	150	0	1	5	3	4
