10000	100000	10000	100000	100000	100000
0	1	1.11191e+07	3	5	3	2	2	2	5	4	3	5
0	2	1.10934e+07	3	5	3	2	2	2	5	4	3	5
0	3	1.11448e+07	3	5	3	2	2	2	5	4	3	5
0	4	1.11631e+07	3	5	3	2	2	2	5	4	3	5
0	5	1.12393e+07	3	5	3	2	2	2	5	4	3	5
0	6	1.11246e+07	3	5	3	2	2	2	5	4	3	5
0	7	1.10146e+07	3	5	3	2	2	2	5	4	3	5
0	8	1.10081e+07	3	5	3	2	2	2	5	4	3	5
0	9	1.10448e+07	3	5	3	2	2	2	5	4	3	5
1	0	1.10806e+07	3	5	3	2	2	2	5	4	3	5
1	2	1.09393e+07	3	5	3	2	2	2	5	4	3	5
1	3	1.1154e+07	3	5	3	2	2	2	5	4	3	5
1	4	1.12264e+07	3	5	3	2	2	2	5	4	3	5
1	5	1.10659e+07	3	5	3	2	2	2	5	4	3	5
1	6	1.10797e+07	3	5	3	2	2	2	5	4	3	5
1	7	1.11998e+07	3	5	3	2	2	2	5	4	3	5
1	8	1.09769e+07	3	5	3	2	2	2	5	4	3	5
1	9	1.11943e+07	3	5	3	2	2	2	5	4	3	5
2	0	1.11613e+07	3	5	3	2	2	2	5	4	3	5
2	1	1.12705e+07	3	5	3	2	2	2	5	4	3	5
2	3	1.11512e+07	3	5	3	2	2	2	5	4	3	5
2	4	1.0999e+07	3	5	3	2	2	2	5	4	3	5
2	5	1.12485e+07	3	5	3	2	2	2	5	4	3	5
2	6	1.11329e+07	3	5	3	2	2	2	5	4	3	5
2	7	1.09659e+07	3	5	3	2	2	2	5	4	3	5
2	8	1.10806e+07	3	5	3	2	2	2	5	4	3	5
2	9	1.11641e+07	3	5	3	2	2	2	5	4	3	5
3	0	1.09366e+07	3	5	3	2	2	2	5	4	3	5
3	1	1.132e+07	3	5	3	2	2	2	5	4	3	5
3	2	1.10567e+07	3	5	3	2	2	2	5	4	3	5
3	4	1.12576e+07	3	5	3	2	2	2	5	4	3	5
3	5	1.11026e+07	3	5	3	2	2	2	5	4	3	5
3	6	1.1032e+07	3	5	3	2	2	2	5	4	3	5
3	7	1.10338e+07	3	5	3	2	2	2	5	4	3	5
3	8	1.09421e+07	3	5	3	2	2	2	5	4	3	5
3	9	1.09118e+07	3	5	3	2	2	2	5	4	3	5
4	0	1.10237e+07	3	5	3	2	2	2	5	4	3	5
4	1	1.11907e+07	3	5	3	2	2	2	5	4	3	5
4	2	1.10659e+07	3	5	3	2	2	2	5	4	3	5
4	3	1.1198e+07	3	5	3	2	2	2	5	4	3	5
4	5	1.11576e+07	3	5	3	2	2	2	5	4	3	5
4	6	1.12466e+07	3	5	3	2	2	2	5	4	3	5
4	7	1.10733e+07	3	5	3	2	2	2	5	4	3	5
4	8	1.12466e+07	3	5	3	2	2	2	5	4	3	5
4	9	1.0976e+07	3	5	3	2	2	2	5	4	3	5
5	0	1.11751e+07	3	5	3	2	2	2	5	4	3	5
5	1	1.11558e+07	3	5	3	2	2	2	5	4	3	5
5	2	1.09274e+07	3	5	3	2	2	2	5	4	3	5
5	3	1.11631e+07	3	5	3	2	2	2	5	4	3	5
5	4	1.09531e+07	3	5	3	2	2	2	5	4	3	5
5	6	1.09999e+07	3	5	3	2	2	2	5	4	3	5
5	7	1.10265e+07	3	5	3	2	2	2	5	4	3	5
5	8	1.12686e+07	3	5	3	2	2	2	5	4	3	5
5	9	1.1375e+07	3	5	3	2	2	2	5	4	3	5
6	0	1.101e+07	3	5	3	2	2	2	5	4	3	5
6	1	1.11531e+07	3	5	3	2	2	2	5	4	3	5
6	2	1.10146e+07	3	5	3	2	2	2	5	4	3	5
6	3	1.11375e+07	3	5	3	2	2	2	5	4	3	5
6	4	1.09192e+07	3	5	3	2	2	2	5	4	3	5
6	5	1.09898e+07	3	5	3	2	2	2	5	4	3	5
6	7	1.10824e+07	3	5	3	2	2	2	5	4	3	5
6	8	1.11503e+07	3	5	3	2	2	2	5	4	3	5
6	9	1.10898e+07	3	5	3	2	2	2	5	4	3	5
7	0	1.11687e+07	3	5	3	2	2	2	5	4	3	5
7	1	1.10301e+07	3	5	3	2	2	2	5	4	3	5
7	2	1.11806e+07	3	5	3	2	2	2	5	4	3	5
7	3	1.13173e+07	3	5	3	2	2	2	5	4	3	5
7	4	1.11164e+07	3	5	3	2	2	2	5	4	3	5
7	5	1.09999e+07	3	5	3	2	2	2	5	4	3	5
7	6	1.09806e+07	3	5	3	2	2	2	5	4	3	5
7	8	1.10347e+07	3	5	3	2	2	2	5	4	3	5
7	9	1.12209e+07	3	5	3	2	2	2	5	4	3	5
8	0	1.11017e+07	3	5	3	2	2	2	5	4	3	5
8	1	1.10485e+07	3	5	3	2	2	2	5	4	3	5
8	2	1.11109e+07	3	5	3	2	2	2	5	4	3	5
8	3	1.11934e+07	3	5	3	2	2	2	5	4	3	5
8	4	1.10962e+07	3	5	3	2	2	2	5	4	3	5
8	5	1.11421e+07	3	5	3	2	2	2	5	4	3	5
8	6	1.09852e+07	3	5	3	2	2	2	5	4	3	5
8	7	1.1309e+07	3	5	3	2	2	2	5	4	3	5
8	9	1.1121e+07	3	5	3	2	2	2	5	4	3	5
9	0	1.10558e+07	3	5	3	2	2	2	5	4	3	5
9	1	1.13136e+07	3	5	3	2	2	2	5	4	3	5
9	2	1.11127e+07	3	5	3	2	2	2	5	4	3	5
9	3	1.10136e+07	3	5	3	2	2	2	5	4	3	5
9	4	1.11347e+07	3	5	3	2	2	2	5	4	3	5
9	5	1.13457e+07	3	5	3	2	2	2	5	4	3	5
9	6	1.12448e+07	3	5	3	2	2	2	5	4	3	5
9	7	1.10457e+07	3	5	3	2	2	2	5	4	3	5
9	8	1.11714e+07	3	5	3	2	2	2	5	4	3	5
