20
0	5	1e+12
0	11	1e+12
0	16	1e+12
1	5	1e+12
1	6	1e+12
1	13	1e+12
1	14	1e+12
1	18	1e+12
2	11	1e+12
2	16	1e+12
3	13	1e+12
4	7	1e+12
4	17	1e+12
4	19	1e+12
5	0	1e+12
5	1	1e+12
5	9	1e+12
6	1	1e+12
6	16	1e+12
6	18	1e+12
7	4	1e+12
7	9	1e+12
7	13	1e+12
8	15	1e+12
8	16	1e+12
8	18	1e+12
9	5	1e+12
9	7	1e+12
9	15	1e+12
10	12	1e+12
10	18	1e+12
11	0	1e+12
11	2	1e+12
11	14	1e+12
11	15	1e+12
11	17	1e+12
11	19	1e+12
12	10	1e+12
12	16	1e+12
13	1	1e+12
13	3	1e+12
13	7	1e+12
13	14	1e+12
14	1	1e+12
14	11	1e+12
14	13	1e+12
14	17	1e+12
15	8	1e+12
15	9	1e+12
15	11	1e+12
16	0	1e+12
16	2	1e+12
16	6	1e+12
16	8	1e+12
16	12	1e+12
16	17	1e+12
17	4	1e+12
17	11	1e+12
17	14	1e+12
17	16	1e+12
18	1	1e+12
18	6	1e+12
18	8	1e+12
18	10	1e+12
19	4	1e+12
19	11	1e+12
