100000	100000	100000	10000	1000	1000
0	1	88576	0	1	2	1	0
0	1	220800	0	1	2	3	4
0	1	3.48815e+07	0	1	2	5	4
0	1	1200	0	1	5	3	4
0	2	78912	0	1	2	1	0
0	2	208900	0	1	2	3	4
0	2	3.19037e+07	0	1	2	5	4
0	2	850	0	1	5	3	4
0	3	38080	0	1	2	1	0
0	3	93100	0	1	2	3	4
0	3	1.44916e+07	0	1	2	5	4
0	3	300	0	1	5	3	4
0	4	24640	0	1	2	1	0
0	4	57400	0	1	2	3	4
0	4	9.31021e+06	0	1	2	5	4
0	4	150	0	1	5	3	4
0	5	37760	0	1	2	1	0
0	5	84400	0	1	2	3	4
0	5	1.36233e+07	0	1	2	5	4
0	5	450	0	1	5	3	4
0	6	71040	0	1	2	1	0
0	6	167700	0	1	2	3	4
0	6	2.56901e+07	0	1	2	5	4
0	6	750	0	1	5	3	4
0	7	21312	0	1	2	1	0
0	7	54600	0	1	2	3	4
0	7	8.28211e+06	0	1	2	5	4
0	7	50	0	1	5	3	4
0	8	31168	0	1	2	1	0
0	8	74900	0	1	2	3	4
0	8	1.2288e+07	0	1	2	5	4
0	8	450	0	1	5	3	4
0	9	61568	0	1	2	1	0
0	9	150700	0	1	2	3	4
0	9	2.35233e+07	0	1	2	5	4
0	9	900	0	1	5	3	4
1	0	95360	0	1	2	1	0
1	0	221500	0	1	2	3	4
1	0	3.5074e+07	0	1	2	5	4
1	0	550	0	1	5	3	4
1	2	38016	0	1	2	1	0
1	2	82900	0	1	2	3	4
1	2	1.34308e+07	0	1	2	5	4
1	2	150	0	1	5	3	4
1	3	21248	0	1	2	1	0
1	3	49200	0	1	2	3	4
1	3	7.96672e+06	0	1	2	5	4
1	3	250	0	1	5	3	4
1	4	29120	0	1	2	1	0
1	4	75800	0	1	2	3	4
1	4	1.17473e+07	0	1	2	5	4
1	4	200	0	1	5	3	4
1	5	20608	0	1	2	1	0
1	5	52400	0	1	2	3	4
1	5	7.65542e+06	0	1	2	5	4
1	5	100	0	1	5	3	4
1	6	30400	0	1	2	1	0
1	6	69800	0	1	2	3	4
1	6	1.08093e+07	0	1	2	5	4
1	6	300	0	1	5	3	4
1	7	28096	0	1	2	1	0
1	7	64500	0	1	2	3	4
1	7	1.03055e+07	0	1	2	5	4
1	7	400	0	1	5	3	4
1	8	55680	0	1	2	1	0
1	8	130000	0	1	2	3	4
1	8	2.05537e+07	0	1	2	5	4
1	8	650	0	1	5	3	4
1	9	25984	0	1	2	1	0
1	9	60400	0	1	2	3	4
1	9	9.65837e+06	0	1	2	5	4
1	9	200	0	1	5	3	4
2	0	82368	0	1	2	1	0
2	0	204700	0	1	2	3	4
2	0	3.11788e+07	0	1	2	5	4
2	0	850	0	1	5	3	4
2	1	37376	0	1	2	1	0
2	1	80600	0	1	2	3	4
2	1	1.34226e+07	0	1	2	5	4
2	1	450	0	1	5	3	4
2	3	19200	0	1	2	1	0
2	3	46800	0	1	2	3	4
2	3	7.2704e+06	0	1	2	5	4
2	4	13952	0	1	2	1	0
2	4	30000	0	1	2	3	4
2	4	5.3289e+06	0	1	2	5	4
2	4	200	0	1	5	3	4
2	5	54848	0	1	2	1	0
2	5	131200	0	1	2	3	4
2	5	2.04841e+07	0	1	2	5	4
2	5	500	0	1	5	3	4
2	6	22272	0	1	2	1	0
2	6	63100	0	1	2	3	4
2	6	1.00434e+07	0	1	2	5	4
2	6	50	0	1	5	3	4
2	7	11840	0	1	2	1	0
2	7	28000	0	1	2	3	4
2	7	4.63258e+06	0	1	2	5	4
2	7	200	0	1	5	3	4
2	8	16384	0	1	2	1	0
2	8	42800	0	1	2	3	4
2	8	6.12352e+06	0	1	2	5	4
2	8	100	0	1	5	3	4
2	9	23744	0	1	2	1	0
2	9	56300	0	1	2	3	4
2	9	8.87603e+06	0	1	2	5	4
2	9	350	0	1	5	3	4
3	0	38272	0	1	2	1	0
3	0	90100	0	1	2	3	4
3	0	1.45039e+07	0	1	2	5	4
3	0	300	0	1	5	3	4
3	1	22464	0	1	2	1	0
3	1	51600	0	1	2	3	4
3	1	8.23706e+06	0	1	2	5	4
3	1	150	0	1	5	3	4
3	2	18304	0	1	2	1	0
3	2	50000	0	1	2	3	4
3	2	7.49158e+06	0	1	2	5	4
3	2	300	0	1	5	3	4
3	4	27840	0	1	2	1	0
3	4	59400	0	1	2	3	4
3	4	1.00106e+07	0	1	2	5	4
3	4	250	0	1	5	3	4
3	5	11904	0	1	2	1	0
3	5	29600	0	1	2	3	4
3	5	4.63667e+06	0	1	2	5	4
3	5	100	0	1	5	3	4
3	6	16256	0	1	2	1	0
3	6	33600	0	1	2	3	4
3	6	6.00883e+06	0	1	2	5	4
3	6	350	0	1	5	3	4
3	7	45504	0	1	2	1	0
3	7	111400	0	1	2	3	4
3	7	1.73548e+07	0	1	2	5	4
3	7	500	0	1	5	3	4
3	8	22336	0	1	2	1	0
3	8	52700	0	1	2	3	4
3	8	8.48282e+06	0	1	2	5	4
3	8	200	0	1	5	3	4
3	9	44032	0	1	2	1	0
3	9	106800	0	1	2	3	4
3	9	1.63758e+07	0	1	2	5	4
3	9	350	0	1	5	3	4
4	0	25664	0	1	2	1	0
4	0	58600	0	1	2	3	4
4	0	9.40851e+06	0	1	2	5	4
4	0	400	0	1	5	3	4
4	1	31296	0	1	2	1	0
4	1	73800	0	1	2	3	4
4	1	1.14688e+07	0	1	2	5	4
4	1	350	0	1	5	3	4
4	2	13696	0	1	2	1	0
4	2	31200	0	1	2	3	4
4	2	5.23469e+06	0	1	2	5	4
4	2	150	0	1	5	3	4
4	3	26688	0	1	2	1	0
4	3	62700	0	1	2	3	4
4	3	9.80582e+06	0	1	2	5	4
4	3	200	0	1	5	3	4
4	5	9728	0	1	2	1	0
4	5	21400	0	1	2	3	4
4	5	3.62086e+06	0	1	2	5	4
4	5	50	0	1	5	3	4
4	6	10624	0	1	2	1	0
4	6	26900	0	1	2	3	4
4	6	4.00179e+06	0	1	2	5	4
4	7	48128	0	1	2	1	0
4	7	103100	0	1	2	3	4
4	7	1.6171e+07	0	1	2	5	4
4	7	300	0	1	5	3	4
4	8	43264	0	1	2	1	0
4	8	102400	0	1	2	3	4
4	8	1.59375e+07	0	1	2	5	4
4	8	400	0	1	5	3	4
4	9	12608	0	1	2	1	0
4	9	34000	0	1	2	3	4
4	9	5.3248e+06	0	1	2	5	4
4	9	50	0	1	5	3	4
5	0	34176	0	1	2	1	0
5	0	81000	0	1	2	3	4
5	0	1.39837e+07	0	1	2	5	4
5	0	250	0	1	5	3	4
5	1	20480	0	1	2	1	0
5	1	45700	0	1	2	3	4
5	1	7.10656e+06	0	1	2	5	4
5	1	150	0	1	5	3	4
5	2	54080	0	1	2	1	0
5	2	128600	0	1	2	3	4
5	2	2.02957e+07	0	1	2	5	4
5	2	350	0	1	5	3	4
5	3	12864	0	1	2	1	0
5	3	29800	0	1	2	3	4
5	3	4.58342e+06	0	1	2	5	4
5	3	100	0	1	5	3	4
5	4	9344	0	1	2	1	0
5	4	24200	0	1	2	3	4
5	4	3.7888e+06	0	1	2	5	4
5	4	100	0	1	5	3	4
5	6	12736	0	1	2	1	0
5	6	38600	0	1	2	3	4
5	6	5.50912e+06	0	1	2	5	4
5	6	150	0	1	5	3	4
5	7	8192	0	1	2	1	0
5	7	19700	0	1	2	3	4
5	7	3.08429e+06	0	1	2	5	4
5	7	100	0	1	5	3	4
5	8	9472	0	1	2	1	0
5	8	24400	0	1	2	3	4
5	8	3.84614e+06	0	1	2	5	4
5	8	200	0	1	5	3	4
5	9	11136	0	1	2	1	0
5	9	31700	0	1	2	3	4
5	9	5.06266e+06	0	1	2	5	4
5	9	100	0	1	5	3	4
6	0	69632	0	1	2	1	0
6	0	158900	0	1	2	3	4
6	0	2.49446e+07	0	1	2	5	4
6	0	850	0	1	5	3	4
6	1	26176	0	1	2	1	0
6	1	69800	0	1	2	3	4
6	1	1.11944e+07	0	1	2	5	4
6	1	300	0	1	5	3	4
6	2	25344	0	1	2	1	0
6	2	64500	0	1	2	3	4
6	2	9.45766e+06	0	1	2	5	4
6	2	200	0	1	5	3	4
6	3	17280	0	1	2	1	0
6	3	37400	0	1	2	3	4
6	3	6.07027e+06	0	1	2	5	4
6	3	50	0	1	5	3	4
6	4	11072	0	1	2	1	0
6	4	29400	0	1	2	3	4
6	4	4.14925e+06	0	1	2	5	4
6	4	100	0	1	5	3	4
6	5	14464	0	1	2	1	0
6	5	33500	0	1	2	3	4
6	5	5.5255e+06	0	1	2	5	4
6	5	100	0	1	5	3	4
6	7	9792	0	1	2	1	0
6	7	24000	0	1	2	3	4
6	7	4.00179e+06	0	1	2	5	4
6	7	200	0	1	5	3	4
6	8	13760	0	1	2	1	0
6	8	31300	0	1	2	3	4
6	8	4.78822e+06	0	1	2	5	4
6	8	300	0	1	5	3	4
6	9	18240	0	1	2	1	0
6	9	45100	0	1	2	3	4
6	9	7.20486e+06	0	1	2	5	4
6	9	250	0	1	5	3	4
7	0	22656	0	1	2	1	0
7	0	52800	0	1	2	3	4
7	0	8.38861e+06	0	1	2	5	4
7	0	350	0	1	5	3	4
7	1	27008	0	1	2	1	0
7	1	66000	0	1	2	3	4
7	1	1.02973e+07	0	1	2	5	4
7	1	450	0	1	5	3	4
7	2	11200	0	1	2	1	0
7	2	30800	0	1	2	3	4
7	2	4.59571e+06	0	1	2	5	4
7	2	100	0	1	5	3	4
7	3	45888	0	1	2	1	0
7	3	115900	0	1	2	3	4
7	3	1.73425e+07	0	1	2	5	4
7	3	400	0	1	5	3	4
7	4	45568	0	1	2	1	0
7	4	106500	0	1	2	3	4
7	4	1.68878e+07	0	1	2	5	4
7	4	300	0	1	5	3	4
7	5	8576	0	1	2	1	0
7	5	18200	0	1	2	3	4
7	5	3.12934e+06	0	1	2	5	4
7	6	10688	0	1	2	1	0
7	6	26300	0	1	2	3	4
7	6	3.85434e+06	0	1	2	5	4
7	6	50	0	1	5	3	4
7	8	35584	0	1	2	1	0
7	8	94400	0	1	2	3	4
7	8	1.44835e+07	0	1	2	5	4
7	8	300	0	1	5	3	4
7	9	17920	0	1	2	1	0
7	9	43800	0	1	2	3	4
7	9	6.72973e+06	0	1	2	5	4
7	9	150	0	1	5	3	4
8	0	29696	0	1	2	1	0
8	0	76500	0	1	2	3	4
8	0	1.20177e+07	0	1	2	5	4
8	0	450	0	1	5	3	4
8	1	53696	0	1	2	1	0
8	1	126000	0	1	2	3	4
8	1	2.03858e+07	0	1	2	5	4
8	1	550	0	1	5	3	4
8	2	15552	0	1	2	1	0
8	2	37600	0	1	2	3	4
8	2	6.18496e+06	0	1	2	5	4
8	2	50	0	1	5	3	4
8	3	23488	0	1	2	1	0
8	3	51100	0	1	2	3	4
8	3	8.67123e+06	0	1	2	5	4
8	3	350	0	1	5	3	4
8	4	40448	0	1	2	1	0
8	4	104900	0	1	2	3	4
8	4	1.55607e+07	0	1	2	5	4
8	4	550	0	1	5	3	4
8	5	9920	0	1	2	1	0
8	5	24900	0	1	2	3	4
8	5	4.05094e+06	0	1	2	5	4
8	5	200	0	1	5	3	4
8	6	12544	0	1	2	1	0
8	6	29200	0	1	2	3	4
8	6	4.98483e+06	0	1	2	5	4
8	6	100	0	1	5	3	4
8	7	38144	0	1	2	1	0
8	7	84600	0	1	2	3	4
8	7	1.42828e+07	0	1	2	5	4
8	7	400	0	1	5	3	4
8	9	12928	0	1	2	1	0
8	9	25400	0	1	2	3	4
8	9	4.24755e+06	0	1	2	5	4
8	9	250	0	1	5	3	4
9	0	63104	0	1	2	1	0
9	0	149500	0	1	2	3	4
9	0	2.33923e+07	0	1	2	5	4
9	0	400	0	1	5	3	4
9	1	26304	0	1	2	1	0
9	1	64800	0	1	2	3	4
9	1	1.0027e+07	0	1	2	5	4
9	1	200	0	1	5	3	4
9	2	23424	0	1	2	1	0
9	2	54900	0	1	2	3	4
9	2	9.17094e+06	0	1	2	5	4
9	2	300	0	1	5	3	4
9	3	44544	0	1	2	1	0
9	3	102100	0	1	2	3	4
9	3	1.67485e+07	0	1	2	5	4
9	3	600	0	1	5	3	4
9	4	14528	0	1	2	1	0
9	4	33700	0	1	2	3	4
9	4	5.51322e+06	0	1	2	5	4
9	4	150	0	1	5	3	4
9	5	12928	0	1	2	1	0
9	5	32000	0	1	2	3	4
9	5	4.83738e+06	0	1	2	5	4
9	5	50	0	1	5	3	4
9	6	19840	0	1	2	1	0
9	6	43000	0	1	2	3	4
9	6	7.02464e+06	0	1	2	5	4
9	6	300	0	1	5	3	4
9	7	18048	0	1	2	1	0
9	7	43900	0	1	2	3	4
9	7	6.5495e+06	0	1	2	5	4
9	7	50	0	1	5	3	4
9	8	12928	0	1	2	1	0
9	8	28100	0	1	2	3	4
9	8	4.48102e+06	0	1	2	5	4
9	8	50	0	1	5	3	4
