100000	100000	100000	10000	1000	1000
0	1	7552	0	1	2	1	0
0	1	16100	0	1	2	3	4
0	1	2.49856e+06	0	1	2	5	4
0	1	50	0	1	5	3	4
0	2	6400	0	1	2	1	0
0	2	17400	0	1	2	3	4
0	2	2.55181e+06	0	1	2	5	4
0	3	6848	0	1	2	1	0
0	3	15700	0	1	2	3	4
0	3	2.6624e+06	0	1	2	5	4
0	3	50	0	1	5	3	4
0	4	6464	0	1	2	1	0
0	4	17000	0	1	2	3	4
0	4	2.57638e+06	0	1	2	5	4
0	4	50	0	1	5	3	4
0	5	7488	0	1	2	1	0
0	5	17900	0	1	2	3	4
0	5	2.61734e+06	0	1	2	5	4
0	6	6976	0	1	2	1	0
0	6	13900	0	1	2	3	4
0	6	2.47808e+06	0	1	2	5	4
0	7	6464	0	1	2	1	0
0	7	16800	0	1	2	3	4
0	7	2.81805e+06	0	1	2	5	4
0	8	5824	0	1	2	1	0
0	8	17100	0	1	2	3	4
0	8	2.65011e+06	0	1	2	5	4
0	8	150	0	1	5	3	4
0	9	6016	0	1	2	1	0
0	9	17700	0	1	2	3	4
0	9	2.53542e+06	0	1	2	5	4
0	9	100	0	1	5	3	4
0	10	7104	0	1	2	1	0
0	10	15700	0	1	2	3	4
0	10	2.61734e+06	0	1	2	5	4
0	11	7360	0	1	2	1	0
0	11	14600	0	1	2	3	4
0	11	2.68698e+06	0	1	2	5	4
0	12	6272	0	1	2	1	0
0	12	16900	0	1	2	3	4
0	12	2.58458e+06	0	1	2	5	4
0	13	6592	0	1	2	1	0
0	13	19400	0	1	2	3	4
0	13	2.58048e+06	0	1	2	5	4
0	13	100	0	1	5	3	4
0	14	6528	0	1	2	1	0
0	14	14500	0	1	2	3	4
0	14	2.56819e+06	0	1	2	5	4
0	14	100	0	1	5	3	4
0	15	5888	0	1	2	1	0
0	15	14900	0	1	2	3	4
0	15	2.70746e+06	0	1	2	5	4
0	16	7296	0	1	2	1	0
0	16	14900	0	1	2	3	4
0	16	2.67878e+06	0	1	2	5	4
0	16	50	0	1	5	3	4
0	17	7296	0	1	2	1	0
0	17	14300	0	1	2	3	4
0	17	2.51085e+06	0	1	2	5	4
0	18	6400	0	1	2	1	0
0	18	16700	0	1	2	3	4
0	18	2.56819e+06	0	1	2	5	4
0	18	50	0	1	5	3	4
0	19	6272	0	1	2	1	0
0	19	13600	0	1	2	3	4
0	19	2.39206e+06	0	1	2	5	4
0	19	150	0	1	5	3	4
1	0	6592	0	1	2	1	0
1	0	13700	0	1	2	3	4
1	0	2.69517e+06	0	1	2	5	4
1	0	100	0	1	5	3	4
1	2	6272	0	1	2	1	0
1	2	17000	0	1	2	3	4
1	2	2.60915e+06	0	1	2	5	4
1	2	50	0	1	5	3	4
1	3	7424	0	1	2	1	0
1	3	17100	0	1	2	3	4
1	3	2.74432e+06	0	1	2	5	4
1	3	50	0	1	5	3	4
1	4	7104	0	1	2	1	0
1	4	14800	0	1	2	3	4
1	4	2.48218e+06	0	1	2	5	4
1	4	50	0	1	5	3	4
1	5	5376	0	1	2	1	0
1	5	17600	0	1	2	3	4
1	5	2.58458e+06	0	1	2	5	4
1	6	6720	0	1	2	1	0
1	6	17600	0	1	2	3	4
1	6	2.60915e+06	0	1	2	5	4
1	6	100	0	1	5	3	4
1	7	7232	0	1	2	1	0
1	7	17800	0	1	2	3	4
1	7	2.44122e+06	0	1	2	5	4
1	7	50	0	1	5	3	4
1	8	6464	0	1	2	1	0
1	8	15200	0	1	2	3	4
1	8	2.5641e+06	0	1	2	5	4
1	9	6080	0	1	2	1	0
1	9	16700	0	1	2	3	4
1	9	2.5559e+06	0	1	2	5	4
1	9	150	0	1	5	3	4
1	10	6080	0	1	2	1	0
1	10	18100	0	1	2	3	4
1	10	2.64602e+06	0	1	2	5	4
1	10	100	0	1	5	3	4
1	11	7552	0	1	2	1	0
1	11	18300	0	1	2	3	4
1	11	2.67878e+06	0	1	2	5	4
1	11	50	0	1	5	3	4
1	12	9344	0	1	2	1	0
1	12	15200	0	1	2	3	4
1	12	2.40435e+06	0	1	2	5	4
1	12	50	0	1	5	3	4
1	13	8128	0	1	2	1	0
1	13	16800	0	1	2	3	4
1	13	2.6624e+06	0	1	2	5	4
1	13	50	0	1	5	3	4
1	14	7744	0	1	2	1	0
1	14	19200	0	1	2	3	4
1	14	2.73613e+06	0	1	2	5	4
1	15	6784	0	1	2	1	0
1	15	16900	0	1	2	3	4
1	15	2.7607e+06	0	1	2	5	4
1	16	8512	0	1	2	1	0
1	16	16800	0	1	2	3	4
1	16	2.51904e+06	0	1	2	5	4
1	16	50	0	1	5	3	4
1	17	7168	0	1	2	1	0
1	17	16400	0	1	2	3	4
1	17	2.48627e+06	0	1	2	5	4
1	17	50	0	1	5	3	4
1	18	7040	0	1	2	1	0
1	18	16100	0	1	2	3	4
1	18	2.50266e+06	0	1	2	5	4
1	18	100	0	1	5	3	4
1	19	5888	0	1	2	1	0
1	19	14400	0	1	2	3	4
1	19	2.6583e+06	0	1	2	5	4
1	19	100	0	1	5	3	4
2	0	5568	0	1	2	1	0
2	0	15400	0	1	2	3	4
2	0	2.62144e+06	0	1	2	5	4
2	0	100	0	1	5	3	4
2	1	7104	0	1	2	1	0
2	1	16200	0	1	2	3	4
2	1	2.5641e+06	0	1	2	5	4
2	1	200	0	1	5	3	4
2	3	7296	0	1	2	1	0
2	3	14900	0	1	2	3	4
2	3	2.56819e+06	0	1	2	5	4
2	3	100	0	1	5	3	4
2	4	7040	0	1	2	1	0
2	4	15400	0	1	2	3	4
2	4	2.60506e+06	0	1	2	5	4
2	4	100	0	1	5	3	4
2	5	6208	0	1	2	1	0
2	5	16200	0	1	2	3	4
2	5	2.60096e+06	0	1	2	5	4
2	5	100	0	1	5	3	4
2	6	6272	0	1	2	1	0
2	6	15800	0	1	2	3	4
2	6	2.71565e+06	0	1	2	5	4
2	6	100	0	1	5	3	4
2	7	6656	0	1	2	1	0
2	7	13600	0	1	2	3	4
2	7	2.65011e+06	0	1	2	5	4
2	7	50	0	1	5	3	4
2	8	6144	0	1	2	1	0
2	8	18100	0	1	2	3	4
2	8	2.62554e+06	0	1	2	5	4
2	9	6400	0	1	2	1	0
2	9	17200	0	1	2	3	4
2	9	2.54771e+06	0	1	2	5	4
2	9	50	0	1	5	3	4
2	10	6272	0	1	2	1	0
2	10	15800	0	1	2	3	4
2	10	2.40845e+06	0	1	2	5	4
2	10	100	0	1	5	3	4
2	11	7168	0	1	2	1	0
2	11	16700	0	1	2	3	4
2	11	2.60915e+06	0	1	2	5	4
2	12	6848	0	1	2	1	0
2	12	19400	0	1	2	3	4
2	12	2.75661e+06	0	1	2	5	4
2	12	150	0	1	5	3	4
2	13	6208	0	1	2	1	0
2	13	16400	0	1	2	3	4
2	13	2.48627e+06	0	1	2	5	4
2	13	50	0	1	5	3	4
2	14	6144	0	1	2	1	0
2	14	16900	0	1	2	3	4
2	14	2.39206e+06	0	1	2	5	4
2	15	6592	0	1	2	1	0
2	15	20200	0	1	2	3	4
2	15	2.64192e+06	0	1	2	5	4
2	15	50	0	1	5	3	4
2	16	5632	0	1	2	1	0
2	16	17200	0	1	2	3	4
2	16	2.7689e+06	0	1	2	5	4
2	16	50	0	1	5	3	4
2	17	6016	0	1	2	1	0
2	17	17700	0	1	2	3	4
2	17	2.57229e+06	0	1	2	5	4
2	18	6720	0	1	2	1	0
2	18	15900	0	1	2	3	4
2	18	2.47808e+06	0	1	2	5	4
2	18	50	0	1	5	3	4
2	19	7104	0	1	2	1	0
2	19	15700	0	1	2	3	4
2	19	2.67059e+06	0	1	2	5	4
2	19	100	0	1	5	3	4
3	0	5760	0	1	2	1	0
3	0	16500	0	1	2	3	4
3	0	2.64602e+06	0	1	2	5	4
3	0	100	0	1	5	3	4
3	1	7424	0	1	2	1	0
3	1	16200	0	1	2	3	4
3	1	2.48218e+06	0	1	2	5	4
3	1	100	0	1	5	3	4
3	2	7936	0	1	2	1	0
3	2	15700	0	1	2	3	4
3	2	2.58458e+06	0	1	2	5	4
3	2	50	0	1	5	3	4
3	4	6912	0	1	2	1	0
3	4	16800	0	1	2	3	4
3	4	2.49446e+06	0	1	2	5	4
3	4	50	0	1	5	3	4
3	5	6208	0	1	2	1	0
3	5	16600	0	1	2	3	4
3	5	2.52314e+06	0	1	2	5	4
3	5	50	0	1	5	3	4
3	6	8448	0	1	2	1	0
3	6	17700	0	1	2	3	4
3	6	2.67878e+06	0	1	2	5	4
3	6	250	0	1	5	3	4
3	7	6912	0	1	2	1	0
3	7	15900	0	1	2	3	4
3	7	2.72384e+06	0	1	2	5	4
3	8	5888	0	1	2	1	0
3	8	14900	0	1	2	3	4
3	8	2.69926e+06	0	1	2	5	4
3	8	50	0	1	5	3	4
3	9	5760	0	1	2	1	0
3	9	15100	0	1	2	3	4
3	9	2.68288e+06	0	1	2	5	4
3	9	50	0	1	5	3	4
3	10	6912	0	1	2	1	0
3	10	17000	0	1	2	3	4
3	10	2.60915e+06	0	1	2	5	4
3	11	5888	0	1	2	1	0
3	11	14900	0	1	2	3	4
3	11	2.52723e+06	0	1	2	5	4
3	11	150	0	1	5	3	4
3	12	6528	0	1	2	1	0
3	12	18300	0	1	2	3	4
3	12	2.51085e+06	0	1	2	5	4
3	12	100	0	1	5	3	4
3	13	5888	0	1	2	1	0
3	13	17200	0	1	2	3	4
3	13	2.64192e+06	0	1	2	5	4
3	13	200	0	1	5	3	4
3	14	7040	0	1	2	1	0
3	14	17600	0	1	2	3	4
3	14	2.58048e+06	0	1	2	5	4
3	14	100	0	1	5	3	4
3	15	6336	0	1	2	1	0
3	15	15300	0	1	2	3	4
3	15	2.73203e+06	0	1	2	5	4
3	15	100	0	1	5	3	4
3	16	7872	0	1	2	1	0
3	16	17000	0	1	2	3	4
3	16	2.67469e+06	0	1	2	5	4
3	16	100	0	1	5	3	4
3	17	6912	0	1	2	1	0
3	17	19100	0	1	2	3	4
3	17	2.50266e+06	0	1	2	5	4
3	18	6016	0	1	2	1	0
3	18	18800	0	1	2	3	4
3	18	2.72384e+06	0	1	2	5	4
3	18	100	0	1	5	3	4
3	19	6784	0	1	2	1	0
3	19	18700	0	1	2	3	4
3	19	2.65421e+06	0	1	2	5	4
4	0	7488	0	1	2	1	0
4	0	17900	0	1	2	3	4
4	0	2.64602e+06	0	1	2	5	4
4	0	50	0	1	5	3	4
4	1	6784	0	1	2	1	0
4	1	16200	0	1	2	3	4
4	1	2.69926e+06	0	1	2	5	4
4	1	100	0	1	5	3	4
4	2	8192	0	1	2	1	0
4	2	16400	0	1	2	3	4
4	2	2.49446e+06	0	1	2	5	4
4	2	50	0	1	5	3	4
4	3	6208	0	1	2	1	0
4	3	17800	0	1	2	3	4
4	3	2.5559e+06	0	1	2	5	4
4	3	50	0	1	5	3	4
4	5	7232	0	1	2	1	0
4	5	18300	0	1	2	3	4
4	5	2.60096e+06	0	1	2	5	4
4	5	100	0	1	5	3	4
4	6	6400	0	1	2	1	0
4	6	19600	0	1	2	3	4
4	6	2.59686e+06	0	1	2	5	4
4	6	100	0	1	5	3	4
4	7	6208	0	1	2	1	0
4	7	18700	0	1	2	3	4
4	7	2.58048e+06	0	1	2	5	4
4	7	100	0	1	5	3	4
4	8	6912	0	1	2	1	0
4	8	17900	0	1	2	3	4
4	8	2.48627e+06	0	1	2	5	4
4	9	7040	0	1	2	1	0
4	9	16200	0	1	2	3	4
4	9	2.43712e+06	0	1	2	5	4
4	9	100	0	1	5	3	4
4	10	6784	0	1	2	1	0
4	10	16800	0	1	2	3	4
4	10	2.48627e+06	0	1	2	5	4
4	10	100	0	1	5	3	4
4	11	7360	0	1	2	1	0
4	11	15700	0	1	2	3	4
4	11	2.5559e+06	0	1	2	5	4
4	11	150	0	1	5	3	4
4	12	6848	0	1	2	1	0
4	12	16900	0	1	2	3	4
4	12	2.64192e+06	0	1	2	5	4
4	12	50	0	1	5	3	4
4	13	5888	0	1	2	1	0
4	13	16600	0	1	2	3	4
4	13	2.58867e+06	0	1	2	5	4
4	14	7488	0	1	2	1	0
4	14	12600	0	1	2	3	4
4	14	2.78528e+06	0	1	2	5	4
4	15	6016	0	1	2	1	0
4	15	16200	0	1	2	3	4
4	15	2.69517e+06	0	1	2	5	4
4	16	6336	0	1	2	1	0
4	16	18500	0	1	2	3	4
4	16	2.71565e+06	0	1	2	5	4
4	16	200	0	1	5	3	4
4	17	7168	0	1	2	1	0
4	17	15100	0	1	2	3	4
4	17	2.48218e+06	0	1	2	5	4
4	17	50	0	1	5	3	4
4	18	6464	0	1	2	1	0
4	18	15400	0	1	2	3	4
4	18	2.59686e+06	0	1	2	5	4
4	19	7616	0	1	2	1	0
4	19	16700	0	1	2	3	4
4	19	2.58048e+06	0	1	2	5	4
5	0	7360	0	1	2	1	0
5	0	16600	0	1	2	3	4
5	0	2.51904e+06	0	1	2	5	4
5	0	100	0	1	5	3	4
5	1	6464	0	1	2	1	0
5	1	18500	0	1	2	3	4
5	1	2.59686e+06	0	1	2	5	4
5	2	6720	0	1	2	1	0
5	2	17200	0	1	2	3	4
5	2	2.72794e+06	0	1	2	5	4
5	2	50	0	1	5	3	4
5	3	7296	0	1	2	1	0
5	3	15500	0	1	2	3	4
5	3	2.5641e+06	0	1	2	5	4
5	4	6656	0	1	2	1	0
5	4	19100	0	1	2	3	4
5	4	2.75661e+06	0	1	2	5	4
5	4	200	0	1	5	3	4
5	6	6720	0	1	2	1	0
5	6	17500	0	1	2	3	4
5	6	2.53542e+06	0	1	2	5	4
5	7	6848	0	1	2	1	0
5	7	17000	0	1	2	3	4
5	7	2.5641e+06	0	1	2	5	4
5	7	50	0	1	5	3	4
5	8	6080	0	1	2	1	0
5	8	16000	0	1	2	3	4
5	8	2.60096e+06	0	1	2	5	4
5	9	7296	0	1	2	1	0
5	9	17600	0	1	2	3	4
5	9	2.60096e+06	0	1	2	5	4
5	9	100	0	1	5	3	4
5	10	6720	0	1	2	1	0
5	10	15300	0	1	2	3	4
5	10	2.78938e+06	0	1	2	5	4
5	10	50	0	1	5	3	4
5	11	6528	0	1	2	1	0
5	11	18700	0	1	2	3	4
5	11	2.72794e+06	0	1	2	5	4
5	11	50	0	1	5	3	4
5	12	6016	0	1	2	1	0
5	12	17600	0	1	2	3	4
5	12	2.63782e+06	0	1	2	5	4
5	12	50	0	1	5	3	4
5	13	6144	0	1	2	1	0
5	13	17600	0	1	2	3	4
5	13	2.70336e+06	0	1	2	5	4
5	13	50	0	1	5	3	4
5	14	6720	0	1	2	1	0
5	14	15100	0	1	2	3	4
5	14	2.78528e+06	0	1	2	5	4
5	14	100	0	1	5	3	4
5	15	7872	0	1	2	1	0
5	15	16300	0	1	2	3	4
5	15	2.6583e+06	0	1	2	5	4
5	15	50	0	1	5	3	4
5	16	6336	0	1	2	1	0
5	16	17800	0	1	2	3	4
5	16	2.6624e+06	0	1	2	5	4
5	16	150	0	1	5	3	4
5	17	6976	0	1	2	1	0
5	17	16800	0	1	2	3	4
5	17	2.62554e+06	0	1	2	5	4
5	17	50	0	1	5	3	4
5	18	6400	0	1	2	1	0
5	18	16500	0	1	2	3	4
5	18	2.74022e+06	0	1	2	5	4
5	18	150	0	1	5	3	4
5	19	7616	0	1	2	1	0
5	19	15600	0	1	2	3	4
5	19	2.51085e+06	0	1	2	5	4
5	19	100	0	1	5	3	4
6	0	6208	0	1	2	1	0
6	0	16800	0	1	2	3	4
6	0	2.55181e+06	0	1	2	5	4
6	0	50	0	1	5	3	4
6	1	7040	0	1	2	1	0
6	1	16700	0	1	2	3	4
6	1	2.49037e+06	0	1	2	5	4
6	1	100	0	1	5	3	4
6	2	6720	0	1	2	1	0
6	2	16400	0	1	2	3	4
6	2	2.51904e+06	0	1	2	5	4
6	2	50	0	1	5	3	4
6	3	7488	0	1	2	1	0
6	3	16700	0	1	2	3	4
6	3	2.62144e+06	0	1	2	5	4
6	4	7040	0	1	2	1	0
6	4	19000	0	1	2	3	4
6	4	2.58048e+06	0	1	2	5	4
6	4	50	0	1	5	3	4
6	5	6464	0	1	2	1	0
6	5	15200	0	1	2	3	4
6	5	2.71974e+06	0	1	2	5	4
6	5	100	0	1	5	3	4
6	7	7232	0	1	2	1	0
6	7	17300	0	1	2	3	4
6	7	2.65421e+06	0	1	2	5	4
6	7	50	0	1	5	3	4
6	8	6528	0	1	2	1	0
6	8	16600	0	1	2	3	4
6	8	2.42893e+06	0	1	2	5	4
6	8	150	0	1	5	3	4
6	9	6336	0	1	2	1	0
6	9	18300	0	1	2	3	4
6	9	2.54362e+06	0	1	2	5	4
6	10	6976	0	1	2	1	0
6	10	18500	0	1	2	3	4
6	10	2.73613e+06	0	1	2	5	4
6	10	50	0	1	5	3	4
6	11	7552	0	1	2	1	0
6	11	14500	0	1	2	3	4
6	11	2.58048e+06	0	1	2	5	4
6	12	6208	0	1	2	1	0
6	12	15400	0	1	2	3	4
6	12	2.53542e+06	0	1	2	5	4
6	13	6848	0	1	2	1	0
6	13	14000	0	1	2	3	4
6	13	2.68288e+06	0	1	2	5	4
6	13	100	0	1	5	3	4
6	14	6080	0	1	2	1	0
6	14	16000	0	1	2	3	4
6	14	2.57229e+06	0	1	2	5	4
6	14	50	0	1	5	3	4
6	15	6592	0	1	2	1	0
6	15	17800	0	1	2	3	4
6	15	2.75661e+06	0	1	2	5	4
6	15	100	0	1	5	3	4
6	16	6720	0	1	2	1	0
6	16	16800	0	1	2	3	4
6	16	2.71155e+06	0	1	2	5	4
6	16	50	0	1	5	3	4
6	17	5568	0	1	2	1	0
6	17	18800	0	1	2	3	4
6	17	2.62963e+06	0	1	2	5	4
6	17	100	0	1	5	3	4
6	18	7104	0	1	2	1	0
6	18	16000	0	1	2	3	4
6	18	2.6624e+06	0	1	2	5	4
6	19	6528	0	1	2	1	0
6	19	17500	0	1	2	3	4
6	19	2.51494e+06	0	1	2	5	4
7	0	7232	0	1	2	1	0
7	0	15900	0	1	2	3	4
7	0	2.58458e+06	0	1	2	5	4
7	0	50	0	1	5	3	4
7	1	7744	0	1	2	1	0
7	1	16100	0	1	2	3	4
7	1	2.4617e+06	0	1	2	5	4
7	2	5568	0	1	2	1	0
7	2	17600	0	1	2	3	4
7	2	2.68698e+06	0	1	2	5	4
7	3	6784	0	1	2	1	0
7	3	18000	0	1	2	3	4
7	3	2.53952e+06	0	1	2	5	4
7	4	7552	0	1	2	1	0
7	4	14500	0	1	2	3	4
7	4	2.58867e+06	0	1	2	5	4
7	4	50	0	1	5	3	4
7	5	6848	0	1	2	1	0
7	5	16000	0	1	2	3	4
7	5	2.65011e+06	0	1	2	5	4
7	5	100	0	1	5	3	4
7	6	6144	0	1	2	1	0
7	6	15400	0	1	2	3	4
7	6	2.3511e+06	0	1	2	5	4
7	6	100	0	1	5	3	4
7	8	7232	0	1	2	1	0
7	8	19200	0	1	2	3	4
7	8	2.69107e+06	0	1	2	5	4
7	8	50	0	1	5	3	4
7	9	6464	0	1	2	1	0
7	9	16500	0	1	2	3	4
7	9	2.59277e+06	0	1	2	5	4
7	9	150	0	1	5	3	4
7	10	6464	0	1	2	1	0
7	10	17600	0	1	2	3	4
7	10	2.56e+06	0	1	2	5	4
7	10	100	0	1	5	3	4
7	11	5888	0	1	2	1	0
7	11	18400	0	1	2	3	4
7	11	2.80576e+06	0	1	2	5	4
7	11	100	0	1	5	3	4
7	12	6784	0	1	2	1	0
7	12	18800	0	1	2	3	4
7	12	2.70336e+06	0	1	2	5	4
7	12	100	0	1	5	3	4
7	13	6976	0	1	2	1	0
7	13	15400	0	1	2	3	4
7	13	2.74432e+06	0	1	2	5	4
7	13	50	0	1	5	3	4
7	14	5696	0	1	2	1	0
7	14	18200	0	1	2	3	4
7	14	2.56e+06	0	1	2	5	4
7	15	7232	0	1	2	1	0
7	15	14700	0	1	2	3	4
7	15	2.33882e+06	0	1	2	5	4
7	16	6976	0	1	2	1	0
7	16	15400	0	1	2	3	4
7	16	2.7689e+06	0	1	2	5	4
7	16	50	0	1	5	3	4
7	17	7104	0	1	2	1	0
7	17	19800	0	1	2	3	4
7	17	2.65011e+06	0	1	2	5	4
7	17	150	0	1	5	3	4
7	18	6592	0	1	2	1	0
7	18	15900	0	1	2	3	4
7	18	2.6665e+06	0	1	2	5	4
7	18	150	0	1	5	3	4
7	19	6464	0	1	2	1	0
7	19	16500	0	1	2	3	4
7	19	2.69107e+06	0	1	2	5	4
7	19	50	0	1	5	3	4
8	0	7040	0	1	2	1	0
8	0	16500	0	1	2	3	4
8	0	2.71565e+06	0	1	2	5	4
8	0	100	0	1	5	3	4
8	1	6336	0	1	2	1	0
8	1	17200	0	1	2	3	4
8	1	2.53542e+06	0	1	2	5	4
8	1	100	0	1	5	3	4
8	2	6784	0	1	2	1	0
8	2	16800	0	1	2	3	4
8	2	2.63782e+06	0	1	2	5	4
8	2	50	0	1	5	3	4
8	3	6080	0	1	2	1	0
8	3	18000	0	1	2	3	4
8	3	2.47808e+06	0	1	2	5	4
8	3	50	0	1	5	3	4
8	4	6400	0	1	2	1	0
8	4	16600	0	1	2	3	4
8	4	2.48218e+06	0	1	2	5	4
8	4	50	0	1	5	3	4
8	5	7488	0	1	2	1	0
8	5	14700	0	1	2	3	4
8	5	2.84672e+06	0	1	2	5	4
8	5	100	0	1	5	3	4
8	6	6464	0	1	2	1	0
8	6	17700	0	1	2	3	4
8	6	2.58048e+06	0	1	2	5	4
8	6	50	0	1	5	3	4
8	7	6208	0	1	2	1	0
8	7	14600	0	1	2	3	4
8	7	2.56819e+06	0	1	2	5	4
8	7	50	0	1	5	3	4
8	9	6592	0	1	2	1	0
8	9	16300	0	1	2	3	4
8	9	2.59277e+06	0	1	2	5	4
8	10	7040	0	1	2	1	0
8	10	17700	0	1	2	3	4
8	10	2.63373e+06	0	1	2	5	4
8	10	50	0	1	5	3	4
8	11	8320	0	1	2	1	0
8	11	12700	0	1	2	3	4
8	11	2.50675e+06	0	1	2	5	4
8	11	50	0	1	5	3	4
8	12	7744	0	1	2	1	0
8	12	14900	0	1	2	3	4
8	12	2.44122e+06	0	1	2	5	4
8	12	50	0	1	5	3	4
8	13	6592	0	1	2	1	0
8	13	17200	0	1	2	3	4
8	13	2.78118e+06	0	1	2	5	4
8	13	100	0	1	5	3	4
8	14	7552	0	1	2	1	0
8	14	15800	0	1	2	3	4
8	14	2.65421e+06	0	1	2	5	4
8	14	100	0	1	5	3	4
8	15	6848	0	1	2	1	0
8	15	17100	0	1	2	3	4
8	15	2.67059e+06	0	1	2	5	4
8	15	150	0	1	5	3	4
8	16	6848	0	1	2	1	0
8	16	14500	0	1	2	3	4
8	16	2.64602e+06	0	1	2	5	4
8	16	150	0	1	5	3	4
8	17	7488	0	1	2	1	0
8	17	16800	0	1	2	3	4
8	17	2.59686e+06	0	1	2	5	4
8	17	100	0	1	5	3	4
8	18	6080	0	1	2	1	0
8	18	16100	0	1	2	3	4
8	18	2.62554e+06	0	1	2	5	4
8	18	50	0	1	5	3	4
8	19	6912	0	1	2	1	0
8	19	16900	0	1	2	3	4
8	19	2.52314e+06	0	1	2	5	4
8	19	100	0	1	5	3	4
9	0	6912	0	1	2	1	0
9	0	16000	0	1	2	3	4
9	0	2.67059e+06	0	1	2	5	4
9	1	6208	0	1	2	1	0
9	1	15900	0	1	2	3	4
9	1	2.65011e+06	0	1	2	5	4
9	2	6720	0	1	2	1	0
9	2	17100	0	1	2	3	4
9	2	2.53952e+06	0	1	2	5	4
9	2	100	0	1	5	3	4
9	3	6464	0	1	2	1	0
9	3	17200	0	1	2	3	4
9	3	2.58048e+06	0	1	2	5	4
9	3	100	0	1	5	3	4
9	4	7168	0	1	2	1	0
9	4	16500	0	1	2	3	4
9	4	2.69107e+06	0	1	2	5	4
9	5	6592	0	1	2	1	0
9	5	18100	0	1	2	3	4
9	5	2.59686e+06	0	1	2	5	4
9	6	7616	0	1	2	1	0
9	6	17500	0	1	2	3	4
9	6	2.60506e+06	0	1	2	5	4
9	7	7360	0	1	2	1	0
9	7	18100	0	1	2	3	4
9	7	2.72384e+06	0	1	2	5	4
9	7	50	0	1	5	3	4
9	8	5888	0	1	2	1	0
9	8	18300	0	1	2	3	4
9	8	2.58048e+06	0	1	2	5	4
9	8	50	0	1	5	3	4
9	10	6784	0	1	2	1	0
9	10	16800	0	1	2	3	4
9	10	2.63373e+06	0	1	2	5	4
9	10	200	0	1	5	3	4
9	11	6592	0	1	2	1	0
9	11	18500	0	1	2	3	4
9	11	2.53133e+06	0	1	2	5	4
9	11	150	0	1	5	3	4
9	12	7424	0	1	2	1	0
9	12	15300	0	1	2	3	4
9	12	2.59277e+06	0	1	2	5	4
9	12	100	0	1	5	3	4
9	13	6144	0	1	2	1	0
9	13	17000	0	1	2	3	4
9	13	2.57638e+06	0	1	2	5	4
9	14	6144	0	1	2	1	0
9	14	16800	0	1	2	3	4
9	14	2.6665e+06	0	1	2	5	4
9	15	6144	0	1	2	1	0
9	15	16400	0	1	2	3	4
9	15	2.73613e+06	0	1	2	5	4
9	15	50	0	1	5	3	4
9	16	6272	0	1	2	1	0
9	16	17000	0	1	2	3	4
9	16	2.59686e+06	0	1	2	5	4
9	16	50	0	1	5	3	4
9	17	6272	0	1	2	1	0
9	17	17700	0	1	2	3	4
9	17	2.7607e+06	0	1	2	5	4
9	17	200	0	1	5	3	4
9	18	7296	0	1	2	1	0
9	18	14400	0	1	2	3	4
9	18	2.7689e+06	0	1	2	5	4
9	18	100	0	1	5	3	4
9	19	7744	0	1	2	1	0
9	19	18400	0	1	2	3	4
9	19	2.62144e+06	0	1	2	5	4
10	0	6656	0	1	2	1	0
10	0	16300	0	1	2	3	4
10	0	2.55181e+06	0	1	2	5	4
10	1	7360	0	1	2	1	0
10	1	15800	0	1	2	3	4
10	1	2.7648e+06	0	1	2	5	4
10	1	50	0	1	5	3	4
10	2	6848	0	1	2	1	0
10	2	14600	0	1	2	3	4
10	2	2.5641e+06	0	1	2	5	4
10	2	50	0	1	5	3	4
10	3	7232	0	1	2	1	0
10	3	17600	0	1	2	3	4
10	3	2.63782e+06	0	1	2	5	4
10	4	5760	0	1	2	1	0
10	4	17900	0	1	2	3	4
10	4	2.72384e+06	0	1	2	5	4
10	5	5888	0	1	2	1	0
10	5	14900	0	1	2	3	4
10	5	2.44122e+06	0	1	2	5	4
10	6	5824	0	1	2	1	0
10	6	16600	0	1	2	3	4
10	6	2.5559e+06	0	1	2	5	4
10	6	100	0	1	5	3	4
10	7	7168	0	1	2	1	0
10	7	17600	0	1	2	3	4
10	7	2.61734e+06	0	1	2	5	4
10	8	5888	0	1	2	1	0
10	8	16700	0	1	2	3	4
10	8	2.58458e+06	0	1	2	5	4
10	9	6848	0	1	2	1	0
10	9	16200	0	1	2	3	4
10	9	2.56e+06	0	1	2	5	4
10	11	6528	0	1	2	1	0
10	11	15600	0	1	2	3	4
10	11	2.69517e+06	0	1	2	5	4
10	12	7040	0	1	2	1	0
10	12	15000	0	1	2	3	4
10	12	2.60506e+06	0	1	2	5	4
10	13	6592	0	1	2	1	0
10	13	16700	0	1	2	3	4
10	13	2.69107e+06	0	1	2	5	4
10	13	50	0	1	5	3	4
10	14	7680	0	1	2	1	0
10	14	16300	0	1	2	3	4
10	14	2.42483e+06	0	1	2	5	4
10	14	50	0	1	5	3	4
10	15	6912	0	1	2	1	0
10	15	17500	0	1	2	3	4
10	15	2.69926e+06	0	1	2	5	4
10	15	100	0	1	5	3	4
10	16	6848	0	1	2	1	0
10	16	16200	0	1	2	3	4
10	16	2.54771e+06	0	1	2	5	4
10	16	50	0	1	5	3	4
10	17	7104	0	1	2	1	0
10	17	14200	0	1	2	3	4
10	17	2.40845e+06	0	1	2	5	4
10	18	6656	0	1	2	1	0
10	18	15600	0	1	2	3	4
10	18	2.59277e+06	0	1	2	5	4
10	18	300	0	1	5	3	4
10	19	7296	0	1	2	1	0
10	19	15700	0	1	2	3	4
10	19	2.58458e+06	0	1	2	5	4
10	19	50	0	1	5	3	4
11	0	7552	0	1	2	1	0
11	0	15300	0	1	2	3	4
11	0	2.3593e+06	0	1	2	5	4
11	0	100	0	1	5	3	4
11	1	6208	0	1	2	1	0
11	1	17100	0	1	2	3	4
11	1	2.7648e+06	0	1	2	5	4
11	1	50	0	1	5	3	4
11	2	7424	0	1	2	1	0
11	2	17000	0	1	2	3	4
11	2	2.63782e+06	0	1	2	5	4
11	2	50	0	1	5	3	4
11	3	5696	0	1	2	1	0
11	3	18400	0	1	2	3	4
11	3	2.62963e+06	0	1	2	5	4
11	3	50	0	1	5	3	4
11	4	5952	0	1	2	1	0
11	4	18100	0	1	2	3	4
11	4	2.64602e+06	0	1	2	5	4
11	4	50	0	1	5	3	4
11	5	7040	0	1	2	1	0
11	5	16000	0	1	2	3	4
11	5	2.65011e+06	0	1	2	5	4
11	5	50	0	1	5	3	4
11	6	6656	0	1	2	1	0
11	6	14800	0	1	2	3	4
11	6	2.73613e+06	0	1	2	5	4
11	6	100	0	1	5	3	4
11	7	6016	0	1	2	1	0
11	7	19200	0	1	2	3	4
11	7	2.54771e+06	0	1	2	5	4
11	7	50	0	1	5	3	4
11	8	7936	0	1	2	1	0
11	8	16000	0	1	2	3	4
11	8	2.67878e+06	0	1	2	5	4
11	8	150	0	1	5	3	4
11	9	6464	0	1	2	1	0
11	9	16000	0	1	2	3	4
11	9	2.59277e+06	0	1	2	5	4
11	9	50	0	1	5	3	4
11	10	6848	0	1	2	1	0
11	10	15900	0	1	2	3	4
11	10	2.79757e+06	0	1	2	5	4
11	12	6720	0	1	2	1	0
11	12	17300	0	1	2	3	4
11	12	2.70336e+06	0	1	2	5	4
11	12	50	0	1	5	3	4
11	13	6464	0	1	2	1	0
11	13	17400	0	1	2	3	4
11	13	2.68288e+06	0	1	2	5	4
11	14	7104	0	1	2	1	0
11	14	15800	0	1	2	3	4
11	14	2.67469e+06	0	1	2	5	4
11	14	100	0	1	5	3	4
11	15	7744	0	1	2	1	0
11	15	17400	0	1	2	3	4
11	15	2.74432e+06	0	1	2	5	4
11	15	50	0	1	5	3	4
11	16	7040	0	1	2	1	0
11	16	16900	0	1	2	3	4
11	16	2.56819e+06	0	1	2	5	4
11	16	50	0	1	5	3	4
11	17	6144	0	1	2	1	0
11	17	16100	0	1	2	3	4
11	17	2.62963e+06	0	1	2	5	4
11	17	100	0	1	5	3	4
11	18	7680	0	1	2	1	0
11	18	15600	0	1	2	3	4
11	18	2.48218e+06	0	1	2	5	4
11	18	100	0	1	5	3	4
11	19	6400	0	1	2	1	0
11	19	15800	0	1	2	3	4
11	19	2.64192e+06	0	1	2	5	4
12	0	7680	0	1	2	1	0
12	0	16400	0	1	2	3	4
12	0	2.68288e+06	0	1	2	5	4
12	0	100	0	1	5	3	4
12	1	6784	0	1	2	1	0
12	1	16700	0	1	2	3	4
12	1	2.54771e+06	0	1	2	5	4
12	2	7808	0	1	2	1	0
12	2	16100	0	1	2	3	4
12	2	2.71565e+06	0	1	2	5	4
12	2	50	0	1	5	3	4
12	3	7232	0	1	2	1	0
12	3	16700	0	1	2	3	4
12	3	2.83443e+06	0	1	2	5	4
12	3	100	0	1	5	3	4
12	4	6144	0	1	2	1	0
12	4	15000	0	1	2	3	4
12	4	2.40435e+06	0	1	2	5	4
12	4	150	0	1	5	3	4
12	5	7616	0	1	2	1	0
12	5	17500	0	1	2	3	4
12	5	2.50675e+06	0	1	2	5	4
12	6	7232	0	1	2	1	0
12	6	17000	0	1	2	3	4
12	6	2.70746e+06	0	1	2	5	4
12	6	100	0	1	5	3	4
12	7	6464	0	1	2	1	0
12	7	14100	0	1	2	3	4
12	7	2.58048e+06	0	1	2	5	4
12	7	100	0	1	5	3	4
12	8	7808	0	1	2	1	0
12	8	17700	0	1	2	3	4
12	8	2.53133e+06	0	1	2	5	4
12	8	100	0	1	5	3	4
12	9	7808	0	1	2	1	0
12	9	17000	0	1	2	3	4
12	9	2.48218e+06	0	1	2	5	4
12	9	150	0	1	5	3	4
12	10	7680	0	1	2	1	0
12	10	18000	0	1	2	3	4
12	10	2.82214e+06	0	1	2	5	4
12	10	100	0	1	5	3	4
12	11	7552	0	1	2	1	0
12	11	17400	0	1	2	3	4
12	11	2.54771e+06	0	1	2	5	4
12	11	250	0	1	5	3	4
12	13	6656	0	1	2	1	0
12	13	17200	0	1	2	3	4
12	13	2.68698e+06	0	1	2	5	4
12	14	7936	0	1	2	1	0
12	14	18900	0	1	2	3	4
12	14	2.62963e+06	0	1	2	5	4
12	14	50	0	1	5	3	4
12	15	7040	0	1	2	1	0
12	15	16500	0	1	2	3	4
12	15	2.69926e+06	0	1	2	5	4
12	15	100	0	1	5	3	4
12	16	6656	0	1	2	1	0
12	16	17600	0	1	2	3	4
12	16	2.60915e+06	0	1	2	5	4
12	17	7168	0	1	2	1	0
12	17	14300	0	1	2	3	4
12	17	2.64192e+06	0	1	2	5	4
12	17	50	0	1	5	3	4
12	18	6464	0	1	2	1	0
12	18	15300	0	1	2	3	4
12	18	2.49037e+06	0	1	2	5	4
12	18	50	0	1	5	3	4
12	19	6656	0	1	2	1	0
12	19	17500	0	1	2	3	4
12	19	2.40845e+06	0	1	2	5	4
12	19	50	0	1	5	3	4
13	0	7680	0	1	2	1	0
13	0	15000	0	1	2	3	4
13	0	2.6665e+06	0	1	2	5	4
13	0	50	0	1	5	3	4
13	1	7168	0	1	2	1	0
13	1	17900	0	1	2	3	4
13	1	2.54362e+06	0	1	2	5	4
13	1	50	0	1	5	3	4
13	2	7168	0	1	2	1	0
13	2	16200	0	1	2	3	4
13	2	2.60506e+06	0	1	2	5	4
13	2	100	0	1	5	3	4
13	3	7744	0	1	2	1	0
13	3	16900	0	1	2	3	4
13	3	2.65011e+06	0	1	2	5	4
13	3	100	0	1	5	3	4
13	4	7552	0	1	2	1	0
13	4	16000	0	1	2	3	4
13	4	2.37568e+06	0	1	2	5	4
13	5	6464	0	1	2	1	0
13	5	16300	0	1	2	3	4
13	5	2.56e+06	0	1	2	5	4
13	5	250	0	1	5	3	4
13	6	7616	0	1	2	1	0
13	6	15600	0	1	2	3	4
13	6	2.55181e+06	0	1	2	5	4
13	6	50	0	1	5	3	4
13	7	7040	0	1	2	1	0
13	7	15300	0	1	2	3	4
13	7	2.6583e+06	0	1	2	5	4
13	7	50	0	1	5	3	4
13	8	6336	0	1	2	1	0
13	8	18900	0	1	2	3	4
13	8	2.44531e+06	0	1	2	5	4
13	8	50	0	1	5	3	4
13	9	5888	0	1	2	1	0
13	9	18800	0	1	2	3	4
13	9	2.81395e+06	0	1	2	5	4
13	9	100	0	1	5	3	4
13	10	7616	0	1	2	1	0
13	10	15700	0	1	2	3	4
13	10	2.49446e+06	0	1	2	5	4
13	11	6976	0	1	2	1	0
13	11	14300	0	1	2	3	4
13	11	2.73613e+06	0	1	2	5	4
13	11	100	0	1	5	3	4
13	12	7296	0	1	2	1	0
13	12	15400	0	1	2	3	4
13	12	2.78118e+06	0	1	2	5	4
13	14	6400	0	1	2	1	0
13	14	16800	0	1	2	3	4
13	14	2.67469e+06	0	1	2	5	4
13	15	7168	0	1	2	1	0
13	15	17500	0	1	2	3	4
13	15	2.54771e+06	0	1	2	5	4
13	15	100	0	1	5	3	4
13	16	8256	0	1	2	1	0
13	16	16900	0	1	2	3	4
13	16	2.57638e+06	0	1	2	5	4
13	17	6464	0	1	2	1	0
13	17	17000	0	1	2	3	4
13	17	2.63782e+06	0	1	2	5	4
13	17	250	0	1	5	3	4
13	18	7232	0	1	2	1	0
13	18	17300	0	1	2	3	4
13	18	2.56819e+06	0	1	2	5	4
13	18	100	0	1	5	3	4
13	19	5952	0	1	2	1	0
13	19	16700	0	1	2	3	4
13	19	2.55181e+06	0	1	2	5	4
13	19	50	0	1	5	3	4
14	0	7488	0	1	2	1	0
14	0	16500	0	1	2	3	4
14	0	2.62963e+06	0	1	2	5	4
14	0	50	0	1	5	3	4
14	1	7552	0	1	2	1	0
14	1	16400	0	1	2	3	4
14	1	2.54362e+06	0	1	2	5	4
14	2	6272	0	1	2	1	0
14	2	15100	0	1	2	3	4
14	2	2.44531e+06	0	1	2	5	4
14	2	50	0	1	5	3	4
14	3	6528	0	1	2	1	0
14	3	18900	0	1	2	3	4
14	3	2.62554e+06	0	1	2	5	4
14	3	50	0	1	5	3	4
14	4	5952	0	1	2	1	0
14	4	17300	0	1	2	3	4
14	4	2.63782e+06	0	1	2	5	4
14	4	100	0	1	5	3	4
14	5	5952	0	1	2	1	0
14	5	15400	0	1	2	3	4
14	5	2.63782e+06	0	1	2	5	4
14	5	150	0	1	5	3	4
14	6	6400	0	1	2	1	0
14	6	16900	0	1	2	3	4
14	6	2.54362e+06	0	1	2	5	4
14	7	7168	0	1	2	1	0
14	7	19600	0	1	2	3	4
14	7	2.51904e+06	0	1	2	5	4
14	7	50	0	1	5	3	4
14	8	7424	0	1	2	1	0
14	8	16000	0	1	2	3	4
14	8	2.49037e+06	0	1	2	5	4
14	8	50	0	1	5	3	4
14	9	7232	0	1	2	1	0
14	9	17800	0	1	2	3	4
14	9	2.7648e+06	0	1	2	5	4
14	9	50	0	1	5	3	4
14	10	6208	0	1	2	1	0
14	10	17100	0	1	2	3	4
14	10	2.80986e+06	0	1	2	5	4
14	10	100	0	1	5	3	4
14	11	6656	0	1	2	1	0
14	11	16100	0	1	2	3	4
14	11	2.50266e+06	0	1	2	5	4
14	11	50	0	1	5	3	4
14	12	6848	0	1	2	1	0
14	12	15700	0	1	2	3	4
14	12	2.41254e+06	0	1	2	5	4
14	12	50	0	1	5	3	4
14	13	5760	0	1	2	1	0
14	13	16800	0	1	2	3	4
14	13	2.71155e+06	0	1	2	5	4
14	13	100	0	1	5	3	4
14	15	8000	0	1	2	1	0
14	15	14800	0	1	2	3	4
14	15	2.70746e+06	0	1	2	5	4
14	15	50	0	1	5	3	4
14	16	6656	0	1	2	1	0
14	16	17600	0	1	2	3	4
14	16	2.78938e+06	0	1	2	5	4
14	16	100	0	1	5	3	4
14	17	5568	0	1	2	1	0
14	17	15500	0	1	2	3	4
14	17	2.63782e+06	0	1	2	5	4
14	17	50	0	1	5	3	4
14	18	5760	0	1	2	1	0
14	18	15800	0	1	2	3	4
14	18	2.48218e+06	0	1	2	5	4
14	18	100	0	1	5	3	4
14	19	6400	0	1	2	1	0
14	19	16700	0	1	2	3	4
14	19	2.75251e+06	0	1	2	5	4
14	19	50	0	1	5	3	4
15	0	6656	0	1	2	1	0
15	0	17000	0	1	2	3	4
15	0	2.75661e+06	0	1	2	5	4
15	0	50	0	1	5	3	4
15	1	7872	0	1	2	1	0
15	1	14300	0	1	2	3	4
15	1	2.64192e+06	0	1	2	5	4
15	2	7616	0	1	2	1	0
15	2	15800	0	1	2	3	4
15	2	2.78118e+06	0	1	2	5	4
15	3	6080	0	1	2	1	0
15	3	18700	0	1	2	3	4
15	3	2.61734e+06	0	1	2	5	4
15	3	50	0	1	5	3	4
15	4	7616	0	1	2	1	0
15	4	19800	0	1	2	3	4
15	4	2.44941e+06	0	1	2	5	4
15	4	50	0	1	5	3	4
15	5	6144	0	1	2	1	0
15	5	15600	0	1	2	3	4
15	5	2.71155e+06	0	1	2	5	4
15	6	5632	0	1	2	1	0
15	6	17300	0	1	2	3	4
15	6	2.74432e+06	0	1	2	5	4
15	7	7616	0	1	2	1	0
15	7	15100	0	1	2	3	4
15	7	2.61325e+06	0	1	2	5	4
15	8	6144	0	1	2	1	0
15	8	16700	0	1	2	3	4
15	8	2.47398e+06	0	1	2	5	4
15	9	7616	0	1	2	1	0
15	9	16600	0	1	2	3	4
15	9	2.49856e+06	0	1	2	5	4
15	9	200	0	1	5	3	4
15	10	6272	0	1	2	1	0
15	10	12800	0	1	2	3	4
15	10	2.74432e+06	0	1	2	5	4
15	10	250	0	1	5	3	4
15	11	7552	0	1	2	1	0
15	11	15600	0	1	2	3	4
15	11	2.61325e+06	0	1	2	5	4
15	11	50	0	1	5	3	4
15	12	6016	0	1	2	1	0
15	12	15700	0	1	2	3	4
15	12	2.64602e+06	0	1	2	5	4
15	12	100	0	1	5	3	4
15	13	8384	0	1	2	1	0
15	13	17900	0	1	2	3	4
15	13	2.61734e+06	0	1	2	5	4
15	14	6848	0	1	2	1	0
15	14	18200	0	1	2	3	4
15	14	2.68288e+06	0	1	2	5	4
15	16	6272	0	1	2	1	0
15	16	16300	0	1	2	3	4
15	16	2.59277e+06	0	1	2	5	4
15	17	6848	0	1	2	1	0
15	17	17600	0	1	2	3	4
15	17	2.47808e+06	0	1	2	5	4
15	17	100	0	1	5	3	4
15	18	7040	0	1	2	1	0
15	18	17200	0	1	2	3	4
15	18	2.62554e+06	0	1	2	5	4
15	18	100	0	1	5	3	4
15	19	6400	0	1	2	1	0
15	19	18400	0	1	2	3	4
15	19	2.57229e+06	0	1	2	5	4
15	19	50	0	1	5	3	4
16	0	7104	0	1	2	1	0
16	0	15900	0	1	2	3	4
16	0	2.56819e+06	0	1	2	5	4
16	0	50	0	1	5	3	4
16	1	5888	0	1	2	1	0
16	1	18400	0	1	2	3	4
16	1	2.50675e+06	0	1	2	5	4
16	1	100	0	1	5	3	4
16	2	6656	0	1	2	1	0
16	2	15700	0	1	2	3	4
16	2	2.63373e+06	0	1	2	5	4
16	2	100	0	1	5	3	4
16	3	6784	0	1	2	1	0
16	3	16100	0	1	2	3	4
16	3	2.42893e+06	0	1	2	5	4
16	3	150	0	1	5	3	4
16	4	6976	0	1	2	1	0
16	4	17900	0	1	2	3	4
16	4	2.47398e+06	0	1	2	5	4
16	4	150	0	1	5	3	4
16	5	8384	0	1	2	1	0
16	5	15300	0	1	2	3	4
16	5	2.64602e+06	0	1	2	5	4
16	6	7808	0	1	2	1	0
16	6	17000	0	1	2	3	4
16	6	2.46579e+06	0	1	2	5	4
16	6	100	0	1	5	3	4
16	7	7616	0	1	2	1	0
16	7	17100	0	1	2	3	4
16	7	2.53133e+06	0	1	2	5	4
16	7	50	0	1	5	3	4
16	8	6144	0	1	2	1	0
16	8	14400	0	1	2	3	4
16	8	2.41254e+06	0	1	2	5	4
16	8	50	0	1	5	3	4
16	9	6720	0	1	2	1	0
16	9	18500	0	1	2	3	4
16	9	2.61325e+06	0	1	2	5	4
16	9	50	0	1	5	3	4
16	10	7296	0	1	2	1	0
16	10	15700	0	1	2	3	4
16	10	2.53542e+06	0	1	2	5	4
16	10	50	0	1	5	3	4
16	11	6464	0	1	2	1	0
16	11	16600	0	1	2	3	4
16	11	2.65421e+06	0	1	2	5	4
16	11	150	0	1	5	3	4
16	12	6720	0	1	2	1	0
16	12	16800	0	1	2	3	4
16	12	2.54771e+06	0	1	2	5	4
16	12	50	0	1	5	3	4
16	13	7552	0	1	2	1	0
16	13	16800	0	1	2	3	4
16	13	2.60915e+06	0	1	2	5	4
16	13	50	0	1	5	3	4
16	14	7552	0	1	2	1	0
16	14	16800	0	1	2	3	4
16	14	2.44531e+06	0	1	2	5	4
16	15	6528	0	1	2	1	0
16	15	14400	0	1	2	3	4
16	15	2.59686e+06	0	1	2	5	4
16	17	6400	0	1	2	1	0
16	17	16700	0	1	2	3	4
16	17	2.75661e+06	0	1	2	5	4
16	17	50	0	1	5	3	4
16	18	6720	0	1	2	1	0
16	18	15100	0	1	2	3	4
16	18	2.58048e+06	0	1	2	5	4
16	19	7616	0	1	2	1	0
16	19	16800	0	1	2	3	4
16	19	2.53542e+06	0	1	2	5	4
16	19	50	0	1	5	3	4
17	0	7872	0	1	2	1	0
17	0	17300	0	1	2	3	4
17	0	2.6583e+06	0	1	2	5	4
17	1	6720	0	1	2	1	0
17	1	15700	0	1	2	3	4
17	1	2.38387e+06	0	1	2	5	4
17	2	7104	0	1	2	1	0
17	2	16900	0	1	2	3	4
17	2	2.62963e+06	0	1	2	5	4
17	3	7168	0	1	2	1	0
17	3	14000	0	1	2	3	4
17	3	2.62144e+06	0	1	2	5	4
17	4	6592	0	1	2	1	0
17	4	15300	0	1	2	3	4
17	4	2.51494e+06	0	1	2	5	4
17	4	150	0	1	5	3	4
17	5	5952	0	1	2	1	0
17	5	16600	0	1	2	3	4
17	5	2.49856e+06	0	1	2	5	4
17	5	150	0	1	5	3	4
17	6	7872	0	1	2	1	0
17	6	16000	0	1	2	3	4
17	6	2.62963e+06	0	1	2	5	4
17	6	50	0	1	5	3	4
17	7	6912	0	1	2	1	0
17	7	17000	0	1	2	3	4
17	7	2.61325e+06	0	1	2	5	4
17	7	100	0	1	5	3	4
17	8	6848	0	1	2	1	0
17	8	16900	0	1	2	3	4
17	8	2.42483e+06	0	1	2	5	4
17	9	6016	0	1	2	1	0
17	9	16300	0	1	2	3	4
17	9	2.64192e+06	0	1	2	5	4
17	9	100	0	1	5	3	4
17	10	7744	0	1	2	1	0
17	10	17100	0	1	2	3	4
17	10	2.60506e+06	0	1	2	5	4
17	10	50	0	1	5	3	4
17	11	7488	0	1	2	1	0
17	11	17200	0	1	2	3	4
17	11	2.69107e+06	0	1	2	5	4
17	12	5952	0	1	2	1	0
17	12	18100	0	1	2	3	4
17	12	2.5641e+06	0	1	2	5	4
17	13	5696	0	1	2	1	0
17	13	15400	0	1	2	3	4
17	13	2.52314e+06	0	1	2	5	4
17	13	150	0	1	5	3	4
17	14	7680	0	1	2	1	0
17	14	16700	0	1	2	3	4
17	14	2.69926e+06	0	1	2	5	4
17	14	50	0	1	5	3	4
17	15	6016	0	1	2	1	0
17	15	16000	0	1	2	3	4
17	15	2.56e+06	0	1	2	5	4
17	15	100	0	1	5	3	4
17	16	5824	0	1	2	1	0
17	16	18200	0	1	2	3	4
17	16	2.62554e+06	0	1	2	5	4
17	16	50	0	1	5	3	4
17	18	6016	0	1	2	1	0
17	18	17400	0	1	2	3	4
17	18	2.70336e+06	0	1	2	5	4
17	18	50	0	1	5	3	4
17	19	6912	0	1	2	1	0
17	19	16400	0	1	2	3	4
17	19	2.6624e+06	0	1	2	5	4
18	0	6848	0	1	2	1	0
18	0	16000	0	1	2	3	4
18	0	2.7607e+06	0	1	2	5	4
18	1	7488	0	1	2	1	0
18	1	18000	0	1	2	3	4
18	1	2.74022e+06	0	1	2	5	4
18	1	100	0	1	5	3	4
18	2	7232	0	1	2	1	0
18	2	16100	0	1	2	3	4
18	2	2.67059e+06	0	1	2	5	4
18	3	6720	0	1	2	1	0
18	3	17100	0	1	2	3	4
18	3	2.85082e+06	0	1	2	5	4
18	4	6400	0	1	2	1	0
18	4	17100	0	1	2	3	4
18	4	2.49856e+06	0	1	2	5	4
18	4	50	0	1	5	3	4
18	5	7296	0	1	2	1	0
18	5	15900	0	1	2	3	4
18	5	2.62144e+06	0	1	2	5	4
18	5	200	0	1	5	3	4
18	6	5504	0	1	2	1	0
18	6	15700	0	1	2	3	4
18	6	2.49037e+06	0	1	2	5	4
18	6	150	0	1	5	3	4
18	7	6720	0	1	2	1	0
18	7	17600	0	1	2	3	4
18	7	2.52723e+06	0	1	2	5	4
18	7	50	0	1	5	3	4
18	8	8192	0	1	2	1	0
18	8	14200	0	1	2	3	4
18	8	2.4535e+06	0	1	2	5	4
18	9	7616	0	1	2	1	0
18	9	15200	0	1	2	3	4
18	9	2.60096e+06	0	1	2	5	4
18	9	50	0	1	5	3	4
18	10	6912	0	1	2	1	0
18	10	18300	0	1	2	3	4
18	10	2.6624e+06	0	1	2	5	4
18	10	50	0	1	5	3	4
18	11	6976	0	1	2	1	0
18	11	16200	0	1	2	3	4
18	11	2.64602e+06	0	1	2	5	4
18	11	100	0	1	5	3	4
18	12	6528	0	1	2	1	0
18	12	14500	0	1	2	3	4
18	12	2.69107e+06	0	1	2	5	4
18	12	100	0	1	5	3	4
18	13	6464	0	1	2	1	0
18	13	14600	0	1	2	3	4
18	13	2.65011e+06	0	1	2	5	4
18	13	50	0	1	5	3	4
18	14	6464	0	1	2	1	0
18	14	15700	0	1	2	3	4
18	14	2.80576e+06	0	1	2	5	4
18	14	50	0	1	5	3	4
18	15	5824	0	1	2	1	0
18	15	15600	0	1	2	3	4
18	15	2.59686e+06	0	1	2	5	4
18	15	50	0	1	5	3	4
18	16	8128	0	1	2	1	0
18	16	16600	0	1	2	3	4
18	16	2.7607e+06	0	1	2	5	4
18	17	6848	0	1	2	1	0
18	17	17800	0	1	2	3	4
18	17	2.60506e+06	0	1	2	5	4
18	17	50	0	1	5	3	4
18	19	6208	0	1	2	1	0
18	19	16000	0	1	2	3	4
18	19	2.5641e+06	0	1	2	5	4
18	19	200	0	1	5	3	4
19	0	6720	0	1	2	1	0
19	0	17300	0	1	2	3	4
19	0	2.52723e+06	0	1	2	5	4
19	1	6144	0	1	2	1	0
19	1	16900	0	1	2	3	4
19	1	2.65421e+06	0	1	2	5	4
19	1	50	0	1	5	3	4
19	2	7552	0	1	2	1	0
19	2	16100	0	1	2	3	4
19	2	2.49446e+06	0	1	2	5	4
19	2	50	0	1	5	3	4
19	3	7232	0	1	2	1	0
19	3	17900	0	1	2	3	4
19	3	2.55181e+06	0	1	2	5	4
19	3	150	0	1	5	3	4
19	4	7040	0	1	2	1	0
19	4	16300	0	1	2	3	4
19	4	2.58867e+06	0	1	2	5	4
19	4	50	0	1	5	3	4
19	5	6592	0	1	2	1	0
19	5	13900	0	1	2	3	4
19	5	2.73203e+06	0	1	2	5	4
19	6	8768	0	1	2	1	0
19	6	19000	0	1	2	3	4
19	6	2.67469e+06	0	1	2	5	4
19	6	50	0	1	5	3	4
19	7	6976	0	1	2	1	0
19	7	15600	0	1	2	3	4
19	7	2.63782e+06	0	1	2	5	4
19	7	100	0	1	5	3	4
19	8	7104	0	1	2	1	0
19	8	15800	0	1	2	3	4
19	8	2.53952e+06	0	1	2	5	4
19	8	50	0	1	5	3	4
19	9	6912	0	1	2	1	0
19	9	18900	0	1	2	3	4
19	9	2.39206e+06	0	1	2	5	4
19	9	50	0	1	5	3	4
19	10	6080	0	1	2	1	0
19	10	16000	0	1	2	3	4
19	10	2.70336e+06	0	1	2	5	4
19	10	50	0	1	5	3	4
19	11	7616	0	1	2	1	0
19	11	14800	0	1	2	3	4
19	11	2.49856e+06	0	1	2	5	4
19	11	100	0	1	5	3	4
19	12	7104	0	1	2	1	0
19	12	17800	0	1	2	3	4
19	12	2.53952e+06	0	1	2	5	4
19	13	8000	0	1	2	1	0
19	13	14000	0	1	2	3	4
19	13	2.59686e+06	0	1	2	5	4
19	13	100	0	1	5	3	4
19	14	5888	0	1	2	1	0
19	14	17300	0	1	2	3	4
19	14	2.68698e+06	0	1	2	5	4
19	14	50	0	1	5	3	4
19	15	6912	0	1	2	1	0
19	15	15900	0	1	2	3	4
19	15	2.63373e+06	0	1	2	5	4
19	16	6592	0	1	2	1	0
19	16	17200	0	1	2	3	4
19	16	2.65421e+06	0	1	2	5	4
19	16	150	0	1	5	3	4
19	17	6848	0	1	2	1	0
19	17	18300	0	1	2	3	4
19	17	2.59686e+06	0	1	2	5	4
19	17	200	0	1	5	3	4
19	18	6464	0	1	2	1	0
19	18	14500	0	1	2	3	4
19	18	2.62554e+06	0	1	2	5	4
19	18	150	0	1	5	3	4
