1000	1000	1000	10000	1000	100000
0	1	1.13018e+07	3	3	2	5	1
0	2	1.1164e+07	3	3	2	5	1
0	3	1.08671e+07	3	3	2	5	1
0	4	1.10712e+07	3	3	2	5	1
0	5	1.10129e+07	3	3	2	5	1
0	6	1.11852e+07	3	3	2	5	1
0	7	1.09678e+07	3	3	2	5	1
0	8	1.14661e+07	3	3	2	5	1
0	9	1.10367e+07	3	3	2	5	1
1	0	1.09678e+07	3	3	2	5	1
1	2	1.11719e+07	3	3	2	5	1
1	3	1.09493e+07	3	3	2	5	1
1	4	1.12011e+07	3	3	2	5	1
1	5	1.12382e+07	3	3	2	5	1
1	6	1.12806e+07	3	3	2	5	1
1	7	1.11772e+07	3	3	2	5	1
1	8	1.11666e+07	3	3	2	5	1
1	9	1.11216e+07	3	3	2	5	1
2	0	1.10288e+07	3	3	2	5	1
2	1	1.10049e+07	3	3	2	5	1
2	3	1.08724e+07	3	3	2	5	1
2	4	1.09784e+07	3	3	2	5	1
2	5	1.09811e+07	3	3	2	5	1
2	6	1.10553e+07	3	3	2	5	1
2	7	1.08486e+07	3	3	2	5	1
2	8	1.12647e+07	3	3	2	5	1
2	9	1.10818e+07	3	3	2	5	1
3	0	1.13601e+07	3	3	2	5	1
3	1	1.1482e+07	3	3	2	5	1
3	2	1.12117e+07	3	3	2	5	1
3	4	1.09705e+07	3	3	2	5	1
3	5	1.12461e+07	3	3	2	5	1
3	6	1.11772e+07	3	3	2	5	1
3	7	1.12726e+07	3	3	2	5	1
3	8	1.1376e+07	3	3	2	5	1
3	9	1.127e+07	3	3	2	5	1
4	0	1.09917e+07	3	3	2	5	1
4	1	1.13495e+07	3	3	2	5	1
4	2	1.10977e+07	3	3	2	5	1
4	3	1.14025e+07	3	3	2	5	1
4	5	1.11348e+07	3	3	2	5	1
4	6	1.1384e+07	3	3	2	5	1
4	7	1.14158e+07	3	3	2	5	1
4	8	1.11772e+07	3	3	2	5	1
4	9	1.08645e+07	3	3	2	5	1
5	0	1.10473e+07	3	3	2	5	1
5	1	1.11057e+07	3	3	2	5	1
5	2	1.12885e+07	3	3	2	5	1
5	3	1.12037e+07	3	3	2	5	1
5	4	1.12594e+07	3	3	2	5	1
5	6	1.09546e+07	3	3	2	5	1
5	7	1.12779e+07	3	3	2	5	1
5	8	1.09864e+07	3	3	2	5	1
5	9	1.08857e+07	3	3	2	5	1
6	0	1.08088e+07	3	3	2	5	1
6	1	1.09705e+07	3	3	2	5	1
6	2	1.11057e+07	3	3	2	5	1
6	3	1.1042e+07	3	3	2	5	1
6	4	1.1429e+07	3	3	2	5	1
6	5	1.10155e+07	3	3	2	5	1
6	7	1.1217e+07	3	3	2	5	1
6	8	1.09122e+07	3	3	2	5	1
6	9	1.13336e+07	3	3	2	5	1
7	0	1.10473e+07	3	3	2	5	1
7	1	1.10261e+07	3	3	2	5	1
7	2	1.12064e+07	3	3	2	5	1
7	3	1.0724e+07	3	3	2	5	1
7	4	1.11163e+07	3	3	2	5	1
7	5	1.0989e+07	3	3	2	5	1
7	6	1.11481e+07	3	3	2	5	1
7	8	1.14635e+07	3	3	2	5	1
7	9	1.11083e+07	3	3	2	5	1
8	0	1.09122e+07	3	3	2	5	1
8	1	1.14741e+07	3	3	2	5	1
8	2	1.10261e+07	3	3	2	5	1
8	3	1.09281e+07	3	3	2	5	1
8	4	1.08989e+07	3	3	2	5	1
8	5	1.09837e+07	3	3	2	5	1
8	6	1.08883e+07	3	3	2	5	1
8	7	1.11507e+07	3	3	2	5	1
8	9	1.10553e+07	3	3	2	5	1
9	0	1.12461e+07	3	3	2	5	1
9	1	1.08539e+07	3	3	2	5	1
9	2	1.11083e+07	3	3	2	5	1
9	3	1.07955e+07	3	3	2	5	1
9	4	1.11481e+07	3	3	2	5	1
9	5	1.1111e+07	3	3	2	5	1
9	6	1.07399e+07	3	3	2	5	1
9	7	1.11295e+07	3	3	2	5	1
9	8	1.12329e+07	3	3	2	5	1
