16
0	9	1e+12
0	10	1e+12
1	3	1e+12
1	10	1e+12
2	5	1e+12
2	10	1e+12
2	15	1e+12
3	1	1e+12
3	4	1e+12
3	7	1e+12
3	11	1e+12
3	12	1e+12
4	3	1e+12
4	14	1e+12
5	2	1e+12
5	9	1e+12
5	13	1e+12
5	14	1e+12
6	15	1e+12
7	3	1e+12
7	10	1e+12
8	13	1e+12
8	14	1e+12
8	15	1e+12
9	0	1e+12
9	5	1e+12
9	11	1e+12
9	15	1e+12
10	0	1e+12
10	1	1e+12
10	2	1e+12
10	7	1e+12
10	12	1e+12
11	3	1e+12
11	9	1e+12
12	3	1e+12
12	10	1e+12
12	15	1e+12
13	5	1e+12
13	8	1e+12
14	4	1e+12
14	5	1e+12
14	8	1e+12
15	2	1e+12
15	6	1e+12
15	8	1e+12
15	9	1e+12
15	12	1e+12
