100000	100000	100000	10000	1000	1000
0	1	11520	0	1	2	1	0
0	1	23300	0	1	2	3	4
0	1	4.34176e+06	0	1	2	5	4
0	1	100	0	1	5	3	4
0	2	10176	0	1	2	1	0
0	2	26900	0	1	2	3	4
0	2	4.20659e+06	0	1	2	5	4
0	2	100	0	1	5	3	4
0	3	10304	0	1	2	1	0
0	3	27300	0	1	2	3	4
0	3	4.23936e+06	0	1	2	5	4
0	3	50	0	1	5	3	4
0	4	10752	0	1	2	1	0
0	4	27000	0	1	2	3	4
0	4	4.10829e+06	0	1	2	5	4
0	4	50	0	1	5	3	4
0	5	10368	0	1	2	1	0
0	5	25900	0	1	2	3	4
0	5	4.21069e+06	0	1	2	5	4
0	5	50	0	1	5	3	4
0	6	12352	0	1	2	1	0
0	6	25900	0	1	2	3	4
0	6	4.17792e+06	0	1	2	5	4
0	7	11904	0	1	2	1	0
0	7	26300	0	1	2	3	4
0	7	4.25165e+06	0	1	2	5	4
0	7	150	0	1	5	3	4
0	8	10688	0	1	2	1	0
0	8	24500	0	1	2	3	4
0	8	4.16154e+06	0	1	2	5	4
0	8	150	0	1	5	3	4
0	9	9728	0	1	2	1	0
0	9	27800	0	1	2	3	4
0	9	4.16154e+06	0	1	2	5	4
0	9	250	0	1	5	3	4
0	10	10688	0	1	2	1	0
0	10	26400	0	1	2	3	4
0	10	4.23936e+06	0	1	2	5	4
0	10	100	0	1	5	3	4
0	11	10048	0	1	2	1	0
0	11	28400	0	1	2	3	4
0	11	4.00589e+06	0	1	2	5	4
0	11	100	0	1	5	3	4
0	12	10560	0	1	2	1	0
0	12	25200	0	1	2	3	4
0	12	4.3049e+06	0	1	2	5	4
0	12	50	0	1	5	3	4
0	13	9920	0	1	2	1	0
0	13	27700	0	1	2	3	4
0	13	4.04275e+06	0	1	2	5	4
0	13	200	0	1	5	3	4
0	14	9536	0	1	2	1	0
0	14	25900	0	1	2	3	4
0	14	4.07962e+06	0	1	2	5	4
0	14	100	0	1	5	3	4
0	15	10944	0	1	2	1	0
0	15	28000	0	1	2	3	4
0	15	4.2025e+06	0	1	2	5	4
0	15	100	0	1	5	3	4
1	0	9664	0	1	2	1	0
1	0	28300	0	1	2	3	4
1	0	4.03456e+06	0	1	2	5	4
1	0	150	0	1	5	3	4
1	2	11520	0	1	2	1	0
1	2	25400	0	1	2	3	4
1	2	3.83386e+06	0	1	2	5	4
1	2	50	0	1	5	3	4
1	3	12032	0	1	2	1	0
1	3	26100	0	1	2	3	4
1	3	4.34995e+06	0	1	2	5	4
1	3	50	0	1	5	3	4
1	4	12416	0	1	2	1	0
1	4	25000	0	1	2	3	4
1	4	4.14515e+06	0	1	2	5	4
1	4	150	0	1	5	3	4
1	5	10624	0	1	2	1	0
1	5	26300	0	1	2	3	4
1	5	4.12877e+06	0	1	2	5	4
1	5	250	0	1	5	3	4
1	6	10816	0	1	2	1	0
1	6	25800	0	1	2	3	4
1	6	4.01818e+06	0	1	2	5	4
1	6	50	0	1	5	3	4
1	7	9280	0	1	2	1	0
1	7	23900	0	1	2	3	4
1	7	4.24346e+06	0	1	2	5	4
1	7	50	0	1	5	3	4
1	8	12608	0	1	2	1	0
1	8	23100	0	1	2	3	4
1	8	3.90349e+06	0	1	2	5	4
1	8	100	0	1	5	3	4
1	9	11072	0	1	2	1	0
1	9	26800	0	1	2	3	4
1	9	4.25984e+06	0	1	2	5	4
1	9	50	0	1	5	3	4
1	10	10816	0	1	2	1	0
1	10	25100	0	1	2	3	4
1	10	3.86253e+06	0	1	2	5	4
1	11	10816	0	1	2	1	0
1	11	27200	0	1	2	3	4
1	11	4.19021e+06	0	1	2	5	4
1	11	150	0	1	5	3	4
1	12	10880	0	1	2	1	0
1	12	25200	0	1	2	3	4
1	12	4.32538e+06	0	1	2	5	4
1	12	100	0	1	5	3	4
1	13	10752	0	1	2	1	0
1	13	28100	0	1	2	3	4
1	13	4.21478e+06	0	1	2	5	4
1	13	100	0	1	5	3	4
1	14	12288	0	1	2	1	0
1	14	25500	0	1	2	3	4
1	14	4.16154e+06	0	1	2	5	4
1	14	200	0	1	5	3	4
1	15	10304	0	1	2	1	0
1	15	25700	0	1	2	3	4
1	15	4.12877e+06	0	1	2	5	4
1	15	100	0	1	5	3	4
2	0	12352	0	1	2	1	0
2	0	25700	0	1	2	3	4
2	0	4.15334e+06	0	1	2	5	4
2	0	200	0	1	5	3	4
2	1	11328	0	1	2	1	0
2	1	25000	0	1	2	3	4
2	1	4.35814e+06	0	1	2	5	4
2	1	150	0	1	5	3	4
2	3	11264	0	1	2	1	0
2	3	25700	0	1	2	3	4
2	3	4.12877e+06	0	1	2	5	4
2	3	200	0	1	5	3	4
2	4	9856	0	1	2	1	0
2	4	27100	0	1	2	3	4
2	4	4.08781e+06	0	1	2	5	4
2	4	200	0	1	5	3	4
2	5	11136	0	1	2	1	0
2	5	26600	0	1	2	3	4
2	5	4.00589e+06	0	1	2	5	4
2	5	100	0	1	5	3	4
2	6	11072	0	1	2	1	0
2	6	27900	0	1	2	3	4
2	6	3.80928e+06	0	1	2	5	4
2	6	300	0	1	5	3	4
2	7	11072	0	1	2	1	0
2	7	24500	0	1	2	3	4
2	7	4.05504e+06	0	1	2	5	4
2	7	50	0	1	5	3	4
2	8	10880	0	1	2	1	0
2	8	24100	0	1	2	3	4
2	8	4.17382e+06	0	1	2	5	4
2	9	12096	0	1	2	1	0
2	9	26600	0	1	2	3	4
2	9	4.10419e+06	0	1	2	5	4
2	9	100	0	1	5	3	4
2	10	12608	0	1	2	1	0
2	10	24500	0	1	2	3	4
2	10	4.10829e+06	0	1	2	5	4
2	10	200	0	1	5	3	4
2	11	10368	0	1	2	1	0
2	11	29500	0	1	2	3	4
2	11	3.9936e+06	0	1	2	5	4
2	11	100	0	1	5	3	4
2	12	10944	0	1	2	1	0
2	12	28700	0	1	2	3	4
2	12	4.03046e+06	0	1	2	5	4
2	12	100	0	1	5	3	4
2	13	11520	0	1	2	1	0
2	13	23900	0	1	2	3	4
2	13	4.14515e+06	0	1	2	5	4
2	14	11712	0	1	2	1	0
2	14	26500	0	1	2	3	4
2	14	4.12058e+06	0	1	2	5	4
2	14	50	0	1	5	3	4
2	15	11840	0	1	2	1	0
2	15	25200	0	1	2	3	4
2	15	4.16563e+06	0	1	2	5	4
2	15	100	0	1	5	3	4
3	0	11584	0	1	2	1	0
3	0	28300	0	1	2	3	4
3	0	4.1984e+06	0	1	2	5	4
3	0	50	0	1	5	3	4
3	1	10560	0	1	2	1	0
3	1	26000	0	1	2	3	4
3	1	4.16563e+06	0	1	2	5	4
3	2	10944	0	1	2	1	0
3	2	28000	0	1	2	3	4
3	2	4.27622e+06	0	1	2	5	4
3	2	200	0	1	5	3	4
3	4	11264	0	1	2	1	0
3	4	29400	0	1	2	3	4
3	4	4.35405e+06	0	1	2	5	4
3	4	100	0	1	5	3	4
3	5	10368	0	1	2	1	0
3	5	24900	0	1	2	3	4
3	5	4.51379e+06	0	1	2	5	4
3	5	150	0	1	5	3	4
3	6	10368	0	1	2	1	0
3	6	28500	0	1	2	3	4
3	6	3.93626e+06	0	1	2	5	4
3	6	150	0	1	5	3	4
3	7	10560	0	1	2	1	0
3	7	27400	0	1	2	3	4
3	7	4.08371e+06	0	1	2	5	4
3	7	250	0	1	5	3	4
3	8	10368	0	1	2	1	0
3	8	25400	0	1	2	3	4
3	8	4.2025e+06	0	1	2	5	4
3	8	250	0	1	5	3	4
3	9	10240	0	1	2	1	0
3	9	23900	0	1	2	3	4
3	9	4.096e+06	0	1	2	5	4
3	9	50	0	1	5	3	4
3	10	11776	0	1	2	1	0
3	10	25700	0	1	2	3	4
3	10	4.17382e+06	0	1	2	5	4
3	11	11008	0	1	2	1	0
3	11	26900	0	1	2	3	4
3	11	4.22707e+06	0	1	2	5	4
3	11	250	0	1	5	3	4
3	12	11328	0	1	2	1	0
3	12	27500	0	1	2	3	4
3	12	3.86662e+06	0	1	2	5	4
3	12	100	0	1	5	3	4
3	13	12160	0	1	2	1	0
3	13	25200	0	1	2	3	4
3	13	4.26394e+06	0	1	2	5	4
3	13	50	0	1	5	3	4
3	14	10944	0	1	2	1	0
3	14	23100	0	1	2	3	4
3	14	4.19021e+06	0	1	2	5	4
3	14	100	0	1	5	3	4
3	15	10048	0	1	2	1	0
3	15	27300	0	1	2	3	4
3	15	3.9936e+06	0	1	2	5	4
3	15	150	0	1	5	3	4
4	0	10496	0	1	2	1	0
4	0	27600	0	1	2	3	4
4	0	3.98541e+06	0	1	2	5	4
4	0	150	0	1	5	3	4
4	1	11136	0	1	2	1	0
4	1	25000	0	1	2	3	4
4	1	4.23936e+06	0	1	2	5	4
4	2	10944	0	1	2	1	0
4	2	27400	0	1	2	3	4
4	2	4.0919e+06	0	1	2	5	4
4	2	150	0	1	5	3	4
4	3	10496	0	1	2	1	0
4	3	23700	0	1	2	3	4
4	3	4.07962e+06	0	1	2	5	4
4	3	250	0	1	5	3	4
4	5	11456	0	1	2	1	0
4	5	25100	0	1	2	3	4
4	5	4.36224e+06	0	1	2	5	4
4	5	100	0	1	5	3	4
4	6	10816	0	1	2	1	0
4	6	26400	0	1	2	3	4
4	6	4.12877e+06	0	1	2	5	4
4	6	100	0	1	5	3	4
4	7	11584	0	1	2	1	0
4	7	26200	0	1	2	3	4
4	7	4.096e+06	0	1	2	5	4
4	7	150	0	1	5	3	4
4	8	10368	0	1	2	1	0
4	8	25800	0	1	2	3	4
4	8	4.17792e+06	0	1	2	5	4
4	8	100	0	1	5	3	4
4	9	10176	0	1	2	1	0
4	9	29200	0	1	2	3	4
4	9	4.03866e+06	0	1	2	5	4
4	9	50	0	1	5	3	4
4	10	11264	0	1	2	1	0
4	10	24400	0	1	2	3	4
4	10	4.18202e+06	0	1	2	5	4
4	10	100	0	1	5	3	4
4	11	8448	0	1	2	1	0
4	11	25300	0	1	2	3	4
4	11	4.10419e+06	0	1	2	5	4
4	11	50	0	1	5	3	4
4	12	11328	0	1	2	1	0
4	12	26500	0	1	2	3	4
4	12	3.96493e+06	0	1	2	5	4
4	12	50	0	1	5	3	4
4	13	10176	0	1	2	1	0
4	13	28200	0	1	2	3	4
4	13	3.92397e+06	0	1	2	5	4
4	13	100	0	1	5	3	4
4	14	9920	0	1	2	1	0
4	14	26700	0	1	2	3	4
4	14	4.25984e+06	0	1	2	5	4
4	14	150	0	1	5	3	4
4	15	11392	0	1	2	1	0
4	15	27000	0	1	2	3	4
4	15	4.21888e+06	0	1	2	5	4
4	15	200	0	1	5	3	4
5	0	10240	0	1	2	1	0
5	0	24300	0	1	2	3	4
5	0	4.4032e+06	0	1	2	5	4
5	0	50	0	1	5	3	4
5	1	11712	0	1	2	1	0
5	1	26300	0	1	2	3	4
5	1	4.07552e+06	0	1	2	5	4
5	1	150	0	1	5	3	4
5	2	10752	0	1	2	1	0
5	2	26500	0	1	2	3	4
5	2	4.37862e+06	0	1	2	5	4
5	2	50	0	1	5	3	4
5	3	9344	0	1	2	1	0
5	3	27900	0	1	2	3	4
5	3	4.02637e+06	0	1	2	5	4
5	3	100	0	1	5	3	4
5	4	10304	0	1	2	1	0
5	4	27200	0	1	2	3	4
5	4	4.36224e+06	0	1	2	5	4
5	4	100	0	1	5	3	4
5	6	9664	0	1	2	1	0
5	6	26800	0	1	2	3	4
5	6	4.02637e+06	0	1	2	5	4
5	6	100	0	1	5	3	4
5	7	10624	0	1	2	1	0
5	7	25300	0	1	2	3	4
5	7	4.13696e+06	0	1	2	5	4
5	7	50	0	1	5	3	4
5	8	11328	0	1	2	1	0
5	8	25500	0	1	2	3	4
5	8	3.94854e+06	0	1	2	5	4
5	9	9984	0	1	2	1	0
5	9	27600	0	1	2	3	4
5	9	4.32538e+06	0	1	2	5	4
5	9	100	0	1	5	3	4
5	10	11712	0	1	2	1	0
5	10	26300	0	1	2	3	4
5	10	4.18202e+06	0	1	2	5	4
5	10	150	0	1	5	3	4
5	11	11328	0	1	2	1	0
5	11	25700	0	1	2	3	4
5	11	4.11238e+06	0	1	2	5	4
5	11	100	0	1	5	3	4
5	12	11072	0	1	2	1	0
5	12	24900	0	1	2	3	4
5	12	4.32538e+06	0	1	2	5	4
5	12	350	0	1	5	3	4
5	13	11136	0	1	2	1	0
5	13	24500	0	1	2	3	4
5	13	4.0919e+06	0	1	2	5	4
5	13	50	0	1	5	3	4
5	14	10112	0	1	2	1	0
5	14	23300	0	1	2	3	4
5	14	4.15334e+06	0	1	2	5	4
5	14	50	0	1	5	3	4
5	15	11008	0	1	2	1	0
5	15	22000	0	1	2	3	4
5	15	4.16973e+06	0	1	2	5	4
5	15	50	0	1	5	3	4
6	0	10112	0	1	2	1	0
6	0	24600	0	1	2	3	4
6	0	4.03866e+06	0	1	2	5	4
6	0	50	0	1	5	3	4
6	1	9728	0	1	2	1	0
6	1	25200	0	1	2	3	4
6	1	4.01408e+06	0	1	2	5	4
6	1	250	0	1	5	3	4
6	2	11776	0	1	2	1	0
6	2	26500	0	1	2	3	4
6	2	4.36224e+06	0	1	2	5	4
6	3	11904	0	1	2	1	0
6	3	28000	0	1	2	3	4
6	3	4.01408e+06	0	1	2	5	4
6	3	200	0	1	5	3	4
6	4	11968	0	1	2	1	0
6	4	26700	0	1	2	3	4
6	4	4.19021e+06	0	1	2	5	4
6	4	150	0	1	5	3	4
6	5	11584	0	1	2	1	0
6	5	26600	0	1	2	3	4
6	5	4.25165e+06	0	1	2	5	4
6	5	200	0	1	5	3	4
6	7	9984	0	1	2	1	0
6	7	25000	0	1	2	3	4
6	7	3.92397e+06	0	1	2	5	4
6	7	150	0	1	5	3	4
6	8	12288	0	1	2	1	0
6	8	24200	0	1	2	3	4
6	8	4.16154e+06	0	1	2	5	4
6	8	100	0	1	5	3	4
6	9	11456	0	1	2	1	0
6	9	24300	0	1	2	3	4
6	9	4.16154e+06	0	1	2	5	4
6	9	50	0	1	5	3	4
6	10	10752	0	1	2	1	0
6	10	28600	0	1	2	3	4
6	10	4.11238e+06	0	1	2	5	4
6	10	150	0	1	5	3	4
6	11	10432	0	1	2	1	0
6	11	26700	0	1	2	3	4
6	11	4.31718e+06	0	1	2	5	4
6	12	11072	0	1	2	1	0
6	12	26400	0	1	2	3	4
6	12	4.02637e+06	0	1	2	5	4
6	12	100	0	1	5	3	4
6	13	11648	0	1	2	1	0
6	13	27800	0	1	2	3	4
6	13	4.2025e+06	0	1	2	5	4
6	13	50	0	1	5	3	4
6	14	10560	0	1	2	1	0
6	14	27300	0	1	2	3	4
6	14	4.25574e+06	0	1	2	5	4
6	14	150	0	1	5	3	4
6	15	10112	0	1	2	1	0
6	15	26000	0	1	2	3	4
6	15	3.9977e+06	0	1	2	5	4
6	15	200	0	1	5	3	4
7	0	11008	0	1	2	1	0
7	0	27200	0	1	2	3	4
7	0	4.2025e+06	0	1	2	5	4
7	1	10944	0	1	2	1	0
7	1	25800	0	1	2	3	4
7	1	4.08781e+06	0	1	2	5	4
7	1	250	0	1	5	3	4
7	2	9984	0	1	2	1	0
7	2	25800	0	1	2	3	4
7	2	4.25984e+06	0	1	2	5	4
7	3	10752	0	1	2	1	0
7	3	26800	0	1	2	3	4
7	3	4.08781e+06	0	1	2	5	4
7	3	200	0	1	5	3	4
7	4	12288	0	1	2	1	0
7	4	24100	0	1	2	3	4
7	4	4.02637e+06	0	1	2	5	4
7	4	150	0	1	5	3	4
7	5	10560	0	1	2	1	0
7	5	24300	0	1	2	3	4
7	5	4.07962e+06	0	1	2	5	4
7	5	50	0	1	5	3	4
7	6	10176	0	1	2	1	0
7	6	26300	0	1	2	3	4
7	6	4.41958e+06	0	1	2	5	4
7	6	200	0	1	5	3	4
7	8	11904	0	1	2	1	0
7	8	26100	0	1	2	3	4
7	8	4.22298e+06	0	1	2	5	4
7	8	200	0	1	5	3	4
7	9	11904	0	1	2	1	0
7	9	27300	0	1	2	3	4
7	9	4.1001e+06	0	1	2	5	4
7	9	100	0	1	5	3	4
7	10	11136	0	1	2	1	0
7	10	27000	0	1	2	3	4
7	10	4.14925e+06	0	1	2	5	4
7	10	150	0	1	5	3	4
7	11	11904	0	1	2	1	0
7	11	25500	0	1	2	3	4
7	11	3.95264e+06	0	1	2	5	4
7	11	200	0	1	5	3	4
7	12	11264	0	1	2	1	0
7	12	26900	0	1	2	3	4
7	12	4.23117e+06	0	1	2	5	4
7	13	10304	0	1	2	1	0
7	13	24700	0	1	2	3	4
7	13	4.20659e+06	0	1	2	5	4
7	13	150	0	1	5	3	4
7	14	11264	0	1	2	1	0
7	14	26200	0	1	2	3	4
7	14	4.14515e+06	0	1	2	5	4
7	14	100	0	1	5	3	4
7	15	10752	0	1	2	1	0
7	15	24400	0	1	2	3	4
7	15	3.97722e+06	0	1	2	5	4
7	15	50	0	1	5	3	4
8	0	9984	0	1	2	1	0
8	0	25400	0	1	2	3	4
8	0	4.23936e+06	0	1	2	5	4
8	0	100	0	1	5	3	4
8	1	9920	0	1	2	1	0
8	1	27800	0	1	2	3	4
8	1	3.94035e+06	0	1	2	5	4
8	1	150	0	1	5	3	4
8	2	10944	0	1	2	1	0
8	2	29300	0	1	2	3	4
8	2	4.17382e+06	0	1	2	5	4
8	3	11776	0	1	2	1	0
8	3	26800	0	1	2	3	4
8	3	4.15744e+06	0	1	2	5	4
8	3	250	0	1	5	3	4
8	4	8320	0	1	2	1	0
8	4	26200	0	1	2	3	4
8	4	4.23936e+06	0	1	2	5	4
8	4	250	0	1	5	3	4
8	5	10880	0	1	2	1	0
8	5	25100	0	1	2	3	4
8	5	3.93216e+06	0	1	2	5	4
8	5	150	0	1	5	3	4
8	6	9664	0	1	2	1	0
8	6	26200	0	1	2	3	4
8	6	4.25984e+06	0	1	2	5	4
8	6	100	0	1	5	3	4
8	7	11456	0	1	2	1	0
8	7	27000	0	1	2	3	4
8	7	4.06323e+06	0	1	2	5	4
8	9	10496	0	1	2	1	0
8	9	26900	0	1	2	3	4
8	9	4.22707e+06	0	1	2	5	4
8	9	100	0	1	5	3	4
8	10	11840	0	1	2	1	0
8	10	28200	0	1	2	3	4
8	10	4.01818e+06	0	1	2	5	4
8	10	150	0	1	5	3	4
8	11	9472	0	1	2	1	0
8	11	24300	0	1	2	3	4
8	11	4.05504e+06	0	1	2	5	4
8	12	10752	0	1	2	1	0
8	12	26100	0	1	2	3	4
8	12	4.3049e+06	0	1	2	5	4
8	12	100	0	1	5	3	4
8	13	11328	0	1	2	1	0
8	13	23900	0	1	2	3	4
8	13	3.97312e+06	0	1	2	5	4
8	13	150	0	1	5	3	4
8	14	10560	0	1	2	1	0
8	14	27100	0	1	2	3	4
8	14	4.16154e+06	0	1	2	5	4
8	14	100	0	1	5	3	4
8	15	12480	0	1	2	1	0
8	15	25800	0	1	2	3	4
8	15	4.04275e+06	0	1	2	5	4
8	15	100	0	1	5	3	4
9	0	10432	0	1	2	1	0
9	0	26000	0	1	2	3	4
9	0	4.03046e+06	0	1	2	5	4
9	0	150	0	1	5	3	4
9	1	11712	0	1	2	1	0
9	1	28700	0	1	2	3	4
9	1	4.29261e+06	0	1	2	5	4
9	1	200	0	1	5	3	4
9	2	11904	0	1	2	1	0
9	2	25100	0	1	2	3	4
9	2	4.07142e+06	0	1	2	5	4
9	2	50	0	1	5	3	4
9	3	10240	0	1	2	1	0
9	3	26200	0	1	2	3	4
9	3	4.21888e+06	0	1	2	5	4
9	3	50	0	1	5	3	4
9	4	11392	0	1	2	1	0
9	4	26700	0	1	2	3	4
9	4	3.9936e+06	0	1	2	5	4
9	4	100	0	1	5	3	4
9	5	10880	0	1	2	1	0
9	5	27200	0	1	2	3	4
9	5	3.81747e+06	0	1	2	5	4
9	6	10496	0	1	2	1	0
9	6	26000	0	1	2	3	4
9	6	4.18202e+06	0	1	2	5	4
9	6	50	0	1	5	3	4
9	7	9664	0	1	2	1	0
9	7	28600	0	1	2	3	4
9	7	4.05504e+06	0	1	2	5	4
9	7	50	0	1	5	3	4
9	8	10752	0	1	2	1	0
9	8	23700	0	1	2	3	4
9	8	4.12877e+06	0	1	2	5	4
9	8	100	0	1	5	3	4
9	10	11264	0	1	2	1	0
9	10	26300	0	1	2	3	4
9	10	4.05094e+06	0	1	2	5	4
9	11	10240	0	1	2	1	0
9	11	24300	0	1	2	3	4
9	11	4.21069e+06	0	1	2	5	4
9	11	100	0	1	5	3	4
9	12	11008	0	1	2	1	0
9	12	25600	0	1	2	3	4
9	12	4.04275e+06	0	1	2	5	4
9	12	100	0	1	5	3	4
9	13	10112	0	1	2	1	0
9	13	25200	0	1	2	3	4
9	13	4.08371e+06	0	1	2	5	4
9	13	150	0	1	5	3	4
9	14	11456	0	1	2	1	0
9	14	28600	0	1	2	3	4
9	14	3.87072e+06	0	1	2	5	4
9	14	50	0	1	5	3	4
9	15	10624	0	1	2	1	0
9	15	26900	0	1	2	3	4
9	15	4.23526e+06	0	1	2	5	4
9	15	100	0	1	5	3	4
10	0	11904	0	1	2	1	0
10	0	26100	0	1	2	3	4
10	0	4.31309e+06	0	1	2	5	4
10	0	100	0	1	5	3	4
10	1	10752	0	1	2	1	0
10	1	27800	0	1	2	3	4
10	1	4.03046e+06	0	1	2	5	4
10	2	10432	0	1	2	1	0
10	2	25100	0	1	2	3	4
10	2	4.36634e+06	0	1	2	5	4
10	2	50	0	1	5	3	4
10	3	11008	0	1	2	1	0
10	3	29200	0	1	2	3	4
10	3	4.1001e+06	0	1	2	5	4
10	3	200	0	1	5	3	4
10	4	11712	0	1	2	1	0
10	4	25900	0	1	2	3	4
10	4	4.14515e+06	0	1	2	5	4
10	5	10368	0	1	2	1	0
10	5	29400	0	1	2	3	4
10	5	4.08371e+06	0	1	2	5	4
10	5	100	0	1	5	3	4
10	6	11648	0	1	2	1	0
10	6	24900	0	1	2	3	4
10	6	4.44006e+06	0	1	2	5	4
10	6	100	0	1	5	3	4
10	7	11712	0	1	2	1	0
10	7	24900	0	1	2	3	4
10	7	3.89939e+06	0	1	2	5	4
10	7	150	0	1	5	3	4
10	8	11968	0	1	2	1	0
10	8	27500	0	1	2	3	4
10	8	4.05504e+06	0	1	2	5	4
10	9	11200	0	1	2	1	0
10	9	27000	0	1	2	3	4
10	9	4.08371e+06	0	1	2	5	4
10	9	50	0	1	5	3	4
10	11	11712	0	1	2	1	0
10	11	26100	0	1	2	3	4
10	11	4.01408e+06	0	1	2	5	4
10	12	9984	0	1	2	1	0
10	12	24100	0	1	2	3	4
10	12	4.26394e+06	0	1	2	5	4
10	12	100	0	1	5	3	4
10	13	10624	0	1	2	1	0
10	13	25800	0	1	2	3	4
10	13	4.00998e+06	0	1	2	5	4
10	13	50	0	1	5	3	4
10	14	10304	0	1	2	1	0
10	14	25400	0	1	2	3	4
10	14	4.23526e+06	0	1	2	5	4
10	14	150	0	1	5	3	4
10	15	12032	0	1	2	1	0
10	15	27900	0	1	2	3	4
10	15	4.23117e+06	0	1	2	5	4
10	15	100	0	1	5	3	4
11	0	10752	0	1	2	1	0
11	0	27200	0	1	2	3	4
11	0	4.28032e+06	0	1	2	5	4
11	0	150	0	1	5	3	4
11	1	10432	0	1	2	1	0
11	1	26700	0	1	2	3	4
11	1	4.11238e+06	0	1	2	5	4
11	1	100	0	1	5	3	4
11	2	11712	0	1	2	1	0
11	2	27200	0	1	2	3	4
11	2	4.00589e+06	0	1	2	5	4
11	2	100	0	1	5	3	4
11	3	11968	0	1	2	1	0
11	3	24500	0	1	2	3	4
11	3	3.9977e+06	0	1	2	5	4
11	4	11968	0	1	2	1	0
11	4	24600	0	1	2	3	4
11	4	4.23526e+06	0	1	2	5	4
11	4	150	0	1	5	3	4
11	5	10752	0	1	2	1	0
11	5	23800	0	1	2	3	4
11	5	4.08781e+06	0	1	2	5	4
11	5	100	0	1	5	3	4
11	6	10368	0	1	2	1	0
11	6	26400	0	1	2	3	4
11	6	4.07142e+06	0	1	2	5	4
11	6	150	0	1	5	3	4
11	7	10688	0	1	2	1	0
11	7	28300	0	1	2	3	4
11	7	4.11648e+06	0	1	2	5	4
11	7	100	0	1	5	3	4
11	8	11264	0	1	2	1	0
11	8	24500	0	1	2	3	4
11	8	4.00998e+06	0	1	2	5	4
11	9	10560	0	1	2	1	0
11	9	26100	0	1	2	3	4
11	9	3.9977e+06	0	1	2	5	4
11	9	50	0	1	5	3	4
11	10	11072	0	1	2	1	0
11	10	27100	0	1	2	3	4
11	10	3.81338e+06	0	1	2	5	4
11	12	10112	0	1	2	1	0
11	12	26100	0	1	2	3	4
11	12	4.08371e+06	0	1	2	5	4
11	13	10560	0	1	2	1	0
11	13	26000	0	1	2	3	4
11	13	4.16563e+06	0	1	2	5	4
11	13	50	0	1	5	3	4
11	14	11776	0	1	2	1	0
11	14	26700	0	1	2	3	4
11	14	4.15744e+06	0	1	2	5	4
11	14	100	0	1	5	3	4
11	15	11264	0	1	2	1	0
11	15	25900	0	1	2	3	4
11	15	4.37043e+06	0	1	2	5	4
11	15	150	0	1	5	3	4
12	0	10432	0	1	2	1	0
12	0	24800	0	1	2	3	4
12	0	4.25165e+06	0	1	2	5	4
12	0	250	0	1	5	3	4
12	1	11648	0	1	2	1	0
12	1	27900	0	1	2	3	4
12	1	3.96902e+06	0	1	2	5	4
12	1	250	0	1	5	3	4
12	2	12864	0	1	2	1	0
12	2	26300	0	1	2	3	4
12	2	3.98541e+06	0	1	2	5	4
12	2	100	0	1	5	3	4
12	3	10240	0	1	2	1	0
12	3	26400	0	1	2	3	4
12	3	4.03456e+06	0	1	2	5	4
12	3	50	0	1	5	3	4
12	4	10560	0	1	2	1	0
12	4	25600	0	1	2	3	4
12	4	4.05504e+06	0	1	2	5	4
12	4	50	0	1	5	3	4
12	5	11904	0	1	2	1	0
12	5	27300	0	1	2	3	4
12	5	4.15334e+06	0	1	2	5	4
12	5	250	0	1	5	3	4
12	6	11264	0	1	2	1	0
12	6	26000	0	1	2	3	4
12	6	3.97312e+06	0	1	2	5	4
12	6	100	0	1	5	3	4
12	7	10816	0	1	2	1	0
12	7	21700	0	1	2	3	4
12	7	4.03046e+06	0	1	2	5	4
12	7	100	0	1	5	3	4
12	8	10560	0	1	2	1	0
12	8	29200	0	1	2	3	4
12	8	4.21888e+06	0	1	2	5	4
12	8	250	0	1	5	3	4
12	9	9600	0	1	2	1	0
12	9	23600	0	1	2	3	4
12	9	4.30899e+06	0	1	2	5	4
12	9	150	0	1	5	3	4
12	10	12416	0	1	2	1	0
12	10	25800	0	1	2	3	4
12	10	4.13286e+06	0	1	2	5	4
12	10	150	0	1	5	3	4
12	11	10880	0	1	2	1	0
12	11	26300	0	1	2	3	4
12	11	3.94445e+06	0	1	2	5	4
12	11	100	0	1	5	3	4
12	13	10816	0	1	2	1	0
12	13	28200	0	1	2	3	4
12	13	3.94854e+06	0	1	2	5	4
12	13	150	0	1	5	3	4
12	14	10304	0	1	2	1	0
12	14	24500	0	1	2	3	4
12	14	4.38272e+06	0	1	2	5	4
12	14	200	0	1	5	3	4
12	15	11200	0	1	2	1	0
12	15	26200	0	1	2	3	4
12	15	4.22707e+06	0	1	2	5	4
12	15	100	0	1	5	3	4
13	0	11392	0	1	2	1	0
13	0	24000	0	1	2	3	4
13	0	3.93216e+06	0	1	2	5	4
13	0	350	0	1	5	3	4
13	1	9856	0	1	2	1	0
13	1	25300	0	1	2	3	4
13	1	4.1943e+06	0	1	2	5	4
13	1	200	0	1	5	3	4
13	2	11072	0	1	2	1	0
13	2	28200	0	1	2	3	4
13	2	3.98541e+06	0	1	2	5	4
13	2	100	0	1	5	3	4
13	3	9536	0	1	2	1	0
13	3	24100	0	1	2	3	4
13	3	4.04275e+06	0	1	2	5	4
13	3	200	0	1	5	3	4
13	4	10624	0	1	2	1	0
13	4	25500	0	1	2	3	4
13	4	3.92806e+06	0	1	2	5	4
13	4	150	0	1	5	3	4
13	5	11136	0	1	2	1	0
13	5	29000	0	1	2	3	4
13	5	4.28442e+06	0	1	2	5	4
13	5	150	0	1	5	3	4
13	6	10496	0	1	2	1	0
13	6	25900	0	1	2	3	4
13	6	4.096e+06	0	1	2	5	4
13	6	100	0	1	5	3	4
13	7	10880	0	1	2	1	0
13	7	26300	0	1	2	3	4
13	7	4.22298e+06	0	1	2	5	4
13	7	200	0	1	5	3	4
13	8	10624	0	1	2	1	0
13	8	28100	0	1	2	3	4
13	8	4.04685e+06	0	1	2	5	4
13	8	150	0	1	5	3	4
13	9	11648	0	1	2	1	0
13	9	25100	0	1	2	3	4
13	9	4.04685e+06	0	1	2	5	4
13	9	200	0	1	5	3	4
13	10	11968	0	1	2	1	0
13	10	27800	0	1	2	3	4
13	10	4.17792e+06	0	1	2	5	4
13	10	150	0	1	5	3	4
13	11	11072	0	1	2	1	0
13	11	29600	0	1	2	3	4
13	11	4.20659e+06	0	1	2	5	4
13	11	200	0	1	5	3	4
13	12	11136	0	1	2	1	0
13	12	25100	0	1	2	3	4
13	12	4.17792e+06	0	1	2	5	4
13	12	150	0	1	5	3	4
13	14	11456	0	1	2	1	0
13	14	27300	0	1	2	3	4
13	14	4.05094e+06	0	1	2	5	4
13	14	100	0	1	5	3	4
13	15	10368	0	1	2	1	0
13	15	26800	0	1	2	3	4
13	15	4.02637e+06	0	1	2	5	4
14	0	11712	0	1	2	1	0
14	0	26500	0	1	2	3	4
14	0	4.14515e+06	0	1	2	5	4
14	0	150	0	1	5	3	4
14	1	10496	0	1	2	1	0
14	1	26300	0	1	2	3	4
14	1	4.05094e+06	0	1	2	5	4
14	1	50	0	1	5	3	4
14	2	10304	0	1	2	1	0
14	2	28000	0	1	2	3	4
14	2	4.35814e+06	0	1	2	5	4
14	2	200	0	1	5	3	4
14	3	10944	0	1	2	1	0
14	3	26200	0	1	2	3	4
14	3	4.16154e+06	0	1	2	5	4
14	4	12608	0	1	2	1	0
14	4	29400	0	1	2	3	4
14	4	4.096e+06	0	1	2	5	4
14	4	100	0	1	5	3	4
14	5	9600	0	1	2	1	0
14	5	28600	0	1	2	3	4
14	5	3.92806e+06	0	1	2	5	4
14	5	50	0	1	5	3	4
14	6	11712	0	1	2	1	0
14	6	25200	0	1	2	3	4
14	6	4.21888e+06	0	1	2	5	4
14	6	50	0	1	5	3	4
14	7	11392	0	1	2	1	0
14	7	27500	0	1	2	3	4
14	7	4.10419e+06	0	1	2	5	4
14	7	50	0	1	5	3	4
14	8	10560	0	1	2	1	0
14	8	24800	0	1	2	3	4
14	8	4.06733e+06	0	1	2	5	4
14	8	150	0	1	5	3	4
14	9	10624	0	1	2	1	0
14	9	28800	0	1	2	3	4
14	9	4.27213e+06	0	1	2	5	4
14	9	100	0	1	5	3	4
14	10	10240	0	1	2	1	0
14	10	26300	0	1	2	3	4
14	10	4.07962e+06	0	1	2	5	4
14	10	50	0	1	5	3	4
14	11	9280	0	1	2	1	0
14	11	26200	0	1	2	3	4
14	11	4.10419e+06	0	1	2	5	4
14	11	100	0	1	5	3	4
14	12	10112	0	1	2	1	0
14	12	26800	0	1	2	3	4
14	12	4.14925e+06	0	1	2	5	4
14	12	100	0	1	5	3	4
14	13	10752	0	1	2	1	0
14	13	24700	0	1	2	3	4
14	13	4.16563e+06	0	1	2	5	4
14	15	11136	0	1	2	1	0
14	15	22700	0	1	2	3	4
14	15	4.07962e+06	0	1	2	5	4
14	15	100	0	1	5	3	4
15	0	9856	0	1	2	1	0
15	0	26000	0	1	2	3	4
15	0	4.04275e+06	0	1	2	5	4
15	0	150	0	1	5	3	4
15	1	11264	0	1	2	1	0
15	1	25900	0	1	2	3	4
15	1	4.00179e+06	0	1	2	5	4
15	1	200	0	1	5	3	4
15	2	10368	0	1	2	1	0
15	2	25400	0	1	2	3	4
15	2	4.21069e+06	0	1	2	5	4
15	2	150	0	1	5	3	4
15	3	12288	0	1	2	1	0
15	3	23100	0	1	2	3	4
15	3	4.32538e+06	0	1	2	5	4
15	3	100	0	1	5	3	4
15	4	9280	0	1	2	1	0
15	4	27500	0	1	2	3	4
15	4	4.07142e+06	0	1	2	5	4
15	4	150	0	1	5	3	4
15	5	11520	0	1	2	1	0
15	5	27400	0	1	2	3	4
15	5	4.11648e+06	0	1	2	5	4
15	5	50	0	1	5	3	4
15	6	10752	0	1	2	1	0
15	6	26700	0	1	2	3	4
15	6	4.18202e+06	0	1	2	5	4
15	6	50	0	1	5	3	4
15	7	10816	0	1	2	1	0
15	7	24400	0	1	2	3	4
15	7	4.07142e+06	0	1	2	5	4
15	8	10304	0	1	2	1	0
15	8	26300	0	1	2	3	4
15	8	4.18611e+06	0	1	2	5	4
15	8	150	0	1	5	3	4
15	9	11456	0	1	2	1	0
15	9	25400	0	1	2	3	4
15	9	3.98131e+06	0	1	2	5	4
15	9	200	0	1	5	3	4
15	10	10944	0	1	2	1	0
15	10	27200	0	1	2	3	4
15	10	3.94035e+06	0	1	2	5	4
15	10	50	0	1	5	3	4
15	11	10816	0	1	2	1	0
15	11	29000	0	1	2	3	4
15	11	4.15744e+06	0	1	2	5	4
15	11	200	0	1	5	3	4
15	12	11648	0	1	2	1	0
15	12	26700	0	1	2	3	4
15	12	4.02637e+06	0	1	2	5	4
15	12	100	0	1	5	3	4
15	13	10816	0	1	2	1	0
15	13	26300	0	1	2	3	4
15	13	4.32538e+06	0	1	2	5	4
15	13	50	0	1	5	3	4
15	14	10560	0	1	2	1	0
15	14	24000	0	1	2	3	4
15	14	4.2967e+06	0	1	2	5	4
15	14	300	0	1	5	3	4
