10
0	6	1e+12
1	4	1e+12
1	6	1e+12
2	5	1e+12
2	6	1e+12
2	8	1e+12
2	9	1e+12
3	4	1e+12
3	5	1e+12
4	1	1e+12
4	3	1e+12
4	7	1e+12
5	2	1e+12
5	3	1e+12
5	6	1e+12
5	7	1e+12
6	0	1e+12
6	1	1e+12
6	2	1e+12
6	5	1e+12
6	7	1e+12
7	4	1e+12
7	5	1e+12
7	6	1e+12
8	2	1e+12
9	2	1e+12
