100000	100000	100000	10000	1000	1000
0	1	384	0	1	2	1	0
0	1	500	0	1	2	3	4
0	1	110592	0	1	2	5	4
0	1	50	0	1	5	3	4
0	2	192	0	1	2	1	0
0	2	200	0	1	2	3	4
0	2	118784	0	1	2	5	4
0	3	64	0	1	2	1	0
0	3	800	0	1	2	3	4
0	3	118784	0	1	2	5	4
0	4	256	0	1	2	1	0
0	4	1000	0	1	2	3	4
0	4	122880	0	1	2	5	4
0	5	384	0	1	2	1	0
0	5	1100	0	1	2	3	4
0	5	126976	0	1	2	5	4
0	6	256	0	1	2	1	0
0	6	400	0	1	2	3	4
0	6	69632	0	1	2	5	4
0	6	50	0	1	5	3	4
0	7	448	0	1	2	1	0
0	7	800	0	1	2	3	4
0	7	90112	0	1	2	5	4
0	8	256	0	1	2	1	0
0	8	300	0	1	2	3	4
0	8	122880	0	1	2	5	4
0	9	320	0	1	2	1	0
0	9	500	0	1	2	3	4
0	9	106496	0	1	2	5	4
0	9	50	0	1	5	3	4
1	0	128	0	1	2	1	0
1	0	1300	0	1	2	3	4
1	0	110592	0	1	2	5	4
1	2	192	0	1	2	1	0
1	2	500	0	1	2	3	4
1	2	126976	0	1	2	5	4
1	3	256	0	1	2	1	0
1	3	500	0	1	2	3	4
1	3	135168	0	1	2	5	4
1	4	128	0	1	2	1	0
1	4	800	0	1	2	3	4
1	4	106496	0	1	2	5	4
1	5	448	0	1	2	1	0
1	5	700	0	1	2	3	4
1	5	102400	0	1	2	5	4
1	6	256	0	1	2	1	0
1	6	900	0	1	2	3	4
1	6	122880	0	1	2	5	4
1	7	192	0	1	2	1	0
1	7	200	0	1	2	3	4
1	7	180224	0	1	2	5	4
1	8	384	0	1	2	1	0
1	8	700	0	1	2	3	4
1	8	94208	0	1	2	5	4
1	9	256	0	1	2	1	0
1	9	300	0	1	2	3	4
1	9	98304	0	1	2	5	4
2	0	448	0	1	2	1	0
2	0	600	0	1	2	3	4
2	0	110592	0	1	2	5	4
2	1	192	0	1	2	1	0
2	1	1100	0	1	2	3	4
2	1	94208	0	1	2	5	4
2	3	256	0	1	2	1	0
2	3	1200	0	1	2	3	4
2	3	126976	0	1	2	5	4
2	4	192	0	1	2	1	0
2	4	1100	0	1	2	3	4
2	4	106496	0	1	2	5	4
2	5	128	0	1	2	1	0
2	5	100	0	1	2	3	4
2	5	110592	0	1	2	5	4
2	5	50	0	1	5	3	4
2	6	192	0	1	2	1	0
2	6	1100	0	1	2	3	4
2	6	61440	0	1	2	5	4
2	7	576	0	1	2	1	0
2	7	1000	0	1	2	3	4
2	7	98304	0	1	2	5	4
2	8	128	0	1	2	1	0
2	8	900	0	1	2	3	4
2	8	90112	0	1	2	5	4
2	9	448	0	1	2	1	0
2	9	700	0	1	2	3	4
2	9	131072	0	1	2	5	4
3	0	128	0	1	2	1	0
3	0	1000	0	1	2	3	4
3	0	106496	0	1	2	5	4
3	1	128	0	1	2	1	0
3	1	900	0	1	2	3	4
3	1	102400	0	1	2	5	4
3	2	448	0	1	2	1	0
3	2	700	0	1	2	3	4
3	2	57344	0	1	2	5	4
3	4	128	0	1	2	1	0
3	4	200	0	1	2	3	4
3	4	102400	0	1	2	5	4
3	5	384	0	1	2	1	0
3	5	500	0	1	2	3	4
3	5	131072	0	1	2	5	4
3	6	256	0	1	2	1	0
3	6	800	0	1	2	3	4
3	6	159744	0	1	2	5	4
3	7	128	0	1	2	1	0
3	7	800	0	1	2	3	4
3	7	110592	0	1	2	5	4
3	8	600	0	1	2	3	4
3	8	122880	0	1	2	5	4
3	9	256	0	1	2	1	0
3	9	500	0	1	2	3	4
3	9	77824	0	1	2	5	4
4	0	448	0	1	2	1	0
4	0	700	0	1	2	3	4
4	0	98304	0	1	2	5	4
4	1	448	0	1	2	1	0
4	1	500	0	1	2	3	4
4	1	118784	0	1	2	5	4
4	2	512	0	1	2	1	0
4	2	400	0	1	2	3	4
4	2	135168	0	1	2	5	4
4	3	448	0	1	2	1	0
4	3	700	0	1	2	3	4
4	3	118784	0	1	2	5	4
4	5	192	0	1	2	1	0
4	5	1100	0	1	2	3	4
4	5	122880	0	1	2	5	4
4	6	320	0	1	2	1	0
4	6	700	0	1	2	3	4
4	6	94208	0	1	2	5	4
4	7	192	0	1	2	1	0
4	7	700	0	1	2	3	4
4	7	131072	0	1	2	5	4
4	8	448	0	1	2	1	0
4	8	200	0	1	2	3	4
4	8	106496	0	1	2	5	4
4	9	320	0	1	2	1	0
4	9	700	0	1	2	3	4
4	9	90112	0	1	2	5	4
5	0	256	0	1	2	1	0
5	0	700	0	1	2	3	4
5	0	98304	0	1	2	5	4
5	1	192	0	1	2	1	0
5	1	400	0	1	2	3	4
5	1	122880	0	1	2	5	4
5	2	448	0	1	2	1	0
5	2	1100	0	1	2	3	4
5	2	94208	0	1	2	5	4
5	2	50	0	1	5	3	4
5	3	128	0	1	2	1	0
5	3	200	0	1	2	3	4
5	3	126976	0	1	2	5	4
5	4	128	0	1	2	1	0
5	4	1000	0	1	2	3	4
5	4	102400	0	1	2	5	4
5	4	50	0	1	5	3	4
5	6	320	0	1	2	1	0
5	6	900	0	1	2	3	4
5	6	98304	0	1	2	5	4
5	7	640	0	1	2	1	0
5	7	700	0	1	2	3	4
5	7	94208	0	1	2	5	4
5	8	256	0	1	2	1	0
5	8	1000	0	1	2	3	4
5	8	122880	0	1	2	5	4
5	9	448	0	1	2	1	0
5	9	500	0	1	2	3	4
5	9	139264	0	1	2	5	4
6	0	576	0	1	2	1	0
6	0	500	0	1	2	3	4
6	0	147456	0	1	2	5	4
6	1	448	0	1	2	1	0
6	1	600	0	1	2	3	4
6	1	139264	0	1	2	5	4
6	2	128	0	1	2	1	0
6	2	700	0	1	2	3	4
6	2	122880	0	1	2	5	4
6	3	128	0	1	2	1	0
6	3	1100	0	1	2	3	4
6	3	81920	0	1	2	5	4
6	4	256	0	1	2	1	0
6	4	600	0	1	2	3	4
6	4	114688	0	1	2	5	4
6	5	256	0	1	2	1	0
6	5	700	0	1	2	3	4
6	5	98304	0	1	2	5	4
6	7	448	0	1	2	1	0
6	7	700	0	1	2	3	4
6	7	122880	0	1	2	5	4
6	8	320	0	1	2	1	0
6	8	900	0	1	2	3	4
6	8	98304	0	1	2	5	4
6	9	256	0	1	2	1	0
6	9	800	0	1	2	3	4
6	9	102400	0	1	2	5	4
7	0	256	0	1	2	1	0
7	0	300	0	1	2	3	4
7	0	114688	0	1	2	5	4
7	1	448	0	1	2	1	0
7	1	900	0	1	2	3	4
7	1	131072	0	1	2	5	4
7	2	192	0	1	2	1	0
7	2	700	0	1	2	3	4
7	2	106496	0	1	2	5	4
7	3	64	0	1	2	1	0
7	3	600	0	1	2	3	4
7	3	86016	0	1	2	5	4
7	4	448	0	1	2	1	0
7	4	800	0	1	2	3	4
7	4	106496	0	1	2	5	4
7	5	128	0	1	2	1	0
7	5	600	0	1	2	3	4
7	5	106496	0	1	2	5	4
7	6	128	0	1	2	1	0
7	6	300	0	1	2	3	4
7	6	102400	0	1	2	5	4
7	8	448	0	1	2	1	0
7	8	700	0	1	2	3	4
7	8	102400	0	1	2	5	4
7	9	576	0	1	2	1	0
7	9	1500	0	1	2	3	4
7	9	102400	0	1	2	5	4
8	0	256	0	1	2	1	0
8	0	400	0	1	2	3	4
8	0	135168	0	1	2	5	4
8	1	704	0	1	2	1	0
8	1	1100	0	1	2	3	4
8	1	131072	0	1	2	5	4
8	2	256	0	1	2	1	0
8	2	700	0	1	2	3	4
8	2	118784	0	1	2	5	4
8	3	192	0	1	2	1	0
8	3	700	0	1	2	3	4
8	3	110592	0	1	2	5	4
8	4	576	0	1	2	1	0
8	4	400	0	1	2	3	4
8	4	147456	0	1	2	5	4
8	5	576	0	1	2	1	0
8	5	500	0	1	2	3	4
8	5	86016	0	1	2	5	4
8	6	384	0	1	2	1	0
8	6	800	0	1	2	3	4
8	6	69632	0	1	2	5	4
8	7	384	0	1	2	1	0
8	7	500	0	1	2	3	4
8	7	98304	0	1	2	5	4
8	9	320	0	1	2	1	0
8	9	900	0	1	2	3	4
8	9	77824	0	1	2	5	4
9	0	64	0	1	2	1	0
9	0	300	0	1	2	3	4
9	0	106496	0	1	2	5	4
9	1	320	0	1	2	1	0
9	1	1200	0	1	2	3	4
9	1	122880	0	1	2	5	4
9	2	320	0	1	2	1	0
9	2	600	0	1	2	3	4
9	2	126976	0	1	2	5	4
9	3	192	0	1	2	1	0
9	3	700	0	1	2	3	4
9	3	114688	0	1	2	5	4
9	4	128	0	1	2	1	0
9	4	500	0	1	2	3	4
9	4	114688	0	1	2	5	4
9	5	384	0	1	2	1	0
9	5	300	0	1	2	3	4
9	5	94208	0	1	2	5	4
9	6	576	0	1	2	1	0
9	6	800	0	1	2	3	4
9	6	102400	0	1	2	5	4
9	7	256	0	1	2	1	0
9	7	400	0	1	2	3	4
9	7	81920	0	1	2	5	4
9	8	256	0	1	2	1	0
9	8	1100	0	1	2	3	4
9	8	106496	0	1	2	5	4
9	8	100	0	1	5	3	4
