100000	100000	100000	10000	1000	1000
0	1	12416	0	1	2	1	0
0	1	25800	0	1	2	3	4
0	1	4.21478e+06	0	1	2	5	4
0	1	100	0	1	5	3	4
0	2	12160	0	1	2	1	0
0	2	27200	0	1	2	3	4
0	2	3.85843e+06	0	1	2	5	4
0	2	50	0	1	5	3	4
0	3	12096	0	1	2	1	0
0	3	25300	0	1	2	3	4
0	3	4.25165e+06	0	1	2	5	4
0	3	150	0	1	5	3	4
0	4	9984	0	1	2	1	0
0	4	28200	0	1	2	3	4
0	4	4.24346e+06	0	1	2	5	4
0	4	150	0	1	5	3	4
0	5	11264	0	1	2	1	0
0	5	26700	0	1	2	3	4
0	5	4.07552e+06	0	1	2	5	4
0	5	50	0	1	5	3	4
0	6	11136	0	1	2	1	0
0	6	26700	0	1	2	3	4
0	6	4.11648e+06	0	1	2	5	4
0	6	100	0	1	5	3	4
0	7	9920	0	1	2	1	0
0	7	25300	0	1	2	3	4
0	7	4.08371e+06	0	1	2	5	4
0	7	50	0	1	5	3	4
0	8	11392	0	1	2	1	0
0	8	26400	0	1	2	3	4
0	8	3.97722e+06	0	1	2	5	4
0	9	11136	0	1	2	1	0
0	9	26900	0	1	2	3	4
0	9	4.17792e+06	0	1	2	5	4
0	9	100	0	1	5	3	4
0	10	12928	0	1	2	1	0
0	10	24200	0	1	2	3	4
0	10	4.02227e+06	0	1	2	5	4
0	10	100	0	1	5	3	4
0	11	10304	0	1	2	1	0
0	11	25800	0	1	2	3	4
0	11	3.93626e+06	0	1	2	5	4
0	12	11328	0	1	2	1	0
0	12	24200	0	1	2	3	4
0	12	4.26394e+06	0	1	2	5	4
0	12	50	0	1	5	3	4
0	13	10944	0	1	2	1	0
0	13	25300	0	1	2	3	4
0	13	4.25165e+06	0	1	2	5	4
0	13	100	0	1	5	3	4
0	14	11136	0	1	2	1	0
0	14	27900	0	1	2	3	4
0	14	4.10829e+06	0	1	2	5	4
0	14	50	0	1	5	3	4
0	15	9088	0	1	2	1	0
0	15	28600	0	1	2	3	4
0	15	4.23526e+06	0	1	2	5	4
0	15	50	0	1	5	3	4
1	0	9408	0	1	2	1	0
1	0	26800	0	1	2	3	4
1	0	4.0919e+06	0	1	2	5	4
1	0	50	0	1	5	3	4
1	2	12672	0	1	2	1	0
1	2	26100	0	1	2	3	4
1	2	4.34586e+06	0	1	2	5	4
1	2	150	0	1	5	3	4
1	3	11200	0	1	2	1	0
1	3	26900	0	1	2	3	4
1	3	4.01818e+06	0	1	2	5	4
1	3	100	0	1	5	3	4
1	4	12160	0	1	2	1	0
1	4	27600	0	1	2	3	4
1	4	4.32128e+06	0	1	2	5	4
1	4	100	0	1	5	3	4
1	5	11008	0	1	2	1	0
1	5	25600	0	1	2	3	4
1	5	4.2025e+06	0	1	2	5	4
1	5	50	0	1	5	3	4
1	6	10816	0	1	2	1	0
1	6	26200	0	1	2	3	4
1	6	4.096e+06	0	1	2	5	4
1	6	150	0	1	5	3	4
1	7	10688	0	1	2	1	0
1	7	23000	0	1	2	3	4
1	7	4.15744e+06	0	1	2	5	4
1	7	150	0	1	5	3	4
1	8	10816	0	1	2	1	0
1	8	25900	0	1	2	3	4
1	8	4.3008e+06	0	1	2	5	4
1	8	50	0	1	5	3	4
1	9	10560	0	1	2	1	0
1	9	24500	0	1	2	3	4
1	9	4.00998e+06	0	1	2	5	4
1	10	11072	0	1	2	1	0
1	10	27000	0	1	2	3	4
1	10	4.02227e+06	0	1	2	5	4
1	10	150	0	1	5	3	4
1	11	10688	0	1	2	1	0
1	11	27100	0	1	2	3	4
1	11	3.8871e+06	0	1	2	5	4
1	11	50	0	1	5	3	4
1	12	9728	0	1	2	1	0
1	12	23900	0	1	2	3	4
1	12	4.36224e+06	0	1	2	5	4
1	12	100	0	1	5	3	4
1	13	12032	0	1	2	1	0
1	13	26800	0	1	2	3	4
1	13	3.9895e+06	0	1	2	5	4
1	13	100	0	1	5	3	4
1	14	11648	0	1	2	1	0
1	14	25700	0	1	2	3	4
1	14	4.08371e+06	0	1	2	5	4
1	14	50	0	1	5	3	4
1	15	11648	0	1	2	1	0
1	15	24000	0	1	2	3	4
1	15	4.34586e+06	0	1	2	5	4
1	15	50	0	1	5	3	4
2	0	9920	0	1	2	1	0
2	0	27400	0	1	2	3	4
2	0	3.95674e+06	0	1	2	5	4
2	0	50	0	1	5	3	4
2	1	10304	0	1	2	1	0
2	1	27300	0	1	2	3	4
2	1	4.17792e+06	0	1	2	5	4
2	3	11712	0	1	2	1	0
2	3	28500	0	1	2	3	4
2	3	4.096e+06	0	1	2	5	4
2	3	150	0	1	5	3	4
2	4	10752	0	1	2	1	0
2	4	27900	0	1	2	3	4
2	4	4.29261e+06	0	1	2	5	4
2	4	100	0	1	5	3	4
2	5	11200	0	1	2	1	0
2	5	24500	0	1	2	3	4
2	5	3.95264e+06	0	1	2	5	4
2	5	50	0	1	5	3	4
2	6	10688	0	1	2	1	0
2	6	25700	0	1	2	3	4
2	6	4.05504e+06	0	1	2	5	4
2	6	200	0	1	5	3	4
2	7	10304	0	1	2	1	0
2	7	26100	0	1	2	3	4
2	7	4.14925e+06	0	1	2	5	4
2	7	50	0	1	5	3	4
2	8	12096	0	1	2	1	0
2	8	26400	0	1	2	3	4
2	8	4.12467e+06	0	1	2	5	4
2	8	50	0	1	5	3	4
2	9	10432	0	1	2	1	0
2	9	29000	0	1	2	3	4
2	9	4.16563e+06	0	1	2	5	4
2	9	400	0	1	5	3	4
2	10	11584	0	1	2	1	0
2	10	25400	0	1	2	3	4
2	10	4.21069e+06	0	1	2	5	4
2	10	150	0	1	5	3	4
2	11	10560	0	1	2	1	0
2	11	25200	0	1	2	3	4
2	11	4.10829e+06	0	1	2	5	4
2	11	250	0	1	5	3	4
2	12	10432	0	1	2	1	0
2	12	27300	0	1	2	3	4
2	12	4.16973e+06	0	1	2	5	4
2	12	100	0	1	5	3	4
2	13	10560	0	1	2	1	0
2	13	27200	0	1	2	3	4
2	13	4.20659e+06	0	1	2	5	4
2	13	150	0	1	5	3	4
2	14	11840	0	1	2	1	0
2	14	25900	0	1	2	3	4
2	14	4.13286e+06	0	1	2	5	4
2	15	10368	0	1	2	1	0
2	15	26800	0	1	2	3	4
2	15	4.12877e+06	0	1	2	5	4
2	15	50	0	1	5	3	4
3	0	10176	0	1	2	1	0
3	0	27500	0	1	2	3	4
3	0	4.08371e+06	0	1	2	5	4
3	0	200	0	1	5	3	4
3	1	9792	0	1	2	1	0
3	1	26700	0	1	2	3	4
3	1	4.07962e+06	0	1	2	5	4
3	1	250	0	1	5	3	4
3	2	10496	0	1	2	1	0
3	2	26100	0	1	2	3	4
3	2	3.86253e+06	0	1	2	5	4
3	2	100	0	1	5	3	4
3	4	11392	0	1	2	1	0
3	4	26200	0	1	2	3	4
3	4	4.21478e+06	0	1	2	5	4
3	4	50	0	1	5	3	4
3	5	10624	0	1	2	1	0
3	5	24800	0	1	2	3	4
3	5	4.41549e+06	0	1	2	5	4
3	6	9472	0	1	2	1	0
3	6	25900	0	1	2	3	4
3	6	4.26394e+06	0	1	2	5	4
3	6	50	0	1	5	3	4
3	7	11840	0	1	2	1	0
3	7	25600	0	1	2	3	4
3	7	4.25574e+06	0	1	2	5	4
3	8	11072	0	1	2	1	0
3	8	25900	0	1	2	3	4
3	8	4.04275e+06	0	1	2	5	4
3	8	50	0	1	5	3	4
3	9	10688	0	1	2	1	0
3	9	26200	0	1	2	3	4
3	9	4.18611e+06	0	1	2	5	4
3	9	150	0	1	5	3	4
3	10	12736	0	1	2	1	0
3	10	27300	0	1	2	3	4
3	10	4.47283e+06	0	1	2	5	4
3	10	200	0	1	5	3	4
3	11	10560	0	1	2	1	0
3	11	21300	0	1	2	3	4
3	11	4.00589e+06	0	1	2	5	4
3	11	150	0	1	5	3	4
3	12	9472	0	1	2	1	0
3	12	25800	0	1	2	3	4
3	12	4.12058e+06	0	1	2	5	4
3	12	200	0	1	5	3	4
3	13	10560	0	1	2	1	0
3	13	25900	0	1	2	3	4
3	13	4.16154e+06	0	1	2	5	4
3	13	100	0	1	5	3	4
3	14	11136	0	1	2	1	0
3	14	25200	0	1	2	3	4
3	14	4.16154e+06	0	1	2	5	4
3	14	150	0	1	5	3	4
3	15	11392	0	1	2	1	0
3	15	26400	0	1	2	3	4
3	15	3.8912e+06	0	1	2	5	4
3	15	100	0	1	5	3	4
4	0	9984	0	1	2	1	0
4	0	25900	0	1	2	3	4
4	0	4.03046e+06	0	1	2	5	4
4	0	50	0	1	5	3	4
4	1	10176	0	1	2	1	0
4	1	27200	0	1	2	3	4
4	1	4.2025e+06	0	1	2	5	4
4	1	150	0	1	5	3	4
4	2	11392	0	1	2	1	0
4	2	25600	0	1	2	3	4
4	2	4.14515e+06	0	1	2	5	4
4	2	150	0	1	5	3	4
4	3	10944	0	1	2	1	0
4	3	26200	0	1	2	3	4
4	3	4.27213e+06	0	1	2	5	4
4	3	150	0	1	5	3	4
4	5	9408	0	1	2	1	0
4	5	26600	0	1	2	3	4
4	5	3.97722e+06	0	1	2	5	4
4	6	10304	0	1	2	1	0
4	6	25300	0	1	2	3	4
4	6	3.9977e+06	0	1	2	5	4
4	7	10752	0	1	2	1	0
4	7	24500	0	1	2	3	4
4	7	3.91987e+06	0	1	2	5	4
4	7	50	0	1	5	3	4
4	8	9664	0	1	2	1	0
4	8	28600	0	1	2	3	4
4	8	4.06323e+06	0	1	2	5	4
4	8	150	0	1	5	3	4
4	9	11008	0	1	2	1	0
4	9	27400	0	1	2	3	4
4	9	4.22298e+06	0	1	2	5	4
4	9	100	0	1	5	3	4
4	10	10880	0	1	2	1	0
4	10	25500	0	1	2	3	4
4	10	4.04685e+06	0	1	2	5	4
4	10	150	0	1	5	3	4
4	11	10752	0	1	2	1	0
4	11	29200	0	1	2	3	4
4	11	3.85843e+06	0	1	2	5	4
4	11	150	0	1	5	3	4
4	12	10624	0	1	2	1	0
4	12	27500	0	1	2	3	4
4	12	4.22298e+06	0	1	2	5	4
4	12	300	0	1	5	3	4
4	13	11008	0	1	2	1	0
4	13	26100	0	1	2	3	4
4	13	4.3991e+06	0	1	2	5	4
4	13	100	0	1	5	3	4
4	14	11456	0	1	2	1	0
4	14	27200	0	1	2	3	4
4	14	4.25574e+06	0	1	2	5	4
4	15	9984	0	1	2	1	0
4	15	25400	0	1	2	3	4
4	15	4.14515e+06	0	1	2	5	4
4	15	50	0	1	5	3	4
5	0	11392	0	1	2	1	0
5	0	24200	0	1	2	3	4
5	0	4.23117e+06	0	1	2	5	4
5	0	50	0	1	5	3	4
5	1	11392	0	1	2	1	0
5	1	26900	0	1	2	3	4
5	1	3.94854e+06	0	1	2	5	4
5	1	50	0	1	5	3	4
5	2	10688	0	1	2	1	0
5	2	25000	0	1	2	3	4
5	2	4.07552e+06	0	1	2	5	4
5	3	9536	0	1	2	1	0
5	3	26100	0	1	2	3	4
5	3	4.07552e+06	0	1	2	5	4
5	3	100	0	1	5	3	4
5	4	10624	0	1	2	1	0
5	4	27700	0	1	2	3	4
5	4	4.05094e+06	0	1	2	5	4
5	4	100	0	1	5	3	4
5	6	11392	0	1	2	1	0
5	6	26600	0	1	2	3	4
5	6	4.32538e+06	0	1	2	5	4
5	6	150	0	1	5	3	4
5	7	11712	0	1	2	1	0
5	7	26600	0	1	2	3	4
5	7	4.32538e+06	0	1	2	5	4
5	7	50	0	1	5	3	4
5	8	9920	0	1	2	1	0
5	8	25300	0	1	2	3	4
5	8	4.20659e+06	0	1	2	5	4
5	8	100	0	1	5	3	4
5	9	11392	0	1	2	1	0
5	9	27800	0	1	2	3	4
5	9	4.05914e+06	0	1	2	5	4
5	9	150	0	1	5	3	4
5	10	11904	0	1	2	1	0
5	10	27500	0	1	2	3	4
5	10	4.07142e+06	0	1	2	5	4
5	11	12096	0	1	2	1	0
5	11	25800	0	1	2	3	4
5	11	4.05094e+06	0	1	2	5	4
5	11	50	0	1	5	3	4
5	12	11328	0	1	2	1	0
5	12	25500	0	1	2	3	4
5	12	4.2025e+06	0	1	2	5	4
5	12	50	0	1	5	3	4
5	13	10752	0	1	2	1	0
5	13	26700	0	1	2	3	4
5	13	4.08371e+06	0	1	2	5	4
5	13	200	0	1	5	3	4
5	14	11904	0	1	2	1	0
5	14	24600	0	1	2	3	4
5	14	4.20659e+06	0	1	2	5	4
5	14	100	0	1	5	3	4
5	15	10816	0	1	2	1	0
5	15	24600	0	1	2	3	4
5	15	3.97722e+06	0	1	2	5	4
5	15	100	0	1	5	3	4
6	0	12032	0	1	2	1	0
6	0	24600	0	1	2	3	4
6	0	4.13696e+06	0	1	2	5	4
6	0	100	0	1	5	3	4
6	1	11968	0	1	2	1	0
6	1	25700	0	1	2	3	4
6	1	3.92806e+06	0	1	2	5	4
6	2	10432	0	1	2	1	0
6	2	25700	0	1	2	3	4
6	2	4.18202e+06	0	1	2	5	4
6	2	150	0	1	5	3	4
6	3	12544	0	1	2	1	0
6	3	25600	0	1	2	3	4
6	3	4.16154e+06	0	1	2	5	4
6	3	150	0	1	5	3	4
6	4	12416	0	1	2	1	0
6	4	25600	0	1	2	3	4
6	4	4.00179e+06	0	1	2	5	4
6	4	150	0	1	5	3	4
6	5	12160	0	1	2	1	0
6	5	28000	0	1	2	3	4
6	5	4.28851e+06	0	1	2	5	4
6	5	50	0	1	5	3	4
6	7	12608	0	1	2	1	0
6	7	26800	0	1	2	3	4
6	7	4.03046e+06	0	1	2	5	4
6	7	100	0	1	5	3	4
6	8	10688	0	1	2	1	0
6	8	24800	0	1	2	3	4
6	8	4.1943e+06	0	1	2	5	4
6	8	150	0	1	5	3	4
6	9	11648	0	1	2	1	0
6	9	26700	0	1	2	3	4
6	9	4.24346e+06	0	1	2	5	4
6	9	150	0	1	5	3	4
6	10	10624	0	1	2	1	0
6	10	26800	0	1	2	3	4
6	10	4.1943e+06	0	1	2	5	4
6	10	50	0	1	5	3	4
6	11	10368	0	1	2	1	0
6	11	27100	0	1	2	3	4
6	11	4.19021e+06	0	1	2	5	4
6	11	100	0	1	5	3	4
6	12	11840	0	1	2	1	0
6	12	26300	0	1	2	3	4
6	12	4.12467e+06	0	1	2	5	4
6	12	200	0	1	5	3	4
6	13	9856	0	1	2	1	0
6	13	24100	0	1	2	3	4
6	13	3.89939e+06	0	1	2	5	4
6	14	10752	0	1	2	1	0
6	14	26000	0	1	2	3	4
6	14	3.96902e+06	0	1	2	5	4
6	15	11200	0	1	2	1	0
6	15	29200	0	1	2	3	4
6	15	4.05914e+06	0	1	2	5	4
6	15	100	0	1	5	3	4
7	0	10880	0	1	2	1	0
7	0	28000	0	1	2	3	4
7	0	4.12877e+06	0	1	2	5	4
7	0	100	0	1	5	3	4
7	1	10368	0	1	2	1	0
7	1	23600	0	1	2	3	4
7	1	4.04275e+06	0	1	2	5	4
7	1	50	0	1	5	3	4
7	2	11264	0	1	2	1	0
7	2	28300	0	1	2	3	4
7	2	4.28032e+06	0	1	2	5	4
7	2	100	0	1	5	3	4
7	3	11584	0	1	2	1	0
7	3	26600	0	1	2	3	4
7	3	4.18202e+06	0	1	2	5	4
7	3	100	0	1	5	3	4
7	4	10560	0	1	2	1	0
7	4	25600	0	1	2	3	4
7	4	4.12058e+06	0	1	2	5	4
7	4	150	0	1	5	3	4
7	5	11712	0	1	2	1	0
7	5	23200	0	1	2	3	4
7	5	4.20659e+06	0	1	2	5	4
7	5	100	0	1	5	3	4
7	6	10752	0	1	2	1	0
7	6	27000	0	1	2	3	4
7	6	4.03456e+06	0	1	2	5	4
7	6	250	0	1	5	3	4
7	8	11392	0	1	2	1	0
7	8	27200	0	1	2	3	4
7	8	4.1943e+06	0	1	2	5	4
7	8	50	0	1	5	3	4
7	9	10240	0	1	2	1	0
7	9	24600	0	1	2	3	4
7	9	4.31718e+06	0	1	2	5	4
7	9	100	0	1	5	3	4
7	10	9728	0	1	2	1	0
7	10	29500	0	1	2	3	4
7	10	4.19021e+06	0	1	2	5	4
7	10	200	0	1	5	3	4
7	11	10240	0	1	2	1	0
7	11	24800	0	1	2	3	4
7	11	4.21888e+06	0	1	2	5	4
7	11	50	0	1	5	3	4
7	12	11008	0	1	2	1	0
7	12	27000	0	1	2	3	4
7	12	4.1943e+06	0	1	2	5	4
7	12	100	0	1	5	3	4
7	13	11008	0	1	2	1	0
7	13	25400	0	1	2	3	4
7	13	4.23117e+06	0	1	2	5	4
7	14	10304	0	1	2	1	0
7	14	26500	0	1	2	3	4
7	14	4.31718e+06	0	1	2	5	4
7	14	200	0	1	5	3	4
7	15	9600	0	1	2	1	0
7	15	26200	0	1	2	3	4
7	15	4.1984e+06	0	1	2	5	4
7	15	200	0	1	5	3	4
8	0	9408	0	1	2	1	0
8	0	26900	0	1	2	3	4
8	0	4.03456e+06	0	1	2	5	4
8	0	50	0	1	5	3	4
8	1	11520	0	1	2	1	0
8	1	24800	0	1	2	3	4
8	1	4.23526e+06	0	1	2	5	4
8	1	150	0	1	5	3	4
8	2	10752	0	1	2	1	0
8	2	25400	0	1	2	3	4
8	2	4.3008e+06	0	1	2	5	4
8	2	50	0	1	5	3	4
8	3	10816	0	1	2	1	0
8	3	25500	0	1	2	3	4
8	3	4.25165e+06	0	1	2	5	4
8	3	150	0	1	5	3	4
8	4	10816	0	1	2	1	0
8	4	24600	0	1	2	3	4
8	4	4.03046e+06	0	1	2	5	4
8	4	100	0	1	5	3	4
8	5	10560	0	1	2	1	0
8	5	22100	0	1	2	3	4
8	5	4.18202e+06	0	1	2	5	4
8	5	50	0	1	5	3	4
8	6	10432	0	1	2	1	0
8	6	24300	0	1	2	3	4
8	6	3.96083e+06	0	1	2	5	4
8	7	11392	0	1	2	1	0
8	7	26200	0	1	2	3	4
8	7	4.33357e+06	0	1	2	5	4
8	7	100	0	1	5	3	4
8	9	11072	0	1	2	1	0
8	9	25800	0	1	2	3	4
8	9	4.33357e+06	0	1	2	5	4
8	9	100	0	1	5	3	4
8	10	9856	0	1	2	1	0
8	10	27400	0	1	2	3	4
8	10	4.21069e+06	0	1	2	5	4
8	10	100	0	1	5	3	4
8	11	10176	0	1	2	1	0
8	11	28300	0	1	2	3	4
8	11	3.83386e+06	0	1	2	5	4
8	11	50	0	1	5	3	4
8	12	10944	0	1	2	1	0
8	12	25700	0	1	2	3	4
8	12	4.23526e+06	0	1	2	5	4
8	12	250	0	1	5	3	4
8	13	10752	0	1	2	1	0
8	13	26800	0	1	2	3	4
8	13	4.25984e+06	0	1	2	5	4
8	13	100	0	1	5	3	4
8	14	10560	0	1	2	1	0
8	14	27100	0	1	2	3	4
8	14	4.02227e+06	0	1	2	5	4
8	14	150	0	1	5	3	4
8	15	9856	0	1	2	1	0
8	15	28400	0	1	2	3	4
8	15	4.0919e+06	0	1	2	5	4
8	15	150	0	1	5	3	4
9	0	10304	0	1	2	1	0
9	0	28500	0	1	2	3	4
9	0	4.096e+06	0	1	2	5	4
9	0	50	0	1	5	3	4
9	1	11584	0	1	2	1	0
9	1	25500	0	1	2	3	4
9	1	4.27622e+06	0	1	2	5	4
9	2	11648	0	1	2	1	0
9	2	27300	0	1	2	3	4
9	2	4.21478e+06	0	1	2	5	4
9	2	300	0	1	5	3	4
9	3	10240	0	1	2	1	0
9	3	25100	0	1	2	3	4
9	3	4.14515e+06	0	1	2	5	4
9	3	100	0	1	5	3	4
9	4	11584	0	1	2	1	0
9	4	28800	0	1	2	3	4
9	4	4.12467e+06	0	1	2	5	4
9	5	9984	0	1	2	1	0
9	5	27300	0	1	2	3	4
9	5	4.23117e+06	0	1	2	5	4
9	5	100	0	1	5	3	4
9	6	12800	0	1	2	1	0
9	6	27200	0	1	2	3	4
9	6	4.05094e+06	0	1	2	5	4
9	6	150	0	1	5	3	4
9	7	12992	0	1	2	1	0
9	7	24300	0	1	2	3	4
9	7	4.30899e+06	0	1	2	5	4
9	7	150	0	1	5	3	4
9	8	13120	0	1	2	1	0
9	8	27300	0	1	2	3	4
9	8	4.096e+06	0	1	2	5	4
9	8	50	0	1	5	3	4
9	10	12736	0	1	2	1	0
9	10	26800	0	1	2	3	4
9	10	4.12877e+06	0	1	2	5	4
9	10	100	0	1	5	3	4
9	11	10944	0	1	2	1	0
9	11	24500	0	1	2	3	4
9	11	3.9895e+06	0	1	2	5	4
9	11	150	0	1	5	3	4
9	12	10560	0	1	2	1	0
9	12	27300	0	1	2	3	4
9	12	3.96493e+06	0	1	2	5	4
9	12	100	0	1	5	3	4
9	13	11648	0	1	2	1	0
9	13	26000	0	1	2	3	4
9	13	4.2967e+06	0	1	2	5	4
9	13	50	0	1	5	3	4
9	14	10432	0	1	2	1	0
9	14	26500	0	1	2	3	4
9	14	3.94035e+06	0	1	2	5	4
9	14	150	0	1	5	3	4
9	15	11840	0	1	2	1	0
9	15	24500	0	1	2	3	4
9	15	4.14925e+06	0	1	2	5	4
9	15	100	0	1	5	3	4
10	0	9984	0	1	2	1	0
10	0	26900	0	1	2	3	4
10	0	3.97722e+06	0	1	2	5	4
10	0	150	0	1	5	3	4
10	1	11712	0	1	2	1	0
10	1	28300	0	1	2	3	4
10	1	3.98541e+06	0	1	2	5	4
10	1	50	0	1	5	3	4
10	2	10560	0	1	2	1	0
10	2	25800	0	1	2	3	4
10	2	4.31309e+06	0	1	2	5	4
10	2	100	0	1	5	3	4
10	3	10240	0	1	2	1	0
10	3	26000	0	1	2	3	4
10	3	4.17382e+06	0	1	2	5	4
10	3	300	0	1	5	3	4
10	4	10176	0	1	2	1	0
10	4	25400	0	1	2	3	4
10	4	4.12058e+06	0	1	2	5	4
10	4	50	0	1	5	3	4
10	5	10048	0	1	2	1	0
10	5	25800	0	1	2	3	4
10	5	4.03456e+06	0	1	2	5	4
10	5	150	0	1	5	3	4
10	6	10176	0	1	2	1	0
10	6	25100	0	1	2	3	4
10	6	4.05094e+06	0	1	2	5	4
10	6	100	0	1	5	3	4
10	7	10432	0	1	2	1	0
10	7	27600	0	1	2	3	4
10	7	4.08371e+06	0	1	2	5	4
10	8	11520	0	1	2	1	0
10	8	25600	0	1	2	3	4
10	8	4.18202e+06	0	1	2	5	4
10	8	200	0	1	5	3	4
10	9	11136	0	1	2	1	0
10	9	27100	0	1	2	3	4
10	9	4.24755e+06	0	1	2	5	4
10	9	50	0	1	5	3	4
10	11	10688	0	1	2	1	0
10	11	25700	0	1	2	3	4
10	11	4.19021e+06	0	1	2	5	4
10	11	200	0	1	5	3	4
10	12	11008	0	1	2	1	0
10	12	25300	0	1	2	3	4
10	12	4.29261e+06	0	1	2	5	4
10	12	300	0	1	5	3	4
10	13	10368	0	1	2	1	0
10	13	25500	0	1	2	3	4
10	13	4.1943e+06	0	1	2	5	4
10	13	150	0	1	5	3	4
10	14	11008	0	1	2	1	0
10	14	21900	0	1	2	3	4
10	14	4.25984e+06	0	1	2	5	4
10	14	100	0	1	5	3	4
10	15	10624	0	1	2	1	0
10	15	28000	0	1	2	3	4
10	15	3.96902e+06	0	1	2	5	4
10	15	100	0	1	5	3	4
11	0	10816	0	1	2	1	0
11	0	23500	0	1	2	3	4
11	0	4.12058e+06	0	1	2	5	4
11	0	250	0	1	5	3	4
11	1	10880	0	1	2	1	0
11	1	27300	0	1	2	3	4
11	1	4.01818e+06	0	1	2	5	4
11	1	200	0	1	5	3	4
11	2	11200	0	1	2	1	0
11	2	29600	0	1	2	3	4
11	2	4.42368e+06	0	1	2	5	4
11	3	11968	0	1	2	1	0
11	3	27400	0	1	2	3	4
11	3	4.15334e+06	0	1	2	5	4
11	3	150	0	1	5	3	4
11	4	11392	0	1	2	1	0
11	4	25900	0	1	2	3	4
11	4	4.05914e+06	0	1	2	5	4
11	4	150	0	1	5	3	4
11	5	11008	0	1	2	1	0
11	5	24300	0	1	2	3	4
11	5	4.34995e+06	0	1	2	5	4
11	6	11136	0	1	2	1	0
11	6	25200	0	1	2	3	4
11	6	4.05914e+06	0	1	2	5	4
11	6	200	0	1	5	3	4
11	7	10752	0	1	2	1	0
11	7	28000	0	1	2	3	4
11	7	4.1001e+06	0	1	2	5	4
11	7	50	0	1	5	3	4
11	8	11648	0	1	2	1	0
11	8	25600	0	1	2	3	4
11	8	4.34586e+06	0	1	2	5	4
11	8	100	0	1	5	3	4
11	9	11968	0	1	2	1	0
11	9	25600	0	1	2	3	4
11	9	4.22707e+06	0	1	2	5	4
11	9	100	0	1	5	3	4
11	10	10688	0	1	2	1	0
11	10	25700	0	1	2	3	4
11	10	4.13286e+06	0	1	2	5	4
11	10	100	0	1	5	3	4
11	12	11520	0	1	2	1	0
11	12	25300	0	1	2	3	4
11	12	4.22298e+06	0	1	2	5	4
11	12	150	0	1	5	3	4
11	13	10112	0	1	2	1	0
11	13	30400	0	1	2	3	4
11	13	4.23117e+06	0	1	2	5	4
11	13	150	0	1	5	3	4
11	14	10560	0	1	2	1	0
11	14	26400	0	1	2	3	4
11	14	4.08371e+06	0	1	2	5	4
11	14	150	0	1	5	3	4
11	15	12032	0	1	2	1	0
11	15	21300	0	1	2	3	4
11	15	4.10419e+06	0	1	2	5	4
11	15	100	0	1	5	3	4
12	0	10688	0	1	2	1	0
12	0	23300	0	1	2	3	4
12	0	3.94445e+06	0	1	2	5	4
12	0	50	0	1	5	3	4
12	1	11072	0	1	2	1	0
12	1	24400	0	1	2	3	4
12	1	4.13286e+06	0	1	2	5	4
12	1	100	0	1	5	3	4
12	2	9856	0	1	2	1	0
12	2	25700	0	1	2	3	4
12	2	4.17792e+06	0	1	2	5	4
12	2	200	0	1	5	3	4
12	3	10240	0	1	2	1	0
12	3	28200	0	1	2	3	4
12	3	4.11238e+06	0	1	2	5	4
12	4	11200	0	1	2	1	0
12	4	26300	0	1	2	3	4
12	4	4.31309e+06	0	1	2	5	4
12	4	150	0	1	5	3	4
12	5	9984	0	1	2	1	0
12	5	27500	0	1	2	3	4
12	5	3.95674e+06	0	1	2	5	4
12	5	150	0	1	5	3	4
12	6	11840	0	1	2	1	0
12	6	25400	0	1	2	3	4
12	6	4.12467e+06	0	1	2	5	4
12	6	100	0	1	5	3	4
12	7	12032	0	1	2	1	0
12	7	25700	0	1	2	3	4
12	7	3.95674e+06	0	1	2	5	4
12	7	200	0	1	5	3	4
12	8	10560	0	1	2	1	0
12	8	26300	0	1	2	3	4
12	8	4.14106e+06	0	1	2	5	4
12	8	50	0	1	5	3	4
12	9	10816	0	1	2	1	0
12	9	27600	0	1	2	3	4
12	9	3.86253e+06	0	1	2	5	4
12	9	50	0	1	5	3	4
12	10	9984	0	1	2	1	0
12	10	23000	0	1	2	3	4
12	10	4.26803e+06	0	1	2	5	4
12	10	150	0	1	5	3	4
12	11	10624	0	1	2	1	0
12	11	27800	0	1	2	3	4
12	11	4.18202e+06	0	1	2	5	4
12	11	50	0	1	5	3	4
12	13	10816	0	1	2	1	0
12	13	23400	0	1	2	3	4
12	13	3.8912e+06	0	1	2	5	4
12	13	100	0	1	5	3	4
12	14	11008	0	1	2	1	0
12	14	27400	0	1	2	3	4
12	14	4.05914e+06	0	1	2	5	4
12	14	300	0	1	5	3	4
12	15	11456	0	1	2	1	0
12	15	31200	0	1	2	3	4
12	15	4.11238e+06	0	1	2	5	4
12	15	200	0	1	5	3	4
13	0	10176	0	1	2	1	0
13	0	25600	0	1	2	3	4
13	0	4.31309e+06	0	1	2	5	4
13	0	150	0	1	5	3	4
13	1	9152	0	1	2	1	0
13	1	20800	0	1	2	3	4
13	1	4.26394e+06	0	1	2	5	4
13	1	100	0	1	5	3	4
13	2	10368	0	1	2	1	0
13	2	25500	0	1	2	3	4
13	2	4.03866e+06	0	1	2	5	4
13	2	250	0	1	5	3	4
13	3	10688	0	1	2	1	0
13	3	27100	0	1	2	3	4
13	3	4.0919e+06	0	1	2	5	4
13	3	150	0	1	5	3	4
13	4	9728	0	1	2	1	0
13	4	28000	0	1	2	3	4
13	4	4.3991e+06	0	1	2	5	4
13	4	150	0	1	5	3	4
13	5	10880	0	1	2	1	0
13	5	26800	0	1	2	3	4
13	5	4.16563e+06	0	1	2	5	4
13	5	50	0	1	5	3	4
13	6	12160	0	1	2	1	0
13	6	27800	0	1	2	3	4
13	6	4.00589e+06	0	1	2	5	4
13	6	100	0	1	5	3	4
13	7	11264	0	1	2	1	0
13	7	29200	0	1	2	3	4
13	7	3.88301e+06	0	1	2	5	4
13	7	100	0	1	5	3	4
13	8	9984	0	1	2	1	0
13	8	25800	0	1	2	3	4
13	8	3.8912e+06	0	1	2	5	4
13	8	50	0	1	5	3	4
13	9	10944	0	1	2	1	0
13	9	24900	0	1	2	3	4
13	9	4.07962e+06	0	1	2	5	4
13	9	50	0	1	5	3	4
13	10	12160	0	1	2	1	0
13	10	25800	0	1	2	3	4
13	10	4.10419e+06	0	1	2	5	4
13	10	250	0	1	5	3	4
13	11	11072	0	1	2	1	0
13	11	26600	0	1	2	3	4
13	11	4.41549e+06	0	1	2	5	4
13	11	50	0	1	5	3	4
13	12	12160	0	1	2	1	0
13	12	29800	0	1	2	3	4
13	12	4.1943e+06	0	1	2	5	4
13	14	10368	0	1	2	1	0
13	14	27400	0	1	2	3	4
13	14	4.15744e+06	0	1	2	5	4
13	14	350	0	1	5	3	4
13	15	8896	0	1	2	1	0
13	15	27700	0	1	2	3	4
13	15	3.90349e+06	0	1	2	5	4
13	15	200	0	1	5	3	4
14	0	10496	0	1	2	1	0
14	0	24400	0	1	2	3	4
14	0	4.04275e+06	0	1	2	5	4
14	0	200	0	1	5	3	4
14	1	11648	0	1	2	1	0
14	1	26300	0	1	2	3	4
14	1	4.18202e+06	0	1	2	5	4
14	1	150	0	1	5	3	4
14	2	11520	0	1	2	1	0
14	2	26800	0	1	2	3	4
14	2	4.14515e+06	0	1	2	5	4
14	2	100	0	1	5	3	4
14	3	10816	0	1	2	1	0
14	3	28500	0	1	2	3	4
14	3	4.03046e+06	0	1	2	5	4
14	3	50	0	1	5	3	4
14	4	10048	0	1	2	1	0
14	4	26300	0	1	2	3	4
14	4	3.96493e+06	0	1	2	5	4
14	4	200	0	1	5	3	4
14	5	11072	0	1	2	1	0
14	5	29500	0	1	2	3	4
14	5	3.86662e+06	0	1	2	5	4
14	5	150	0	1	5	3	4
14	6	10304	0	1	2	1	0
14	6	29100	0	1	2	3	4
14	6	4.14515e+06	0	1	2	5	4
14	6	100	0	1	5	3	4
14	7	11008	0	1	2	1	0
14	7	24600	0	1	2	3	4
14	7	4.36224e+06	0	1	2	5	4
14	7	250	0	1	5	3	4
14	8	10752	0	1	2	1	0
14	8	28100	0	1	2	3	4
14	8	4.16154e+06	0	1	2	5	4
14	8	150	0	1	5	3	4
14	9	11968	0	1	2	1	0
14	9	26300	0	1	2	3	4
14	9	3.94854e+06	0	1	2	5	4
14	10	11264	0	1	2	1	0
14	10	25000	0	1	2	3	4
14	10	4.24755e+06	0	1	2	5	4
14	10	100	0	1	5	3	4
14	11	11584	0	1	2	1	0
14	11	27000	0	1	2	3	4
14	11	4.31718e+06	0	1	2	5	4
14	11	200	0	1	5	3	4
14	12	10304	0	1	2	1	0
14	12	27500	0	1	2	3	4
14	12	4.2025e+06	0	1	2	5	4
14	12	200	0	1	5	3	4
14	13	10048	0	1	2	1	0
14	13	25300	0	1	2	3	4
14	13	3.87482e+06	0	1	2	5	4
14	13	150	0	1	5	3	4
14	15	10944	0	1	2	1	0
14	15	25700	0	1	2	3	4
14	15	3.92397e+06	0	1	2	5	4
14	15	150	0	1	5	3	4
15	0	12096	0	1	2	1	0
15	0	24700	0	1	2	3	4
15	0	3.8871e+06	0	1	2	5	4
15	0	50	0	1	5	3	4
15	1	10496	0	1	2	1	0
15	1	28300	0	1	2	3	4
15	1	4.00589e+06	0	1	2	5	4
15	1	250	0	1	5	3	4
15	2	11840	0	1	2	1	0
15	2	26400	0	1	2	3	4
15	2	4.12058e+06	0	1	2	5	4
15	2	350	0	1	5	3	4
15	3	10112	0	1	2	1	0
15	3	24000	0	1	2	3	4
15	3	4.1984e+06	0	1	2	5	4
15	3	50	0	1	5	3	4
15	4	10880	0	1	2	1	0
15	4	29500	0	1	2	3	4
15	4	4.26394e+06	0	1	2	5	4
15	4	50	0	1	5	3	4
15	5	13184	0	1	2	1	0
15	5	26000	0	1	2	3	4
15	5	4.21888e+06	0	1	2	5	4
15	5	250	0	1	5	3	4
15	6	10496	0	1	2	1	0
15	6	25800	0	1	2	3	4
15	6	4.02637e+06	0	1	2	5	4
15	6	150	0	1	5	3	4
15	7	10560	0	1	2	1	0
15	7	24400	0	1	2	3	4
15	7	3.9895e+06	0	1	2	5	4
15	7	200	0	1	5	3	4
15	8	10624	0	1	2	1	0
15	8	25400	0	1	2	3	4
15	8	4.18202e+06	0	1	2	5	4
15	8	100	0	1	5	3	4
15	9	10752	0	1	2	1	0
15	9	24200	0	1	2	3	4
15	9	4.14925e+06	0	1	2	5	4
15	9	100	0	1	5	3	4
15	10	11840	0	1	2	1	0
15	10	24400	0	1	2	3	4
15	10	4.07552e+06	0	1	2	5	4
15	10	50	0	1	5	3	4
15	11	11200	0	1	2	1	0
15	11	28100	0	1	2	3	4
15	11	4.03456e+06	0	1	2	5	4
15	11	200	0	1	5	3	4
15	12	11840	0	1	2	1	0
15	12	27200	0	1	2	3	4
15	12	4.14925e+06	0	1	2	5	4
15	12	150	0	1	5	3	4
15	13	10880	0	1	2	1	0
15	13	24200	0	1	2	3	4
15	13	3.87072e+06	0	1	2	5	4
15	13	100	0	1	5	3	4
15	14	10688	0	1	2	1	0
15	14	24500	0	1	2	3	4
15	14	3.98131e+06	0	1	2	5	4
15	14	50	0	1	5	3	4
