12
0	9	1e+12
0	11	1e+12
1	8	1e+12
1	9	1e+12
2	4	1e+12
2	8	1e+12
3	4	1e+12
3	5	1e+12
3	6	1e+12
3	7	1e+12
4	2	1e+12
4	3	1e+12
4	7	1e+12
5	3	1e+12
5	8	1e+12
6	3	1e+12
6	7	1e+12
7	3	1e+12
7	4	1e+12
7	6	1e+12
7	10	1e+12
8	1	1e+12
8	2	1e+12
8	5	1e+12
9	0	1e+12
9	1	1e+12
10	7	1e+12
11	0	1e+12
