100000	100000	100000	10000	1000	1000
0	1	70400	0	1	2	1	0
0	1	167500	0	1	2	3	4
0	1	2.76767e+07	0	1	2	5	4
0	1	550	0	1	5	3	4
0	2	57280	0	1	2	1	0
0	2	139900	0	1	2	3	4
0	2	2.22413e+07	0	1	2	5	4
0	2	450	0	1	5	3	4
0	3	35648	0	1	2	1	0
0	3	78500	0	1	2	3	4
0	3	1.27877e+07	0	1	2	5	4
0	3	200	0	1	5	3	4
0	4	31296	0	1	2	1	0
0	4	70500	0	1	2	3	4
0	4	1.17637e+07	0	1	2	5	4
0	4	300	0	1	5	3	4
0	5	42752	0	1	2	1	0
0	5	102600	0	1	2	3	4
0	5	1.54911e+07	0	1	2	5	4
0	5	450	0	1	5	3	4
0	6	77952	0	1	2	1	0
0	6	180100	0	1	2	3	4
0	6	2.90898e+07	0	1	2	5	4
0	6	700	0	1	5	3	4
0	7	35072	0	1	2	1	0
0	7	86000	0	1	2	3	4
0	7	1.37871e+07	0	1	2	5	4
0	7	300	0	1	5	3	4
0	8	22528	0	1	2	1	0
0	8	50800	0	1	2	3	4
0	8	8.77773e+06	0	1	2	5	4
0	8	300	0	1	5	3	4
0	9	23488	0	1	2	1	0
0	9	53800	0	1	2	3	4
0	9	8.20838e+06	0	1	2	5	4
0	9	250	0	1	5	3	4
1	0	70720	0	1	2	1	0
1	0	166800	0	1	2	3	4
1	0	2.74678e+07	0	1	2	5	4
1	0	500	0	1	5	3	4
1	2	40960	0	1	2	1	0
1	2	105800	0	1	2	3	4
1	2	1.53068e+07	0	1	2	5	4
1	2	550	0	1	5	3	4
1	3	35776	0	1	2	1	0
1	3	88300	0	1	2	3	4
1	3	1.40329e+07	0	1	2	5	4
1	3	450	0	1	5	3	4
1	4	63104	0	1	2	1	0
1	4	161800	0	1	2	3	4
1	4	2.43466e+07	0	1	2	5	4
1	4	800	0	1	5	3	4
1	5	31680	0	1	2	1	0
1	5	73600	0	1	2	3	4
1	5	1.09486e+07	0	1	2	5	4
1	5	200	0	1	5	3	4
1	6	53888	0	1	2	1	0
1	6	139900	0	1	2	3	4
1	6	2.06152e+07	0	1	2	5	4
1	6	450	0	1	5	3	4
1	7	25920	0	1	2	1	0
1	7	56200	0	1	2	3	4
1	7	9.50272e+06	0	1	2	5	4
1	7	150	0	1	5	3	4
1	8	15744	0	1	2	1	0
1	8	39000	0	1	2	3	4
1	8	6.31603e+06	0	1	2	5	4
1	8	100	0	1	5	3	4
1	9	15104	0	1	2	1	0
1	9	34100	0	1	2	3	4
1	9	5.86957e+06	0	1	2	5	4
1	9	350	0	1	5	3	4
2	0	60672	0	1	2	1	0
2	0	146700	0	1	2	3	4
2	0	2.21307e+07	0	1	2	5	4
2	0	450	0	1	5	3	4
2	1	41152	0	1	2	1	0
2	1	102500	0	1	2	3	4
2	1	1.58474e+07	0	1	2	5	4
2	1	250	0	1	5	3	4
2	3	29504	0	1	2	1	0
2	3	70900	0	1	2	3	4
2	3	1.07766e+07	0	1	2	5	4
2	3	300	0	1	5	3	4
2	4	18560	0	1	2	1	0
2	4	41900	0	1	2	3	4
2	4	6.68058e+06	0	1	2	5	4
2	4	300	0	1	5	3	4
2	5	48064	0	1	2	1	0
2	5	116900	0	1	2	3	4
2	5	1.82886e+07	0	1	2	5	4
2	5	300	0	1	5	3	4
2	6	45056	0	1	2	1	0
2	6	108200	0	1	2	3	4
2	6	1.68182e+07	0	1	2	5	4
2	6	350	0	1	5	3	4
2	7	20416	0	1	2	1	0
2	7	48700	0	1	2	3	4
2	7	7.81926e+06	0	1	2	5	4
2	7	300	0	1	5	3	4
2	8	37888	0	1	2	1	0
2	8	97400	0	1	2	3	4
2	8	1.47497e+07	0	1	2	5	4
2	8	450	0	1	5	3	4
2	9	37952	0	1	2	1	0
2	9	92600	0	1	2	3	4
2	9	1.39346e+07	0	1	2	5	4
2	9	400	0	1	5	3	4
3	0	33792	0	1	2	1	0
3	0	83500	0	1	2	3	4
3	0	1.29065e+07	0	1	2	5	4
3	0	350	0	1	5	3	4
3	1	35520	0	1	2	1	0
3	1	90200	0	1	2	3	4
3	1	1.38691e+07	0	1	2	5	4
3	1	650	0	1	5	3	4
3	2	29952	0	1	2	1	0
3	2	76000	0	1	2	3	4
3	2	1.15098e+07	0	1	2	5	4
3	2	350	0	1	5	3	4
3	4	45504	0	1	2	1	0
3	4	113400	0	1	2	3	4
3	4	1.72524e+07	0	1	2	5	4
3	4	550	0	1	5	3	4
3	5	43712	0	1	2	1	0
3	5	104300	0	1	2	3	4
3	5	1.57532e+07	0	1	2	5	4
3	5	500	0	1	5	3	4
3	6	21376	0	1	2	1	0
3	6	44800	0	1	2	3	4
3	6	7.3728e+06	0	1	2	5	4
3	6	200	0	1	5	3	4
3	7	17280	0	1	2	1	0
3	7	44400	0	1	2	3	4
3	7	6.52902e+06	0	1	2	5	4
3	7	250	0	1	5	3	4
3	8	12096	0	1	2	1	0
3	8	28000	0	1	2	3	4
3	8	4.18202e+06	0	1	2	5	4
3	8	150	0	1	5	3	4
3	9	10816	0	1	2	1	0
3	9	25900	0	1	2	3	4
3	9	3.9936e+06	0	1	2	5	4
3	9	150	0	1	5	3	4
4	0	33664	0	1	2	1	0
4	0	67700	0	1	2	3	4
4	0	1.15261e+07	0	1	2	5	4
4	0	300	0	1	5	3	4
4	1	61440	0	1	2	1	0
4	1	158000	0	1	2	3	4
4	1	2.41828e+07	0	1	2	5	4
4	1	350	0	1	5	3	4
4	2	16704	0	1	2	1	0
4	2	43000	0	1	2	3	4
4	2	6.68467e+06	0	1	2	5	4
4	2	200	0	1	5	3	4
4	3	46720	0	1	2	1	0
4	3	111700	0	1	2	3	4
4	3	1.71786e+07	0	1	2	5	4
4	3	600	0	1	5	3	4
4	5	18176	0	1	2	1	0
4	5	43900	0	1	2	3	4
4	5	7.04512e+06	0	1	2	5	4
4	5	150	0	1	5	3	4
4	6	17792	0	1	2	1	0
4	6	39600	0	1	2	3	4
4	6	6.59866e+06	0	1	2	5	4
4	6	300	0	1	5	3	4
4	7	32000	0	1	2	1	0
4	7	77000	0	1	2	3	4
4	7	1.20463e+07	0	1	2	5	4
4	7	350	0	1	5	3	4
4	8	6592	0	1	2	1	0
4	8	17500	0	1	2	3	4
4	8	2.7648e+06	0	1	2	5	4
4	8	50	0	1	5	3	4
4	9	7360	0	1	2	1	0
4	9	16100	0	1	2	3	4
4	9	2.85491e+06	0	1	2	5	4
4	9	150	0	1	5	3	4
5	0	41664	0	1	2	1	0
5	0	97400	0	1	2	3	4
5	0	1.60072e+07	0	1	2	5	4
5	0	250	0	1	5	3	4
5	1	30016	0	1	2	1	0
5	1	67100	0	1	2	3	4
5	1	1.09855e+07	0	1	2	5	4
5	1	300	0	1	5	3	4
5	2	46528	0	1	2	1	0
5	2	117100	0	1	2	3	4
5	2	1.84934e+07	0	1	2	5	4
5	2	300	0	1	5	3	4
5	3	42176	0	1	2	1	0
5	3	98800	0	1	2	3	4
5	3	1.60276e+07	0	1	2	5	4
5	3	350	0	1	5	3	4
5	4	21376	0	1	2	1	0
5	4	46200	0	1	2	3	4
5	4	7.0615e+06	0	1	2	5	4
5	4	200	0	1	5	3	4
5	6	31232	0	1	2	1	0
5	6	76800	0	1	2	3	4
5	6	1.23412e+07	0	1	2	5	4
5	6	500	0	1	5	3	4
5	7	28416	0	1	2	1	0
5	7	71800	0	1	2	3	4
5	7	1.05636e+07	0	1	2	5	4
5	7	350	0	1	5	3	4
5	8	13632	0	1	2	1	0
5	8	33500	0	1	2	3	4
5	8	5.25107e+06	0	1	2	5	4
5	8	200	0	1	5	3	4
5	9	11584	0	1	2	1	0
5	9	30500	0	1	2	3	4
5	9	4.89472e+06	0	1	2	5	4
6	0	78144	0	1	2	1	0
6	0	187000	0	1	2	3	4
6	0	2.89464e+07	0	1	2	5	4
6	0	500	0	1	5	3	4
6	1	54016	0	1	2	1	0
6	1	132500	0	1	2	3	4
6	1	2.05414e+07	0	1	2	5	4
6	1	250	0	1	5	3	4
6	2	46912	0	1	2	1	0
6	2	113400	0	1	2	3	4
6	2	1.68141e+07	0	1	2	5	4
6	2	450	0	1	5	3	4
6	3	18560	0	1	2	1	0
6	3	42800	0	1	2	3	4
6	3	7.54893e+06	0	1	2	5	4
6	3	250	0	1	5	3	4
6	4	18368	0	1	2	1	0
6	4	39400	0	1	2	3	4
6	4	6.57408e+06	0	1	2	5	4
6	4	300	0	1	5	3	4
6	5	31232	0	1	2	1	0
6	5	72300	0	1	2	3	4
6	5	1.16982e+07	0	1	2	5	4
6	5	600	0	1	5	3	4
6	7	29440	0	1	2	1	0
6	7	63900	0	1	2	3	4
6	7	1.04366e+07	0	1	2	5	4
6	7	300	0	1	5	3	4
6	8	12672	0	1	2	1	0
6	8	32800	0	1	2	3	4
6	8	4.72678e+06	0	1	2	5	4
6	8	50	0	1	5	3	4
6	9	10816	0	1	2	1	0
6	9	28000	0	1	2	3	4
6	9	4.73907e+06	0	1	2	5	4
6	9	150	0	1	5	3	4
7	0	34176	0	1	2	1	0
7	0	83000	0	1	2	3	4
7	0	1.35496e+07	0	1	2	5	4
7	0	350	0	1	5	3	4
7	1	25984	0	1	2	1	0
7	1	59800	0	1	2	3	4
7	1	9.46586e+06	0	1	2	5	4
7	1	250	0	1	5	3	4
7	2	23552	0	1	2	1	0
7	2	49600	0	1	2	3	4
7	2	7.71277e+06	0	1	2	5	4
7	2	200	0	1	5	3	4
7	3	18752	0	1	2	1	0
7	3	42500	0	1	2	3	4
7	3	6.83213e+06	0	1	2	5	4
7	3	400	0	1	5	3	4
7	4	32960	0	1	2	1	0
7	4	73500	0	1	2	3	4
7	4	1.25665e+07	0	1	2	5	4
7	4	350	0	1	5	3	4
7	5	28800	0	1	2	1	0
7	5	69300	0	1	2	3	4
7	5	1.09978e+07	0	1	2	5	4
7	5	650	0	1	5	3	4
7	6	25536	0	1	2	1	0
7	6	61800	0	1	2	3	4
7	6	1.00598e+07	0	1	2	5	4
7	6	300	0	1	5	3	4
7	8	7040	0	1	2	1	0
7	8	19100	0	1	2	3	4
7	8	3.18259e+06	0	1	2	5	4
7	9	9088	0	1	2	1	0
7	9	16100	0	1	2	3	4
7	9	2.90816e+06	0	1	2	5	4
7	9	100	0	1	5	3	4
8	0	20608	0	1	2	1	0
8	0	52700	0	1	2	3	4
8	0	8.42547e+06	0	1	2	5	4
8	0	150	0	1	5	3	4
8	1	15680	0	1	2	1	0
8	1	38900	0	1	2	3	4
8	1	6.00474e+06	0	1	2	5	4
8	1	150	0	1	5	3	4
8	2	38592	0	1	2	1	0
8	2	100400	0	1	2	3	4
8	2	1.46924e+07	0	1	2	5	4
8	2	400	0	1	5	3	4
8	3	11776	0	1	2	1	0
8	3	27300	0	1	2	3	4
8	3	4.06323e+06	0	1	2	5	4
8	4	7424	0	1	2	1	0
8	4	19600	0	1	2	3	4
8	4	2.75251e+06	0	1	2	5	4
8	4	100	0	1	5	3	4
8	5	14400	0	1	2	1	0
8	5	32300	0	1	2	3	4
8	5	5.07085e+06	0	1	2	5	4
8	5	150	0	1	5	3	4
8	6	14272	0	1	2	1	0
8	6	28900	0	1	2	3	4
8	6	5.02579e+06	0	1	2	5	4
8	6	50	0	1	5	3	4
8	7	7424	0	1	2	1	0
8	7	18400	0	1	2	3	4
8	7	3.11706e+06	0	1	2	5	4
8	7	50	0	1	5	3	4
8	9	10112	0	1	2	1	0
8	9	25700	0	1	2	3	4
8	9	4.14925e+06	0	1	2	5	4
8	9	200	0	1	5	3	4
9	0	22656	0	1	2	1	0
9	0	52500	0	1	2	3	4
9	0	8.1961e+06	0	1	2	5	4
9	0	150	0	1	5	3	4
9	1	17280	0	1	2	1	0
9	1	36800	0	1	2	3	4
9	1	5.72621e+06	0	1	2	5	4
9	1	150	0	1	5	3	4
9	2	36352	0	1	2	1	0
9	2	85900	0	1	2	3	4
9	2	1.39141e+07	0	1	2	5	4
9	2	350	0	1	5	3	4
9	3	11136	0	1	2	1	0
9	3	23900	0	1	2	3	4
9	3	4.10829e+06	0	1	2	5	4
9	3	50	0	1	5	3	4
9	4	7296	0	1	2	1	0
9	4	18900	0	1	2	3	4
9	4	2.88768e+06	0	1	2	5	4
9	4	100	0	1	5	3	4
9	5	12800	0	1	2	1	0
9	5	35600	0	1	2	3	4
9	5	4.96845e+06	0	1	2	5	4
9	5	200	0	1	5	3	4
9	6	13632	0	1	2	1	0
9	6	28800	0	1	2	3	4
9	6	4.4032e+06	0	1	2	5	4
9	6	100	0	1	5	3	4
9	7	7744	0	1	2	1	0
9	7	17800	0	1	2	3	4
9	7	2.89587e+06	0	1	2	5	4
9	7	150	0	1	5	3	4
9	8	10944	0	1	2	1	0
9	8	24200	0	1	2	3	4
9	8	4.19021e+06	0	1	2	5	4
9	8	50	0	1	5	3	4
