1000	10000	1000	10000	1000	100000	10000	10000	1000	1000	100000
0	1	1.13718e+07	3	9	0	5	4
0	2	1.0953e+07	3	9	0	5	4
0	3	1.12513e+07	3	9	0	5	4
0	4	1.093e+07	3	9	0	5	4
0	5	1.10477e+07	3	9	0	5	4
0	6	1.10649e+07	3	9	0	5	4
0	7	1.10763e+07	3	9	0	5	4
0	8	1.091e+07	3	9	0	5	4
0	9	1.11796e+07	3	9	0	5	4
1	0	1.10477e+07	3	9	0	5	4
1	2	1.10907e+07	3	9	0	5	4
1	3	1.10936e+07	3	9	0	5	4
1	4	1.12083e+07	3	9	0	5	4
1	5	1.10161e+07	3	9	0	5	4
1	6	1.09845e+07	3	9	0	5	4
1	7	1.08382e+07	3	9	0	5	4
1	8	1.11825e+07	3	9	0	5	4
1	9	1.13632e+07	3	9	0	5	4
2	0	1.11308e+07	3	9	0	5	4
2	1	1.14063e+07	3	9	0	5	4
2	3	1.11509e+07	3	9	0	5	4
2	4	1.08411e+07	3	9	0	5	4
2	5	1.12944e+07	3	9	0	5	4
2	6	1.08153e+07	3	9	0	5	4
2	7	1.09214e+07	3	9	0	5	4
2	8	1.13173e+07	3	9	0	5	4
2	9	1.13087e+07	3	9	0	5	4
3	0	1.1171e+07	3	9	0	5	4
3	1	1.11567e+07	3	9	0	5	4
3	2	1.14034e+07	3	9	0	5	4
3	4	1.06374e+07	3	9	0	5	4
3	5	1.09272e+07	3	9	0	5	4
3	6	1.09817e+07	3	9	0	5	4
3	7	1.12313e+07	3	9	0	5	4
3	8	1.09272e+07	3	9	0	5	4
3	9	1.10878e+07	3	9	0	5	4
4	0	1.0887e+07	3	9	0	5	4
4	1	1.14837e+07	3	9	0	5	4
4	2	1.13001e+07	3	9	0	5	4
4	3	1.09013e+07	3	9	0	5	4
4	5	1.1214e+07	3	9	0	5	4
4	6	1.08124e+07	3	9	0	5	4
4	7	1.1544e+07	3	9	0	5	4
4	8	1.09472e+07	3	9	0	5	4
4	9	1.12026e+07	3	9	0	5	4
5	0	1.09931e+07	3	9	0	5	4
5	1	1.09559e+07	3	9	0	5	4
5	2	1.12743e+07	3	9	0	5	4
5	3	1.10878e+07	3	9	0	5	4
5	4	1.10907e+07	3	9	0	5	4
5	6	1.11911e+07	3	9	0	5	4
5	7	1.09874e+07	3	9	0	5	4
5	8	1.13747e+07	3	9	0	5	4
5	9	1.1171e+07	3	9	0	5	4
6	0	1.09702e+07	3	9	0	5	4
6	1	1.10276e+07	3	9	0	5	4
6	2	1.12571e+07	3	9	0	5	4
6	3	1.11739e+07	3	9	0	5	4
6	4	1.10849e+07	3	9	0	5	4
6	5	1.10046e+07	3	9	0	5	4
6	7	1.10304e+07	3	9	0	5	4
6	8	1.12714e+07	3	9	0	5	4
6	9	1.12542e+07	3	9	0	5	4
7	0	1.12657e+07	3	9	0	5	4
7	1	1.13202e+07	3	9	0	5	4
7	2	1.11366e+07	3	9	0	5	4
7	3	1.13116e+07	3	9	0	5	4
7	4	1.07751e+07	3	9	0	5	4
7	5	1.1039e+07	3	9	0	5	4
7	6	1.09788e+07	3	9	0	5	4
7	8	1.10018e+07	3	9	0	5	4
7	9	1.1194e+07	3	9	0	5	4
8	0	1.09587e+07	3	9	0	5	4
8	1	1.13976e+07	3	9	0	5	4
8	2	1.11854e+07	3	9	0	5	4
8	3	1.10735e+07	3	9	0	5	4
8	4	1.11452e+07	3	9	0	5	4
8	5	1.10735e+07	3	9	0	5	4
8	6	1.09013e+07	3	9	0	5	4
8	7	1.11395e+07	3	9	0	5	4
8	9	1.11911e+07	3	9	0	5	4
9	0	1.10936e+07	3	9	0	5	4
9	1	1.12284e+07	3	9	0	5	4
9	2	1.10419e+07	3	9	0	5	4
9	3	1.11337e+07	3	9	0	5	4
9	4	1.09817e+07	3	9	0	5	4
9	5	1.08698e+07	3	9	0	5	4
9	6	1.12944e+07	3	9	0	5	4
9	7	1.11624e+07	3	9	0	5	4
9	8	1.12944e+07	3	9	0	5	4
