100000	100000	100000	10000	1000	1000
0	1	347008	0	1	2	1	0
0	1	851800	0	1	2	3	4
0	1	1.33063e+08	0	1	2	5	4
0	1	3450	0	1	5	3	4
0	2	239232	0	1	2	1	0
0	2	556400	0	1	2	3	4
0	2	8.81336e+07	0	1	2	5	4
0	2	2400	0	1	5	3	4
0	3	129280	0	1	2	1	0
0	3	309600	0	1	2	3	4
0	3	4.99302e+07	0	1	2	5	4
0	3	1450	0	1	5	3	4
0	4	44672	0	1	2	1	0
0	4	100500	0	1	2	3	4
0	4	1.62816e+07	0	1	2	5	4
0	4	450	0	1	5	3	4
0	5	115008	0	1	2	1	0
0	5	277800	0	1	2	3	4
0	5	4.45153e+07	0	1	2	5	4
0	5	1150	0	1	5	3	4
0	6	28608	0	1	2	1	0
0	6	67500	0	1	2	3	4
0	6	1.12271e+07	0	1	2	5	4
0	6	400	0	1	5	3	4
0	7	31808	0	1	2	1	0
0	7	84200	0	1	2	3	4
0	7	1.25379e+07	0	1	2	5	4
0	7	450	0	1	5	3	4
0	8	26688	0	1	2	1	0
0	8	60300	0	1	2	3	4
0	8	9.7239e+06	0	1	2	5	4
0	8	300	0	1	5	3	4
0	9	39104	0	1	2	1	0
0	9	101800	0	1	2	3	4
0	9	1.58433e+07	0	1	2	5	4
0	9	350	0	1	5	3	4
1	0	354816	0	1	2	1	0
1	0	849300	0	1	2	3	4
1	0	1.33755e+08	0	1	2	5	4
1	0	3900	0	1	5	3	4
1	2	114688	0	1	2	1	0
1	2	283600	0	1	2	3	4
1	2	4.46054e+07	0	1	2	5	4
1	2	1300	0	1	5	3	4
1	3	32320	0	1	2	1	0
1	3	75300	0	1	2	3	4
1	3	1.22348e+07	0	1	2	5	4
1	3	250	0	1	5	3	4
1	4	12800	0	1	2	1	0
1	4	33600	0	1	2	3	4
1	4	5.41901e+06	0	1	2	5	4
1	4	100	0	1	5	3	4
1	5	15744	0	1	2	1	0
1	5	32800	0	1	2	3	4
1	5	5.33299e+06	0	1	2	5	4
1	5	150	0	1	5	3	4
1	6	10496	0	1	2	1	0
1	6	24000	0	1	2	3	4
1	6	3.94854e+06	0	1	2	5	4
1	6	300	0	1	5	3	4
1	7	7488	0	1	2	1	0
1	7	19800	0	1	2	3	4
1	7	3.072e+06	0	1	2	5	4
1	7	50	0	1	5	3	4
1	8	14848	0	1	2	1	0
1	8	30100	0	1	2	3	4
1	8	5.04627e+06	0	1	2	5	4
1	8	150	0	1	5	3	4
1	9	3264	0	1	2	1	0
1	9	6800	0	1	2	3	4
1	9	1.35168e+06	0	1	2	5	4
2	0	236224	0	1	2	1	0
2	0	565300	0	1	2	3	4
2	0	8.82606e+07	0	1	2	5	4
2	0	2700	0	1	5	3	4
2	1	112064	0	1	2	1	0
2	1	275700	0	1	2	3	4
2	1	4.44047e+07	0	1	2	5	4
2	1	1400	0	1	5	3	4
2	3	14976	0	1	2	1	0
2	3	33600	0	1	2	3	4
2	3	5.57056e+06	0	1	2	5	4
2	4	3968	0	1	2	1	0
2	4	10300	0	1	2	3	4
2	4	1.65888e+06	0	1	2	5	4
2	4	50	0	1	5	3	4
2	5	11968	0	1	2	1	0
2	5	32400	0	1	2	3	4
2	5	4.74317e+06	0	1	2	5	4
2	5	150	0	1	5	3	4
2	6	3072	0	1	2	1	0
2	6	7100	0	1	2	3	4
2	6	1.27795e+06	0	1	2	5	4
2	6	200	0	1	5	3	4
2	7	6336	0	1	2	1	0
2	7	15900	0	1	2	3	4
2	7	2.7648e+06	0	1	2	5	4
2	7	50	0	1	5	3	4
2	8	3712	0	1	2	1	0
2	8	6200	0	1	2	3	4
2	8	1.03219e+06	0	1	2	5	4
2	8	50	0	1	5	3	4
2	9	2112	0	1	2	1	0
2	9	5400	0	1	2	3	4
2	9	630784	0	1	2	5	4
3	0	128640	0	1	2	1	0
3	0	316000	0	1	2	3	4
3	0	4.97336e+07	0	1	2	5	4
3	0	1600	0	1	5	3	4
3	1	34368	0	1	2	1	0
3	1	81900	0	1	2	3	4
3	1	1.23372e+07	0	1	2	5	4
3	1	350	0	1	5	3	4
3	2	14464	0	1	2	1	0
3	2	34000	0	1	2	3	4
3	2	5.45178e+06	0	1	2	5	4
3	2	250	0	1	5	3	4
3	4	5184	0	1	2	1	0
3	4	10200	0	1	2	3	4
3	4	1.88006e+06	0	1	2	5	4
3	4	50	0	1	5	3	4
3	5	3328	0	1	2	1	0
3	5	7300	0	1	2	3	4
3	5	1.38035e+06	0	1	2	5	4
3	6	5760	0	1	2	1	0
3	6	12200	0	1	2	3	4
3	6	1.90874e+06	0	1	2	5	4
3	7	4544	0	1	2	1	0
3	7	9900	0	1	2	3	4
3	7	1.66298e+06	0	1	2	5	4
3	7	50	0	1	5	3	4
3	8	3840	0	1	2	1	0
3	8	8100	0	1	2	3	4
3	8	1.16326e+06	0	1	2	5	4
3	8	100	0	1	5	3	4
3	9	2944	0	1	2	1	0
3	9	6100	0	1	2	3	4
3	9	970752	0	1	2	5	4
4	0	41216	0	1	2	1	0
4	0	99200	0	1	2	3	4
4	0	1.60809e+07	0	1	2	5	4
4	0	450	0	1	5	3	4
4	1	13504	0	1	2	1	0
4	1	31200	0	1	2	3	4
4	1	5.33299e+06	0	1	2	5	4
4	2	5568	0	1	2	1	0
4	2	11300	0	1	2	3	4
4	2	1.67117e+06	0	1	2	5	4
4	2	50	0	1	5	3	4
4	3	4480	0	1	2	1	0
4	3	11000	0	1	2	3	4
4	3	1.99475e+06	0	1	2	5	4
4	5	960	0	1	2	1	0
4	5	3400	0	1	2	3	4
4	5	552960	0	1	2	5	4
4	6	3456	0	1	2	1	0
4	6	9900	0	1	2	3	4
4	6	1.28614e+06	0	1	2	5	4
4	6	100	0	1	5	3	4
4	7	1088	0	1	2	1	0
4	7	1800	0	1	2	3	4
4	7	278528	0	1	2	5	4
4	7	50	0	1	5	3	4
4	8	640	0	1	2	1	0
4	8	1900	0	1	2	3	4
4	8	446464	0	1	2	5	4
4	9	448	0	1	2	1	0
4	9	800	0	1	2	3	4
4	9	200704	0	1	2	5	4
5	0	120192	0	1	2	1	0
5	0	282300	0	1	2	3	4
5	0	4.46013e+07	0	1	2	5	4
5	0	1200	0	1	5	3	4
5	1	14656	0	1	2	1	0
5	1	34800	0	1	2	3	4
5	1	5.69754e+06	0	1	2	5	4
5	1	100	0	1	5	3	4
5	2	12736	0	1	2	1	0
5	2	28100	0	1	2	3	4
5	2	5.14867e+06	0	1	2	5	4
5	2	100	0	1	5	3	4
5	3	4736	0	1	2	1	0
5	3	8700	0	1	2	3	4
5	3	1.39264e+06	0	1	2	5	4
5	4	1536	0	1	2	1	0
5	4	3600	0	1	2	3	4
5	4	585728	0	1	2	5	4
5	4	100	0	1	5	3	4
5	6	960	0	1	2	1	0
5	6	1600	0	1	2	3	4
5	6	442368	0	1	2	5	4
5	6	50	0	1	5	3	4
5	7	2176	0	1	2	1	0
5	7	3700	0	1	2	3	4
5	7	729088	0	1	2	5	4
5	8	1024	0	1	2	1	0
5	8	4300	0	1	2	3	4
5	8	573440	0	1	2	5	4
5	9	640	0	1	2	1	0
5	9	1800	0	1	2	3	4
5	9	249856	0	1	2	5	4
6	0	30656	0	1	2	1	0
6	0	72500	0	1	2	3	4
6	0	1.07561e+07	0	1	2	5	4
6	0	250	0	1	5	3	4
6	1	11456	0	1	2	1	0
6	1	25600	0	1	2	3	4
6	1	3.96493e+06	0	1	2	5	4
6	1	150	0	1	5	3	4
6	2	3456	0	1	2	1	0
6	2	7800	0	1	2	3	4
6	2	1.15917e+06	0	1	2	5	4
6	2	100	0	1	5	3	4
6	3	5312	0	1	2	1	0
6	3	14200	0	1	2	3	4
6	3	2.08077e+06	0	1	2	5	4
6	3	50	0	1	5	3	4
6	4	3264	0	1	2	1	0
6	4	7600	0	1	2	3	4
6	4	1.27795e+06	0	1	2	5	4
6	4	100	0	1	5	3	4
6	5	1664	0	1	2	1	0
6	5	2900	0	1	2	3	4
6	5	487424	0	1	2	5	4
6	7	896	0	1	2	1	0
6	7	1900	0	1	2	3	4
6	7	237568	0	1	2	5	4
6	8	1344	0	1	2	1	0
6	8	2600	0	1	2	3	4
6	8	385024	0	1	2	5	4
6	9	640	0	1	2	1	0
6	9	1600	0	1	2	3	4
6	9	143360	0	1	2	5	4
7	0	33088	0	1	2	1	0
7	0	80500	0	1	2	3	4
7	0	1.23453e+07	0	1	2	5	4
7	0	350	0	1	5	3	4
7	1	8064	0	1	2	1	0
7	1	21600	0	1	2	3	4
7	1	3.12525e+06	0	1	2	5	4
7	1	100	0	1	5	3	4
7	2	7488	0	1	2	1	0
7	2	16200	0	1	2	3	4
7	2	2.78528e+06	0	1	2	5	4
7	2	50	0	1	5	3	4
7	3	3968	0	1	2	1	0
7	3	11200	0	1	2	3	4
7	3	1.52371e+06	0	1	2	5	4
7	4	1216	0	1	2	1	0
7	4	1600	0	1	2	3	4
7	4	299008	0	1	2	5	4
7	5	1920	0	1	2	1	0
7	5	4300	0	1	2	3	4
7	5	704512	0	1	2	5	4
7	6	704	0	1	2	1	0
7	6	1800	0	1	2	3	4
7	6	233472	0	1	2	5	4
7	8	320	0	1	2	1	0
7	8	1400	0	1	2	3	4
7	8	167936	0	1	2	5	4
7	9	448	0	1	2	1	0
7	9	800	0	1	2	3	4
7	9	151552	0	1	2	5	4
8	0	27264	0	1	2	1	0
8	0	66100	0	1	2	3	4
8	0	9.83859e+06	0	1	2	5	4
8	0	350	0	1	5	3	4
8	1	13760	0	1	2	1	0
8	1	30600	0	1	2	3	4
8	1	4.86605e+06	0	1	2	5	4
8	1	300	0	1	5	3	4
8	2	3264	0	1	2	1	0
8	2	7400	0	1	2	3	4
8	2	1.1264e+06	0	1	2	5	4
8	2	50	0	1	5	3	4
8	3	4352	0	1	2	1	0
8	3	8200	0	1	2	3	4
8	3	1.19603e+06	0	1	2	5	4
8	4	1088	0	1	2	1	0
8	4	2000	0	1	2	3	4
8	4	458752	0	1	2	5	4
8	5	1472	0	1	2	1	0
8	5	2600	0	1	2	3	4
8	5	561152	0	1	2	5	4
8	6	960	0	1	2	1	0
8	6	2200	0	1	2	3	4
8	6	405504	0	1	2	5	4
8	7	320	0	1	2	1	0
8	7	1000	0	1	2	3	4
8	7	163840	0	1	2	5	4
8	9	192	0	1	2	1	0
8	9	600	0	1	2	3	4
8	9	118784	0	1	2	5	4
9	0	44224	0	1	2	1	0
9	0	102800	0	1	2	3	4
9	0	1.67158e+07	0	1	2	5	4
9	0	400	0	1	5	3	4
9	1	3520	0	1	2	1	0
9	1	7100	0	1	2	3	4
9	1	1.22061e+06	0	1	2	5	4
9	1	50	0	1	5	3	4
9	2	1536	0	1	2	1	0
9	2	4300	0	1	2	3	4
9	2	565248	0	1	2	5	4
9	3	3008	0	1	2	1	0
9	3	5800	0	1	2	3	4
9	3	1.00352e+06	0	1	2	5	4
9	3	50	0	1	5	3	4
9	4	832	0	1	2	1	0
9	4	900	0	1	2	3	4
9	4	262144	0	1	2	5	4
9	5	512	0	1	2	1	0
9	5	1700	0	1	2	3	4
9	5	249856	0	1	2	5	4
9	6	640	0	1	2	1	0
9	6	1000	0	1	2	3	4
9	6	188416	0	1	2	5	4
9	7	384	0	1	2	1	0
9	7	500	0	1	2	3	4
9	7	118784	0	1	2	5	4
9	8	192	0	1	2	1	0
9	8	600	0	1	2	3	4
9	8	86016	0	1	2	5	4
