100000	100000	100000	10000	1000	1000
0	1	29696	0	1	2	1	0
0	1	69100	0	1	2	3	4
0	1	1.08995e+07	0	1	2	5	4
0	1	250	0	1	5	3	4
0	2	29888	0	1	2	1	0
0	2	66000	0	1	2	3	4
0	2	1.11575e+07	0	1	2	5	4
0	2	50	0	1	5	3	4
0	3	30208	0	1	2	1	0
0	3	68900	0	1	2	3	4
0	3	1.15999e+07	0	1	2	5	4
0	3	200	0	1	5	3	4
0	4	29824	0	1	2	1	0
0	4	69900	0	1	2	3	4
0	4	1.09568e+07	0	1	2	5	4
0	4	350	0	1	5	3	4
0	5	30592	0	1	2	1	0
0	5	71900	0	1	2	3	4
0	5	1.08995e+07	0	1	2	5	4
0	5	200	0	1	5	3	4
0	6	29824	0	1	2	1	0
0	6	72400	0	1	2	3	4
0	6	1.1092e+07	0	1	2	5	4
0	6	100	0	1	5	3	4
0	7	29824	0	1	2	1	0
0	7	70400	0	1	2	3	4
0	7	1.12312e+07	0	1	2	5	4
0	7	150	0	1	5	3	4
0	8	28736	0	1	2	1	0
0	8	73700	0	1	2	3	4
0	8	1.11903e+07	0	1	2	5	4
0	8	150	0	1	5	3	4
0	9	26944	0	1	2	1	0
0	9	68500	0	1	2	3	4
0	9	1.08012e+07	0	1	2	5	4
0	9	350	0	1	5	3	4
1	0	29248	0	1	2	1	0
1	0	66200	0	1	2	3	4
1	0	1.07602e+07	0	1	2	5	4
1	0	300	0	1	5	3	4
1	2	28928	0	1	2	1	0
1	2	68400	0	1	2	3	4
1	2	1.08216e+07	0	1	2	5	4
1	2	200	0	1	5	3	4
1	3	29248	0	1	2	1	0
1	3	68300	0	1	2	3	4
1	3	1.11903e+07	0	1	2	5	4
1	3	100	0	1	5	3	4
1	4	28544	0	1	2	1	0
1	4	69600	0	1	2	3	4
1	4	1.09117e+07	0	1	2	5	4
1	4	250	0	1	5	3	4
1	5	29312	0	1	2	1	0
1	5	68200	0	1	2	3	4
1	5	1.09486e+07	0	1	2	5	4
1	5	400	0	1	5	3	4
1	6	29696	0	1	2	1	0
1	6	67200	0	1	2	3	4
1	6	1.10715e+07	0	1	2	5	4
1	6	200	0	1	5	3	4
1	7	29376	0	1	2	1	0
1	7	70000	0	1	2	3	4
1	7	1.09609e+07	0	1	2	5	4
1	7	400	0	1	5	3	4
1	8	28672	0	1	2	1	0
1	8	66100	0	1	2	3	4
1	8	1.09896e+07	0	1	2	5	4
1	8	400	0	1	5	3	4
1	9	30464	0	1	2	1	0
1	9	70400	0	1	2	3	4
1	9	1.09978e+07	0	1	2	5	4
1	9	150	0	1	5	3	4
2	0	27264	0	1	2	1	0
2	0	69800	0	1	2	3	4
2	0	1.11493e+07	0	1	2	5	4
2	0	200	0	1	5	3	4
2	1	28160	0	1	2	1	0
2	1	68100	0	1	2	3	4
2	1	1.10838e+07	0	1	2	5	4
2	1	400	0	1	5	3	4
2	3	29056	0	1	2	1	0
2	3	68100	0	1	2	3	4
2	3	1.09445e+07	0	1	2	5	4
2	3	500	0	1	5	3	4
2	4	28416	0	1	2	1	0
2	4	72200	0	1	2	3	4
2	4	1.13951e+07	0	1	2	5	4
2	4	550	0	1	5	3	4
2	5	30784	0	1	2	1	0
2	5	78100	0	1	2	3	4
2	5	1.09158e+07	0	1	2	5	4
2	5	450	0	1	5	3	4
2	6	30656	0	1	2	1	0
2	6	69600	0	1	2	3	4
2	6	1.11493e+07	0	1	2	5	4
2	6	250	0	1	5	3	4
2	7	27008	0	1	2	1	0
2	7	75200	0	1	2	3	4
2	7	1.0793e+07	0	1	2	5	4
2	7	500	0	1	5	3	4
2	8	30528	0	1	2	1	0
2	8	68500	0	1	2	3	4
2	8	1.08257e+07	0	1	2	5	4
2	8	250	0	1	5	3	4
2	9	28160	0	1	2	1	0
2	9	68400	0	1	2	3	4
2	9	1.07807e+07	0	1	2	5	4
2	9	500	0	1	5	3	4
3	0	28352	0	1	2	1	0
3	0	71300	0	1	2	3	4
3	0	1.12026e+07	0	1	2	5	4
3	0	50	0	1	5	3	4
3	1	30336	0	1	2	1	0
3	1	66300	0	1	2	3	4
3	1	1.09322e+07	0	1	2	5	4
3	1	400	0	1	5	3	4
3	2	29184	0	1	2	1	0
3	2	73400	0	1	2	3	4
3	2	1.101e+07	0	1	2	5	4
3	2	300	0	1	5	3	4
3	4	28224	0	1	2	1	0
3	4	69400	0	1	2	3	4
3	4	1.0711e+07	0	1	2	5	4
3	4	250	0	1	5	3	4
3	5	28672	0	1	2	1	0
3	5	70500	0	1	2	3	4
3	5	1.06455e+07	0	1	2	5	4
3	5	300	0	1	5	3	4
3	6	30400	0	1	2	1	0
3	6	72100	0	1	2	3	4
3	6	1.09691e+07	0	1	2	5	4
3	6	150	0	1	5	3	4
3	7	30080	0	1	2	1	0
3	7	71600	0	1	2	3	4
3	7	1.14524e+07	0	1	2	5	4
3	7	300	0	1	5	3	4
3	8	27392	0	1	2	1	0
3	8	70600	0	1	2	3	4
3	8	1.1051e+07	0	1	2	5	4
3	8	50	0	1	5	3	4
3	9	29760	0	1	2	1	0
3	9	71700	0	1	2	3	4
3	9	1.06947e+07	0	1	2	5	4
3	9	300	0	1	5	3	4
4	0	29824	0	1	2	1	0
4	0	71300	0	1	2	3	4
4	0	1.10674e+07	0	1	2	5	4
4	0	200	0	1	5	3	4
4	1	31360	0	1	2	1	0
4	1	71400	0	1	2	3	4
4	1	1.10428e+07	0	1	2	5	4
4	1	350	0	1	5	3	4
4	2	29440	0	1	2	1	0
4	2	69700	0	1	2	3	4
4	2	1.10961e+07	0	1	2	5	4
4	2	250	0	1	5	3	4
4	3	28992	0	1	2	1	0
4	3	70900	0	1	2	3	4
4	3	1.10797e+07	0	1	2	5	4
4	3	200	0	1	5	3	4
4	5	25920	0	1	2	1	0
4	5	69900	0	1	2	3	4
4	5	1.09486e+07	0	1	2	5	4
4	5	200	0	1	5	3	4
4	6	30592	0	1	2	1	0
4	6	72400	0	1	2	3	4
4	6	1.10428e+07	0	1	2	5	4
4	6	200	0	1	5	3	4
4	7	30080	0	1	2	1	0
4	7	73000	0	1	2	3	4
4	7	1.11452e+07	0	1	2	5	4
4	7	350	0	1	5	3	4
4	8	28864	0	1	2	1	0
4	8	71600	0	1	2	3	4
4	8	1.0838e+07	0	1	2	5	4
4	8	400	0	1	5	3	4
4	9	28160	0	1	2	1	0
4	9	66000	0	1	2	3	4
4	9	1.10756e+07	0	1	2	5	4
4	9	100	0	1	5	3	4
5	0	27904	0	1	2	1	0
5	0	68500	0	1	2	3	4
5	0	1.13418e+07	0	1	2	5	4
5	0	200	0	1	5	3	4
5	1	28800	0	1	2	1	0
5	1	68600	0	1	2	3	4
5	1	1.07971e+07	0	1	2	5	4
5	1	450	0	1	5	3	4
5	2	28416	0	1	2	1	0
5	2	69000	0	1	2	3	4
5	2	1.10264e+07	0	1	2	5	4
5	2	350	0	1	5	3	4
5	3	33088	0	1	2	1	0
5	3	69600	0	1	2	3	4
5	3	1.09486e+07	0	1	2	5	4
5	3	100	0	1	5	3	4
5	4	31232	0	1	2	1	0
5	4	70500	0	1	2	3	4
5	4	1.09855e+07	0	1	2	5	4
5	4	100	0	1	5	3	4
5	6	29440	0	1	2	1	0
5	6	72800	0	1	2	3	4
5	6	1.10715e+07	0	1	2	5	4
5	6	250	0	1	5	3	4
5	7	28800	0	1	2	1	0
5	7	71700	0	1	2	3	4
5	7	1.10797e+07	0	1	2	5	4
5	7	300	0	1	5	3	4
5	8	27840	0	1	2	1	0
5	8	70300	0	1	2	3	4
5	8	1.09445e+07	0	1	2	5	4
5	8	100	0	1	5	3	4
5	9	28928	0	1	2	1	0
5	9	66000	0	1	2	3	4
5	9	1.10346e+07	0	1	2	5	4
5	9	200	0	1	5	3	4
6	0	27904	0	1	2	1	0
6	0	70800	0	1	2	3	4
6	0	1.11165e+07	0	1	2	5	4
6	0	150	0	1	5	3	4
6	1	29376	0	1	2	1	0
6	1	68200	0	1	2	3	4
6	1	1.13009e+07	0	1	2	5	4
6	1	350	0	1	5	3	4
6	2	29120	0	1	2	1	0
6	2	70000	0	1	2	3	4
6	2	1.08954e+07	0	1	2	5	4
6	2	250	0	1	5	3	4
6	3	26752	0	1	2	1	0
6	3	68200	0	1	2	3	4
6	3	1.06906e+07	0	1	2	5	4
6	3	150	0	1	5	3	4
6	4	28288	0	1	2	1	0
6	4	71700	0	1	2	3	4
6	4	1.08339e+07	0	1	2	5	4
6	4	350	0	1	5	3	4
6	5	27648	0	1	2	1	0
6	5	68600	0	1	2	3	4
6	5	1.09281e+07	0	1	2	5	4
6	5	300	0	1	5	3	4
6	7	30464	0	1	2	1	0
6	7	73200	0	1	2	3	4
6	7	1.10797e+07	0	1	2	5	4
6	7	250	0	1	5	3	4
6	8	30336	0	1	2	1	0
6	8	67600	0	1	2	3	4
6	8	1.08421e+07	0	1	2	5	4
6	8	150	0	1	5	3	4
6	9	29696	0	1	2	1	0
6	9	67100	0	1	2	3	4
6	9	1.11616e+07	0	1	2	5	4
6	9	350	0	1	5	3	4
7	0	29568	0	1	2	1	0
7	0	73800	0	1	2	3	4
7	0	1.11985e+07	0	1	2	5	4
7	0	100	0	1	5	3	4
7	1	31488	0	1	2	1	0
7	1	69100	0	1	2	3	4
7	1	1.12517e+07	0	1	2	5	4
7	1	150	0	1	5	3	4
7	2	29376	0	1	2	1	0
7	2	74500	0	1	2	3	4
7	2	1.11084e+07	0	1	2	5	4
7	2	400	0	1	5	3	4
7	3	26304	0	1	2	1	0
7	3	72600	0	1	2	3	4
7	3	1.08339e+07	0	1	2	5	4
7	3	550	0	1	5	3	4
7	4	28608	0	1	2	1	0
7	4	69700	0	1	2	3	4
7	4	1.06168e+07	0	1	2	5	4
7	4	350	0	1	5	3	4
7	5	29248	0	1	2	1	0
7	5	67200	0	1	2	3	4
7	5	1.08626e+07	0	1	2	5	4
7	5	200	0	1	5	3	4
7	6	29952	0	1	2	1	0
7	6	70800	0	1	2	3	4
7	6	1.09445e+07	0	1	2	5	4
7	6	250	0	1	5	3	4
7	8	26432	0	1	2	1	0
7	8	68400	0	1	2	3	4
7	8	1.05923e+07	0	1	2	5	4
7	8	250	0	1	5	3	4
7	9	30912	0	1	2	1	0
7	9	65400	0	1	2	3	4
7	9	1.09158e+07	0	1	2	5	4
7	9	500	0	1	5	3	4
8	0	27840	0	1	2	1	0
8	0	69100	0	1	2	3	4
8	0	1.09158e+07	0	1	2	5	4
8	0	150	0	1	5	3	4
8	1	28224	0	1	2	1	0
8	1	67000	0	1	2	3	4
8	1	1.13418e+07	0	1	2	5	4
8	1	250	0	1	5	3	4
8	2	28224	0	1	2	1	0
8	2	70000	0	1	2	3	4
8	2	1.13213e+07	0	1	2	5	4
8	2	250	0	1	5	3	4
8	3	32000	0	1	2	1	0
8	3	64600	0	1	2	3	4
8	3	1.13787e+07	0	1	2	5	4
8	3	200	0	1	5	3	4
8	4	27392	0	1	2	1	0
8	4	71700	0	1	2	3	4
8	4	1.07561e+07	0	1	2	5	4
8	4	300	0	1	5	3	4
8	5	27840	0	1	2	1	0
8	5	68500	0	1	2	3	4
8	5	1.11821e+07	0	1	2	5	4
8	5	300	0	1	5	3	4
8	6	33024	0	1	2	1	0
8	6	67200	0	1	2	3	4
8	6	1.13541e+07	0	1	2	5	4
8	6	350	0	1	5	3	4
8	7	27904	0	1	2	1	0
8	7	70100	0	1	2	3	4
8	7	1.10346e+07	0	1	2	5	4
8	7	200	0	1	5	3	4
8	9	28928	0	1	2	1	0
8	9	72100	0	1	2	3	4
8	9	1.0752e+07	0	1	2	5	4
8	9	400	0	1	5	3	4
9	0	31360	0	1	2	1	0
9	0	68600	0	1	2	3	4
9	0	1.1051e+07	0	1	2	5	4
9	0	250	0	1	5	3	4
9	1	28800	0	1	2	1	0
9	1	74500	0	1	2	3	4
9	1	1.12558e+07	0	1	2	5	4
9	1	200	0	1	5	3	4
9	2	30336	0	1	2	1	0
9	2	69300	0	1	2	3	4
9	2	1.07643e+07	0	1	2	5	4
9	2	300	0	1	5	3	4
9	3	26752	0	1	2	1	0
9	3	68600	0	1	2	3	4
9	3	1.09281e+07	0	1	2	5	4
9	3	150	0	1	5	3	4
9	4	29184	0	1	2	1	0
9	4	66400	0	1	2	3	4
9	4	1.13336e+07	0	1	2	5	4
9	4	150	0	1	5	3	4
9	5	29184	0	1	2	1	0
9	5	69500	0	1	2	3	4
9	5	1.08503e+07	0	1	2	5	4
9	5	450	0	1	5	3	4
9	6	28288	0	1	2	1	0
9	6	73700	0	1	2	3	4
9	6	1.11084e+07	0	1	2	5	4
9	6	350	0	1	5	3	4
9	7	31552	0	1	2	1	0
9	7	72300	0	1	2	3	4
9	7	1.10182e+07	0	1	2	5	4
9	7	200	0	1	5	3	4
9	8	27200	0	1	2	1	0
9	8	68200	0	1	2	3	4
9	8	1.07889e+07	0	1	2	5	4
9	8	200	0	1	5	3	4
