100000	100000	100000	10000	1000	1000
0	1	347840	0	1	2	1	0
0	1	849800	0	1	2	3	4
0	1	1.29675e+08	0	1	2	5	4
0	1	3400	0	1	5	3	4
0	2	445760	0	1	2	1	0
0	2	1.0935e+06	0	1	2	3	4
0	2	1.73523e+08	0	1	2	5	4
0	2	3900	0	1	5	3	4
0	3	124096	0	1	2	1	0
0	3	314800	0	1	2	3	4
0	3	4.88448e+07	0	1	2	5	4
0	3	1050	0	1	5	3	4
0	4	42368	0	1	2	1	0
0	4	94200	0	1	2	3	4
0	4	1.57532e+07	0	1	2	5	4
0	4	400	0	1	5	3	4
0	5	35008	0	1	2	1	0
0	5	92700	0	1	2	3	4
0	5	1.41558e+07	0	1	2	5	4
0	5	600	0	1	5	3	4
0	6	27392	0	1	2	1	0
0	6	66900	0	1	2	3	4
0	6	1.05513e+07	0	1	2	5	4
0	6	250	0	1	5	3	4
0	7	13440	0	1	2	1	0
0	7	40800	0	1	2	3	4
0	7	5.89005e+06	0	1	2	5	4
0	7	100	0	1	5	3	4
0	8	24704	0	1	2	1	0
0	8	60200	0	1	2	3	4
0	8	9.45357e+06	0	1	2	5	4
0	8	350	0	1	5	3	4
0	9	19072	0	1	2	1	0
0	9	46600	0	1	2	3	4
0	9	7.84384e+06	0	1	2	5	4
0	9	250	0	1	5	3	4
1	0	343296	0	1	2	1	0
1	0	818700	0	1	2	3	4
1	0	1.28942e+08	0	1	2	5	4
1	0	2800	0	1	5	3	4
1	2	56192	0	1	2	1	0
1	2	133900	0	1	2	3	4
1	2	2.13852e+07	0	1	2	5	4
1	2	450	0	1	5	3	4
1	3	20736	0	1	2	1	0
1	3	52300	0	1	2	3	4
1	3	8.36403e+06	0	1	2	5	4
1	3	150	0	1	5	3	4
1	4	9984	0	1	2	1	0
1	4	24000	0	1	2	3	4
1	4	3.91168e+06	0	1	2	5	4
1	4	100	0	1	5	3	4
1	5	10496	0	1	2	1	0
1	5	22300	0	1	2	3	4
1	5	3.75194e+06	0	1	2	5	4
1	5	250	0	1	5	3	4
1	6	6336	0	1	2	1	0
1	6	17400	0	1	2	3	4
1	6	2.54362e+06	0	1	2	5	4
1	6	50	0	1	5	3	4
1	7	4992	0	1	2	1	0
1	7	10400	0	1	2	3	4
1	7	1.67117e+06	0	1	2	5	4
1	8	6080	0	1	2	1	0
1	8	14000	0	1	2	3	4
1	8	2.52314e+06	0	1	2	5	4
1	9	9984	0	1	2	1	0
1	9	24800	0	1	2	3	4
1	9	3.9936e+06	0	1	2	5	4
1	9	150	0	1	5	3	4
2	0	454848	0	1	2	1	0
2	0	1.1108e+06	0	1	2	3	4
2	0	1.72085e+08	0	1	2	5	4
2	0	4100	0	1	5	3	4
2	1	54080	0	1	2	1	0
2	1	133800	0	1	2	3	4
2	1	2.16719e+07	0	1	2	5	4
2	1	450	0	1	5	3	4
2	3	28864	0	1	2	1	0
2	3	67000	0	1	2	3	4
2	3	1.11043e+07	0	1	2	5	4
2	3	100	0	1	5	3	4
2	4	6208	0	1	2	1	0
2	4	16500	0	1	2	3	4
2	4	2.29376e+06	0	1	2	5	4
2	5	6336	0	1	2	1	0
2	5	16300	0	1	2	3	4
2	5	2.43302e+06	0	1	2	5	4
2	5	150	0	1	5	3	4
2	6	4032	0	1	2	1	0
2	6	11200	0	1	2	3	4
2	6	1.67526e+06	0	1	2	5	4
2	6	50	0	1	5	3	4
2	7	2624	0	1	2	1	0
2	7	5100	0	1	2	3	4
2	7	819200	0	1	2	5	4
2	7	100	0	1	5	3	4
2	8	5696	0	1	2	1	0
2	8	13100	0	1	2	3	4
2	8	2.33882e+06	0	1	2	5	4
2	9	4480	0	1	2	1	0
2	9	9700	0	1	2	3	4
2	9	1.72442e+06	0	1	2	5	4
3	0	129728	0	1	2	1	0
3	0	314900	0	1	2	3	4
3	0	4.89472e+07	0	1	2	5	4
3	0	1250	0	1	5	3	4
3	1	19200	0	1	2	1	0
3	1	55500	0	1	2	3	4
3	1	7.93395e+06	0	1	2	5	4
3	1	350	0	1	5	3	4
3	2	27712	0	1	2	1	0
3	2	70000	0	1	2	3	4
3	2	1.1006e+07	0	1	2	5	4
3	2	550	0	1	5	3	4
3	4	2496	0	1	2	1	0
3	4	7200	0	1	2	3	4
3	4	851968	0	1	2	5	4
3	5	2560	0	1	2	1	0
3	5	5800	0	1	2	3	4
3	5	860160	0	1	2	5	4
3	6	2432	0	1	2	1	0
3	6	4300	0	1	2	3	4
3	6	630784	0	1	2	5	4
3	6	50	0	1	5	3	4
3	7	1152	0	1	2	1	0
3	7	2400	0	1	2	3	4
3	7	266240	0	1	2	5	4
3	8	1856	0	1	2	1	0
3	8	3400	0	1	2	3	4
3	8	622592	0	1	2	5	4
3	9	1728	0	1	2	1	0
3	9	4300	0	1	2	3	4
3	9	446464	0	1	2	5	4
3	9	50	0	1	5	3	4
4	0	41920	0	1	2	1	0
4	0	95400	0	1	2	3	4
4	0	1.53477e+07	0	1	2	5	4
4	0	350	0	1	5	3	4
4	1	10496	0	1	2	1	0
4	1	20400	0	1	2	3	4
4	1	3.8871e+06	0	1	2	5	4
4	1	150	0	1	5	3	4
4	2	7104	0	1	2	1	0
4	2	13700	0	1	2	3	4
4	2	2.22413e+06	0	1	2	5	4
4	2	150	0	1	5	3	4
4	3	2112	0	1	2	1	0
4	3	6500	0	1	2	3	4
4	3	946176	0	1	2	5	4
4	5	4992	0	1	2	1	0
4	5	10400	0	1	2	3	4
4	5	1.7408e+06	0	1	2	5	4
4	5	50	0	1	5	3	4
4	6	4096	0	1	2	1	0
4	6	9100	0	1	2	3	4
4	6	1.29434e+06	0	1	2	5	4
4	6	50	0	1	5	3	4
4	7	960	0	1	2	1	0
4	7	4400	0	1	2	3	4
4	7	466944	0	1	2	5	4
4	8	896	0	1	2	1	0
4	8	1900	0	1	2	3	4
4	8	413696	0	1	2	5	4
4	8	50	0	1	5	3	4
4	9	512	0	1	2	1	0
4	9	600	0	1	2	3	4
4	9	196608	0	1	2	5	4
5	0	36544	0	1	2	1	0
5	0	95800	0	1	2	3	4
5	0	1.43974e+07	0	1	2	5	4
5	0	250	0	1	5	3	4
5	1	11264	0	1	2	1	0
5	1	23100	0	1	2	3	4
5	1	3.77651e+06	0	1	2	5	4
5	1	50	0	1	5	3	4
5	2	7040	0	1	2	1	0
5	2	11500	0	1	2	3	4
5	2	2.38387e+06	0	1	2	5	4
5	2	50	0	1	5	3	4
5	3	1728	0	1	2	1	0
5	3	3700	0	1	2	3	4
5	3	815104	0	1	2	5	4
5	4	5696	0	1	2	1	0
5	4	9800	0	1	2	3	4
5	4	1.81453e+06	0	1	2	5	4
5	6	1344	0	1	2	1	0
5	6	2700	0	1	2	3	4
5	6	491520	0	1	2	5	4
5	7	448	0	1	2	1	0
5	7	1600	0	1	2	3	4
5	7	176128	0	1	2	5	4
5	8	1152	0	1	2	1	0
5	8	2700	0	1	2	3	4
5	8	536576	0	1	2	5	4
5	9	512	0	1	2	1	0
5	9	1300	0	1	2	3	4
5	9	204800	0	1	2	5	4
6	0	26240	0	1	2	1	0
6	0	67000	0	1	2	3	4
6	0	1.07725e+07	0	1	2	5	4
6	0	400	0	1	5	3	4
6	1	7360	0	1	2	1	0
6	1	16500	0	1	2	3	4
6	1	2.51085e+06	0	1	2	5	4
6	2	4416	0	1	2	1	0
6	2	12000	0	1	2	3	4
6	2	1.66298e+06	0	1	2	5	4
6	2	50	0	1	5	3	4
6	3	1728	0	1	2	1	0
6	3	4200	0	1	2	3	4
6	3	655360	0	1	2	5	4
6	3	50	0	1	5	3	4
6	4	4160	0	1	2	1	0
6	4	5800	0	1	2	3	4
6	4	1.27795e+06	0	1	2	5	4
6	4	50	0	1	5	3	4
6	5	1280	0	1	2	1	0
6	5	2300	0	1	2	3	4
6	5	458752	0	1	2	5	4
6	7	1728	0	1	2	1	0
6	7	2100	0	1	2	3	4
6	7	442368	0	1	2	5	4
6	8	768	0	1	2	1	0
6	8	2600	0	1	2	3	4
6	8	385024	0	1	2	5	4
6	9	64	0	1	2	1	0
6	9	1200	0	1	2	3	4
6	9	167936	0	1	2	5	4
7	0	15040	0	1	2	1	0
7	0	38600	0	1	2	3	4
7	0	6.3447e+06	0	1	2	5	4
7	0	100	0	1	5	3	4
7	1	4864	0	1	2	1	0
7	1	10400	0	1	2	3	4
7	1	1.4295e+06	0	1	2	5	4
7	2	2368	0	1	2	1	0
7	2	7300	0	1	2	3	4
7	2	851968	0	1	2	5	4
7	3	896	0	1	2	1	0
7	3	1500	0	1	2	3	4
7	3	335872	0	1	2	5	4
7	4	1280	0	1	2	1	0
7	4	2600	0	1	2	3	4
7	4	425984	0	1	2	5	4
7	4	50	0	1	5	3	4
7	5	320	0	1	2	1	0
7	5	1900	0	1	2	3	4
7	5	303104	0	1	2	5	4
7	6	1536	0	1	2	1	0
7	6	2900	0	1	2	3	4
7	6	475136	0	1	2	5	4
7	8	192	0	1	2	1	0
7	8	600	0	1	2	3	4
7	8	172032	0	1	2	5	4
7	9	256	0	1	2	1	0
7	9	600	0	1	2	3	4
7	9	102400	0	1	2	5	4
8	0	24640	0	1	2	1	0
8	0	61100	0	1	2	3	4
8	0	9.56416e+06	0	1	2	5	4
8	0	350	0	1	5	3	4
8	1	6976	0	1	2	1	0
8	1	14000	0	1	2	3	4
8	1	2.28966e+06	0	1	2	5	4
8	1	150	0	1	5	3	4
8	2	5952	0	1	2	1	0
8	2	13000	0	1	2	3	4
8	2	1.99475e+06	0	1	2	5	4
8	2	150	0	1	5	3	4
8	3	1728	0	1	2	1	0
8	3	3400	0	1	2	3	4
8	3	544768	0	1	2	5	4
8	3	50	0	1	5	3	4
8	4	576	0	1	2	1	0
8	4	2900	0	1	2	3	4
8	4	397312	0	1	2	5	4
8	5	1024	0	1	2	1	0
8	5	3300	0	1	2	3	4
8	5	487424	0	1	2	5	4
8	5	50	0	1	5	3	4
8	6	1280	0	1	2	1	0
8	6	3000	0	1	2	3	4
8	6	397312	0	1	2	5	4
8	7	256	0	1	2	1	0
8	7	300	0	1	2	3	4
8	7	192512	0	1	2	5	4
8	9	1152	0	1	2	1	0
8	9	1700	0	1	2	3	4
8	9	212992	0	1	2	5	4
9	0	19008	0	1	2	1	0
9	0	49200	0	1	2	3	4
9	0	8.03635e+06	0	1	2	5	4
9	0	250	0	1	5	3	4
9	1	10432	0	1	2	1	0
9	1	24300	0	1	2	3	4
9	1	3.70278e+06	0	1	2	5	4
9	1	100	0	1	5	3	4
9	2	3712	0	1	2	1	0
9	2	10400	0	1	2	3	4
9	2	1.63021e+06	0	1	2	5	4
9	3	1408	0	1	2	1	0
9	3	2500	0	1	2	3	4
9	3	458752	0	1	2	5	4
9	4	256	0	1	2	1	0
9	4	1400	0	1	2	3	4
9	4	159744	0	1	2	5	4
9	5	768	0	1	2	1	0
9	5	700	0	1	2	3	4
9	5	212992	0	1	2	5	4
9	5	50	0	1	5	3	4
9	6	384	0	1	2	1	0
9	6	500	0	1	2	3	4
9	6	176128	0	1	2	5	4
9	7	256	0	1	2	1	0
9	7	900	0	1	2	3	4
9	7	77824	0	1	2	5	4
9	8	512	0	1	2	1	0
9	8	2200	0	1	2	3	4
9	8	151552	0	1	2	5	4
