100000	100000	100000	10000	1000	1000
0	1	29248	0	1	2	1	0
0	1	69000	0	1	2	3	4
0	1	1.11247e+07	0	1	2	5	4
0	1	100	0	1	5	3	4
0	2	30400	0	1	2	1	0
0	2	69100	0	1	2	3	4
0	2	1.12271e+07	0	1	2	5	4
0	2	200	0	1	5	3	4
0	3	25728	0	1	2	1	0
0	3	69600	0	1	2	3	4
0	3	1.12558e+07	0	1	2	5	4
0	3	100	0	1	5	3	4
0	4	29120	0	1	2	1	0
0	4	74000	0	1	2	3	4
0	4	1.12681e+07	0	1	2	5	4
0	4	300	0	1	5	3	4
0	5	28224	0	1	2	1	0
0	5	70800	0	1	2	3	4
0	5	1.0879e+07	0	1	2	5	4
0	5	200	0	1	5	3	4
0	6	26816	0	1	2	1	0
0	6	67600	0	1	2	3	4
0	6	1.11821e+07	0	1	2	5	4
0	6	150	0	1	5	3	4
0	7	30080	0	1	2	1	0
0	7	74800	0	1	2	3	4
0	7	1.09158e+07	0	1	2	5	4
0	7	500	0	1	5	3	4
0	8	30464	0	1	2	1	0
0	8	71900	0	1	2	3	4
0	8	1.08462e+07	0	1	2	5	4
0	8	250	0	1	5	3	4
0	9	28864	0	1	2	1	0
0	9	71900	0	1	2	3	4
0	9	1.10469e+07	0	1	2	5	4
0	9	400	0	1	5	3	4
1	0	29504	0	1	2	1	0
1	0	67800	0	1	2	3	4
1	0	1.09814e+07	0	1	2	5	4
1	0	350	0	1	5	3	4
1	2	29760	0	1	2	1	0
1	2	69500	0	1	2	3	4
1	2	1.13132e+07	0	1	2	5	4
1	2	50	0	1	5	3	4
1	3	28352	0	1	2	1	0
1	3	68800	0	1	2	3	4
1	3	1.11534e+07	0	1	2	5	4
1	3	150	0	1	5	3	4
1	4	27968	0	1	2	1	0
1	4	73700	0	1	2	3	4
1	4	1.135e+07	0	1	2	5	4
1	4	350	0	1	5	3	4
1	5	29376	0	1	2	1	0
1	5	68700	0	1	2	3	4
1	5	1.0924e+07	0	1	2	5	4
1	5	150	0	1	5	3	4
1	6	28736	0	1	2	1	0
1	6	69300	0	1	2	3	4
1	6	1.14442e+07	0	1	2	5	4
1	6	100	0	1	5	3	4
1	7	28224	0	1	2	1	0
1	7	67100	0	1	2	3	4
1	7	1.05472e+07	0	1	2	5	4
1	7	300	0	1	5	3	4
1	8	30272	0	1	2	1	0
1	8	75800	0	1	2	3	4
1	8	1.11493e+07	0	1	2	5	4
1	8	450	0	1	5	3	4
1	9	29056	0	1	2	1	0
1	9	67000	0	1	2	3	4
1	9	1.09978e+07	0	1	2	5	4
1	9	300	0	1	5	3	4
2	0	28928	0	1	2	1	0
2	0	72600	0	1	2	3	4
2	0	1.08913e+07	0	1	2	5	4
2	0	250	0	1	5	3	4
2	1	29824	0	1	2	1	0
2	1	69000	0	1	2	3	4
2	1	1.1178e+07	0	1	2	5	4
2	1	400	0	1	5	3	4
2	3	29632	0	1	2	1	0
2	3	70900	0	1	2	3	4
2	3	1.10387e+07	0	1	2	5	4
2	3	250	0	1	5	3	4
2	4	28288	0	1	2	1	0
2	4	75300	0	1	2	3	4
2	4	1.07684e+07	0	1	2	5	4
2	4	150	0	1	5	3	4
2	5	24768	0	1	2	1	0
2	5	73700	0	1	2	3	4
2	5	1.11739e+07	0	1	2	5	4
2	5	200	0	1	5	3	4
2	6	27456	0	1	2	1	0
2	6	71300	0	1	2	3	4
2	6	1.11165e+07	0	1	2	5	4
2	6	100	0	1	5	3	4
2	7	28864	0	1	2	1	0
2	7	73500	0	1	2	3	4
2	7	1.09404e+07	0	1	2	5	4
2	7	200	0	1	5	3	4
2	8	29056	0	1	2	1	0
2	8	69200	0	1	2	3	4
2	8	1.07438e+07	0	1	2	5	4
2	8	200	0	1	5	3	4
2	9	28288	0	1	2	1	0
2	9	69100	0	1	2	3	4
2	9	1.13091e+07	0	1	2	5	4
2	9	400	0	1	5	3	4
3	0	29184	0	1	2	1	0
3	0	70400	0	1	2	3	4
3	0	1.10387e+07	0	1	2	5	4
3	0	400	0	1	5	3	4
3	1	27072	0	1	2	1	0
3	1	67700	0	1	2	3	4
3	1	1.12927e+07	0	1	2	5	4
3	1	350	0	1	5	3	4
3	2	28672	0	1	2	1	0
3	2	70000	0	1	2	3	4
3	2	1.10838e+07	0	1	2	5	4
3	2	450	0	1	5	3	4
3	4	28672	0	1	2	1	0
3	4	67800	0	1	2	3	4
3	4	1.09609e+07	0	1	2	5	4
3	4	300	0	1	5	3	4
3	5	28288	0	1	2	1	0
3	5	67800	0	1	2	3	4
3	5	1.0793e+07	0	1	2	5	4
3	5	400	0	1	5	3	4
3	6	29824	0	1	2	1	0
3	6	71200	0	1	2	3	4
3	6	1.12886e+07	0	1	2	5	4
3	6	200	0	1	5	3	4
3	7	30592	0	1	2	1	0
3	7	71000	0	1	2	3	4
3	7	1.11002e+07	0	1	2	5	4
3	7	200	0	1	5	3	4
3	8	32064	0	1	2	1	0
3	8	69400	0	1	2	3	4
3	8	1.07971e+07	0	1	2	5	4
3	8	300	0	1	5	3	4
3	9	29248	0	1	2	1	0
3	9	68700	0	1	2	3	4
3	9	1.09158e+07	0	1	2	5	4
3	9	50	0	1	5	3	4
4	0	28800	0	1	2	1	0
4	0	73900	0	1	2	3	4
4	0	1.07561e+07	0	1	2	5	4
4	0	300	0	1	5	3	4
4	1	28928	0	1	2	1	0
4	1	64200	0	1	2	3	4
4	1	1.11534e+07	0	1	2	5	4
4	1	250	0	1	5	3	4
4	2	29184	0	1	2	1	0
4	2	67100	0	1	2	3	4
4	2	1.13091e+07	0	1	2	5	4
4	2	500	0	1	5	3	4
4	3	29696	0	1	2	1	0
4	3	69000	0	1	2	3	4
4	3	1.06496e+07	0	1	2	5	4
4	3	200	0	1	5	3	4
4	5	28608	0	1	2	1	0
4	5	73500	0	1	2	3	4
4	5	1.10428e+07	0	1	2	5	4
4	5	350	0	1	5	3	4
4	6	29632	0	1	2	1	0
4	6	71200	0	1	2	3	4
4	6	1.05103e+07	0	1	2	5	4
4	6	300	0	1	5	3	4
4	7	26816	0	1	2	1	0
4	7	69700	0	1	2	3	4
4	7	1.14115e+07	0	1	2	5	4
4	7	450	0	1	5	3	4
4	8	28288	0	1	2	1	0
4	8	70800	0	1	2	3	4
4	8	1.11657e+07	0	1	2	5	4
4	8	150	0	1	5	3	4
4	9	30592	0	1	2	1	0
4	9	68800	0	1	2	3	4
4	9	1.06373e+07	0	1	2	5	4
4	9	100	0	1	5	3	4
5	0	31360	0	1	2	1	0
5	0	69100	0	1	2	3	4
5	0	1.09076e+07	0	1	2	5	4
5	0	300	0	1	5	3	4
5	1	30208	0	1	2	1	0
5	1	72600	0	1	2	3	4
5	1	1.05021e+07	0	1	2	5	4
5	1	300	0	1	5	3	4
5	2	30656	0	1	2	1	0
5	2	70800	0	1	2	3	4
5	2	1.13132e+07	0	1	2	5	4
5	2	350	0	1	5	3	4
5	3	29120	0	1	2	1	0
5	3	70000	0	1	2	3	4
5	3	1.1137e+07	0	1	2	5	4
5	3	350	0	1	5	3	4
5	4	29312	0	1	2	1	0
5	4	70200	0	1	2	3	4
5	4	1.09896e+07	0	1	2	5	4
5	4	150	0	1	5	3	4
5	6	27520	0	1	2	1	0
5	6	73700	0	1	2	3	4
5	6	1.08954e+07	0	1	2	5	4
5	6	150	0	1	5	3	4
5	7	30016	0	1	2	1	0
5	7	72700	0	1	2	3	4
5	7	1.15016e+07	0	1	2	5	4
5	7	200	0	1	5	3	4
5	8	30592	0	1	2	1	0
5	8	68500	0	1	2	3	4
5	8	1.09445e+07	0	1	2	5	4
5	8	450	0	1	5	3	4
5	9	28224	0	1	2	1	0
5	9	68300	0	1	2	3	4
5	9	1.08093e+07	0	1	2	5	4
5	9	350	0	1	5	3	4
6	0	30464	0	1	2	1	0
6	0	71100	0	1	2	3	4
6	0	1.08421e+07	0	1	2	5	4
6	0	400	0	1	5	3	4
6	1	30144	0	1	2	1	0
6	1	69200	0	1	2	3	4
6	1	1.10387e+07	0	1	2	5	4
6	1	300	0	1	5	3	4
6	2	30656	0	1	2	1	0
6	2	70500	0	1	2	3	4
6	2	1.07971e+07	0	1	2	5	4
6	2	350	0	1	5	3	4
6	3	28928	0	1	2	1	0
6	3	74500	0	1	2	3	4
6	3	1.08421e+07	0	1	2	5	4
6	3	300	0	1	5	3	4
6	4	28352	0	1	2	1	0
6	4	70700	0	1	2	3	4
6	4	1.11124e+07	0	1	2	5	4
6	4	300	0	1	5	3	4
6	5	31296	0	1	2	1	0
6	5	68200	0	1	2	3	4
6	5	1.12394e+07	0	1	2	5	4
6	5	200	0	1	5	3	4
6	7	28608	0	1	2	1	0
6	7	67900	0	1	2	3	4
6	7	1.10346e+07	0	1	2	5	4
6	7	300	0	1	5	3	4
6	8	28480	0	1	2	1	0
6	8	71600	0	1	2	3	4
6	8	1.09527e+07	0	1	2	5	4
6	8	400	0	1	5	3	4
6	9	28992	0	1	2	1	0
6	9	68400	0	1	2	3	4
6	9	1.08544e+07	0	1	2	5	4
6	9	600	0	1	5	3	4
7	0	28992	0	1	2	1	0
7	0	69200	0	1	2	3	4
7	0	1.11575e+07	0	1	2	5	4
7	0	400	0	1	5	3	4
7	1	28800	0	1	2	1	0
7	1	73000	0	1	2	3	4
7	1	1.1051e+07	0	1	2	5	4
7	1	550	0	1	5	3	4
7	2	29056	0	1	2	1	0
7	2	67100	0	1	2	3	4
7	2	1.08708e+07	0	1	2	5	4
7	2	450	0	1	5	3	4
7	3	30848	0	1	2	1	0
7	3	72700	0	1	2	3	4
7	3	1.09445e+07	0	1	2	5	4
7	3	400	0	1	5	3	4
7	4	28160	0	1	2	1	0
7	4	66500	0	1	2	3	4
7	4	1.06701e+07	0	1	2	5	4
7	4	350	0	1	5	3	4
7	5	29248	0	1	2	1	0
7	5	66000	0	1	2	3	4
7	5	1.07397e+07	0	1	2	5	4
7	5	50	0	1	5	3	4
7	6	30656	0	1	2	1	0
7	6	73400	0	1	2	3	4
7	6	1.08749e+07	0	1	2	5	4
7	6	250	0	1	5	3	4
7	8	30080	0	1	2	1	0
7	8	69900	0	1	2	3	4
7	8	1.07971e+07	0	1	2	5	4
7	8	100	0	1	5	3	4
7	9	27584	0	1	2	1	0
7	9	69900	0	1	2	3	4
7	9	1.08667e+07	0	1	2	5	4
7	9	50	0	1	5	3	4
8	0	29952	0	1	2	1	0
8	0	67800	0	1	2	3	4
8	0	1.12968e+07	0	1	2	5	4
8	0	300	0	1	5	3	4
8	1	27968	0	1	2	1	0
8	1	68700	0	1	2	3	4
8	1	1.09158e+07	0	1	2	5	4
8	1	200	0	1	5	3	4
8	2	26944	0	1	2	1	0
8	2	66600	0	1	2	3	4
8	2	1.11165e+07	0	1	2	5	4
8	2	300	0	1	5	3	4
8	3	31168	0	1	2	1	0
8	3	75000	0	1	2	3	4
8	3	1.0924e+07	0	1	2	5	4
8	3	250	0	1	5	3	4
8	4	30912	0	1	2	1	0
8	4	67100	0	1	2	3	4
8	4	1.12026e+07	0	1	2	5	4
8	4	500	0	1	5	3	4
8	5	30272	0	1	2	1	0
8	5	72900	0	1	2	3	4
8	5	1.11862e+07	0	1	2	5	4
8	5	200	0	1	5	3	4
8	6	27840	0	1	2	1	0
8	6	73900	0	1	2	3	4
8	6	1.10469e+07	0	1	2	5	4
8	6	250	0	1	5	3	4
8	7	28864	0	1	2	1	0
8	7	69300	0	1	2	3	4
8	7	1.10633e+07	0	1	2	5	4
8	7	150	0	1	5	3	4
8	9	28800	0	1	2	1	0
8	9	65500	0	1	2	3	4
8	9	1.10797e+07	0	1	2	5	4
8	9	350	0	1	5	3	4
9	0	27712	0	1	2	1	0
9	0	72000	0	1	2	3	4
9	0	1.09117e+07	0	1	2	5	4
9	0	300	0	1	5	3	4
9	1	31552	0	1	2	1	0
9	1	68500	0	1	2	3	4
9	1	1.09486e+07	0	1	2	5	4
9	1	250	0	1	5	3	4
9	2	28928	0	1	2	1	0
9	2	70400	0	1	2	3	4
9	2	1.1305e+07	0	1	2	5	4
9	2	450	0	1	5	3	4
9	3	30016	0	1	2	1	0
9	3	68700	0	1	2	3	4
9	3	1.0793e+07	0	1	2	5	4
9	3	300	0	1	5	3	4
9	4	30528	0	1	2	1	0
9	4	66200	0	1	2	3	4
9	4	1.11657e+07	0	1	2	5	4
9	4	200	0	1	5	3	4
9	5	28864	0	1	2	1	0
9	5	71900	0	1	2	3	4
9	5	1.09978e+07	0	1	2	5	4
9	5	350	0	1	5	3	4
9	6	26176	0	1	2	1	0
9	6	68400	0	1	2	3	4
9	6	1.09978e+07	0	1	2	5	4
9	6	250	0	1	5	3	4
9	7	29760	0	1	2	1	0
9	7	69400	0	1	2	3	4
9	7	1.09527e+07	0	1	2	5	4
9	7	300	0	1	5	3	4
9	8	28352	0	1	2	1	0
9	8	72000	0	1	2	3	4
9	8	1.07807e+07	0	1	2	5	4
9	8	550	0	1	5	3	4
