100000	100000	100000	10000	1000	1000
0	1	3264	0	1	2	1	0
0	1	6800	0	1	2	3	4
0	1	1.06906e+06	0	1	2	5	4
0	1	100	0	1	5	3	4
0	2	2432	0	1	2	1	0
0	2	6400	0	1	2	3	4
0	2	1.04448e+06	0	1	2	5	4
0	3	3520	0	1	2	1	0
0	3	4800	0	1	2	3	4
0	3	1.10182e+06	0	1	2	5	4
0	4	2496	0	1	2	1	0
0	4	7200	0	1	2	3	4
0	4	1.06496e+06	0	1	2	5	4
0	4	50	0	1	5	3	4
0	5	2304	0	1	2	1	0
0	5	5800	0	1	2	3	4
0	5	1.10592e+06	0	1	2	5	4
0	6	3392	0	1	2	1	0
0	6	7900	0	1	2	3	4
0	6	1.20013e+06	0	1	2	5	4
0	6	100	0	1	5	3	4
0	7	2560	0	1	2	1	0
0	7	7200	0	1	2	3	4
0	7	1.20422e+06	0	1	2	5	4
0	8	2880	0	1	2	1	0
0	8	6700	0	1	2	3	4
0	8	1.19194e+06	0	1	2	5	4
0	8	50	0	1	5	3	4
0	9	2496	0	1	2	1	0
0	9	7100	0	1	2	3	4
0	9	1.20013e+06	0	1	2	5	4
1	0	3264	0	1	2	1	0
1	0	7400	0	1	2	3	4
1	0	1.17146e+06	0	1	2	5	4
1	0	50	0	1	5	3	4
1	2	3136	0	1	2	1	0
1	2	6100	0	1	2	3	4
1	2	1.11821e+06	0	1	2	5	4
1	3	3392	0	1	2	1	0
1	3	7400	0	1	2	3	4
1	3	1.04038e+06	0	1	2	5	4
1	4	2944	0	1	2	1	0
1	4	6400	0	1	2	3	4
1	4	1.10182e+06	0	1	2	5	4
1	4	50	0	1	5	3	4
1	5	3584	0	1	2	1	0
1	5	7700	0	1	2	3	4
1	5	1.16326e+06	0	1	2	5	4
1	6	3136	0	1	2	1	0
1	6	7100	0	1	2	3	4
1	6	1.18374e+06	0	1	2	5	4
1	6	50	0	1	5	3	4
1	7	3392	0	1	2	1	0
1	7	7500	0	1	2	3	4
1	7	1.2288e+06	0	1	2	5	4
1	7	50	0	1	5	3	4
1	8	4032	0	1	2	1	0
1	8	6000	0	1	2	3	4
1	8	1.03219e+06	0	1	2	5	4
1	8	50	0	1	5	3	4
1	9	2560	0	1	2	1	0
1	9	7800	0	1	2	3	4
1	9	1.03219e+06	0	1	2	5	4
2	0	2816	0	1	2	1	0
2	0	6400	0	1	2	3	4
2	0	1.14688e+06	0	1	2	5	4
2	1	2752	0	1	2	1	0
2	1	7600	0	1	2	3	4
2	1	1.09363e+06	0	1	2	5	4
2	3	2624	0	1	2	1	0
2	3	6900	0	1	2	3	4
2	3	1.16736e+06	0	1	2	5	4
2	4	3328	0	1	2	1	0
2	4	6900	0	1	2	3	4
2	4	1.04858e+06	0	1	2	5	4
2	4	100	0	1	5	3	4
2	5	3456	0	1	2	1	0
2	5	6000	0	1	2	3	4
2	5	1.19194e+06	0	1	2	5	4
2	5	50	0	1	5	3	4
2	6	3072	0	1	2	1	0
2	6	7000	0	1	2	3	4
2	6	1.08954e+06	0	1	2	5	4
2	7	3008	0	1	2	1	0
2	7	7200	0	1	2	3	4
2	7	1.1223e+06	0	1	2	5	4
2	7	50	0	1	5	3	4
2	8	2880	0	1	2	1	0
2	8	8000	0	1	2	3	4
2	8	1.10592e+06	0	1	2	5	4
2	8	100	0	1	5	3	4
2	9	2880	0	1	2	1	0
2	9	6800	0	1	2	3	4
2	9	1.024e+06	0	1	2	5	4
3	0	4032	0	1	2	1	0
3	0	6200	0	1	2	3	4
3	0	1.09773e+06	0	1	2	5	4
3	1	3008	0	1	2	1	0
3	1	7200	0	1	2	3	4
3	1	1.11411e+06	0	1	2	5	4
3	2	2560	0	1	2	1	0
3	2	6100	0	1	2	3	4
3	2	1.15507e+06	0	1	2	5	4
3	2	50	0	1	5	3	4
3	4	3072	0	1	2	1	0
3	4	7300	0	1	2	3	4
3	4	1.08134e+06	0	1	2	5	4
3	4	50	0	1	5	3	4
3	5	2496	0	1	2	1	0
3	5	6200	0	1	2	3	4
3	5	1.06086e+06	0	1	2	5	4
3	6	2240	0	1	2	1	0
3	6	8900	0	1	2	3	4
3	6	1.07315e+06	0	1	2	5	4
3	6	100	0	1	5	3	4
3	7	2560	0	1	2	1	0
3	7	6800	0	1	2	3	4
3	7	1.07315e+06	0	1	2	5	4
3	7	50	0	1	5	3	4
3	8	2240	0	1	2	1	0
3	8	6900	0	1	2	3	4
3	8	1.15507e+06	0	1	2	5	4
3	8	50	0	1	5	3	4
3	9	2368	0	1	2	1	0
3	9	7300	0	1	2	3	4
3	9	1.1223e+06	0	1	2	5	4
4	0	3328	0	1	2	1	0
4	0	7600	0	1	2	3	4
4	0	1.04448e+06	0	1	2	5	4
4	1	3072	0	1	2	1	0
4	1	6200	0	1	2	3	4
4	1	1.06086e+06	0	1	2	5	4
4	1	50	0	1	5	3	4
4	2	2816	0	1	2	1	0
4	2	8200	0	1	2	3	4
4	2	1.04038e+06	0	1	2	5	4
4	2	50	0	1	5	3	4
4	3	3072	0	1	2	1	0
4	3	7900	0	1	2	3	4
4	3	1.07725e+06	0	1	2	5	4
4	3	50	0	1	5	3	4
4	5	3264	0	1	2	1	0
4	5	6500	0	1	2	3	4
4	5	1.05677e+06	0	1	2	5	4
4	5	150	0	1	5	3	4
4	6	2944	0	1	2	1	0
4	6	8300	0	1	2	3	4
4	6	1.06086e+06	0	1	2	5	4
4	6	100	0	1	5	3	4
4	7	2816	0	1	2	1	0
4	7	6900	0	1	2	3	4
4	7	983040	0	1	2	5	4
4	8	3136	0	1	2	1	0
4	8	6500	0	1	2	3	4
4	8	999424	0	1	2	5	4
4	8	50	0	1	5	3	4
4	9	3840	0	1	2	1	0
4	9	6800	0	1	2	3	4
4	9	1.13869e+06	0	1	2	5	4
4	9	50	0	1	5	3	4
5	0	3392	0	1	2	1	0
5	0	8000	0	1	2	3	4
5	0	1.16326e+06	0	1	2	5	4
5	0	50	0	1	5	3	4
5	1	3200	0	1	2	1	0
5	1	5700	0	1	2	3	4
5	1	1.0281e+06	0	1	2	5	4
5	2	1984	0	1	2	1	0
5	2	6500	0	1	2	3	4
5	2	1.06086e+06	0	1	2	5	4
5	2	50	0	1	5	3	4
5	3	2880	0	1	2	1	0
5	3	8300	0	1	2	3	4
5	3	1.05677e+06	0	1	2	5	4
5	3	50	0	1	5	3	4
5	4	2944	0	1	2	1	0
5	4	7800	0	1	2	3	4
5	4	1.08134e+06	0	1	2	5	4
5	6	3008	0	1	2	1	0
5	6	7200	0	1	2	3	4
5	6	1.024e+06	0	1	2	5	4
5	7	3520	0	1	2	1	0
5	7	6000	0	1	2	3	4
5	7	1.03629e+06	0	1	2	5	4
5	7	50	0	1	5	3	4
5	8	3392	0	1	2	1	0
5	8	6900	0	1	2	3	4
5	8	1.05677e+06	0	1	2	5	4
5	9	2816	0	1	2	1	0
5	9	7800	0	1	2	3	4
5	9	1.18374e+06	0	1	2	5	4
6	0	2944	0	1	2	1	0
6	0	6300	0	1	2	3	4
6	0	1.15098e+06	0	1	2	5	4
6	1	2624	0	1	2	1	0
6	1	6300	0	1	2	3	4
6	1	1.1305e+06	0	1	2	5	4
6	2	2048	0	1	2	1	0
6	2	8200	0	1	2	3	4
6	2	1.14688e+06	0	1	2	5	4
6	3	3008	0	1	2	1	0
6	3	7000	0	1	2	3	4
6	3	1.05677e+06	0	1	2	5	4
6	3	150	0	1	5	3	4
6	4	2816	0	1	2	1	0
6	4	7100	0	1	2	3	4
6	4	1.1264e+06	0	1	2	5	4
6	4	100	0	1	5	3	4
6	5	3520	0	1	2	1	0
6	5	8400	0	1	2	3	4
6	5	1.05677e+06	0	1	2	5	4
6	5	50	0	1	5	3	4
6	7	3520	0	1	2	1	0
6	7	6800	0	1	2	3	4
6	7	1.15917e+06	0	1	2	5	4
6	8	3008	0	1	2	1	0
6	8	7000	0	1	2	3	4
6	8	1.15507e+06	0	1	2	5	4
6	8	50	0	1	5	3	4
6	9	3328	0	1	2	1	0
6	9	7000	0	1	2	3	4
6	9	1.20832e+06	0	1	2	5	4
6	9	150	0	1	5	3	4
7	0	2688	0	1	2	1	0
7	0	8200	0	1	2	3	4
7	0	1.19194e+06	0	1	2	5	4
7	0	50	0	1	5	3	4
7	1	2560	0	1	2	1	0
7	1	7500	0	1	2	3	4
7	1	1.24518e+06	0	1	2	5	4
7	2	2432	0	1	2	1	0
7	2	5700	0	1	2	3	4
7	2	987136	0	1	2	5	4
7	2	150	0	1	5	3	4
7	3	2944	0	1	2	1	0
7	3	7400	0	1	2	3	4
7	3	1.0281e+06	0	1	2	5	4
7	3	100	0	1	5	3	4
7	4	2624	0	1	2	1	0
7	4	5800	0	1	2	3	4
7	4	999424	0	1	2	5	4
7	5	3008	0	1	2	1	0
7	5	5800	0	1	2	3	4
7	5	1.19603e+06	0	1	2	5	4
7	6	3584	0	1	2	1	0
7	6	5600	0	1	2	3	4
7	6	978944	0	1	2	5	4
7	6	50	0	1	5	3	4
7	8	3520	0	1	2	1	0
7	8	6100	0	1	2	3	4
7	8	1.05677e+06	0	1	2	5	4
7	9	2688	0	1	2	1	0
7	9	8200	0	1	2	3	4
7	9	1.18374e+06	0	1	2	5	4
7	9	50	0	1	5	3	4
8	0	2688	0	1	2	1	0
8	0	7700	0	1	2	3	4
8	0	1.14688e+06	0	1	2	5	4
8	1	2432	0	1	2	1	0
8	1	7000	0	1	2	3	4
8	1	1.13869e+06	0	1	2	5	4
8	2	2944	0	1	2	1	0
8	2	6800	0	1	2	3	4
8	2	1.1305e+06	0	1	2	5	4
8	2	50	0	1	5	3	4
8	3	3648	0	1	2	1	0
8	3	7000	0	1	2	3	4
8	3	1.13459e+06	0	1	2	5	4
8	4	3392	0	1	2	1	0
8	4	7700	0	1	2	3	4
8	4	1.07315e+06	0	1	2	5	4
8	5	2688	0	1	2	1	0
8	5	7100	0	1	2	3	4
8	5	1.17146e+06	0	1	2	5	4
8	5	50	0	1	5	3	4
8	6	2752	0	1	2	1	0
8	6	7800	0	1	2	3	4
8	6	1.06906e+06	0	1	2	5	4
8	7	2304	0	1	2	1	0
8	7	7900	0	1	2	3	4
8	7	1.0199e+06	0	1	2	5	4
8	9	2496	0	1	2	1	0
8	9	8600	0	1	2	3	4
8	9	1.01581e+06	0	1	2	5	4
8	9	50	0	1	5	3	4
9	0	2560	0	1	2	1	0
9	0	7600	0	1	2	3	4
9	0	1.11411e+06	0	1	2	5	4
9	0	50	0	1	5	3	4
9	1	2816	0	1	2	1	0
9	1	7600	0	1	2	3	4
9	1	1.10182e+06	0	1	2	5	4
9	2	2880	0	1	2	1	0
9	2	7100	0	1	2	3	4
9	2	1.11821e+06	0	1	2	5	4
9	2	50	0	1	5	3	4
9	3	3264	0	1	2	1	0
9	3	7000	0	1	2	3	4
9	3	1.05267e+06	0	1	2	5	4
9	4	2560	0	1	2	1	0
9	4	5900	0	1	2	3	4
9	4	1.08954e+06	0	1	2	5	4
9	4	50	0	1	5	3	4
9	5	2816	0	1	2	1	0
9	5	8200	0	1	2	3	4
9	5	1.04038e+06	0	1	2	5	4
9	5	50	0	1	5	3	4
9	6	2176	0	1	2	1	0
9	6	6900	0	1	2	3	4
9	6	1.1305e+06	0	1	2	5	4
9	6	100	0	1	5	3	4
9	7	4096	0	1	2	1	0
9	7	5900	0	1	2	3	4
9	7	1.08544e+06	0	1	2	5	4
9	7	50	0	1	5	3	4
9	8	3008	0	1	2	1	0
9	8	6600	0	1	2	3	4
9	8	1.07725e+06	0	1	2	5	4
