100000	100000	100000	10000	1000	1000
0	1	29120	0	1	2	1	0
0	1	74800	0	1	2	3	4
0	1	1.10633e+07	0	1	2	5	4
0	1	300	0	1	5	3	4
0	2	24512	0	1	2	1	0
0	2	67400	0	1	2	3	4
0	2	1.12804e+07	0	1	2	5	4
0	2	500	0	1	5	3	4
0	3	30912	0	1	2	1	0
0	3	68200	0	1	2	3	4
0	3	1.0965e+07	0	1	2	5	4
0	3	350	0	1	5	3	4
0	4	27712	0	1	2	1	0
0	4	68000	0	1	2	3	4
0	4	1.09732e+07	0	1	2	5	4
0	4	200	0	1	5	3	4
0	5	28800	0	1	2	1	0
0	5	62100	0	1	2	3	4
0	5	1.11411e+07	0	1	2	5	4
0	5	200	0	1	5	3	4
0	6	28032	0	1	2	1	0
0	6	71400	0	1	2	3	4
0	6	1.08421e+07	0	1	2	5	4
0	6	450	0	1	5	3	4
0	7	29120	0	1	2	1	0
0	7	66000	0	1	2	3	4
0	7	1.11862e+07	0	1	2	5	4
0	7	300	0	1	5	3	4
0	8	26176	0	1	2	1	0
0	8	70000	0	1	2	3	4
0	8	1.09322e+07	0	1	2	5	4
0	8	300	0	1	5	3	4
0	9	27520	0	1	2	1	0
0	9	68700	0	1	2	3	4
0	9	1.11288e+07	0	1	2	5	4
0	9	300	0	1	5	3	4
1	0	29120	0	1	2	1	0
1	0	64300	0	1	2	3	4
1	0	1.09117e+07	0	1	2	5	4
1	0	100	0	1	5	3	4
1	2	31168	0	1	2	1	0
1	2	67300	0	1	2	3	4
1	2	1.09404e+07	0	1	2	5	4
1	2	350	0	1	5	3	4
1	3	30912	0	1	2	1	0
1	3	66600	0	1	2	3	4
1	3	1.14115e+07	0	1	2	5	4
1	3	450	0	1	5	3	4
1	4	28032	0	1	2	1	0
1	4	70300	0	1	2	3	4
1	4	1.09773e+07	0	1	2	5	4
1	4	300	0	1	5	3	4
1	5	29504	0	1	2	1	0
1	5	70400	0	1	2	3	4
1	5	1.12722e+07	0	1	2	5	4
1	5	200	0	1	5	3	4
1	6	27904	0	1	2	1	0
1	6	70100	0	1	2	3	4
1	6	1.1137e+07	0	1	2	5	4
1	6	200	0	1	5	3	4
1	7	30912	0	1	2	1	0
1	7	72500	0	1	2	3	4
1	7	1.0625e+07	0	1	2	5	4
1	7	200	0	1	5	3	4
1	8	29376	0	1	2	1	0
1	8	67700	0	1	2	3	4
1	8	1.10141e+07	0	1	2	5	4
1	8	200	0	1	5	3	4
1	9	30464	0	1	2	1	0
1	9	70600	0	1	2	3	4
1	9	1.11575e+07	0	1	2	5	4
1	9	400	0	1	5	3	4
2	0	30464	0	1	2	1	0
2	0	73100	0	1	2	3	4
2	0	1.06168e+07	0	1	2	5	4
2	0	250	0	1	5	3	4
2	1	27648	0	1	2	1	0
2	1	70300	0	1	2	3	4
2	1	1.15261e+07	0	1	2	5	4
2	1	250	0	1	5	3	4
2	3	29120	0	1	2	1	0
2	3	72500	0	1	2	3	4
2	3	1.09896e+07	0	1	2	5	4
2	3	300	0	1	5	3	4
2	4	28416	0	1	2	1	0
2	4	73000	0	1	2	3	4
2	4	1.14565e+07	0	1	2	5	4
2	4	300	0	1	5	3	4
2	5	31296	0	1	2	1	0
2	5	73200	0	1	2	3	4
2	5	1.10633e+07	0	1	2	5	4
2	5	400	0	1	5	3	4
2	6	30144	0	1	2	1	0
2	6	67400	0	1	2	3	4
2	6	1.10756e+07	0	1	2	5	4
2	6	450	0	1	5	3	4
2	7	27456	0	1	2	1	0
2	7	71100	0	1	2	3	4
2	7	1.05841e+07	0	1	2	5	4
2	7	400	0	1	5	3	4
2	8	30272	0	1	2	1	0
2	8	71600	0	1	2	3	4
2	8	1.10797e+07	0	1	2	5	4
2	8	300	0	1	5	3	4
2	9	28928	0	1	2	1	0
2	9	72900	0	1	2	3	4
2	9	1.12353e+07	0	1	2	5	4
2	9	150	0	1	5	3	4
3	0	26560	0	1	2	1	0
3	0	66800	0	1	2	3	4
3	0	1.09199e+07	0	1	2	5	4
3	0	400	0	1	5	3	4
3	1	28992	0	1	2	1	0
3	1	73600	0	1	2	3	4
3	1	1.1137e+07	0	1	2	5	4
3	1	300	0	1	5	3	4
3	2	28096	0	1	2	1	0
3	2	64700	0	1	2	3	4
3	2	1.11534e+07	0	1	2	5	4
3	2	150	0	1	5	3	4
3	4	29824	0	1	2	1	0
3	4	69300	0	1	2	3	4
3	4	1.08462e+07	0	1	2	5	4
3	4	350	0	1	5	3	4
3	5	28800	0	1	2	1	0
3	5	72700	0	1	2	3	4
3	5	1.11903e+07	0	1	2	5	4
3	5	300	0	1	5	3	4
3	6	30976	0	1	2	1	0
3	6	67900	0	1	2	3	4
3	6	1.07274e+07	0	1	2	5	4
3	6	150	0	1	5	3	4
3	7	31232	0	1	2	1	0
3	7	69700	0	1	2	3	4
3	7	1.12476e+07	0	1	2	5	4
3	7	150	0	1	5	3	4
3	8	30272	0	1	2	1	0
3	8	69800	0	1	2	3	4
3	8	1.08216e+07	0	1	2	5	4
3	8	250	0	1	5	3	4
3	9	28160	0	1	2	1	0
3	9	70600	0	1	2	3	4
3	9	1.13951e+07	0	1	2	5	4
3	9	350	0	1	5	3	4
4	0	31296	0	1	2	1	0
4	0	69500	0	1	2	3	4
4	0	1.09158e+07	0	1	2	5	4
4	0	250	0	1	5	3	4
4	1	25792	0	1	2	1	0
4	1	71000	0	1	2	3	4
4	1	1.09036e+07	0	1	2	5	4
4	1	150	0	1	5	3	4
4	2	28992	0	1	2	1	0
4	2	70200	0	1	2	3	4
4	2	1.12435e+07	0	1	2	5	4
4	2	400	0	1	5	3	4
4	3	28736	0	1	2	1	0
4	3	65700	0	1	2	3	4
4	3	1.09404e+07	0	1	2	5	4
4	3	400	0	1	5	3	4
4	5	29056	0	1	2	1	0
4	5	70300	0	1	2	3	4
4	5	1.08052e+07	0	1	2	5	4
4	5	400	0	1	5	3	4
4	6	30976	0	1	2	1	0
4	6	73100	0	1	2	3	4
4	6	1.10182e+07	0	1	2	5	4
4	6	200	0	1	5	3	4
4	7	29632	0	1	2	1	0
4	7	67700	0	1	2	3	4
4	7	1.09691e+07	0	1	2	5	4
4	7	300	0	1	5	3	4
4	8	31040	0	1	2	1	0
4	8	74300	0	1	2	3	4
4	8	1.10592e+07	0	1	2	5	4
4	8	200	0	1	5	3	4
4	9	28096	0	1	2	1	0
4	9	65700	0	1	2	3	4
4	9	1.10879e+07	0	1	2	5	4
4	9	250	0	1	5	3	4
5	0	29952	0	1	2	1	0
5	0	72700	0	1	2	3	4
5	0	1.10469e+07	0	1	2	5	4
5	0	300	0	1	5	3	4
5	1	31232	0	1	2	1	0
5	1	69900	0	1	2	3	4
5	1	1.10182e+07	0	1	2	5	4
5	1	300	0	1	5	3	4
5	2	28864	0	1	2	1	0
5	2	70500	0	1	2	3	4
5	2	1.1092e+07	0	1	2	5	4
5	2	150	0	1	5	3	4
5	3	32064	0	1	2	1	0
5	3	70800	0	1	2	3	4
5	3	1.06455e+07	0	1	2	5	4
5	3	300	0	1	5	3	4
5	4	28480	0	1	2	1	0
5	4	72200	0	1	2	3	4
5	4	1.09568e+07	0	1	2	5	4
5	4	200	0	1	5	3	4
5	6	29760	0	1	2	1	0
5	6	77200	0	1	2	3	4
5	6	1.10879e+07	0	1	2	5	4
5	6	350	0	1	5	3	4
5	7	28288	0	1	2	1	0
5	7	74100	0	1	2	3	4
5	7	1.10387e+07	0	1	2	5	4
5	7	250	0	1	5	3	4
5	8	27584	0	1	2	1	0
5	8	73100	0	1	2	3	4
5	8	1.09363e+07	0	1	2	5	4
5	8	300	0	1	5	3	4
5	9	29312	0	1	2	1	0
5	9	70100	0	1	2	3	4
5	9	1.10019e+07	0	1	2	5	4
5	9	50	0	1	5	3	4
6	0	30912	0	1	2	1	0
6	0	67000	0	1	2	3	4
6	0	1.07233e+07	0	1	2	5	4
6	0	350	0	1	5	3	4
6	1	27520	0	1	2	1	0
6	1	67000	0	1	2	3	4
6	1	1.07315e+07	0	1	2	5	4
6	1	150	0	1	5	3	4
6	2	29760	0	1	2	1	0
6	2	65600	0	1	2	3	4
6	2	1.11493e+07	0	1	2	5	4
6	2	200	0	1	5	3	4
6	3	28352	0	1	2	1	0
6	3	76200	0	1	2	3	4
6	3	1.10469e+07	0	1	2	5	4
6	3	250	0	1	5	3	4
6	4	28672	0	1	2	1	0
6	4	67000	0	1	2	3	4
6	4	1.05718e+07	0	1	2	5	4
6	4	250	0	1	5	3	4
6	5	28928	0	1	2	1	0
6	5	68900	0	1	2	3	4
6	5	1.11043e+07	0	1	2	5	4
6	5	200	0	1	5	3	4
6	7	32000	0	1	2	1	0
6	7	70500	0	1	2	3	4
6	7	1.08585e+07	0	1	2	5	4
6	7	150	0	1	5	3	4
6	8	27712	0	1	2	1	0
6	8	69100	0	1	2	3	4
6	8	1.10633e+07	0	1	2	5	4
6	8	150	0	1	5	3	4
6	9	30016	0	1	2	1	0
6	9	72000	0	1	2	3	4
6	9	1.10551e+07	0	1	2	5	4
6	9	250	0	1	5	3	4
7	0	29696	0	1	2	1	0
7	0	69400	0	1	2	3	4
7	0	1.07643e+07	0	1	2	5	4
7	0	150	0	1	5	3	4
7	1	29568	0	1	2	1	0
7	1	69900	0	1	2	3	4
7	1	1.101e+07	0	1	2	5	4
7	1	450	0	1	5	3	4
7	2	29184	0	1	2	1	0
7	2	71700	0	1	2	3	4
7	2	1.06619e+07	0	1	2	5	4
7	2	550	0	1	5	3	4
7	3	30208	0	1	2	1	0
7	3	72000	0	1	2	3	4
7	3	1.08298e+07	0	1	2	5	4
7	3	400	0	1	5	3	4
7	4	28672	0	1	2	1	0
7	4	67700	0	1	2	3	4
7	4	1.08872e+07	0	1	2	5	4
7	4	250	0	1	5	3	4
7	5	27712	0	1	2	1	0
7	5	68100	0	1	2	3	4
7	5	1.11206e+07	0	1	2	5	4
7	5	300	0	1	5	3	4
7	6	30976	0	1	2	1	0
7	6	67800	0	1	2	3	4
7	6	1.0752e+07	0	1	2	5	4
7	6	200	0	1	5	3	4
7	8	30336	0	1	2	1	0
7	8	68800	0	1	2	3	4
7	8	1.09527e+07	0	1	2	5	4
7	8	250	0	1	5	3	4
7	9	28736	0	1	2	1	0
7	9	68900	0	1	2	3	4
7	9	1.07315e+07	0	1	2	5	4
7	9	50	0	1	5	3	4
8	0	28800	0	1	2	1	0
8	0	67000	0	1	2	3	4
8	0	1.15384e+07	0	1	2	5	4
8	0	300	0	1	5	3	4
8	1	27392	0	1	2	1	0
8	1	70000	0	1	2	3	4
8	1	1.11985e+07	0	1	2	5	4
8	1	300	0	1	5	3	4
8	2	30208	0	1	2	1	0
8	2	70300	0	1	2	3	4
8	2	1.10838e+07	0	1	2	5	4
8	2	400	0	1	5	3	4
8	3	29568	0	1	2	1	0
8	3	71600	0	1	2	3	4
8	3	1.10838e+07	0	1	2	5	4
8	3	150	0	1	5	3	4
8	4	28352	0	1	2	1	0
8	4	73800	0	1	2	3	4
8	4	1.1137e+07	0	1	2	5	4
8	4	400	0	1	5	3	4
8	5	26688	0	1	2	1	0
8	5	71900	0	1	2	3	4
8	5	1.09937e+07	0	1	2	5	4
8	5	300	0	1	5	3	4
8	6	29056	0	1	2	1	0
8	6	71600	0	1	2	3	4
8	6	1.11247e+07	0	1	2	5	4
8	6	450	0	1	5	3	4
8	7	32064	0	1	2	1	0
8	7	72300	0	1	2	3	4
8	7	1.13295e+07	0	1	2	5	4
8	7	250	0	1	5	3	4
8	9	28416	0	1	2	1	0
8	9	67800	0	1	2	3	4
8	9	1.05185e+07	0	1	2	5	4
8	9	350	0	1	5	3	4
9	0	28992	0	1	2	1	0
9	0	72700	0	1	2	3	4
9	0	1.11657e+07	0	1	2	5	4
9	0	500	0	1	5	3	4
9	1	32512	0	1	2	1	0
9	1	68700	0	1	2	3	4
9	1	1.07643e+07	0	1	2	5	4
9	1	250	0	1	5	3	4
9	2	30272	0	1	2	1	0
9	2	65000	0	1	2	3	4
9	2	1.0965e+07	0	1	2	5	4
9	2	150	0	1	5	3	4
9	3	29696	0	1	2	1	0
9	3	68300	0	1	2	3	4
9	3	1.08544e+07	0	1	2	5	4
9	3	400	0	1	5	3	4
9	4	28352	0	1	2	1	0
9	4	72300	0	1	2	3	4
9	4	1.10264e+07	0	1	2	5	4
9	4	300	0	1	5	3	4
9	5	28032	0	1	2	1	0
9	5	66000	0	1	2	3	4
9	5	1.09568e+07	0	1	2	5	4
9	5	250	0	1	5	3	4
9	6	29056	0	1	2	1	0
9	6	66400	0	1	2	3	4
9	6	1.09814e+07	0	1	2	5	4
9	6	250	0	1	5	3	4
9	7	32320	0	1	2	1	0
9	7	67500	0	1	2	3	4
9	7	1.1223e+07	0	1	2	5	4
9	7	300	0	1	5	3	4
9	8	28544	0	1	2	1	0
9	8	74500	0	1	2	3	4
9	8	1.1305e+07	0	1	2	5	4
9	8	250	0	1	5	3	4
