100000	100000	100000	10000	1000	1000
0	1	17408	0	1	2	1	0
0	1	51300	0	1	2	3	4
0	1	7.38099e+06	0	1	2	5	4
0	1	300	0	1	5	3	4
0	2	20608	0	1	2	1	0
0	2	51700	0	1	2	3	4
0	2	7.38099e+06	0	1	2	5	4
0	2	100	0	1	5	3	4
0	3	19072	0	1	2	1	0
0	3	46600	0	1	2	3	4
0	3	7.58989e+06	0	1	2	5	4
0	3	300	0	1	5	3	4
0	4	20608	0	1	2	1	0
0	4	44200	0	1	2	3	4
0	4	7.27859e+06	0	1	2	5	4
0	4	100	0	1	5	3	4
0	5	19776	0	1	2	1	0
0	5	46300	0	1	2	3	4
0	5	7.3687e+06	0	1	2	5	4
0	5	200	0	1	5	3	4
0	6	20992	0	1	2	1	0
0	6	47500	0	1	2	3	4
0	6	7.45472e+06	0	1	2	5	4
0	6	250	0	1	5	3	4
0	7	19968	0	1	2	1	0
0	7	49400	0	1	2	3	4
0	7	7.81926e+06	0	1	2	5	4
0	7	200	0	1	5	3	4
0	8	16256	0	1	2	1	0
0	8	47800	0	1	2	3	4
0	8	7.56941e+06	0	1	2	5	4
0	8	350	0	1	5	3	4
0	9	20480	0	1	2	1	0
0	9	47200	0	1	2	3	4
0	9	7.61446e+06	0	1	2	5	4
0	9	250	0	1	5	3	4
0	10	17984	0	1	2	1	0
0	10	51000	0	1	2	3	4
0	10	7.34822e+06	0	1	2	5	4
0	10	250	0	1	5	3	4
0	11	19200	0	1	2	1	0
0	11	46500	0	1	2	3	4
0	11	7.65133e+06	0	1	2	5	4
0	11	150	0	1	5	3	4
1	0	19648	0	1	2	1	0
1	0	48500	0	1	2	3	4
1	0	7.64314e+06	0	1	2	5	4
1	0	200	0	1	5	3	4
1	2	22080	0	1	2	1	0
1	2	46500	0	1	2	3	4
1	2	7.61037e+06	0	1	2	5	4
1	2	450	0	1	5	3	4
1	3	18688	0	1	2	1	0
1	3	45400	0	1	2	3	4
1	3	7.48749e+06	0	1	2	5	4
1	3	100	0	1	5	3	4
1	4	19264	0	1	2	1	0
1	4	45800	0	1	2	3	4
1	4	7.40966e+06	0	1	2	5	4
1	4	250	0	1	5	3	4
1	5	19776	0	1	2	1	0
1	5	43300	0	1	2	3	4
1	5	7.64723e+06	0	1	2	5	4
1	5	200	0	1	5	3	4
1	6	20352	0	1	2	1	0
1	6	50300	0	1	2	3	4
1	6	7.68e+06	0	1	2	5	4
1	6	250	0	1	5	3	4
1	7	18560	0	1	2	1	0
1	7	51500	0	1	2	3	4
1	7	7.12704e+06	0	1	2	5	4
1	7	250	0	1	5	3	4
1	8	19520	0	1	2	1	0
1	8	51000	0	1	2	3	4
1	8	7.39738e+06	0	1	2	5	4
1	8	150	0	1	5	3	4
1	9	21120	0	1	2	1	0
1	9	48300	0	1	2	3	4
1	9	7.6759e+06	0	1	2	5	4
1	9	250	0	1	5	3	4
1	10	19392	0	1	2	1	0
1	10	43600	0	1	2	3	4
1	10	7.75373e+06	0	1	2	5	4
1	10	350	0	1	5	3	4
1	11	20672	0	1	2	1	0
1	11	47900	0	1	2	3	4
1	11	7.54893e+06	0	1	2	5	4
1	11	150	0	1	5	3	4
2	0	22400	0	1	2	1	0
2	0	45800	0	1	2	3	4
2	0	7.51616e+06	0	1	2	5	4
2	0	250	0	1	5	3	4
2	1	20736	0	1	2	1	0
2	1	46700	0	1	2	3	4
2	1	7.49158e+06	0	1	2	5	4
2	1	200	0	1	5	3	4
2	3	20032	0	1	2	1	0
2	3	48300	0	1	2	3	4
2	3	7.44653e+06	0	1	2	5	4
2	3	100	0	1	5	3	4
2	4	19264	0	1	2	1	0
2	4	49200	0	1	2	3	4
2	4	7.6841e+06	0	1	2	5	4
2	4	200	0	1	5	3	4
2	5	17216	0	1	2	1	0
2	5	47400	0	1	2	3	4
2	5	7.64723e+06	0	1	2	5	4
2	5	100	0	1	5	3	4
2	6	21696	0	1	2	1	0
2	6	48800	0	1	2	3	4
2	6	7.41786e+06	0	1	2	5	4
2	6	50	0	1	5	3	4
2	7	20352	0	1	2	1	0
2	7	46000	0	1	2	3	4
2	7	7.31136e+06	0	1	2	5	4
2	7	50	0	1	5	3	4
2	8	20672	0	1	2	1	0
2	8	49100	0	1	2	3	4
2	8	7.81107e+06	0	1	2	5	4
2	8	200	0	1	5	3	4
2	9	20992	0	1	2	1	0
2	9	47800	0	1	2	3	4
2	9	7.23354e+06	0	1	2	5	4
2	9	250	0	1	5	3	4
2	10	20608	0	1	2	1	0
2	10	49000	0	1	2	3	4
2	10	7.65952e+06	0	1	2	5	4
2	10	200	0	1	5	3	4
2	11	19648	0	1	2	1	0
2	11	44500	0	1	2	3	4
2	11	7.12704e+06	0	1	2	5	4
2	11	150	0	1	5	3	4
3	0	21120	0	1	2	1	0
3	0	49200	0	1	2	3	4
3	0	7.86022e+06	0	1	2	5	4
3	0	50	0	1	5	3	4
3	1	19200	0	1	2	1	0
3	1	48200	0	1	2	3	4
3	1	7.2745e+06	0	1	2	5	4
3	1	200	0	1	5	3	4
3	2	20544	0	1	2	1	0
3	2	47900	0	1	2	3	4
3	2	7.61037e+06	0	1	2	5	4
3	2	400	0	1	5	3	4
3	4	19648	0	1	2	1	0
3	4	47500	0	1	2	3	4
3	4	7.52845e+06	0	1	2	5	4
3	4	100	0	1	5	3	4
3	5	18496	0	1	2	1	0
3	5	48200	0	1	2	3	4
3	5	7.48339e+06	0	1	2	5	4
3	5	250	0	1	5	3	4
3	6	18880	0	1	2	1	0
3	6	53000	0	1	2	3	4
3	6	7.20896e+06	0	1	2	5	4
3	6	150	0	1	5	3	4
3	7	19392	0	1	2	1	0
3	7	45500	0	1	2	3	4
3	7	7.34003e+06	0	1	2	5	4
3	7	250	0	1	5	3	4
3	8	20544	0	1	2	1	0
3	8	48900	0	1	2	3	4
3	8	7.23763e+06	0	1	2	5	4
3	8	100	0	1	5	3	4
3	9	20224	0	1	2	1	0
3	9	44500	0	1	2	3	4
3	9	7.32365e+06	0	1	2	5	4
3	9	200	0	1	5	3	4
3	10	20864	0	1	2	1	0
3	10	48000	0	1	2	3	4
3	10	7.90938e+06	0	1	2	5	4
3	10	400	0	1	5	3	4
3	11	21632	0	1	2	1	0
3	11	47400	0	1	2	3	4
3	11	7.40557e+06	0	1	2	5	4
3	11	50	0	1	5	3	4
4	0	19584	0	1	2	1	0
4	0	48100	0	1	2	3	4
4	0	7.48339e+06	0	1	2	5	4
4	0	100	0	1	5	3	4
4	1	18624	0	1	2	1	0
4	1	50000	0	1	2	3	4
4	1	7.59808e+06	0	1	2	5	4
4	1	250	0	1	5	3	4
4	2	19456	0	1	2	1	0
4	2	44600	0	1	2	3	4
4	2	7.42195e+06	0	1	2	5	4
4	2	250	0	1	5	3	4
4	3	21504	0	1	2	1	0
4	3	49600	0	1	2	3	4
4	3	7.39328e+06	0	1	2	5	4
4	3	300	0	1	5	3	4
4	5	18560	0	1	2	1	0
4	5	47000	0	1	2	3	4
4	5	7.70048e+06	0	1	2	5	4
4	5	300	0	1	5	3	4
4	6	18304	0	1	2	1	0
4	6	51500	0	1	2	3	4
4	6	7.64314e+06	0	1	2	5	4
4	6	50	0	1	5	3	4
4	7	19776	0	1	2	1	0
4	7	47600	0	1	2	3	4
4	7	7.64723e+06	0	1	2	5	4
4	7	250	0	1	5	3	4
4	8	20224	0	1	2	1	0
4	8	45700	0	1	2	3	4
4	8	7.49978e+06	0	1	2	5	4
4	8	250	0	1	5	3	4
4	9	19392	0	1	2	1	0
4	9	50200	0	1	2	3	4
4	9	7.66771e+06	0	1	2	5	4
4	9	150	0	1	5	3	4
4	10	19072	0	1	2	1	0
4	10	51300	0	1	2	3	4
4	10	7.0697e+06	0	1	2	5	4
4	10	50	0	1	5	3	4
4	11	22592	0	1	2	1	0
4	11	48700	0	1	2	3	4
4	11	7.66362e+06	0	1	2	5	4
4	11	250	0	1	5	3	4
5	0	20992	0	1	2	1	0
5	0	44800	0	1	2	3	4
5	0	7.48339e+06	0	1	2	5	4
5	0	300	0	1	5	3	4
5	1	20480	0	1	2	1	0
5	1	49900	0	1	2	3	4
5	1	7.84794e+06	0	1	2	5	4
5	1	300	0	1	5	3	4
5	2	18048	0	1	2	1	0
5	2	49000	0	1	2	3	4
5	2	7.36051e+06	0	1	2	5	4
5	2	100	0	1	5	3	4
5	3	18752	0	1	2	1	0
5	3	47700	0	1	2	3	4
5	3	7.43424e+06	0	1	2	5	4
5	3	100	0	1	5	3	4
5	4	18368	0	1	2	1	0
5	4	49200	0	1	2	3	4
5	4	7.36461e+06	0	1	2	5	4
5	4	150	0	1	5	3	4
5	6	21248	0	1	2	1	0
5	6	47000	0	1	2	3	4
5	6	7.59398e+06	0	1	2	5	4
5	6	250	0	1	5	3	4
5	7	19456	0	1	2	1	0
5	7	45600	0	1	2	3	4
5	7	7.6759e+06	0	1	2	5	4
5	7	150	0	1	5	3	4
5	8	21120	0	1	2	1	0
5	8	51500	0	1	2	3	4
5	8	7.56941e+06	0	1	2	5	4
5	8	450	0	1	5	3	4
5	9	19008	0	1	2	1	0
5	9	49600	0	1	2	3	4
5	9	7.43014e+06	0	1	2	5	4
5	9	100	0	1	5	3	4
5	10	19904	0	1	2	1	0
5	10	45800	0	1	2	3	4
5	10	7.65952e+06	0	1	2	5	4
5	10	200	0	1	5	3	4
5	11	19200	0	1	2	1	0
5	11	47700	0	1	2	3	4
5	11	7.49158e+06	0	1	2	5	4
5	11	200	0	1	5	3	4
6	0	18816	0	1	2	1	0
6	0	44600	0	1	2	3	4
6	0	7.65542e+06	0	1	2	5	4
6	0	250	0	1	5	3	4
6	1	18240	0	1	2	1	0
6	1	46900	0	1	2	3	4
6	1	7.30726e+06	0	1	2	5	4
6	1	150	0	1	5	3	4
6	2	17664	0	1	2	1	0
6	2	48000	0	1	2	3	4
6	2	7.5776e+06	0	1	2	5	4
6	2	150	0	1	5	3	4
6	3	21760	0	1	2	1	0
6	3	48900	0	1	2	3	4
6	3	7.39738e+06	0	1	2	5	4
6	3	50	0	1	5	3	4
6	4	19904	0	1	2	1	0
6	4	46000	0	1	2	3	4
6	4	7.59808e+06	0	1	2	5	4
6	4	350	0	1	5	3	4
6	5	18496	0	1	2	1	0
6	5	49900	0	1	2	3	4
6	5	7.56941e+06	0	1	2	5	4
6	5	100	0	1	5	3	4
6	7	18816	0	1	2	1	0
6	7	48600	0	1	2	3	4
6	7	7.45062e+06	0	1	2	5	4
6	7	250	0	1	5	3	4
6	8	19456	0	1	2	1	0
6	8	45500	0	1	2	3	4
6	8	7.65952e+06	0	1	2	5	4
6	8	250	0	1	5	3	4
6	9	19520	0	1	2	1	0
6	9	48200	0	1	2	3	4
6	9	7.41376e+06	0	1	2	5	4
6	9	200	0	1	5	3	4
6	10	19136	0	1	2	1	0
6	10	43000	0	1	2	3	4
6	10	7.51616e+06	0	1	2	5	4
6	10	300	0	1	5	3	4
6	11	18496	0	1	2	1	0
6	11	47000	0	1	2	3	4
6	11	7.38099e+06	0	1	2	5	4
6	11	50	0	1	5	3	4
7	0	18752	0	1	2	1	0
7	0	49400	0	1	2	3	4
7	0	7.46701e+06	0	1	2	5	4
7	1	20608	0	1	2	1	0
7	1	48400	0	1	2	3	4
7	1	7.59398e+06	0	1	2	5	4
7	1	150	0	1	5	3	4
7	2	20096	0	1	2	1	0
7	2	45600	0	1	2	3	4
7	2	7.62266e+06	0	1	2	5	4
7	2	200	0	1	5	3	4
7	3	19072	0	1	2	1	0
7	3	49800	0	1	2	3	4
7	3	7.38918e+06	0	1	2	5	4
7	3	200	0	1	5	3	4
7	4	19840	0	1	2	1	0
7	4	49100	0	1	2	3	4
7	4	7.63085e+06	0	1	2	5	4
7	4	100	0	1	5	3	4
7	5	19072	0	1	2	1	0
7	5	43700	0	1	2	3	4
7	5	7.52026e+06	0	1	2	5	4
7	5	200	0	1	5	3	4
7	6	19392	0	1	2	1	0
7	6	49500	0	1	2	3	4
7	6	7.54074e+06	0	1	2	5	4
7	6	150	0	1	5	3	4
7	8	19136	0	1	2	1	0
7	8	44300	0	1	2	3	4
7	8	7.62675e+06	0	1	2	5	4
7	8	250	0	1	5	3	4
7	9	20032	0	1	2	1	0
7	9	46300	0	1	2	3	4
7	9	7.56941e+06	0	1	2	5	4
7	9	350	0	1	5	3	4
7	10	19136	0	1	2	1	0
7	10	45900	0	1	2	3	4
7	10	7.6759e+06	0	1	2	5	4
7	10	150	0	1	5	3	4
7	11	20224	0	1	2	1	0
7	11	43700	0	1	2	3	4
7	11	7.41786e+06	0	1	2	5	4
7	11	250	0	1	5	3	4
8	0	19456	0	1	2	1	0
8	0	47100	0	1	2	3	4
8	0	7.11475e+06	0	1	2	5	4
8	0	400	0	1	5	3	4
8	1	19328	0	1	2	1	0
8	1	46400	0	1	2	3	4
8	1	7.6841e+06	0	1	2	5	4
8	1	150	0	1	5	3	4
8	2	21568	0	1	2	1	0
8	2	47800	0	1	2	3	4
8	2	7.63904e+06	0	1	2	5	4
8	2	150	0	1	5	3	4
8	3	19072	0	1	2	1	0
8	3	46200	0	1	2	3	4
8	3	7.45882e+06	0	1	2	5	4
8	3	450	0	1	5	3	4
8	4	20416	0	1	2	1	0
8	4	47700	0	1	2	3	4
8	4	7.44243e+06	0	1	2	5	4
8	4	100	0	1	5	3	4
8	5	19456	0	1	2	1	0
8	5	49800	0	1	2	3	4
8	5	7.59808e+06	0	1	2	5	4
8	5	150	0	1	5	3	4
8	6	19520	0	1	2	1	0
8	6	50400	0	1	2	3	4
8	6	7.72096e+06	0	1	2	5	4
8	6	200	0	1	5	3	4
8	7	20224	0	1	2	1	0
8	7	45900	0	1	2	3	4
8	7	7.52435e+06	0	1	2	5	4
8	7	50	0	1	5	3	4
8	9	19584	0	1	2	1	0
8	9	49800	0	1	2	3	4
8	9	7.19258e+06	0	1	2	5	4
8	10	19392	0	1	2	1	0
8	10	53300	0	1	2	3	4
8	10	7.64723e+06	0	1	2	5	4
8	10	100	0	1	5	3	4
8	11	20928	0	1	2	1	0
8	11	49300	0	1	2	3	4
8	11	7.02054e+06	0	1	2	5	4
8	11	300	0	1	5	3	4
9	0	20416	0	1	2	1	0
9	0	46500	0	1	2	3	4
9	0	7.66771e+06	0	1	2	5	4
9	0	300	0	1	5	3	4
9	1	20352	0	1	2	1	0
9	1	48000	0	1	2	3	4
9	1	7.53254e+06	0	1	2	5	4
9	1	250	0	1	5	3	4
9	2	20416	0	1	2	1	0
9	2	49500	0	1	2	3	4
9	2	7.61856e+06	0	1	2	5	4
9	2	150	0	1	5	3	4
9	3	20224	0	1	2	1	0
9	3	45500	0	1	2	3	4
9	3	7.08608e+06	0	1	2	5	4
9	3	400	0	1	5	3	4
9	4	21248	0	1	2	1	0
9	4	46300	0	1	2	3	4
9	4	7.46701e+06	0	1	2	5	4
9	4	250	0	1	5	3	4
9	5	19264	0	1	2	1	0
9	5	46000	0	1	2	3	4
9	5	7.35232e+06	0	1	2	5	4
9	5	250	0	1	5	3	4
9	6	21248	0	1	2	1	0
9	6	47700	0	1	2	3	4
9	6	7.41376e+06	0	1	2	5	4
9	6	50	0	1	5	3	4
9	7	20672	0	1	2	1	0
9	7	44200	0	1	2	3	4
9	7	7.41786e+06	0	1	2	5	4
9	7	150	0	1	5	3	4
9	8	19200	0	1	2	1	0
9	8	48100	0	1	2	3	4
9	8	7.55302e+06	0	1	2	5	4
9	8	50	0	1	5	3	4
9	10	20928	0	1	2	1	0
9	10	45800	0	1	2	3	4
9	10	7.71686e+06	0	1	2	5	4
9	10	100	0	1	5	3	4
9	11	18112	0	1	2	1	0
9	11	48300	0	1	2	3	4
9	11	7.44243e+06	0	1	2	5	4
9	11	250	0	1	5	3	4
10	0	19968	0	1	2	1	0
10	0	46900	0	1	2	3	4
10	0	7.45062e+06	0	1	2	5	4
10	0	150	0	1	5	3	4
10	1	18880	0	1	2	1	0
10	1	47700	0	1	2	3	4
10	1	7.82336e+06	0	1	2	5	4
10	1	250	0	1	5	3	4
10	2	20864	0	1	2	1	0
10	2	48600	0	1	2	3	4
10	2	7.85203e+06	0	1	2	5	4
10	2	150	0	1	5	3	4
10	3	20352	0	1	2	1	0
10	3	44600	0	1	2	3	4
10	3	7.36051e+06	0	1	2	5	4
10	3	250	0	1	5	3	4
10	4	20352	0	1	2	1	0
10	4	46300	0	1	2	3	4
10	4	7.36051e+06	0	1	2	5	4
10	4	100	0	1	5	3	4
10	5	19712	0	1	2	1	0
10	5	46500	0	1	2	3	4
10	5	7.48749e+06	0	1	2	5	4
10	5	150	0	1	5	3	4
10	6	20608	0	1	2	1	0
10	6	47600	0	1	2	3	4
10	6	7.49568e+06	0	1	2	5	4
10	6	150	0	1	5	3	4
10	7	19968	0	1	2	1	0
10	7	47600	0	1	2	3	4
10	7	7.73734e+06	0	1	2	5	4
10	7	150	0	1	5	3	4
10	8	19392	0	1	2	1	0
10	8	45600	0	1	2	3	4
10	8	7.2663e+06	0	1	2	5	4
10	8	250	0	1	5	3	4
10	9	18240	0	1	2	1	0
10	9	48300	0	1	2	3	4
10	9	7.31136e+06	0	1	2	5	4
10	9	150	0	1	5	3	4
10	11	18048	0	1	2	1	0
10	11	49500	0	1	2	3	4
10	11	7.68e+06	0	1	2	5	4
10	11	350	0	1	5	3	4
11	0	17024	0	1	2	1	0
11	0	47600	0	1	2	3	4
11	0	7.43834e+06	0	1	2	5	4
11	0	200	0	1	5	3	4
11	1	20096	0	1	2	1	0
11	1	47700	0	1	2	3	4
11	1	7.40147e+06	0	1	2	5	4
11	1	100	0	1	5	3	4
11	2	21248	0	1	2	1	0
11	2	50900	0	1	2	3	4
11	2	7.49978e+06	0	1	2	5	4
11	2	200	0	1	5	3	4
11	3	21824	0	1	2	1	0
11	3	49700	0	1	2	3	4
11	3	7.50387e+06	0	1	2	5	4
11	3	400	0	1	5	3	4
11	4	17472	0	1	2	1	0
11	4	45100	0	1	2	3	4
11	4	7.52026e+06	0	1	2	5	4
11	4	150	0	1	5	3	4
11	5	18944	0	1	2	1	0
11	5	47200	0	1	2	3	4
11	5	7.33184e+06	0	1	2	5	4
11	5	250	0	1	5	3	4
11	6	19904	0	1	2	1	0
11	6	49000	0	1	2	3	4
11	6	7.52435e+06	0	1	2	5	4
11	6	200	0	1	5	3	4
11	7	20096	0	1	2	1	0
11	7	48100	0	1	2	3	4
11	7	7.49978e+06	0	1	2	5	4
11	7	150	0	1	5	3	4
11	8	19008	0	1	2	1	0
11	8	46800	0	1	2	3	4
11	8	7.54893e+06	0	1	2	5	4
11	8	150	0	1	5	3	4
11	9	20992	0	1	2	1	0
11	9	49200	0	1	2	3	4
11	9	7.81926e+06	0	1	2	5	4
11	9	150	0	1	5	3	4
11	10	18880	0	1	2	1	0
11	10	43700	0	1	2	3	4
11	10	7.60627e+06	0	1	2	5	4
11	10	350	0	1	5	3	4
