100000	100000	100000	10000	1000	1000
0	1	41984	0	1	2	1	0
0	1	99400	0	1	2	3	4
0	1	1.65151e+07	0	1	2	5	4
0	1	700	0	1	5	3	4
0	2	38976	0	1	2	1	0
0	2	100000	0	1	2	3	4
0	2	1.46637e+07	0	1	2	5	4
0	2	350	0	1	5	3	4
0	3	38144	0	1	2	1	0
0	3	91400	0	1	2	3	4
0	3	1.39182e+07	0	1	2	5	4
0	3	350	0	1	5	3	4
0	4	18880	0	1	2	1	0
0	4	41800	0	1	2	3	4
0	4	6.26278e+06	0	1	2	5	4
0	4	200	0	1	5	3	4
0	5	22592	0	1	2	1	0
0	5	53600	0	1	2	3	4
0	5	8.73677e+06	0	1	2	5	4
0	5	100	0	1	5	3	4
0	6	60800	0	1	2	1	0
0	6	148000	0	1	2	3	4
0	6	2.4277e+07	0	1	2	5	4
0	6	250	0	1	5	3	4
0	7	58752	0	1	2	1	0
0	7	149400	0	1	2	3	4
0	7	2.3765e+07	0	1	2	5	4
0	7	600	0	1	5	3	4
0	8	21824	0	1	2	1	0
0	8	45600	0	1	2	3	4
0	8	7.40966e+06	0	1	2	5	4
0	8	100	0	1	5	3	4
0	9	19264	0	1	2	1	0
0	9	48400	0	1	2	3	4
0	9	7.22534e+06	0	1	2	5	4
0	9	50	0	1	5	3	4
1	0	42432	0	1	2	1	0
1	0	106500	0	1	2	3	4
1	0	1.67772e+07	0	1	2	5	4
1	0	550	0	1	5	3	4
1	2	32704	0	1	2	1	0
1	2	78600	0	1	2	3	4
1	2	1.21897e+07	0	1	2	5	4
1	2	350	0	1	5	3	4
1	3	31168	0	1	2	1	0
1	3	71400	0	1	2	3	4
1	3	1.16572e+07	0	1	2	5	4
1	3	250	0	1	5	3	4
1	4	27456	0	1	2	1	0
1	4	71400	0	1	2	3	4
1	4	1.13336e+07	0	1	2	5	4
1	4	250	0	1	5	3	4
1	5	26624	0	1	2	1	0
1	5	68300	0	1	2	3	4
1	5	1.03301e+07	0	1	2	5	4
1	5	200	0	1	5	3	4
1	6	54784	0	1	2	1	0
1	6	129400	0	1	2	3	4
1	6	1.9927e+07	0	1	2	5	4
1	6	350	0	1	5	3	4
1	7	51968	0	1	2	1	0
1	7	125400	0	1	2	3	4
1	7	1.91898e+07	0	1	2	5	4
1	7	250	0	1	5	3	4
1	8	15232	0	1	2	1	0
1	8	37900	0	1	2	3	4
1	8	6.28326e+06	0	1	2	5	4
1	8	200	0	1	5	3	4
1	9	50432	0	1	2	1	0
1	9	115900	0	1	2	3	4
1	9	1.8518e+07	0	1	2	5	4
1	9	600	0	1	5	3	4
2	0	39808	0	1	2	1	0
2	0	92700	0	1	2	3	4
2	0	1.50077e+07	0	1	2	5	4
2	0	650	0	1	5	3	4
2	1	33344	0	1	2	1	0
2	1	85000	0	1	2	3	4
2	1	1.27631e+07	0	1	2	5	4
2	1	200	0	1	5	3	4
2	3	27328	0	1	2	1	0
2	3	69300	0	1	2	3	4
2	3	1.03588e+07	0	1	2	5	4
2	3	250	0	1	5	3	4
2	4	13376	0	1	2	1	0
2	4	32000	0	1	2	3	4
2	4	4.72678e+06	0	1	2	5	4
2	4	150	0	1	5	3	4
2	5	15424	0	1	2	1	0
2	5	38600	0	1	2	3	4
2	5	6.18086e+06	0	1	2	5	4
2	5	200	0	1	5	3	4
2	6	19392	0	1	2	1	0
2	6	39200	0	1	2	3	4
2	6	6.31194e+06	0	1	2	5	4
2	6	150	0	1	5	3	4
2	7	46656	0	1	2	1	0
2	7	110200	0	1	2	3	4
2	7	1.7879e+07	0	1	2	5	4
2	7	500	0	1	5	3	4
2	8	44288	0	1	2	1	0
2	8	118100	0	1	2	3	4
2	8	1.72605e+07	0	1	2	5	4
2	8	250	0	1	5	3	4
2	9	14528	0	1	2	1	0
2	9	34900	0	1	2	3	4
2	9	5.71802e+06	0	1	2	5	4
2	9	200	0	1	5	3	4
3	0	38464	0	1	2	1	0
3	0	85400	0	1	2	3	4
3	0	1.37708e+07	0	1	2	5	4
3	0	450	0	1	5	3	4
3	1	29824	0	1	2	1	0
3	1	80200	0	1	2	3	4
3	1	1.15261e+07	0	1	2	5	4
3	1	150	0	1	5	3	4
3	2	26688	0	1	2	1	0
3	2	63800	0	1	2	3	4
3	2	1.0711e+07	0	1	2	5	4
3	2	350	0	1	5	3	4
3	4	15552	0	1	2	1	0
3	4	37000	0	1	2	3	4
3	4	5.99654e+06	0	1	2	5	4
3	5	44416	0	1	2	1	0
3	5	113400	0	1	2	3	4
3	5	1.75964e+07	0	1	2	5	4
3	5	550	0	1	5	3	4
3	6	45056	0	1	2	1	0
3	6	109100	0	1	2	3	4
3	6	1.71581e+07	0	1	2	5	4
3	6	350	0	1	5	3	4
3	7	41920	0	1	2	1	0
3	7	107900	0	1	2	3	4
3	7	1.60686e+07	0	1	2	5	4
3	7	400	0	1	5	3	4
3	8	43392	0	1	2	1	0
3	8	105200	0	1	2	3	4
3	8	1.59089e+07	0	1	2	5	4
3	8	350	0	1	5	3	4
3	9	20864	0	1	2	1	0
3	9	49900	0	1	2	3	4
3	9	7.40557e+06	0	1	2	5	4
3	9	50	0	1	5	3	4
4	0	18688	0	1	2	1	0
4	0	44000	0	1	2	3	4
4	0	6.6519e+06	0	1	2	5	4
4	0	250	0	1	5	3	4
4	1	27520	0	1	2	1	0
4	1	68600	0	1	2	3	4
4	1	1.09896e+07	0	1	2	5	4
4	1	450	0	1	5	3	4
4	2	13312	0	1	2	1	0
4	2	33900	0	1	2	3	4
4	2	4.92339e+06	0	1	2	5	4
4	3	16320	0	1	2	1	0
4	3	40000	0	1	2	3	4
4	3	6.1399e+06	0	1	2	5	4
4	3	200	0	1	5	3	4
4	5	21632	0	1	2	1	0
4	5	53200	0	1	2	3	4
4	5	7.94214e+06	0	1	2	5	4
4	5	250	0	1	5	3	4
4	6	14592	0	1	2	1	0
4	6	30800	0	1	2	3	4
4	6	5.17325e+06	0	1	2	5	4
4	6	200	0	1	5	3	4
4	7	13760	0	1	2	1	0
4	7	35900	0	1	2	3	4
4	7	4.99712e+06	0	1	2	5	4
4	7	100	0	1	5	3	4
4	8	11840	0	1	2	1	0
4	8	24600	0	1	2	3	4
4	8	3.69459e+06	0	1	2	5	4
4	8	50	0	1	5	3	4
4	9	39232	0	1	2	1	0
4	9	94900	0	1	2	3	4
4	9	1.43155e+07	0	1	2	5	4
4	9	300	0	1	5	3	4
5	0	23296	0	1	2	1	0
5	0	50400	0	1	2	3	4
5	0	8.53197e+06	0	1	2	5	4
5	0	250	0	1	5	3	4
5	1	27456	0	1	2	1	0
5	1	68200	0	1	2	3	4
5	1	1.06455e+07	0	1	2	5	4
5	1	250	0	1	5	3	4
5	2	17536	0	1	2	1	0
5	2	42800	0	1	2	3	4
5	2	6.30784e+06	0	1	2	5	4
5	2	250	0	1	5	3	4
5	3	48384	0	1	2	1	0
5	3	109300	0	1	2	3	4
5	3	1.72974e+07	0	1	2	5	4
5	3	550	0	1	5	3	4
5	4	22272	0	1	2	1	0
5	4	50400	0	1	2	3	4
5	4	8.27392e+06	0	1	2	5	4
5	4	300	0	1	5	3	4
5	6	20224	0	1	2	1	0
5	6	47300	0	1	2	3	4
5	6	7.86022e+06	0	1	2	5	4
5	6	100	0	1	5	3	4
5	7	20608	0	1	2	1	0
5	7	49900	0	1	2	3	4
5	7	7.72915e+06	0	1	2	5	4
5	7	250	0	1	5	3	4
5	8	18624	0	1	2	1	0
5	8	47900	0	1	2	3	4
5	8	7.11475e+06	0	1	2	5	4
5	8	200	0	1	5	3	4
5	9	39872	0	1	2	1	0
5	9	89300	0	1	2	3	4
5	9	1.41722e+07	0	1	2	5	4
5	9	400	0	1	5	3	4
6	0	62272	0	1	2	1	0
6	0	152100	0	1	2	3	4
6	0	2.40148e+07	0	1	2	5	4
6	0	800	0	1	5	3	4
6	1	54272	0	1	2	1	0
6	1	131100	0	1	2	3	4
6	1	2.048e+07	0	1	2	5	4
6	1	700	0	1	5	3	4
6	2	18688	0	1	2	1	0
6	2	38000	0	1	2	3	4
6	2	6.11533e+06	0	1	2	5	4
6	2	150	0	1	5	3	4
6	3	44672	0	1	2	1	0
6	3	110200	0	1	2	3	4
6	3	1.74858e+07	0	1	2	5	4
6	3	550	0	1	5	3	4
6	4	14656	0	1	2	1	0
6	4	31800	0	1	2	3	4
6	4	5.33299e+06	0	1	2	5	4
6	4	100	0	1	5	3	4
6	5	20736	0	1	2	1	0
6	5	49300	0	1	2	3	4
6	5	7.84384e+06	0	1	2	5	4
6	5	200	0	1	5	3	4
6	7	19200	0	1	2	1	0
6	7	44800	0	1	2	3	4
6	7	7.08198e+06	0	1	2	5	4
6	7	200	0	1	5	3	4
6	8	18112	0	1	2	1	0
6	8	43500	0	1	2	3	4
6	8	6.97549e+06	0	1	2	5	4
6	8	50	0	1	5	3	4
6	9	17728	0	1	2	1	0
6	9	47200	0	1	2	3	4
6	9	6.81984e+06	0	1	2	5	4
6	9	200	0	1	5	3	4
7	0	58816	0	1	2	1	0
7	0	155700	0	1	2	3	4
7	0	2.35889e+07	0	1	2	5	4
7	0	400	0	1	5	3	4
7	1	53248	0	1	2	1	0
7	1	128200	0	1	2	3	4
7	1	1.96854e+07	0	1	2	5	4
7	1	600	0	1	5	3	4
7	2	46784	0	1	2	1	0
7	2	113200	0	1	2	3	4
7	2	1.80224e+07	0	1	2	5	4
7	2	400	0	1	5	3	4
7	3	45440	0	1	2	1	0
7	3	108700	0	1	2	3	4
7	3	1.66093e+07	0	1	2	5	4
7	3	500	0	1	5	3	4
7	4	13120	0	1	2	1	0
7	4	31600	0	1	2	3	4
7	4	5.20602e+06	0	1	2	5	4
7	4	150	0	1	5	3	4
7	5	19328	0	1	2	1	0
7	5	45700	0	1	2	3	4
7	5	7.44243e+06	0	1	2	5	4
7	5	150	0	1	5	3	4
7	6	17344	0	1	2	1	0
7	6	44100	0	1	2	3	4
7	6	7.40147e+06	0	1	2	5	4
7	6	150	0	1	5	3	4
7	8	17536	0	1	2	1	0
7	8	43000	0	1	2	3	4
7	8	6.92634e+06	0	1	2	5	4
7	8	150	0	1	5	3	4
7	9	17856	0	1	2	1	0
7	9	40000	0	1	2	3	4
7	9	6.4512e+06	0	1	2	5	4
7	9	100	0	1	5	3	4
8	0	21376	0	1	2	1	0
8	0	48700	0	1	2	3	4
8	0	7.48749e+06	0	1	2	5	4
8	0	200	0	1	5	3	4
8	1	16064	0	1	2	1	0
8	1	41300	0	1	2	3	4
8	1	6.43072e+06	0	1	2	5	4
8	1	100	0	1	5	3	4
8	2	46912	0	1	2	1	0
8	2	113000	0	1	2	3	4
8	2	1.75555e+07	0	1	2	5	4
8	2	200	0	1	5	3	4
8	3	45184	0	1	2	1	0
8	3	95400	0	1	2	3	4
8	3	1.62488e+07	0	1	2	5	4
8	3	300	0	1	5	3	4
8	4	10368	0	1	2	1	0
8	4	26200	0	1	2	3	4
8	4	3.97722e+06	0	1	2	5	4
8	4	100	0	1	5	3	4
8	5	18048	0	1	2	1	0
8	5	46900	0	1	2	3	4
8	5	7.24992e+06	0	1	2	5	4
8	5	200	0	1	5	3	4
8	6	18688	0	1	2	1	0
8	6	44000	0	1	2	3	4
8	6	7.0615e+06	0	1	2	5	4
8	6	150	0	1	5	3	4
8	7	19200	0	1	2	1	0
8	7	39900	0	1	2	3	4
8	7	6.87718e+06	0	1	2	5	4
8	7	150	0	1	5	3	4
8	9	10560	0	1	2	1	0
8	9	26800	0	1	2	3	4
8	9	4.64486e+06	0	1	2	5	4
8	9	100	0	1	5	3	4
9	0	18560	0	1	2	1	0
9	0	43800	0	1	2	3	4
9	0	7.51206e+06	0	1	2	5	4
9	0	200	0	1	5	3	4
9	1	49152	0	1	2	1	0
9	1	120600	0	1	2	3	4
9	1	1.85876e+07	0	1	2	5	4
9	1	750	0	1	5	3	4
9	2	14464	0	1	2	1	0
9	2	36100	0	1	2	3	4
9	2	5.4313e+06	0	1	2	5	4
9	2	150	0	1	5	3	4
9	3	20928	0	1	2	1	0
9	3	47200	0	1	2	3	4
9	3	7.79059e+06	0	1	2	5	4
9	3	50	0	1	5	3	4
9	4	38592	0	1	2	1	0
9	4	95100	0	1	2	3	4
9	4	1.49381e+07	0	1	2	5	4
9	4	500	0	1	5	3	4
9	5	39424	0	1	2	1	0
9	5	92800	0	1	2	3	4
9	5	1.40943e+07	0	1	2	5	4
9	5	250	0	1	5	3	4
9	6	19200	0	1	2	1	0
9	6	43600	0	1	2	3	4
9	6	6.90995e+06	0	1	2	5	4
9	6	250	0	1	5	3	4
9	7	17280	0	1	2	1	0
9	7	41800	0	1	2	3	4
9	7	6.41843e+06	0	1	2	5	4
9	7	50	0	1	5	3	4
9	8	10752	0	1	2	1	0
9	8	24600	0	1	2	3	4
9	8	4.24346e+06	0	1	2	5	4
