100000	100000	100000	10000	1000	1000
0	1	150720	0	1	2	1	0
0	1	368400	0	1	2	3	4
0	1	5.7258e+07	0	1	2	5	4
0	1	900	0	1	5	3	4
0	2	201344	0	1	2	1	0
0	2	486900	0	1	2	3	4
0	2	7.62307e+07	0	1	2	5	4
0	2	1250	0	1	5	3	4
0	3	34624	0	1	2	1	0
0	3	93700	0	1	2	3	4
0	3	1.44916e+07	0	1	2	5	4
0	3	550	0	1	5	3	4
0	4	39616	0	1	2	1	0
0	4	97900	0	1	2	3	4
0	4	1.55443e+07	0	1	2	5	4
0	4	250	0	1	5	3	4
0	5	100160	0	1	2	1	0
0	5	243900	0	1	2	3	4
0	5	3.82484e+07	0	1	2	5	4
0	5	1350	0	1	5	3	4
0	6	42560	0	1	2	1	0
0	6	98600	0	1	2	3	4
0	6	1.60809e+07	0	1	2	5	4
0	6	350	0	1	5	3	4
0	7	38656	0	1	2	1	0
0	7	92200	0	1	2	3	4
0	7	1.41107e+07	0	1	2	5	4
0	7	250	0	1	5	3	4
0	8	32704	0	1	2	1	0
0	8	77400	0	1	2	3	4
0	8	1.26894e+07	0	1	2	5	4
0	8	250	0	1	5	3	4
0	9	64448	0	1	2	1	0
0	9	148000	0	1	2	3	4
0	9	2.24543e+07	0	1	2	5	4
0	9	1000	0	1	5	3	4
1	0	153152	0	1	2	1	0
1	0	360800	0	1	2	3	4
1	0	5.71146e+07	0	1	2	5	4
1	0	1400	0	1	5	3	4
1	2	103488	0	1	2	1	0
1	2	237300	0	1	2	3	4
1	2	3.81747e+07	0	1	2	5	4
1	2	800	0	1	5	3	4
1	3	37504	0	1	2	1	0
1	3	91900	0	1	2	3	4
1	3	1.4594e+07	0	1	2	5	4
1	3	150	0	1	5	3	4
1	4	59392	0	1	2	1	0
1	4	153800	0	1	2	3	4
1	4	2.25444e+07	0	1	2	5	4
1	4	700	0	1	5	3	4
1	5	24320	0	1	2	1	0
1	5	60400	0	1	2	3	4
1	5	9.58464e+06	0	1	2	5	4
1	5	100	0	1	5	3	4
1	6	43328	0	1	2	1	0
1	6	105300	0	1	2	3	4
1	6	1.62324e+07	0	1	2	5	4
1	6	450	0	1	5	3	4
1	7	19264	0	1	2	1	0
1	7	49500	0	1	2	3	4
1	7	7.48339e+06	0	1	2	5	4
1	7	300	0	1	5	3	4
1	8	17664	0	1	2	1	0
1	8	40700	0	1	2	3	4
1	8	6.36518e+06	0	1	2	5	4
1	8	50	0	1	5	3	4
1	9	17600	0	1	2	1	0
1	9	36100	0	1	2	3	4
1	9	5.82042e+06	0	1	2	5	4
1	9	300	0	1	5	3	4
2	0	200960	0	1	2	1	0
2	0	478400	0	1	2	3	4
2	0	7.56777e+07	0	1	2	5	4
2	0	2050	0	1	5	3	4
2	1	99840	0	1	2	1	0
2	1	232900	0	1	2	3	4
2	1	3.85352e+07	0	1	2	5	4
2	1	1000	0	1	5	3	4
2	3	17472	0	1	2	1	0
2	3	45000	0	1	2	3	4
2	3	6.32013e+06	0	1	2	5	4
2	4	20480	0	1	2	1	0
2	4	44100	0	1	2	3	4
2	4	7.4793e+06	0	1	2	5	4
2	4	150	0	1	5	3	4
2	5	18240	0	1	2	1	0
2	5	40500	0	1	2	3	4
2	5	6.41024e+06	0	1	2	5	4
2	5	100	0	1	5	3	4
2	6	14656	0	1	2	1	0
2	6	35300	0	1	2	3	4
2	6	5.43949e+06	0	1	2	5	4
2	6	200	0	1	5	3	4
2	7	24768	0	1	2	1	0
2	7	62100	0	1	2	3	4
2	7	9.40032e+06	0	1	2	5	4
2	7	150	0	1	5	3	4
2	8	20864	0	1	2	1	0
2	8	51600	0	1	2	3	4
2	8	8.67942e+06	0	1	2	5	4
2	8	50	0	1	5	3	4
2	9	9920	0	1	2	1	0
2	9	24600	0	1	2	3	4
2	9	3.67821e+06	0	1	2	5	4
3	0	38464	0	1	2	1	0
3	0	91400	0	1	2	3	4
3	0	1.43073e+07	0	1	2	5	4
3	0	300	0	1	5	3	4
3	1	38144	0	1	2	1	0
3	1	86800	0	1	2	3	4
3	1	1.46883e+07	0	1	2	5	4
3	1	350	0	1	5	3	4
3	2	18496	0	1	2	1	0
3	2	39800	0	1	2	3	4
3	2	6.11942e+06	0	1	2	5	4
3	2	150	0	1	5	3	4
3	4	30912	0	1	2	1	0
3	4	73800	0	1	2	3	4
3	4	1.11657e+07	0	1	2	5	4
3	4	250	0	1	5	3	4
3	5	5376	0	1	2	1	0
3	5	15700	0	1	2	3	4
3	5	2.27738e+06	0	1	2	5	4
3	5	50	0	1	5	3	4
3	6	7808	0	1	2	1	0
3	6	17800	0	1	2	3	4
3	6	2.56819e+06	0	1	2	5	4
3	7	3584	0	1	2	1	0
3	7	11600	0	1	2	3	4
3	7	1.79814e+06	0	1	2	5	4
3	7	50	0	1	5	3	4
3	8	4480	0	1	2	1	0
3	8	10900	0	1	2	3	4
3	8	1.5319e+06	0	1	2	5	4
3	8	100	0	1	5	3	4
3	9	3776	0	1	2	1	0
3	9	8700	0	1	2	3	4
3	9	1.4377e+06	0	1	2	5	4
3	9	100	0	1	5	3	4
4	0	38848	0	1	2	1	0
4	0	92600	0	1	2	3	4
4	0	1.52658e+07	0	1	2	5	4
4	0	400	0	1	5	3	4
4	1	59840	0	1	2	1	0
4	1	140400	0	1	2	3	4
4	1	2.2442e+07	0	1	2	5	4
4	1	650	0	1	5	3	4
4	2	20288	0	1	2	1	0
4	2	49700	0	1	2	3	4
4	2	7.45472e+06	0	1	2	5	4
4	2	200	0	1	5	3	4
4	3	31616	0	1	2	1	0
4	3	75300	0	1	2	3	4
4	3	1.17924e+07	0	1	2	5	4
4	3	400	0	1	5	3	4
4	5	6208	0	1	2	1	0
4	5	14900	0	1	2	3	4
4	5	2.53952e+06	0	1	2	5	4
4	5	50	0	1	5	3	4
4	6	8512	0	1	2	1	0
4	6	18900	0	1	2	3	4
4	6	3.50618e+06	0	1	2	5	4
4	6	150	0	1	5	3	4
4	7	5312	0	1	2	1	0
4	7	12100	0	1	2	3	4
4	7	1.83501e+06	0	1	2	5	4
4	7	100	0	1	5	3	4
4	8	4352	0	1	2	1	0
4	8	11600	0	1	2	3	4
4	8	1.73261e+06	0	1	2	5	4
4	8	50	0	1	5	3	4
4	9	4032	0	1	2	1	0
4	9	10000	0	1	2	3	4
4	9	1.52371e+06	0	1	2	5	4
4	9	50	0	1	5	3	4
5	0	104320	0	1	2	1	0
5	0	238900	0	1	2	3	4
5	0	3.7888e+07	0	1	2	5	4
5	0	850	0	1	5	3	4
5	1	22720	0	1	2	1	0
5	1	63900	0	1	2	3	4
5	1	9.79763e+06	0	1	2	5	4
5	1	250	0	1	5	3	4
5	2	16448	0	1	2	1	0
5	2	38500	0	1	2	3	4
5	2	6.46758e+06	0	1	2	5	4
5	2	250	0	1	5	3	4
5	3	7232	0	1	2	1	0
5	3	13700	0	1	2	3	4
5	3	2.18317e+06	0	1	2	5	4
5	3	100	0	1	5	3	4
5	4	8000	0	1	2	1	0
5	4	17400	0	1	2	3	4
5	4	2.68288e+06	0	1	2	5	4
5	4	50	0	1	5	3	4
5	6	16192	0	1	2	1	0
5	6	37100	0	1	2	3	4
5	6	5.4231e+06	0	1	2	5	4
5	6	250	0	1	5	3	4
5	7	6656	0	1	2	1	0
5	7	16400	0	1	2	3	4
5	7	2.59686e+06	0	1	2	5	4
5	7	100	0	1	5	3	4
5	8	4352	0	1	2	1	0
5	8	13100	0	1	2	3	4
5	8	2.19955e+06	0	1	2	5	4
5	8	100	0	1	5	3	4
5	9	4416	0	1	2	1	0
5	9	11600	0	1	2	3	4
5	9	1.92512e+06	0	1	2	5	4
5	9	50	0	1	5	3	4
6	0	40384	0	1	2	1	0
6	0	104800	0	1	2	3	4
6	0	1.65315e+07	0	1	2	5	4
6	0	550	0	1	5	3	4
6	1	42944	0	1	2	1	0
6	1	103500	0	1	2	3	4
6	1	1.64782e+07	0	1	2	5	4
6	1	200	0	1	5	3	4
6	2	15360	0	1	2	1	0
6	2	30100	0	1	2	3	4
6	2	5.57056e+06	0	1	2	5	4
6	2	250	0	1	5	3	4
6	3	8960	0	1	2	1	0
6	3	16700	0	1	2	3	4
6	3	2.60096e+06	0	1	2	5	4
6	4	7552	0	1	2	1	0
6	4	22400	0	1	2	3	4
6	4	3.45293e+06	0	1	2	5	4
6	4	100	0	1	5	3	4
6	5	14976	0	1	2	1	0
6	5	34100	0	1	2	3	4
6	5	5.4272e+06	0	1	2	5	4
6	7	11136	0	1	2	1	0
6	7	25500	0	1	2	3	4
6	7	3.87072e+06	0	1	2	5	4
6	7	50	0	1	5	3	4
6	8	9600	0	1	2	1	0
6	8	22200	0	1	2	3	4
6	8	3.64544e+06	0	1	2	5	4
6	9	8768	0	1	2	1	0
6	9	20000	0	1	2	3	4
6	9	3.20717e+06	0	1	2	5	4
6	9	250	0	1	5	3	4
7	0	36608	0	1	2	1	0
7	0	90800	0	1	2	3	4
7	0	1.38691e+07	0	1	2	5	4
7	0	500	0	1	5	3	4
7	1	21120	0	1	2	1	0
7	1	48300	0	1	2	3	4
7	1	7.0697e+06	0	1	2	5	4
7	1	250	0	1	5	3	4
7	2	24576	0	1	2	1	0
7	2	57100	0	1	2	3	4
7	2	9.39213e+06	0	1	2	5	4
7	2	300	0	1	5	3	4
7	3	5568	0	1	2	1	0
7	3	11100	0	1	2	3	4
7	3	1.75309e+06	0	1	2	5	4
7	4	5184	0	1	2	1	0
7	4	10000	0	1	2	3	4
7	4	2.01933e+06	0	1	2	5	4
7	4	50	0	1	5	3	4
7	5	6784	0	1	2	1	0
7	5	15300	0	1	2	3	4
7	5	2.49446e+06	0	1	2	5	4
7	5	100	0	1	5	3	4
7	6	9856	0	1	2	1	0
7	6	24500	0	1	2	3	4
7	6	3.95264e+06	0	1	2	5	4
7	6	350	0	1	5	3	4
7	8	8704	0	1	2	1	0
7	8	22500	0	1	2	3	4
7	8	2.9696e+06	0	1	2	5	4
7	8	50	0	1	5	3	4
7	9	4608	0	1	2	1	0
7	9	9000	0	1	2	3	4
7	9	1.41722e+06	0	1	2	5	4
8	0	34880	0	1	2	1	0
8	0	84500	0	1	2	3	4
8	0	1.22552e+07	0	1	2	5	4
8	0	550	0	1	5	3	4
8	1	15872	0	1	2	1	0
8	1	42600	0	1	2	3	4
8	1	6.12352e+06	0	1	2	5	4
8	1	150	0	1	5	3	4
8	2	25600	0	1	2	1	0
8	2	52900	0	1	2	3	4
8	2	8.71629e+06	0	1	2	5	4
8	2	350	0	1	5	3	4
8	3	5120	0	1	2	1	0
8	3	12300	0	1	2	3	4
8	3	1.59334e+06	0	1	2	5	4
8	3	50	0	1	5	3	4
8	4	4864	0	1	2	1	0
8	4	11900	0	1	2	3	4
8	4	1.6384e+06	0	1	2	5	4
8	4	100	0	1	5	3	4
8	5	6080	0	1	2	1	0
8	5	11400	0	1	2	3	4
8	5	2.12582e+06	0	1	2	5	4
8	6	10240	0	1	2	1	0
8	6	25900	0	1	2	3	4
8	6	3.71098e+06	0	1	2	5	4
8	6	50	0	1	5	3	4
8	7	8768	0	1	2	1	0
8	7	21000	0	1	2	3	4
8	7	3.09658e+06	0	1	2	5	4
8	7	50	0	1	5	3	4
8	9	3840	0	1	2	1	0
8	9	6500	0	1	2	3	4
8	9	1.31482e+06	0	1	2	5	4
9	0	59776	0	1	2	1	0
9	0	145200	0	1	2	3	4
9	0	2.23642e+07	0	1	2	5	4
9	0	400	0	1	5	3	4
9	1	14080	0	1	2	1	0
9	1	40300	0	1	2	3	4
9	1	5.78355e+06	0	1	2	5	4
9	1	300	0	1	5	3	4
9	2	9600	0	1	2	1	0
9	2	24100	0	1	2	3	4
9	2	4.04275e+06	0	1	2	5	4
9	2	50	0	1	5	3	4
9	3	3840	0	1	2	1	0
9	3	10900	0	1	2	3	4
9	3	1.41722e+06	0	1	2	5	4
9	4	5120	0	1	2	1	0
9	4	8400	0	1	2	3	4
9	4	1.56467e+06	0	1	2	5	4
9	5	4480	0	1	2	1	0
9	5	13600	0	1	2	3	4
9	5	1.79405e+06	0	1	2	5	4
9	6	8768	0	1	2	1	0
9	6	20000	0	1	2	3	4
9	6	3.26861e+06	0	1	2	5	4
9	6	250	0	1	5	3	4
9	7	4544	0	1	2	1	0
9	7	11000	0	1	2	3	4
9	7	1.38854e+06	0	1	2	5	4
9	7	100	0	1	5	3	4
9	8	3456	0	1	2	1	0
9	8	9200	0	1	2	3	4
9	8	1.31482e+06	0	1	2	5	4
