10
0	2	1e+12
0	5	1e+12
0	9	1e+12
1	2	1e+12
1	4	1e+12
1	6	1e+12
2	0	1e+12
2	1	1e+12
2	7	1e+12
2	8	1e+12
3	4	1e+12
4	1	1e+12
4	3	1e+12
5	0	1e+12
5	6	1e+12
6	1	1e+12
6	5	1e+12
6	7	1e+12
6	8	1e+12
6	9	1e+12
7	2	1e+12
7	6	1e+12
7	8	1e+12
8	2	1e+12
8	6	1e+12
8	7	1e+12
9	0	1e+12
9	6	1e+12
