100000	100000	100000	10000	1000	1000
0	1	67840	0	1	2	1	0
0	1	177300	0	1	2	3	4
0	1	2.78364e+07	0	1	2	5	4
0	1	550	0	1	5	3	4
0	2	116672	0	1	2	1	0
0	2	285900	0	1	2	3	4
0	2	4.43556e+07	0	1	2	5	4
0	2	1000	0	1	5	3	4
0	3	51648	0	1	2	1	0
0	3	124500	0	1	2	3	4
0	3	1.98001e+07	0	1	2	5	4
0	3	750	0	1	5	3	4
0	4	32960	0	1	2	1	0
0	4	71600	0	1	2	3	4
0	4	1.15057e+07	0	1	2	5	4
0	4	350	0	1	5	3	4
0	5	30336	0	1	2	1	0
0	5	61600	0	1	2	3	4
0	5	1.05472e+07	0	1	2	5	4
0	5	350	0	1	5	3	4
0	6	37632	0	1	2	1	0
0	6	93000	0	1	2	3	4
0	6	1.47661e+07	0	1	2	5	4
0	6	650	0	1	5	3	4
0	7	34432	0	1	2	1	0
0	7	91900	0	1	2	3	4
0	7	1.35537e+07	0	1	2	5	4
0	7	400	0	1	5	3	4
0	8	69824	0	1	2	1	0
0	8	170000	0	1	2	3	4
0	8	2.6366e+07	0	1	2	5	4
0	8	700	0	1	5	3	4
0	9	21632	0	1	2	1	0
0	9	50600	0	1	2	3	4
0	9	8.02816e+06	0	1	2	5	4
0	9	200	0	1	5	3	4
1	0	71232	0	1	2	1	0
1	0	170000	0	1	2	3	4
1	0	2.70909e+07	0	1	2	5	4
1	0	1100	0	1	5	3	4
1	2	86080	0	1	2	1	0
1	2	206400	0	1	2	3	4
1	2	3.14245e+07	0	1	2	5	4
1	2	950	0	1	5	3	4
1	3	40128	0	1	2	1	0
1	3	83900	0	1	2	3	4
1	3	1.36847e+07	0	1	2	5	4
1	3	350	0	1	5	3	4
1	4	20224	0	1	2	1	0
1	4	51700	0	1	2	3	4
1	4	8.35994e+06	0	1	2	5	4
1	4	100	0	1	5	3	4
1	5	20160	0	1	2	1	0
1	5	45000	0	1	2	3	4
1	5	7.34003e+06	0	1	2	5	4
1	5	150	0	1	5	3	4
1	6	27072	0	1	2	1	0
1	6	68400	0	1	2	3	4
1	6	1.07438e+07	0	1	2	5	4
1	6	200	0	1	5	3	4
1	7	25472	0	1	2	1	0
1	7	58500	0	1	2	3	4
1	7	9.54368e+06	0	1	2	5	4
1	7	450	0	1	5	3	4
1	8	46144	0	1	2	1	0
1	8	113900	0	1	2	3	4
1	8	1.77111e+07	0	1	2	5	4
1	8	500	0	1	5	3	4
1	9	14656	0	1	2	1	0
1	9	36100	0	1	2	3	4
1	9	5.84499e+06	0	1	2	5	4
1	9	150	0	1	5	3	4
2	0	113024	0	1	2	1	0
2	0	282100	0	1	2	3	4
2	0	4.46259e+07	0	1	2	5	4
2	0	1150	0	1	5	3	4
2	1	90880	0	1	2	1	0
2	1	197400	0	1	2	3	4
2	1	3.15965e+07	0	1	2	5	4
2	1	800	0	1	5	3	4
2	3	57920	0	1	2	1	0
2	3	140900	0	1	2	3	4
2	3	2.24297e+07	0	1	2	5	4
2	3	800	0	1	5	3	4
2	4	16128	0	1	2	1	0
2	4	32700	0	1	2	3	4
2	4	4.83738e+06	0	1	2	5	4
2	4	100	0	1	5	3	4
2	5	25792	0	1	2	1	0
2	5	59800	0	1	2	3	4
2	5	8.98253e+06	0	1	2	5	4
2	5	250	0	1	5	3	4
2	6	15424	0	1	2	1	0
2	6	39400	0	1	2	3	4
2	6	5.91872e+06	0	1	2	5	4
2	6	100	0	1	5	3	4
2	7	39680	0	1	2	1	0
2	7	99900	0	1	2	3	4
2	7	1.58188e+07	0	1	2	5	4
2	7	350	0	1	5	3	4
2	8	18368	0	1	2	1	0
2	8	47700	0	1	2	3	4
2	8	7.61856e+06	0	1	2	5	4
2	8	200	0	1	5	3	4
2	9	9536	0	1	2	1	0
2	9	24300	0	1	2	3	4
2	9	3.4775e+06	0	1	2	5	4
2	9	100	0	1	5	3	4
3	0	49600	0	1	2	1	0
3	0	128300	0	1	2	3	4
3	0	1.94273e+07	0	1	2	5	4
3	0	300	0	1	5	3	4
3	1	36032	0	1	2	1	0
3	1	86900	0	1	2	3	4
3	1	1.3398e+07	0	1	2	5	4
3	1	350	0	1	5	3	4
3	2	57024	0	1	2	1	0
3	2	141400	0	1	2	3	4
3	2	2.26345e+07	0	1	2	5	4
3	2	500	0	1	5	3	4
3	4	14848	0	1	2	1	0
3	4	34900	0	1	2	3	4
3	4	5.65248e+06	0	1	2	5	4
3	4	250	0	1	5	3	4
3	5	40704	0	1	2	1	0
3	5	98200	0	1	2	3	4
3	5	1.60645e+07	0	1	2	5	4
3	5	450	0	1	5	3	4
3	6	18496	0	1	2	1	0
3	6	47300	0	1	2	3	4
3	6	7.29498e+06	0	1	2	5	4
3	6	200	0	1	5	3	4
3	7	37248	0	1	2	1	0
3	7	85500	0	1	2	3	4
3	7	1.37626e+07	0	1	2	5	4
3	7	150	0	1	5	3	4
3	8	13376	0	1	2	1	0
3	8	27000	0	1	2	3	4
3	8	4.35405e+06	0	1	2	5	4
3	8	100	0	1	5	3	4
3	9	12160	0	1	2	1	0
3	9	24400	0	1	2	3	4
3	9	4.18611e+06	0	1	2	5	4
4	0	30144	0	1	2	1	0
4	0	74100	0	1	2	3	4
4	0	1.15876e+07	0	1	2	5	4
4	0	350	0	1	5	3	4
4	1	22400	0	1	2	1	0
4	1	53200	0	1	2	3	4
4	1	7.90118e+06	0	1	2	5	4
4	1	250	0	1	5	3	4
4	2	12352	0	1	2	1	0
4	2	31500	0	1	2	3	4
4	2	4.94797e+06	0	1	2	5	4
4	2	50	0	1	5	3	4
4	3	14336	0	1	2	1	0
4	3	37800	0	1	2	3	4
4	3	5.82861e+06	0	1	2	5	4
4	3	100	0	1	5	3	4
4	5	19520	0	1	2	1	0
4	5	42800	0	1	2	3	4
4	5	7.3769e+06	0	1	2	5	4
4	5	150	0	1	5	3	4
4	6	36480	0	1	2	1	0
4	6	87600	0	1	2	3	4
4	6	1.28819e+07	0	1	2	5	4
4	6	300	0	1	5	3	4
4	7	8320	0	1	2	1	0
4	7	18200	0	1	2	3	4
4	7	3.00237e+06	0	1	2	5	4
4	7	200	0	1	5	3	4
4	8	15872	0	1	2	1	0
4	8	37300	0	1	2	3	4
4	8	6.00883e+06	0	1	2	5	4
4	8	100	0	1	5	3	4
4	9	17024	0	1	2	1	0
4	9	35500	0	1	2	3	4
4	9	5.57875e+06	0	1	2	5	4
4	9	50	0	1	5	3	4
5	0	28032	0	1	2	1	0
5	0	60600	0	1	2	3	4
5	0	1.07315e+07	0	1	2	5	4
5	0	300	0	1	5	3	4
5	1	19328	0	1	2	1	0
5	1	50000	0	1	2	3	4
5	1	7.54893e+06	0	1	2	5	4
5	1	100	0	1	5	3	4
5	2	24640	0	1	2	1	0
5	2	60700	0	1	2	3	4
5	2	9.0071e+06	0	1	2	5	4
5	2	150	0	1	5	3	4
5	3	43136	0	1	2	1	0
5	3	104300	0	1	2	3	4
5	3	1.56549e+07	0	1	2	5	4
5	3	400	0	1	5	3	4
5	4	20544	0	1	2	1	0
5	4	48500	0	1	2	3	4
5	4	7.02054e+06	0	1	2	5	4
5	4	200	0	1	5	3	4
5	6	34048	0	1	2	1	0
5	6	81500	0	1	2	3	4
5	6	1.24764e+07	0	1	2	5	4
5	6	300	0	1	5	3	4
5	7	15744	0	1	2	1	0
5	7	38400	0	1	2	3	4
5	7	5.70982e+06	0	1	2	5	4
5	7	100	0	1	5	3	4
5	8	14528	0	1	2	1	0
5	8	33500	0	1	2	3	4
5	8	5.2183e+06	0	1	2	5	4
5	8	100	0	1	5	3	4
5	9	12672	0	1	2	1	0
5	9	33100	0	1	2	3	4
5	9	4.58752e+06	0	1	2	5	4
5	9	200	0	1	5	3	4
6	0	36736	0	1	2	1	0
6	0	86900	0	1	2	3	4
6	0	1.50856e+07	0	1	2	5	4
6	0	300	0	1	5	3	4
6	1	30400	0	1	2	1	0
6	1	67400	0	1	2	3	4
6	1	1.00475e+07	0	1	2	5	4
6	1	300	0	1	5	3	4
6	2	13888	0	1	2	1	0
6	2	38700	0	1	2	3	4
6	2	5.70163e+06	0	1	2	5	4
6	2	100	0	1	5	3	4
6	3	20224	0	1	2	1	0
6	3	44900	0	1	2	3	4
6	3	7.32365e+06	0	1	2	5	4
6	3	250	0	1	5	3	4
6	4	34432	0	1	2	1	0
6	4	86900	0	1	2	3	4
6	4	1.28983e+07	0	1	2	5	4
6	4	250	0	1	5	3	4
6	5	32448	0	1	2	1	0
6	5	71300	0	1	2	3	4
6	5	1.1477e+07	0	1	2	5	4
6	5	200	0	1	5	3	4
6	7	9024	0	1	2	1	0
6	7	22400	0	1	2	3	4
6	7	3.45293e+06	0	1	2	5	4
6	7	150	0	1	5	3	4
6	8	26880	0	1	2	1	0
6	8	59900	0	1	2	3	4
6	8	9.85498e+06	0	1	2	5	4
6	8	150	0	1	5	3	4
6	9	24320	0	1	2	1	0
6	9	57200	0	1	2	3	4
6	9	9.19552e+06	0	1	2	5	4
6	9	50	0	1	5	3	4
7	0	36480	0	1	2	1	0
7	0	83400	0	1	2	3	4
7	0	1.4082e+07	0	1	2	5	4
7	0	200	0	1	5	3	4
7	1	25024	0	1	2	1	0
7	1	58000	0	1	2	3	4
7	1	9.58464e+06	0	1	2	5	4
7	1	350	0	1	5	3	4
7	2	42944	0	1	2	1	0
7	2	101000	0	1	2	3	4
7	2	1.56836e+07	0	1	2	5	4
7	2	450	0	1	5	3	4
7	3	34944	0	1	2	1	0
7	3	80500	0	1	2	3	4
7	3	1.41804e+07	0	1	2	5	4
7	3	250	0	1	5	3	4
7	4	8576	0	1	2	1	0
7	4	19400	0	1	2	3	4
7	4	3.19898e+06	0	1	2	5	4
7	5	14592	0	1	2	1	0
7	5	35600	0	1	2	3	4
7	5	5.37805e+06	0	1	2	5	4
7	5	100	0	1	5	3	4
7	6	9024	0	1	2	1	0
7	6	25100	0	1	2	3	4
7	6	3.64544e+06	0	1	2	5	4
7	6	50	0	1	5	3	4
7	8	7488	0	1	2	1	0
7	8	19500	0	1	2	3	4
7	8	2.92045e+06	0	1	2	5	4
7	8	100	0	1	5	3	4
7	9	6720	0	1	2	1	0
7	9	13900	0	1	2	3	4
7	9	2.09715e+06	0	1	2	5	4
7	9	100	0	1	5	3	4
8	0	69056	0	1	2	1	0
8	0	170200	0	1	2	3	4
8	0	2.61775e+07	0	1	2	5	4
8	0	800	0	1	5	3	4
8	1	46272	0	1	2	1	0
8	1	112200	0	1	2	3	4
8	1	1.79569e+07	0	1	2	5	4
8	1	550	0	1	5	3	4
8	2	16640	0	1	2	1	0
8	2	48800	0	1	2	3	4
8	2	7.67181e+06	0	1	2	5	4
8	2	200	0	1	5	3	4
8	3	10240	0	1	2	1	0
8	3	26100	0	1	2	3	4
8	3	4.3049e+06	0	1	2	5	4
8	3	150	0	1	5	3	4
8	4	16064	0	1	2	1	0
8	4	32800	0	1	2	3	4
8	4	5.81632e+06	0	1	2	5	4
8	4	200	0	1	5	3	4
8	5	13376	0	1	2	1	0
8	5	30700	0	1	2	3	4
8	5	5.48045e+06	0	1	2	5	4
8	5	50	0	1	5	3	4
8	6	27008	0	1	2	1	0
8	6	62400	0	1	2	3	4
8	6	9.66246e+06	0	1	2	5	4
8	6	300	0	1	5	3	4
8	7	8128	0	1	2	1	0
8	7	19400	0	1	2	3	4
8	7	3.00646e+06	0	1	2	5	4
8	7	100	0	1	5	3	4
8	9	10176	0	1	2	1	0
8	9	26800	0	1	2	3	4
8	9	3.82566e+06	0	1	2	5	4
8	9	50	0	1	5	3	4
9	0	22528	0	1	2	1	0
9	0	57400	0	1	2	3	4
9	0	8.01997e+06	0	1	2	5	4
9	0	250	0	1	5	3	4
9	1	16000	0	1	2	1	0
9	1	37700	0	1	2	3	4
9	1	6.12352e+06	0	1	2	5	4
9	1	50	0	1	5	3	4
9	2	9024	0	1	2	1	0
9	2	20100	0	1	2	3	4
9	2	3.4816e+06	0	1	2	5	4
9	2	150	0	1	5	3	4
9	3	10688	0	1	2	1	0
9	3	25500	0	1	2	3	4
9	3	4.14106e+06	0	1	2	5	4
9	3	100	0	1	5	3	4
9	4	14656	0	1	2	1	0
9	4	35000	0	1	2	3	4
9	4	5.30842e+06	0	1	2	5	4
9	4	100	0	1	5	3	4
9	5	12288	0	1	2	1	0
9	5	30300	0	1	2	3	4
9	5	5.09952e+06	0	1	2	5	4
9	5	200	0	1	5	3	4
9	6	22912	0	1	2	1	0
9	6	58000	0	1	2	3	4
9	6	9.48224e+06	0	1	2	5	4
9	6	250	0	1	5	3	4
9	7	6016	0	1	2	1	0
9	7	12900	0	1	2	3	4
9	7	2.06848e+06	0	1	2	5	4
9	7	100	0	1	5	3	4
9	8	12416	0	1	2	1	0
9	8	27400	0	1	2	3	4
9	8	3.96902e+06	0	1	2	5	4
9	8	50	0	1	5	3	4
