100000	100000	100000	10000	1000	1000
0	1	29696	0	1	2	1	0
0	1	71000	0	1	2	3	4
0	1	1.10223e+07	0	1	2	5	4
0	1	350	0	1	5	3	4
0	2	30464	0	1	2	1	0
0	2	67700	0	1	2	3	4
0	2	1.12189e+07	0	1	2	5	4
0	2	450	0	1	5	3	4
0	3	30080	0	1	2	1	0
0	3	68000	0	1	2	3	4
0	3	1.07971e+07	0	1	2	5	4
0	3	500	0	1	5	3	4
0	4	31872	0	1	2	1	0
0	4	66100	0	1	2	3	4
0	4	1.12599e+07	0	1	2	5	4
0	4	300	0	1	5	3	4
0	5	30976	0	1	2	1	0
0	5	71600	0	1	2	3	4
0	5	1.0924e+07	0	1	2	5	4
0	5	200	0	1	5	3	4
0	6	30464	0	1	2	1	0
0	6	72400	0	1	2	3	4
0	6	1.13254e+07	0	1	2	5	4
0	6	300	0	1	5	3	4
0	7	29824	0	1	2	1	0
0	7	71400	0	1	2	3	4
0	7	1.13172e+07	0	1	2	5	4
0	7	450	0	1	5	3	4
0	8	29376	0	1	2	1	0
0	8	69900	0	1	2	3	4
0	8	1.11944e+07	0	1	2	5	4
0	8	450	0	1	5	3	4
0	9	28928	0	1	2	1	0
0	9	71400	0	1	2	3	4
0	9	1.07766e+07	0	1	2	5	4
0	9	100	0	1	5	3	4
1	0	30208	0	1	2	1	0
1	0	70800	0	1	2	3	4
1	0	1.10551e+07	0	1	2	5	4
1	0	200	0	1	5	3	4
1	2	29248	0	1	2	1	0
1	2	69800	0	1	2	3	4
1	2	1.12599e+07	0	1	2	5	4
1	2	450	0	1	5	3	4
1	3	27264	0	1	2	1	0
1	3	69000	0	1	2	3	4
1	3	1.09855e+07	0	1	2	5	4
1	3	300	0	1	5	3	4
1	4	28864	0	1	2	1	0
1	4	67100	0	1	2	3	4
1	4	1.12804e+07	0	1	2	5	4
1	4	150	0	1	5	3	4
1	5	27584	0	1	2	1	0
1	5	66300	0	1	2	3	4
1	5	1.05185e+07	0	1	2	5	4
1	5	200	0	1	5	3	4
1	6	30720	0	1	2	1	0
1	6	71300	0	1	2	3	4
1	6	1.0711e+07	0	1	2	5	4
1	6	300	0	1	5	3	4
1	7	31296	0	1	2	1	0
1	7	71300	0	1	2	3	4
1	7	1.10592e+07	0	1	2	5	4
1	7	400	0	1	5	3	4
1	8	29696	0	1	2	1	0
1	8	70100	0	1	2	3	4
1	8	1.08995e+07	0	1	2	5	4
1	8	250	0	1	5	3	4
1	9	29056	0	1	2	1	0
1	9	69300	0	1	2	3	4
1	9	1.12067e+07	0	1	2	5	4
1	9	300	0	1	5	3	4
2	0	26496	0	1	2	1	0
2	0	69500	0	1	2	3	4
2	0	1.15958e+07	0	1	2	5	4
2	0	450	0	1	5	3	4
2	1	29440	0	1	2	1	0
2	1	70000	0	1	2	3	4
2	1	1.08175e+07	0	1	2	5	4
2	1	400	0	1	5	3	4
2	3	28672	0	1	2	1	0
2	3	70900	0	1	2	3	4
2	3	1.12271e+07	0	1	2	5	4
2	3	100	0	1	5	3	4
2	4	30016	0	1	2	1	0
2	4	66200	0	1	2	3	4
2	4	1.10838e+07	0	1	2	5	4
2	4	150	0	1	5	3	4
2	5	29760	0	1	2	1	0
2	5	68700	0	1	2	3	4
2	5	1.09281e+07	0	1	2	5	4
2	5	150	0	1	5	3	4
2	6	29824	0	1	2	1	0
2	6	66500	0	1	2	3	4
2	6	1.1006e+07	0	1	2	5	4
2	6	450	0	1	5	3	4
2	7	26112	0	1	2	1	0
2	7	74400	0	1	2	3	4
2	7	1.1092e+07	0	1	2	5	4
2	7	250	0	1	5	3	4
2	8	28608	0	1	2	1	0
2	8	69800	0	1	2	3	4
2	8	1.1006e+07	0	1	2	5	4
2	8	200	0	1	5	3	4
2	9	30976	0	1	2	1	0
2	9	70000	0	1	2	3	4
2	9	1.11084e+07	0	1	2	5	4
2	9	200	0	1	5	3	4
3	0	29696	0	1	2	1	0
3	0	70000	0	1	2	3	4
3	0	1.07602e+07	0	1	2	5	4
3	0	100	0	1	5	3	4
3	1	31424	0	1	2	1	0
3	1	72000	0	1	2	3	4
3	1	1.06414e+07	0	1	2	5	4
3	1	100	0	1	5	3	4
3	2	31360	0	1	2	1	0
3	2	70100	0	1	2	3	4
3	2	1.08257e+07	0	1	2	5	4
3	2	150	0	1	5	3	4
3	4	29312	0	1	2	1	0
3	4	67800	0	1	2	3	4
3	4	1.12599e+07	0	1	2	5	4
3	4	550	0	1	5	3	4
3	5	26752	0	1	2	1	0
3	5	63200	0	1	2	3	4
3	5	1.1137e+07	0	1	2	5	4
3	5	250	0	1	5	3	4
3	6	28864	0	1	2	1	0
3	6	70100	0	1	2	3	4
3	6	1.06537e+07	0	1	2	5	4
3	6	150	0	1	5	3	4
3	7	29824	0	1	2	1	0
3	7	68300	0	1	2	3	4
3	7	1.08175e+07	0	1	2	5	4
3	7	400	0	1	5	3	4
3	8	30912	0	1	2	1	0
3	8	69800	0	1	2	3	4
3	8	1.08831e+07	0	1	2	5	4
3	8	100	0	1	5	3	4
3	9	28672	0	1	2	1	0
3	9	69500	0	1	2	3	4
3	9	1.06496e+07	0	1	2	5	4
3	9	250	0	1	5	3	4
4	0	26816	0	1	2	1	0
4	0	72700	0	1	2	3	4
4	0	1.08339e+07	0	1	2	5	4
4	0	250	0	1	5	3	4
4	1	28160	0	1	2	1	0
4	1	66100	0	1	2	3	4
4	1	1.10838e+07	0	1	2	5	4
4	1	250	0	1	5	3	4
4	2	28352	0	1	2	1	0
4	2	67500	0	1	2	3	4
4	2	1.10592e+07	0	1	2	5	4
4	2	250	0	1	5	3	4
4	3	28480	0	1	2	1	0
4	3	70400	0	1	2	3	4
4	3	1.12026e+07	0	1	2	5	4
4	3	300	0	1	5	3	4
4	5	30208	0	1	2	1	0
4	5	70600	0	1	2	3	4
4	5	1.1092e+07	0	1	2	5	4
4	5	350	0	1	5	3	4
4	6	29952	0	1	2	1	0
4	6	67200	0	1	2	3	4
4	6	1.09404e+07	0	1	2	5	4
4	6	400	0	1	5	3	4
4	7	27776	0	1	2	1	0
4	7	71800	0	1	2	3	4
4	7	1.0453e+07	0	1	2	5	4
4	7	250	0	1	5	3	4
4	8	29440	0	1	2	1	0
4	8	72000	0	1	2	3	4
4	8	1.10838e+07	0	1	2	5	4
4	8	200	0	1	5	3	4
4	9	29632	0	1	2	1	0
4	9	69700	0	1	2	3	4
4	9	1.10469e+07	0	1	2	5	4
4	9	400	0	1	5	3	4
5	0	29568	0	1	2	1	0
5	0	65800	0	1	2	3	4
5	0	1.07684e+07	0	1	2	5	4
5	0	250	0	1	5	3	4
5	1	30144	0	1	2	1	0
5	1	65000	0	1	2	3	4
5	1	1.09732e+07	0	1	2	5	4
5	1	200	0	1	5	3	4
5	2	30400	0	1	2	1	0
5	2	71100	0	1	2	3	4
5	2	1.0879e+07	0	1	2	5	4
5	2	150	0	1	5	3	4
5	3	28864	0	1	2	1	0
5	3	69600	0	1	2	3	4
5	3	1.07192e+07	0	1	2	5	4
5	3	350	0	1	5	3	4
5	4	28864	0	1	2	1	0
5	4	71200	0	1	2	3	4
5	4	1.0838e+07	0	1	2	5	4
5	4	400	0	1	5	3	4
5	6	30912	0	1	2	1	0
5	6	67700	0	1	2	3	4
5	6	1.08667e+07	0	1	2	5	4
5	6	600	0	1	5	3	4
5	7	29824	0	1	2	1	0
5	7	70500	0	1	2	3	4
5	7	1.12722e+07	0	1	2	5	4
5	7	100	0	1	5	3	4
5	8	28480	0	1	2	1	0
5	8	75400	0	1	2	3	4
5	8	1.07889e+07	0	1	2	5	4
5	8	100	0	1	5	3	4
5	9	29248	0	1	2	1	0
5	9	72700	0	1	2	3	4
5	9	1.11411e+07	0	1	2	5	4
5	9	150	0	1	5	3	4
6	0	30016	0	1	2	1	0
6	0	71400	0	1	2	3	4
6	0	1.09691e+07	0	1	2	5	4
6	0	200	0	1	5	3	4
6	1	28736	0	1	2	1	0
6	1	68600	0	1	2	3	4
6	1	1.11002e+07	0	1	2	5	4
6	1	150	0	1	5	3	4
6	2	29952	0	1	2	1	0
6	2	70400	0	1	2	3	4
6	2	1.11821e+07	0	1	2	5	4
6	2	400	0	1	5	3	4
6	3	29632	0	1	2	1	0
6	3	77500	0	1	2	3	4
6	3	1.08585e+07	0	1	2	5	4
6	3	550	0	1	5	3	4
6	4	29632	0	1	2	1	0
6	4	70900	0	1	2	3	4
6	4	1.12108e+07	0	1	2	5	4
6	4	200	0	1	5	3	4
6	5	27648	0	1	2	1	0
6	5	68500	0	1	2	3	4
6	5	1.10674e+07	0	1	2	5	4
6	5	150	0	1	5	3	4
6	7	26816	0	1	2	1	0
6	7	67900	0	1	2	3	4
6	7	1.09036e+07	0	1	2	5	4
6	7	200	0	1	5	3	4
6	8	29504	0	1	2	1	0
6	8	71200	0	1	2	3	4
6	8	1.09527e+07	0	1	2	5	4
6	8	350	0	1	5	3	4
6	9	29184	0	1	2	1	0
6	9	65700	0	1	2	3	4
6	9	1.11043e+07	0	1	2	5	4
6	9	250	0	1	5	3	4
7	0	30016	0	1	2	1	0
7	0	69000	0	1	2	3	4
7	0	1.08585e+07	0	1	2	5	4
7	0	200	0	1	5	3	4
7	1	29760	0	1	2	1	0
7	1	68400	0	1	2	3	4
7	1	1.09076e+07	0	1	2	5	4
7	1	350	0	1	5	3	4
7	2	28608	0	1	2	1	0
7	2	67400	0	1	2	3	4
7	2	1.08462e+07	0	1	2	5	4
7	2	400	0	1	5	3	4
7	3	30208	0	1	2	1	0
7	3	71100	0	1	2	3	4
7	3	1.09978e+07	0	1	2	5	4
7	3	350	0	1	5	3	4
7	4	31680	0	1	2	1	0
7	4	68500	0	1	2	3	4
7	4	1.10387e+07	0	1	2	5	4
7	4	250	0	1	5	3	4
7	5	29056	0	1	2	1	0
7	5	74100	0	1	2	3	4
7	5	1.1223e+07	0	1	2	5	4
7	5	450	0	1	5	3	4
7	6	29952	0	1	2	1	0
7	6	68200	0	1	2	3	4
7	6	1.08749e+07	0	1	2	5	4
7	6	300	0	1	5	3	4
7	8	27456	0	1	2	1	0
7	8	70000	0	1	2	3	4
7	8	1.08134e+07	0	1	2	5	4
7	8	200	0	1	5	3	4
7	9	31488	0	1	2	1	0
7	9	68000	0	1	2	3	4
7	9	1.11616e+07	0	1	2	5	4
7	9	400	0	1	5	3	4
8	0	28992	0	1	2	1	0
8	0	68300	0	1	2	3	4
8	0	1.14156e+07	0	1	2	5	4
8	0	300	0	1	5	3	4
8	1	32384	0	1	2	1	0
8	1	72000	0	1	2	3	4
8	1	1.0924e+07	0	1	2	5	4
8	1	250	0	1	5	3	4
8	2	30208	0	1	2	1	0
8	2	68000	0	1	2	3	4
8	2	1.10838e+07	0	1	2	5	4
8	2	500	0	1	5	3	4
8	3	30144	0	1	2	1	0
8	3	67600	0	1	2	3	4
8	3	1.08872e+07	0	1	2	5	4
8	3	50	0	1	5	3	4
8	4	29952	0	1	2	1	0
8	4	65400	0	1	2	3	4
8	4	1.09281e+07	0	1	2	5	4
8	4	300	0	1	5	3	4
8	5	28992	0	1	2	1	0
8	5	68400	0	1	2	3	4
8	5	1.08749e+07	0	1	2	5	4
8	5	350	0	1	5	3	4
8	6	27392	0	1	2	1	0
8	6	73500	0	1	2	3	4
8	6	1.09691e+07	0	1	2	5	4
8	6	450	0	1	5	3	4
8	7	27840	0	1	2	1	0
8	7	69100	0	1	2	3	4
8	7	1.09527e+07	0	1	2	5	4
8	7	400	0	1	5	3	4
8	9	25984	0	1	2	1	0
8	9	67300	0	1	2	3	4
8	9	1.1006e+07	0	1	2	5	4
8	9	100	0	1	5	3	4
9	0	30336	0	1	2	1	0
9	0	69600	0	1	2	3	4
9	0	1.08503e+07	0	1	2	5	4
9	0	250	0	1	5	3	4
9	1	30016	0	1	2	1	0
9	1	63900	0	1	2	3	4
9	1	1.10264e+07	0	1	2	5	4
9	1	250	0	1	5	3	4
9	2	27904	0	1	2	1	0
9	2	68400	0	1	2	3	4
9	2	1.12067e+07	0	1	2	5	4
9	2	250	0	1	5	3	4
9	3	24768	0	1	2	1	0
9	3	68700	0	1	2	3	4
9	3	1.14729e+07	0	1	2	5	4
9	3	500	0	1	5	3	4
9	4	28160	0	1	2	1	0
9	4	70800	0	1	2	3	4
9	4	1.09527e+07	0	1	2	5	4
9	4	250	0	1	5	3	4
9	5	29504	0	1	2	1	0
9	5	73700	0	1	2	3	4
9	5	1.10469e+07	0	1	2	5	4
9	5	400	0	1	5	3	4
9	6	27264	0	1	2	1	0
9	6	67900	0	1	2	3	4
9	6	1.12394e+07	0	1	2	5	4
9	6	550	0	1	5	3	4
9	7	30976	0	1	2	1	0
9	7	69400	0	1	2	3	4
9	7	1.12558e+07	0	1	2	5	4
9	7	350	0	1	5	3	4
9	8	29568	0	1	2	1	0
9	8	72100	0	1	2	3	4
9	8	1.15712e+07	0	1	2	5	4
9	8	250	0	1	5	3	4
