100000	100000	100000	10000	1000	1000
0	1	28928	0	1	2	1	0
0	1	69100	0	1	2	3	4
0	1	1.09281e+07	0	1	2	5	4
0	1	350	0	1	5	3	4
0	2	32128	0	1	2	1	0
0	2	68800	0	1	2	3	4
0	2	1.08954e+07	0	1	2	5	4
0	2	300	0	1	5	3	4
0	3	28352	0	1	2	1	0
0	3	71200	0	1	2	3	4
0	3	1.07192e+07	0	1	2	5	4
0	3	200	0	1	5	3	4
0	4	28800	0	1	2	1	0
0	4	69800	0	1	2	3	4
0	4	1.10674e+07	0	1	2	5	4
0	4	500	0	1	5	3	4
0	5	28352	0	1	2	1	0
0	5	70200	0	1	2	3	4
0	5	1.08421e+07	0	1	2	5	4
0	5	200	0	1	5	3	4
0	6	31552	0	1	2	1	0
0	6	72100	0	1	2	3	4
0	6	1.10879e+07	0	1	2	5	4
0	6	300	0	1	5	3	4
0	7	30336	0	1	2	1	0
0	7	67900	0	1	2	3	4
0	7	1.10674e+07	0	1	2	5	4
0	7	100	0	1	5	3	4
0	8	27904	0	1	2	1	0
0	8	66800	0	1	2	3	4
0	8	1.07643e+07	0	1	2	5	4
0	8	350	0	1	5	3	4
0	9	28224	0	1	2	1	0
0	9	70900	0	1	2	3	4
0	9	1.10633e+07	0	1	2	5	4
0	9	400	0	1	5	3	4
1	0	32896	0	1	2	1	0
1	0	74400	0	1	2	3	4
1	0	1.0666e+07	0	1	2	5	4
1	0	150	0	1	5	3	4
1	2	28672	0	1	2	1	0
1	2	73500	0	1	2	3	4
1	2	1.12558e+07	0	1	2	5	4
1	2	350	0	1	5	3	4
1	3	28544	0	1	2	1	0
1	3	67800	0	1	2	3	4
1	3	1.09855e+07	0	1	2	5	4
1	3	300	0	1	5	3	4
1	4	27648	0	1	2	1	0
1	4	71500	0	1	2	3	4
1	4	1.1092e+07	0	1	2	5	4
1	4	300	0	1	5	3	4
1	5	27904	0	1	2	1	0
1	5	66400	0	1	2	3	4
1	5	1.09076e+07	0	1	2	5	4
1	5	400	0	1	5	3	4
1	6	32064	0	1	2	1	0
1	6	70700	0	1	2	3	4
1	6	1.11043e+07	0	1	2	5	4
1	6	300	0	1	5	3	4
1	7	28544	0	1	2	1	0
1	7	65500	0	1	2	3	4
1	7	1.12804e+07	0	1	2	5	4
1	7	250	0	1	5	3	4
1	8	29248	0	1	2	1	0
1	8	70400	0	1	2	3	4
1	8	1.08298e+07	0	1	2	5	4
1	8	200	0	1	5	3	4
1	9	28160	0	1	2	1	0
1	9	70200	0	1	2	3	4
1	9	1.1006e+07	0	1	2	5	4
1	9	250	0	1	5	3	4
2	0	27968	0	1	2	1	0
2	0	66600	0	1	2	3	4
2	0	1.06209e+07	0	1	2	5	4
2	0	300	0	1	5	3	4
2	1	28096	0	1	2	1	0
2	1	68600	0	1	2	3	4
2	1	1.0752e+07	0	1	2	5	4
2	1	300	0	1	5	3	4
2	3	28352	0	1	2	1	0
2	3	70900	0	1	2	3	4
2	3	1.11616e+07	0	1	2	5	4
2	3	350	0	1	5	3	4
2	4	31424	0	1	2	1	0
2	4	67400	0	1	2	3	4
2	4	1.09076e+07	0	1	2	5	4
2	4	350	0	1	5	3	4
2	5	26880	0	1	2	1	0
2	5	62600	0	1	2	3	4
2	5	1.09076e+07	0	1	2	5	4
2	5	100	0	1	5	3	4
2	6	27200	0	1	2	1	0
2	6	68900	0	1	2	3	4
2	6	1.10879e+07	0	1	2	5	4
2	6	200	0	1	5	3	4
2	7	27904	0	1	2	1	0
2	7	69900	0	1	2	3	4
2	7	1.0879e+07	0	1	2	5	4
2	7	300	0	1	5	3	4
2	8	31488	0	1	2	1	0
2	8	70800	0	1	2	3	4
2	8	1.11002e+07	0	1	2	5	4
2	8	200	0	1	5	3	4
2	9	30848	0	1	2	1	0
2	9	70900	0	1	2	3	4
2	9	1.1137e+07	0	1	2	5	4
2	9	250	0	1	5	3	4
3	0	27392	0	1	2	1	0
3	0	65800	0	1	2	3	4
3	0	1.10715e+07	0	1	2	5	4
3	0	300	0	1	5	3	4
3	1	27648	0	1	2	1	0
3	1	65800	0	1	2	3	4
3	1	1.11411e+07	0	1	2	5	4
3	1	300	0	1	5	3	4
3	2	27968	0	1	2	1	0
3	2	72800	0	1	2	3	4
3	2	1.08749e+07	0	1	2	5	4
3	2	250	0	1	5	3	4
3	4	28096	0	1	2	1	0
3	4	67800	0	1	2	3	4
3	4	1.09732e+07	0	1	2	5	4
3	4	100	0	1	5	3	4
3	5	29120	0	1	2	1	0
3	5	69500	0	1	2	3	4
3	5	1.11165e+07	0	1	2	5	4
3	5	250	0	1	5	3	4
3	6	28864	0	1	2	1	0
3	6	71100	0	1	2	3	4
3	6	1.11247e+07	0	1	2	5	4
3	6	200	0	1	5	3	4
3	7	30016	0	1	2	1	0
3	7	73500	0	1	2	3	4
3	7	1.07807e+07	0	1	2	5	4
3	7	350	0	1	5	3	4
3	8	31040	0	1	2	1	0
3	8	73300	0	1	2	3	4
3	8	1.08503e+07	0	1	2	5	4
3	8	100	0	1	5	3	4
3	9	30080	0	1	2	1	0
3	9	68800	0	1	2	3	4
3	9	1.08134e+07	0	1	2	5	4
3	9	550	0	1	5	3	4
4	0	28992	0	1	2	1	0
4	0	69300	0	1	2	3	4
4	0	1.0879e+07	0	1	2	5	4
4	0	400	0	1	5	3	4
4	1	30464	0	1	2	1	0
4	1	69100	0	1	2	3	4
4	1	1.06742e+07	0	1	2	5	4
4	1	550	0	1	5	3	4
4	2	30528	0	1	2	1	0
4	2	67500	0	1	2	3	4
4	2	1.06947e+07	0	1	2	5	4
4	2	350	0	1	5	3	4
4	3	28736	0	1	2	1	0
4	3	69000	0	1	2	3	4
4	3	1.09076e+07	0	1	2	5	4
4	3	550	0	1	5	3	4
4	5	28544	0	1	2	1	0
4	5	66600	0	1	2	3	4
4	5	1.12681e+07	0	1	2	5	4
4	5	200	0	1	5	3	4
4	6	30272	0	1	2	1	0
4	6	73000	0	1	2	3	4
4	6	1.0752e+07	0	1	2	5	4
4	6	150	0	1	5	3	4
4	7	28928	0	1	2	1	0
4	7	69700	0	1	2	3	4
4	7	1.11247e+07	0	1	2	5	4
4	7	250	0	1	5	3	4
4	8	31552	0	1	2	1	0
4	8	69200	0	1	2	3	4
4	8	1.12968e+07	0	1	2	5	4
4	8	150	0	1	5	3	4
4	9	28416	0	1	2	1	0
4	9	68700	0	1	2	3	4
4	9	1.15876e+07	0	1	2	5	4
4	9	300	0	1	5	3	4
5	0	29760	0	1	2	1	0
5	0	67300	0	1	2	3	4
5	0	1.1092e+07	0	1	2	5	4
5	0	350	0	1	5	3	4
5	1	29760	0	1	2	1	0
5	1	72200	0	1	2	3	4
5	1	1.0793e+07	0	1	2	5	4
5	1	200	0	1	5	3	4
5	2	29376	0	1	2	1	0
5	2	69000	0	1	2	3	4
5	2	1.10551e+07	0	1	2	5	4
5	2	300	0	1	5	3	4
5	3	30016	0	1	2	1	0
5	3	71700	0	1	2	3	4
5	3	1.11944e+07	0	1	2	5	4
5	3	200	0	1	5	3	4
5	4	30464	0	1	2	1	0
5	4	72700	0	1	2	3	4
5	4	1.09117e+07	0	1	2	5	4
5	4	200	0	1	5	3	4
5	6	29952	0	1	2	1	0
5	6	68700	0	1	2	3	4
5	6	1.08626e+07	0	1	2	5	4
5	6	450	0	1	5	3	4
5	7	30464	0	1	2	1	0
5	7	71900	0	1	2	3	4
5	7	1.09486e+07	0	1	2	5	4
5	7	500	0	1	5	3	4
5	8	30144	0	1	2	1	0
5	8	70400	0	1	2	3	4
5	8	1.09732e+07	0	1	2	5	4
5	8	150	0	1	5	3	4
5	9	31936	0	1	2	1	0
5	9	71500	0	1	2	3	4
5	9	1.06537e+07	0	1	2	5	4
5	9	350	0	1	5	3	4
6	0	30976	0	1	2	1	0
6	0	71000	0	1	2	3	4
6	0	1.07397e+07	0	1	2	5	4
6	0	200	0	1	5	3	4
6	1	27648	0	1	2	1	0
6	1	69200	0	1	2	3	4
6	1	1.10469e+07	0	1	2	5	4
6	1	350	0	1	5	3	4
6	2	26880	0	1	2	1	0
6	2	69300	0	1	2	3	4
6	2	1.13869e+07	0	1	2	5	4
6	2	200	0	1	5	3	4
6	3	28352	0	1	2	1	0
6	3	70700	0	1	2	3	4
6	3	1.12108e+07	0	1	2	5	4
6	3	400	0	1	5	3	4
6	4	30272	0	1	2	1	0
6	4	65200	0	1	2	3	4
6	4	1.12189e+07	0	1	2	5	4
6	4	150	0	1	5	3	4
6	5	28608	0	1	2	1	0
6	5	66500	0	1	2	3	4
6	5	1.07315e+07	0	1	2	5	4
6	5	200	0	1	5	3	4
6	7	28928	0	1	2	1	0
6	7	64200	0	1	2	3	4
6	7	1.06947e+07	0	1	2	5	4
6	7	250	0	1	5	3	4
6	8	29760	0	1	2	1	0
6	8	74200	0	1	2	3	4
6	8	1.10469e+07	0	1	2	5	4
6	8	350	0	1	5	3	4
6	9	26624	0	1	2	1	0
6	9	69100	0	1	2	3	4
6	9	1.08093e+07	0	1	2	5	4
6	9	300	0	1	5	3	4
7	0	30784	0	1	2	1	0
7	0	68600	0	1	2	3	4
7	0	1.1137e+07	0	1	2	5	4
7	0	250	0	1	5	3	4
7	1	28224	0	1	2	1	0
7	1	73300	0	1	2	3	4
7	1	1.12558e+07	0	1	2	5	4
7	1	200	0	1	5	3	4
7	2	28800	0	1	2	1	0
7	2	67600	0	1	2	3	4
7	2	1.08421e+07	0	1	2	5	4
7	2	200	0	1	5	3	4
7	3	30720	0	1	2	1	0
7	3	70800	0	1	2	3	4
7	3	1.11985e+07	0	1	2	5	4
7	3	400	0	1	5	3	4
7	4	30080	0	1	2	1	0
7	4	68100	0	1	2	3	4
7	4	1.11288e+07	0	1	2	5	4
7	4	250	0	1	5	3	4
7	5	28928	0	1	2	1	0
7	5	67900	0	1	2	3	4
7	5	1.11329e+07	0	1	2	5	4
7	5	850	0	1	5	3	4
7	6	29824	0	1	2	1	0
7	6	70300	0	1	2	3	4
7	6	1.08503e+07	0	1	2	5	4
7	6	300	0	1	5	3	4
7	8	29824	0	1	2	1	0
7	8	71200	0	1	2	3	4
7	8	1.09158e+07	0	1	2	5	4
7	8	300	0	1	5	3	4
7	9	29056	0	1	2	1	0
7	9	69100	0	1	2	3	4
7	9	1.11124e+07	0	1	2	5	4
7	9	350	0	1	5	3	4
8	0	31040	0	1	2	1	0
8	0	70400	0	1	2	3	4
8	0	1.13132e+07	0	1	2	5	4
8	0	250	0	1	5	3	4
8	1	28672	0	1	2	1	0
8	1	75800	0	1	2	3	4
8	1	1.11534e+07	0	1	2	5	4
8	1	150	0	1	5	3	4
8	2	27392	0	1	2	1	0
8	2	70100	0	1	2	3	4
8	2	1.09896e+07	0	1	2	5	4
8	2	150	0	1	5	3	4
8	3	28480	0	1	2	1	0
8	3	70100	0	1	2	3	4
8	3	1.10141e+07	0	1	2	5	4
8	3	350	0	1	5	3	4
8	4	29632	0	1	2	1	0
8	4	69400	0	1	2	3	4
8	4	1.07971e+07	0	1	2	5	4
8	4	400	0	1	5	3	4
8	5	30208	0	1	2	1	0
8	5	68700	0	1	2	3	4
8	5	1.10756e+07	0	1	2	5	4
8	5	350	0	1	5	3	4
8	6	28800	0	1	2	1	0
8	6	69800	0	1	2	3	4
8	6	1.0838e+07	0	1	2	5	4
8	6	600	0	1	5	3	4
8	7	28544	0	1	2	1	0
8	7	71200	0	1	2	3	4
8	7	1.135e+07	0	1	2	5	4
8	7	300	0	1	5	3	4
8	9	29824	0	1	2	1	0
8	9	70300	0	1	2	3	4
8	9	1.11944e+07	0	1	2	5	4
8	9	350	0	1	5	3	4
9	0	29248	0	1	2	1	0
9	0	77100	0	1	2	3	4
9	0	1.12927e+07	0	1	2	5	4
9	0	150	0	1	5	3	4
9	1	30720	0	1	2	1	0
9	1	72700	0	1	2	3	4
9	1	1.07684e+07	0	1	2	5	4
9	1	300	0	1	5	3	4
9	2	26752	0	1	2	1	0
9	2	73600	0	1	2	3	4
9	2	1.14074e+07	0	1	2	5	4
9	2	100	0	1	5	3	4
9	3	27072	0	1	2	1	0
9	3	70100	0	1	2	3	4
9	3	1.12312e+07	0	1	2	5	4
9	3	300	0	1	5	3	4
9	4	26752	0	1	2	1	0
9	4	67600	0	1	2	3	4
9	4	1.11985e+07	0	1	2	5	4
9	4	300	0	1	5	3	4
9	5	31488	0	1	2	1	0
9	5	69000	0	1	2	3	4
9	5	1.12312e+07	0	1	2	5	4
9	5	250	0	1	5	3	4
9	6	29632	0	1	2	1	0
9	6	69400	0	1	2	3	4
9	6	1.11903e+07	0	1	2	5	4
9	6	300	0	1	5	3	4
9	7	25216	0	1	2	1	0
9	7	67000	0	1	2	3	4
9	7	1.10797e+07	0	1	2	5	4
9	7	250	0	1	5	3	4
9	8	29184	0	1	2	1	0
9	8	68600	0	1	2	3	4
9	8	1.09527e+07	0	1	2	5	4
9	8	350	0	1	5	3	4
