100000	100000	100000	10000	1000	1000
0	1	28928	0	1	2	1	0
0	1	66500	0	1	2	3	4
0	1	1.08544e+07	0	1	2	5	4
0	1	250	0	1	5	3	4
0	2	27264	0	1	2	1	0
0	2	71600	0	1	2	3	4
0	2	1.09568e+07	0	1	2	5	4
0	2	50	0	1	5	3	4
0	3	29056	0	1	2	1	0
0	3	73100	0	1	2	3	4
0	3	1.15671e+07	0	1	2	5	4
0	3	300	0	1	5	3	4
0	4	30208	0	1	2	1	0
0	4	69600	0	1	2	3	4
0	4	1.11739e+07	0	1	2	5	4
0	4	400	0	1	5	3	4
0	5	28672	0	1	2	1	0
0	5	70300	0	1	2	3	4
0	5	1.1051e+07	0	1	2	5	4
0	5	450	0	1	5	3	4
0	6	28032	0	1	2	1	0
0	6	75000	0	1	2	3	4
0	6	1.11247e+07	0	1	2	5	4
0	6	400	0	1	5	3	4
0	7	29248	0	1	2	1	0
0	7	69600	0	1	2	3	4
0	7	1.11944e+07	0	1	2	5	4
0	7	250	0	1	5	3	4
0	8	28096	0	1	2	1	0
0	8	73000	0	1	2	3	4
0	8	1.05144e+07	0	1	2	5	4
0	8	150	0	1	5	3	4
0	9	30720	0	1	2	1	0
0	9	69100	0	1	2	3	4
0	9	1.09322e+07	0	1	2	5	4
0	9	300	0	1	5	3	4
1	0	30976	0	1	2	1	0
1	0	71000	0	1	2	3	4
1	0	1.08052e+07	0	1	2	5	4
1	0	250	0	1	5	3	4
1	2	27712	0	1	2	1	0
1	2	69100	0	1	2	3	4
1	2	1.11084e+07	0	1	2	5	4
1	2	350	0	1	5	3	4
1	3	29760	0	1	2	1	0
1	3	71400	0	1	2	3	4
1	3	1.11698e+07	0	1	2	5	4
1	3	350	0	1	5	3	4
1	4	29632	0	1	2	1	0
1	4	68300	0	1	2	3	4
1	4	1.08913e+07	0	1	2	5	4
1	4	350	0	1	5	3	4
1	5	28096	0	1	2	1	0
1	5	70800	0	1	2	3	4
1	5	1.101e+07	0	1	2	5	4
1	5	300	0	1	5	3	4
1	6	29760	0	1	2	1	0
1	6	69200	0	1	2	3	4
1	6	1.05267e+07	0	1	2	5	4
1	6	200	0	1	5	3	4
1	7	28032	0	1	2	1	0
1	7	71900	0	1	2	3	4
1	7	1.08667e+07	0	1	2	5	4
1	7	350	0	1	5	3	4
1	8	28160	0	1	2	1	0
1	8	69600	0	1	2	3	4
1	8	1.1264e+07	0	1	2	5	4
1	8	250	0	1	5	3	4
1	9	27520	0	1	2	1	0
1	9	69000	0	1	2	3	4
1	9	1.13992e+07	0	1	2	5	4
1	9	250	0	1	5	3	4
2	0	26880	0	1	2	1	0
2	0	72000	0	1	2	3	4
2	0	1.11329e+07	0	1	2	5	4
2	0	450	0	1	5	3	4
2	1	29376	0	1	2	1	0
2	1	67900	0	1	2	3	4
2	1	1.08257e+07	0	1	2	5	4
2	1	350	0	1	5	3	4
2	3	30080	0	1	2	1	0
2	3	71200	0	1	2	3	4
2	3	1.09322e+07	0	1	2	5	4
2	3	100	0	1	5	3	4
2	4	30080	0	1	2	1	0
2	4	70200	0	1	2	3	4
2	4	1.10305e+07	0	1	2	5	4
2	4	450	0	1	5	3	4
2	5	27456	0	1	2	1	0
2	5	68700	0	1	2	3	4
2	5	1.13951e+07	0	1	2	5	4
2	5	100	0	1	5	3	4
2	6	28928	0	1	2	1	0
2	6	70300	0	1	2	3	4
2	6	1.08216e+07	0	1	2	5	4
2	6	300	0	1	5	3	4
2	7	30144	0	1	2	1	0
2	7	71100	0	1	2	3	4
2	7	1.13254e+07	0	1	2	5	4
2	7	150	0	1	5	3	4
2	8	29248	0	1	2	1	0
2	8	66900	0	1	2	3	4
2	8	1.09404e+07	0	1	2	5	4
2	8	300	0	1	5	3	4
2	9	31360	0	1	2	1	0
2	9	68500	0	1	2	3	4
2	9	1.10469e+07	0	1	2	5	4
2	9	300	0	1	5	3	4
3	0	28608	0	1	2	1	0
3	0	67500	0	1	2	3	4
3	0	1.04776e+07	0	1	2	5	4
3	0	350	0	1	5	3	4
3	1	29952	0	1	2	1	0
3	1	69700	0	1	2	3	4
3	1	1.11821e+07	0	1	2	5	4
3	1	150	0	1	5	3	4
3	2	29888	0	1	2	1	0
3	2	66000	0	1	2	3	4
3	2	1.10879e+07	0	1	2	5	4
3	2	150	0	1	5	3	4
3	4	29888	0	1	2	1	0
3	4	70200	0	1	2	3	4
3	4	1.07684e+07	0	1	2	5	4
3	4	200	0	1	5	3	4
3	5	31360	0	1	2	1	0
3	5	63400	0	1	2	3	4
3	5	1.07889e+07	0	1	2	5	4
3	5	50	0	1	5	3	4
3	6	29440	0	1	2	1	0
3	6	67600	0	1	2	3	4
3	6	1.09568e+07	0	1	2	5	4
3	6	300	0	1	5	3	4
3	7	29376	0	1	2	1	0
3	7	74600	0	1	2	3	4
3	7	1.11575e+07	0	1	2	5	4
3	7	250	0	1	5	3	4
3	8	29440	0	1	2	1	0
3	8	68500	0	1	2	3	4
3	8	1.0838e+07	0	1	2	5	4
3	8	350	0	1	5	3	4
3	9	29440	0	1	2	1	0
3	9	70500	0	1	2	3	4
3	9	1.08298e+07	0	1	2	5	4
3	9	450	0	1	5	3	4
4	0	27648	0	1	2	1	0
4	0	69400	0	1	2	3	4
4	0	1.08012e+07	0	1	2	5	4
4	0	500	0	1	5	3	4
4	1	31040	0	1	2	1	0
4	1	68600	0	1	2	3	4
4	1	1.09076e+07	0	1	2	5	4
4	1	100	0	1	5	3	4
4	2	32192	0	1	2	1	0
4	2	75700	0	1	2	3	4
4	2	1.12271e+07	0	1	2	5	4
4	2	250	0	1	5	3	4
4	3	28032	0	1	2	1	0
4	3	65300	0	1	2	3	4
4	3	1.1051e+07	0	1	2	5	4
4	3	200	0	1	5	3	4
4	5	29632	0	1	2	1	0
4	5	72600	0	1	2	3	4
4	5	1.10838e+07	0	1	2	5	4
4	5	250	0	1	5	3	4
4	6	29376	0	1	2	1	0
4	6	70200	0	1	2	3	4
4	6	1.11124e+07	0	1	2	5	4
4	6	200	0	1	5	3	4
4	7	27776	0	1	2	1	0
4	7	70000	0	1	2	3	4
4	7	1.07028e+07	0	1	2	5	4
4	7	150	0	1	5	3	4
4	8	28352	0	1	2	1	0
4	8	71100	0	1	2	3	4
4	8	1.14115e+07	0	1	2	5	4
4	8	300	0	1	5	3	4
4	9	29120	0	1	2	1	0
4	9	68400	0	1	2	3	4
4	9	1.09036e+07	0	1	2	5	4
4	9	150	0	1	5	3	4
5	0	29056	0	1	2	1	0
5	0	72200	0	1	2	3	4
5	0	1.12599e+07	0	1	2	5	4
5	0	150	0	1	5	3	4
5	1	28416	0	1	2	1	0
5	1	71200	0	1	2	3	4
5	1	1.07151e+07	0	1	2	5	4
5	1	150	0	1	5	3	4
5	2	29632	0	1	2	1	0
5	2	68100	0	1	2	3	4
5	2	1.10141e+07	0	1	2	5	4
5	2	500	0	1	5	3	4
5	3	30144	0	1	2	1	0
5	3	69500	0	1	2	3	4
5	3	1.06701e+07	0	1	2	5	4
5	3	50	0	1	5	3	4
5	4	28864	0	1	2	1	0
5	4	67500	0	1	2	3	4
5	4	1.14442e+07	0	1	2	5	4
5	4	250	0	1	5	3	4
5	6	26240	0	1	2	1	0
5	6	71300	0	1	2	3	4
5	6	1.10387e+07	0	1	2	5	4
5	6	400	0	1	5	3	4
5	7	30848	0	1	2	1	0
5	7	71700	0	1	2	3	4
5	7	1.10592e+07	0	1	2	5	4
5	7	250	0	1	5	3	4
5	8	30272	0	1	2	1	0
5	8	71500	0	1	2	3	4
5	8	1.11043e+07	0	1	2	5	4
5	8	250	0	1	5	3	4
5	9	30208	0	1	2	1	0
5	9	65100	0	1	2	3	4
5	9	1.12763e+07	0	1	2	5	4
5	9	150	0	1	5	3	4
6	0	29184	0	1	2	1	0
6	0	71400	0	1	2	3	4
6	0	1.12067e+07	0	1	2	5	4
6	0	350	0	1	5	3	4
6	1	29248	0	1	2	1	0
6	1	74800	0	1	2	3	4
6	1	1.1006e+07	0	1	2	5	4
6	1	200	0	1	5	3	4
6	2	30592	0	1	2	1	0
6	2	68900	0	1	2	3	4
6	2	1.10879e+07	0	1	2	5	4
6	2	200	0	1	5	3	4
6	3	31360	0	1	2	1	0
6	3	69900	0	1	2	3	4
6	3	1.1092e+07	0	1	2	5	4
6	3	450	0	1	5	3	4
6	4	28928	0	1	2	1	0
6	4	69700	0	1	2	3	4
6	4	1.101e+07	0	1	2	5	4
6	4	300	0	1	5	3	4
6	5	27968	0	1	2	1	0
6	5	71500	0	1	2	3	4
6	5	1.0924e+07	0	1	2	5	4
6	5	200	0	1	5	3	4
6	7	28480	0	1	2	1	0
6	7	68200	0	1	2	3	4
6	7	1.101e+07	0	1	2	5	4
6	7	250	0	1	5	3	4
6	8	28480	0	1	2	1	0
6	8	70200	0	1	2	3	4
6	8	1.12804e+07	0	1	2	5	4
6	8	350	0	1	5	3	4
6	9	31680	0	1	2	1	0
6	9	68500	0	1	2	3	4
6	9	1.08339e+07	0	1	2	5	4
6	9	250	0	1	5	3	4
7	0	26496	0	1	2	1	0
7	0	73900	0	1	2	3	4
7	0	1.09445e+07	0	1	2	5	4
7	0	300	0	1	5	3	4
7	1	27712	0	1	2	1	0
7	1	75500	0	1	2	3	4
7	1	1.09937e+07	0	1	2	5	4
7	1	200	0	1	5	3	4
7	2	30336	0	1	2	1	0
7	2	74200	0	1	2	3	4
7	2	1.09896e+07	0	1	2	5	4
7	2	300	0	1	5	3	4
7	3	28416	0	1	2	1	0
7	3	69500	0	1	2	3	4
7	3	1.10633e+07	0	1	2	5	4
7	3	500	0	1	5	3	4
7	4	27520	0	1	2	1	0
7	4	68100	0	1	2	3	4
7	4	1.09322e+07	0	1	2	5	4
7	4	300	0	1	5	3	4
7	5	29312	0	1	2	1	0
7	5	67900	0	1	2	3	4
7	5	1.08995e+07	0	1	2	5	4
7	5	300	0	1	5	3	4
7	6	27456	0	1	2	1	0
7	6	72100	0	1	2	3	4
7	6	1.07151e+07	0	1	2	5	4
7	6	250	0	1	5	3	4
7	8	30656	0	1	2	1	0
7	8	74300	0	1	2	3	4
7	8	1.04899e+07	0	1	2	5	4
7	8	300	0	1	5	3	4
7	9	29440	0	1	2	1	0
7	9	66600	0	1	2	3	4
7	9	1.13705e+07	0	1	2	5	4
7	9	300	0	1	5	3	4
8	0	29760	0	1	2	1	0
8	0	70900	0	1	2	3	4
8	0	1.09404e+07	0	1	2	5	4
8	0	550	0	1	5	3	4
8	1	27392	0	1	2	1	0
8	1	67100	0	1	2	3	4
8	1	1.13787e+07	0	1	2	5	4
8	1	300	0	1	5	3	4
8	2	28160	0	1	2	1	0
8	2	64300	0	1	2	3	4
8	2	1.08503e+07	0	1	2	5	4
8	2	150	0	1	5	3	4
8	3	30208	0	1	2	1	0
8	3	72800	0	1	2	3	4
8	3	1.05595e+07	0	1	2	5	4
8	3	200	0	1	5	3	4
8	4	27904	0	1	2	1	0
8	4	69200	0	1	2	3	4
8	4	1.09363e+07	0	1	2	5	4
8	5	30144	0	1	2	1	0
8	5	72800	0	1	2	3	4
8	5	1.12968e+07	0	1	2	5	4
8	5	200	0	1	5	3	4
8	6	29184	0	1	2	1	0
8	6	72300	0	1	2	3	4
8	6	1.09445e+07	0	1	2	5	4
8	6	200	0	1	5	3	4
8	7	29952	0	1	2	1	0
8	7	74200	0	1	2	3	4
8	7	1.12353e+07	0	1	2	5	4
8	7	200	0	1	5	3	4
8	9	26176	0	1	2	1	0
8	9	68100	0	1	2	3	4
8	9	1.07766e+07	0	1	2	5	4
8	9	100	0	1	5	3	4
9	0	30848	0	1	2	1	0
9	0	71100	0	1	2	3	4
9	0	1.09691e+07	0	1	2	5	4
9	0	200	0	1	5	3	4
9	1	29952	0	1	2	1	0
9	1	71200	0	1	2	3	4
9	1	1.12886e+07	0	1	2	5	4
9	1	500	0	1	5	3	4
9	2	29184	0	1	2	1	0
9	2	72500	0	1	2	3	4
9	2	1.10223e+07	0	1	2	5	4
9	2	250	0	1	5	3	4
9	3	30336	0	1	2	1	0
9	3	70800	0	1	2	3	4
9	3	1.0879e+07	0	1	2	5	4
9	3	500	0	1	5	3	4
9	4	28416	0	1	2	1	0
9	4	68200	0	1	2	3	4
9	4	1.13787e+07	0	1	2	5	4
9	4	350	0	1	5	3	4
9	5	27776	0	1	2	1	0
9	5	75100	0	1	2	3	4
9	5	1.11411e+07	0	1	2	5	4
9	5	150	0	1	5	3	4
9	6	28288	0	1	2	1	0
9	6	71700	0	1	2	3	4
9	6	1.08421e+07	0	1	2	5	4
9	6	300	0	1	5	3	4
9	7	26176	0	1	2	1	0
9	7	73000	0	1	2	3	4
9	7	1.12312e+07	0	1	2	5	4
9	7	350	0	1	5	3	4
9	8	26816	0	1	2	1	0
9	8	71400	0	1	2	3	4
9	8	1.07848e+07	0	1	2	5	4
9	8	50	0	1	5	3	4
