100000	100000	100000	10000	1000	1000
0	1	28864	0	1	2	1	0
0	1	68000	0	1	2	3	4
0	1	1.05759e+07	0	1	2	5	4
0	1	200	0	1	5	3	4
0	2	37632	0	1	2	1	0
0	2	97100	0	1	2	3	4
0	2	1.50774e+07	0	1	2	5	4
0	2	100	0	1	5	3	4
0	3	26176	0	1	2	1	0
0	3	56200	0	1	2	3	4
0	3	9.19142e+06	0	1	2	5	4
0	3	300	0	1	5	3	4
0	4	35648	0	1	2	1	0
0	4	80500	0	1	2	3	4
0	4	1.31441e+07	0	1	2	5	4
0	4	400	0	1	5	3	4
0	5	30720	0	1	2	1	0
0	5	83500	0	1	2	3	4
0	5	1.23822e+07	0	1	2	5	4
0	5	300	0	1	5	3	4
0	6	61120	0	1	2	1	0
0	6	151500	0	1	2	3	4
0	6	2.41172e+07	0	1	2	5	4
0	6	450	0	1	5	3	4
0	7	28352	0	1	2	1	0
0	7	72500	0	1	2	3	4
0	7	1.14893e+07	0	1	2	5	4
0	7	100	0	1	5	3	4
0	8	57728	0	1	2	1	0
0	8	147000	0	1	2	3	4
0	8	2.26591e+07	0	1	2	5	4
0	8	700	0	1	5	3	4
0	9	28864	0	1	2	1	0
0	9	69700	0	1	2	3	4
0	9	1.08175e+07	0	1	2	5	4
0	9	150	0	1	5	3	4
1	0	29504	0	1	2	1	0
1	0	68200	0	1	2	3	4
1	0	1.10305e+07	0	1	2	5	4
1	0	400	0	1	5	3	4
1	2	22080	0	1	2	1	0
1	2	55600	0	1	2	3	4
1	2	8.60979e+06	0	1	2	5	4
1	2	100	0	1	5	3	4
1	3	19712	0	1	2	1	0
1	3	49400	0	1	2	3	4
1	3	7.62675e+06	0	1	2	5	4
1	3	300	0	1	5	3	4
1	4	28352	0	1	2	1	0
1	4	67600	0	1	2	3	4
1	4	1.08462e+07	0	1	2	5	4
1	4	250	0	1	5	3	4
1	5	25856	0	1	2	1	0
1	5	66900	0	1	2	3	4
1	5	1.04776e+07	0	1	2	5	4
1	5	300	0	1	5	3	4
1	6	17600	0	1	2	1	0
1	6	46900	0	1	2	3	4
1	6	6.63552e+06	0	1	2	5	4
1	6	200	0	1	5	3	4
1	7	25152	0	1	2	1	0
1	7	58300	0	1	2	3	4
1	7	9.50272e+06	0	1	2	5	4
1	7	350	0	1	5	3	4
1	8	24704	0	1	2	1	0
1	8	58100	0	1	2	3	4
1	8	9.60102e+06	0	1	2	5	4
1	8	350	0	1	5	3	4
1	9	51200	0	1	2	1	0
1	9	118400	0	1	2	3	4
1	9	1.83132e+07	0	1	2	5	4
1	9	300	0	1	5	3	4
2	0	40512	0	1	2	1	0
2	0	99400	0	1	2	3	4
2	0	1.44753e+07	0	1	2	5	4
2	0	400	0	1	5	3	4
2	1	20480	0	1	2	1	0
2	1	55200	0	1	2	3	4
2	1	8.192e+06	0	1	2	5	4
2	1	200	0	1	5	3	4
2	3	13120	0	1	2	1	0
2	3	33800	0	1	2	3	4
2	3	4.92339e+06	0	1	2	5	4
2	3	300	0	1	5	3	4
2	4	16896	0	1	2	1	0
2	4	40200	0	1	2	3	4
2	4	6.46349e+06	0	1	2	5	4
2	4	250	0	1	5	3	4
2	5	47936	0	1	2	1	0
2	5	117100	0	1	2	3	4
2	5	1.87064e+07	0	1	2	5	4
2	5	200	0	1	5	3	4
2	6	50944	0	1	2	1	0
2	6	116500	0	1	2	3	4
2	6	1.84115e+07	0	1	2	5	4
2	6	450	0	1	5	3	4
2	7	21568	0	1	2	1	0
2	7	51300	0	1	2	3	4
2	7	8.87603e+06	0	1	2	5	4
2	7	150	0	1	5	3	4
2	8	22400	0	1	2	1	0
2	8	52900	0	1	2	3	4
2	8	8.36403e+06	0	1	2	5	4
2	8	200	0	1	5	3	4
2	9	24512	0	1	2	1	0
2	9	51800	0	1	2	3	4
2	9	8.27392e+06	0	1	2	5	4
2	9	450	0	1	5	3	4
3	0	24448	0	1	2	1	0
3	0	54200	0	1	2	3	4
3	0	9.4167e+06	0	1	2	5	4
3	0	150	0	1	5	3	4
3	1	19392	0	1	2	1	0
3	1	50100	0	1	2	3	4
3	1	7.50387e+06	0	1	2	5	4
3	1	50	0	1	5	3	4
3	2	14912	0	1	2	1	0
3	2	31500	0	1	2	3	4
3	2	5.26336e+06	0	1	2	5	4
3	2	300	0	1	5	3	4
3	4	47424	0	1	2	1	0
3	4	118800	0	1	2	3	4
3	4	1.8559e+07	0	1	2	5	4
3	4	250	0	1	5	3	4
3	5	15936	0	1	2	1	0
3	5	34800	0	1	2	3	4
3	5	5.7385e+06	0	1	2	5	4
3	5	50	0	1	5	3	4
3	6	11392	0	1	2	1	0
3	6	26600	0	1	2	3	4
3	6	4.39501e+06	0	1	2	5	4
3	6	200	0	1	5	3	4
3	7	13824	0	1	2	1	0
3	7	34100	0	1	2	3	4
3	7	5.40672e+06	0	1	2	5	4
3	7	150	0	1	5	3	4
3	8	19840	0	1	2	1	0
3	8	53200	0	1	2	3	4
3	8	8.05274e+06	0	1	2	5	4
3	8	450	0	1	5	3	4
3	9	21632	0	1	2	1	0
3	9	50400	0	1	2	3	4
3	9	7.59808e+06	0	1	2	5	4
3	9	300	0	1	5	3	4
4	0	34752	0	1	2	1	0
4	0	83300	0	1	2	3	4
4	0	1.31441e+07	0	1	2	5	4
4	0	250	0	1	5	3	4
4	1	28992	0	1	2	1	0
4	1	68300	0	1	2	3	4
4	1	1.10019e+07	0	1	2	5	4
4	1	200	0	1	5	3	4
4	2	19264	0	1	2	1	0
4	2	43600	0	1	2	3	4
4	2	6.58227e+06	0	1	2	5	4
4	3	49536	0	1	2	1	0
4	3	113600	0	1	2	3	4
4	3	1.83542e+07	0	1	2	5	4
4	3	250	0	1	5	3	4
4	5	21824	0	1	2	1	0
4	5	51600	0	1	2	3	4
4	5	8.27392e+06	0	1	2	5	4
4	5	200	0	1	5	3	4
4	6	14912	0	1	2	1	0
4	6	37900	0	1	2	3	4
4	6	5.35347e+06	0	1	2	5	4
4	6	250	0	1	5	3	4
4	7	18624	0	1	2	1	0
4	7	49700	0	1	2	3	4
4	7	7.77421e+06	0	1	2	5	4
4	7	200	0	1	5	3	4
4	8	37056	0	1	2	1	0
4	8	92900	0	1	2	3	4
4	8	1.53682e+07	0	1	2	5	4
4	8	450	0	1	5	3	4
4	9	37952	0	1	2	1	0
4	9	94100	0	1	2	3	4
4	9	1.44302e+07	0	1	2	5	4
4	9	650	0	1	5	3	4
5	0	31808	0	1	2	1	0
5	0	74600	0	1	2	3	4
5	0	1.22388e+07	0	1	2	5	4
5	0	350	0	1	5	3	4
5	1	27520	0	1	2	1	0
5	1	67700	0	1	2	3	4
5	1	1.02769e+07	0	1	2	5	4
5	1	350	0	1	5	3	4
5	2	48832	0	1	2	1	0
5	2	123600	0	1	2	3	4
5	2	1.8731e+07	0	1	2	5	4
5	2	500	0	1	5	3	4
5	3	15296	0	1	2	1	0
5	3	34800	0	1	2	3	4
5	3	5.78355e+06	0	1	2	5	4
5	3	100	0	1	5	3	4
5	4	23040	0	1	2	1	0
5	4	51500	0	1	2	3	4
5	4	8.22886e+06	0	1	2	5	4
5	4	150	0	1	5	3	4
5	6	38272	0	1	2	1	0
5	6	94500	0	1	2	3	4
5	6	1.5106e+07	0	1	2	5	4
5	6	450	0	1	5	3	4
5	7	21056	0	1	2	1	0
5	7	47700	0	1	2	3	4
5	7	7.26221e+06	0	1	2	5	4
5	7	250	0	1	5	3	4
5	8	39296	0	1	2	1	0
5	8	90400	0	1	2	3	4
5	8	1.43483e+07	0	1	2	5	4
5	8	200	0	1	5	3	4
5	9	36672	0	1	2	1	0
5	9	92000	0	1	2	3	4
5	9	1.38732e+07	0	1	2	5	4
5	9	450	0	1	5	3	4
6	0	61184	0	1	2	1	0
6	0	147400	0	1	2	3	4
6	0	2.36995e+07	0	1	2	5	4
6	0	850	0	1	5	3	4
6	1	19072	0	1	2	1	0
6	1	44000	0	1	2	3	4
6	1	6.48806e+06	0	1	2	5	4
6	1	300	0	1	5	3	4
6	2	46848	0	1	2	1	0
6	2	118300	0	1	2	3	4
6	2	1.84238e+07	0	1	2	5	4
6	2	650	0	1	5	3	4
6	3	11136	0	1	2	1	0
6	3	30300	0	1	2	3	4
6	3	4.25165e+06	0	1	2	5	4
6	3	50	0	1	5	3	4
6	4	15040	0	1	2	1	0
6	4	31800	0	1	2	3	4
6	4	5.12819e+06	0	1	2	5	4
6	4	100	0	1	5	3	4
6	5	39040	0	1	2	1	0
6	5	97800	0	1	2	3	4
6	5	1.52576e+07	0	1	2	5	4
6	5	500	0	1	5	3	4
6	7	36800	0	1	2	1	0
6	7	87800	0	1	2	3	4
6	7	1.38281e+07	0	1	2	5	4
6	7	350	0	1	5	3	4
6	8	18176	0	1	2	1	0
6	8	44500	0	1	2	3	4
6	8	6.71744e+06	0	1	2	5	4
6	8	150	0	1	5	3	4
6	9	16576	0	1	2	1	0
6	9	44800	0	1	2	3	4
6	9	6.70925e+06	0	1	2	5	4
6	9	150	0	1	5	3	4
7	0	31296	0	1	2	1	0
7	0	76900	0	1	2	3	4
7	0	1.15302e+07	0	1	2	5	4
7	0	100	0	1	5	3	4
7	1	26240	0	1	2	1	0
7	1	60400	0	1	2	3	4
7	1	9.96966e+06	0	1	2	5	4
7	1	150	0	1	5	3	4
7	2	21760	0	1	2	1	0
7	2	55600	0	1	2	3	4
7	2	8.94157e+06	0	1	2	5	4
7	2	50	0	1	5	3	4
7	3	15680	0	1	2	1	0
7	3	37700	0	1	2	3	4
7	3	5.45178e+06	0	1	2	5	4
7	3	50	0	1	5	3	4
7	4	21056	0	1	2	1	0
7	4	49900	0	1	2	3	4
7	4	7.72506e+06	0	1	2	5	4
7	4	150	0	1	5	3	4
7	5	18176	0	1	2	1	0
7	5	45600	0	1	2	3	4
7	5	7.21715e+06	0	1	2	5	4
7	5	200	0	1	5	3	4
7	6	38720	0	1	2	1	0
7	6	92000	0	1	2	3	4
7	6	1.38404e+07	0	1	2	5	4
7	6	200	0	1	5	3	4
7	8	17856	0	1	2	1	0
7	8	43500	0	1	2	3	4
7	8	6.84442e+06	0	1	2	5	4
7	8	400	0	1	5	3	4
7	9	35840	0	1	2	1	0
7	9	85800	0	1	2	3	4
7	9	1.30826e+07	0	1	2	5	4
7	9	350	0	1	5	3	4
8	0	62592	0	1	2	1	0
8	0	141900	0	1	2	3	4
8	0	2.22331e+07	0	1	2	5	4
8	0	550	0	1	5	3	4
8	1	27136	0	1	2	1	0
8	1	57000	0	1	2	3	4
8	1	9.54368e+06	0	1	2	5	4
8	1	200	0	1	5	3	4
8	2	22400	0	1	2	1	0
8	2	52300	0	1	2	3	4
8	2	8.58112e+06	0	1	2	5	4
8	2	250	0	1	5	3	4
8	3	22656	0	1	2	1	0
8	3	52100	0	1	2	3	4
8	3	8.14285e+06	0	1	2	5	4
8	3	400	0	1	5	3	4
8	4	38144	0	1	2	1	0
8	4	91800	0	1	2	3	4
8	4	1.50856e+07	0	1	2	5	4
8	4	400	0	1	5	3	4
8	5	37824	0	1	2	1	0
8	5	94400	0	1	2	3	4
8	5	1.43974e+07	0	1	2	5	4
8	5	250	0	1	5	3	4
8	6	21824	0	1	2	1	0
8	6	43300	0	1	2	3	4
8	6	7.07789e+06	0	1	2	5	4
8	6	150	0	1	5	3	4
8	7	18624	0	1	2	1	0
8	7	43000	0	1	2	3	4
8	7	6.57408e+06	0	1	2	5	4
8	7	450	0	1	5	3	4
8	9	33728	0	1	2	1	0
8	9	79000	0	1	2	3	4
8	9	1.23945e+07	0	1	2	5	4
8	9	500	0	1	5	3	4
9	0	29568	0	1	2	1	0
9	0	68600	0	1	2	3	4
9	0	1.03219e+07	0	1	2	5	4
9	0	100	0	1	5	3	4
9	1	49728	0	1	2	1	0
9	1	117800	0	1	2	3	4
9	1	1.80716e+07	0	1	2	5	4
9	1	500	0	1	5	3	4
9	2	24832	0	1	2	1	0
9	2	51900	0	1	2	3	4
9	2	8.52378e+06	0	1	2	5	4
9	2	500	0	1	5	3	4
9	3	21120	0	1	2	1	0
9	3	49400	0	1	2	3	4
9	3	7.23354e+06	0	1	2	5	4
9	3	350	0	1	5	3	4
9	4	38080	0	1	2	1	0
9	4	93300	0	1	2	3	4
9	4	1.44835e+07	0	1	2	5	4
9	4	350	0	1	5	3	4
9	5	40000	0	1	2	1	0
9	5	85500	0	1	2	3	4
9	5	1.43974e+07	0	1	2	5	4
9	5	300	0	1	5	3	4
9	6	19904	0	1	2	1	0
9	6	43800	0	1	2	3	4
9	6	6.57408e+06	0	1	2	5	4
9	6	200	0	1	5	3	4
9	7	34176	0	1	2	1	0
9	7	89700	0	1	2	3	4
9	7	1.29106e+07	0	1	2	5	4
9	7	250	0	1	5	3	4
9	8	30592	0	1	2	1	0
9	8	83900	0	1	2	3	4
9	8	1.25092e+07	0	1	2	5	4
9	8	250	0	1	5	3	4
