100000	100000	100000	10000	1000	1000
0	1	30976	0	1	2	1	0
0	1	70100	0	1	2	3	4
0	1	1.1137e+07	0	1	2	5	4
0	1	150	0	1	5	3	4
0	2	27840	0	1	2	1	0
0	2	71900	0	1	2	3	4
0	2	1.06988e+07	0	1	2	5	4
0	2	300	0	1	5	3	4
0	3	27968	0	1	2	1	0
0	3	71500	0	1	2	3	4
0	3	1.09404e+07	0	1	2	5	4
0	3	250	0	1	5	3	4
0	4	27968	0	1	2	1	0
0	4	69500	0	1	2	3	4
0	4	1.1137e+07	0	1	2	5	4
0	4	350	0	1	5	3	4
0	5	30272	0	1	2	1	0
0	5	71200	0	1	2	3	4
0	5	1.07807e+07	0	1	2	5	4
0	5	200	0	1	5	3	4
0	6	28864	0	1	2	1	0
0	6	71700	0	1	2	3	4
0	6	1.09937e+07	0	1	2	5	4
0	7	29056	0	1	2	1	0
0	7	72000	0	1	2	3	4
0	7	1.13705e+07	0	1	2	5	4
0	7	400	0	1	5	3	4
0	8	28800	0	1	2	1	0
0	8	67100	0	1	2	3	4
0	8	1.10428e+07	0	1	2	5	4
0	8	300	0	1	5	3	4
0	9	26880	0	1	2	1	0
0	9	72400	0	1	2	3	4
0	9	1.13091e+07	0	1	2	5	4
0	9	450	0	1	5	3	4
1	0	29568	0	1	2	1	0
1	0	74600	0	1	2	3	4
1	0	1.13172e+07	0	1	2	5	4
1	0	300	0	1	5	3	4
1	2	28352	0	1	2	1	0
1	2	68800	0	1	2	3	4
1	2	1.1477e+07	0	1	2	5	4
1	2	250	0	1	5	3	4
1	3	28992	0	1	2	1	0
1	3	71300	0	1	2	3	4
1	3	1.1178e+07	0	1	2	5	4
1	3	500	0	1	5	3	4
1	4	30080	0	1	2	1	0
1	4	73300	0	1	2	3	4
1	4	1.10838e+07	0	1	2	5	4
1	4	200	0	1	5	3	4
1	5	28928	0	1	2	1	0
1	5	68200	0	1	2	3	4
1	5	1.09773e+07	0	1	2	5	4
1	5	500	0	1	5	3	4
1	6	27072	0	1	2	1	0
1	6	67200	0	1	2	3	4
1	6	1.11043e+07	0	1	2	5	4
1	6	250	0	1	5	3	4
1	7	30656	0	1	2	1	0
1	7	69200	0	1	2	3	4
1	7	1.09199e+07	0	1	2	5	4
1	7	150	0	1	5	3	4
1	8	28544	0	1	2	1	0
1	8	69500	0	1	2	3	4
1	8	1.11288e+07	0	1	2	5	4
1	8	250	0	1	5	3	4
1	9	30912	0	1	2	1	0
1	9	73800	0	1	2	3	4
1	9	1.10674e+07	0	1	2	5	4
1	9	450	0	1	5	3	4
2	0	27456	0	1	2	1	0
2	0	71000	0	1	2	3	4
2	0	1.1006e+07	0	1	2	5	4
2	0	400	0	1	5	3	4
2	1	31936	0	1	2	1	0
2	1	72800	0	1	2	3	4
2	1	1.10961e+07	0	1	2	5	4
2	1	500	0	1	5	3	4
2	3	29056	0	1	2	1	0
2	3	71000	0	1	2	3	4
2	3	1.10551e+07	0	1	2	5	4
2	3	250	0	1	5	3	4
2	4	29184	0	1	2	1	0
2	4	76200	0	1	2	3	4
2	4	1.10879e+07	0	1	2	5	4
2	4	200	0	1	5	3	4
2	5	28224	0	1	2	1	0
2	5	66900	0	1	2	3	4
2	5	1.15384e+07	0	1	2	5	4
2	5	250	0	1	5	3	4
2	6	29376	0	1	2	1	0
2	6	73200	0	1	2	3	4
2	6	1.12148e+07	0	1	2	5	4
2	6	400	0	1	5	3	4
2	7	31232	0	1	2	1	0
2	7	74700	0	1	2	3	4
2	7	1.07397e+07	0	1	2	5	4
2	7	350	0	1	5	3	4
2	8	29440	0	1	2	1	0
2	8	66400	0	1	2	3	4
2	8	1.08708e+07	0	1	2	5	4
2	8	150	0	1	5	3	4
2	9	30912	0	1	2	1	0
2	9	71100	0	1	2	3	4
2	9	1.10387e+07	0	1	2	5	4
2	9	300	0	1	5	3	4
3	0	29440	0	1	2	1	0
3	0	68100	0	1	2	3	4
3	0	1.11165e+07	0	1	2	5	4
3	0	250	0	1	5	3	4
3	1	30400	0	1	2	1	0
3	1	71800	0	1	2	3	4
3	1	1.0965e+07	0	1	2	5	4
3	1	300	0	1	5	3	4
3	2	28480	0	1	2	1	0
3	2	70600	0	1	2	3	4
3	2	1.11575e+07	0	1	2	5	4
3	2	300	0	1	5	3	4
3	4	29952	0	1	2	1	0
3	4	69700	0	1	2	3	4
3	4	1.12845e+07	0	1	2	5	4
3	4	250	0	1	5	3	4
3	5	29568	0	1	2	1	0
3	5	71100	0	1	2	3	4
3	5	1.10428e+07	0	1	2	5	4
3	5	300	0	1	5	3	4
3	6	28992	0	1	2	1	0
3	6	70900	0	1	2	3	4
3	6	1.12189e+07	0	1	2	5	4
3	6	300	0	1	5	3	4
3	7	28992	0	1	2	1	0
3	7	72100	0	1	2	3	4
3	7	1.09363e+07	0	1	2	5	4
3	7	250	0	1	5	3	4
3	8	28608	0	1	2	1	0
3	8	74500	0	1	2	3	4
3	8	1.10715e+07	0	1	2	5	4
3	8	300	0	1	5	3	4
3	9	31104	0	1	2	1	0
3	9	69800	0	1	2	3	4
3	9	1.04776e+07	0	1	2	5	4
3	9	400	0	1	5	3	4
4	0	29952	0	1	2	1	0
4	0	76000	0	1	2	3	4
4	0	1.08503e+07	0	1	2	5	4
4	0	250	0	1	5	3	4
4	1	31168	0	1	2	1	0
4	1	72200	0	1	2	3	4
4	1	1.09568e+07	0	1	2	5	4
4	1	200	0	1	5	3	4
4	2	28736	0	1	2	1	0
4	2	73200	0	1	2	3	4
4	2	1.12886e+07	0	1	2	5	4
4	2	300	0	1	5	3	4
4	3	28736	0	1	2	1	0
4	3	73500	0	1	2	3	4
4	3	1.12189e+07	0	1	2	5	4
4	3	450	0	1	5	3	4
4	5	29120	0	1	2	1	0
4	5	67000	0	1	2	3	4
4	5	1.08626e+07	0	1	2	5	4
4	5	350	0	1	5	3	4
4	6	29440	0	1	2	1	0
4	6	72900	0	1	2	3	4
4	6	1.11985e+07	0	1	2	5	4
4	6	350	0	1	5	3	4
4	7	27520	0	1	2	1	0
4	7	64800	0	1	2	3	4
4	7	1.10182e+07	0	1	2	5	4
4	7	300	0	1	5	3	4
4	8	28288	0	1	2	1	0
4	8	73000	0	1	2	3	4
4	8	1.08134e+07	0	1	2	5	4
4	8	500	0	1	5	3	4
4	9	28800	0	1	2	1	0
4	9	67900	0	1	2	3	4
4	9	1.08831e+07	0	1	2	5	4
4	9	250	0	1	5	3	4
5	0	27840	0	1	2	1	0
5	0	68600	0	1	2	3	4
5	0	1.07807e+07	0	1	2	5	4
5	0	600	0	1	5	3	4
5	1	29184	0	1	2	1	0
5	1	72400	0	1	2	3	4
5	1	1.09978e+07	0	1	2	5	4
5	1	450	0	1	5	3	4
5	2	29120	0	1	2	1	0
5	2	70200	0	1	2	3	4
5	2	1.07356e+07	0	1	2	5	4
5	2	200	0	1	5	3	4
5	3	27968	0	1	2	1	0
5	3	69300	0	1	2	3	4
5	3	1.11903e+07	0	1	2	5	4
5	3	450	0	1	5	3	4
5	4	31232	0	1	2	1	0
5	4	69700	0	1	2	3	4
5	4	1.1006e+07	0	1	2	5	4
5	4	250	0	1	5	3	4
5	6	28224	0	1	2	1	0
5	6	70300	0	1	2	3	4
5	6	1.15261e+07	0	1	2	5	4
5	6	350	0	1	5	3	4
5	7	29760	0	1	2	1	0
5	7	72800	0	1	2	3	4
5	7	1.08257e+07	0	1	2	5	4
5	7	450	0	1	5	3	4
5	8	28928	0	1	2	1	0
5	8	66500	0	1	2	3	4
5	8	1.09609e+07	0	1	2	5	4
5	8	100	0	1	5	3	4
5	9	28736	0	1	2	1	0
5	9	72700	0	1	2	3	4
5	9	1.10182e+07	0	1	2	5	4
5	9	300	0	1	5	3	4
6	0	29376	0	1	2	1	0
6	0	65800	0	1	2	3	4
6	0	1.10264e+07	0	1	2	5	4
6	0	450	0	1	5	3	4
6	1	28288	0	1	2	1	0
6	1	71100	0	1	2	3	4
6	1	1.09773e+07	0	1	2	5	4
6	1	250	0	1	5	3	4
6	2	29760	0	1	2	1	0
6	2	71200	0	1	2	3	4
6	2	1.10019e+07	0	1	2	5	4
6	2	500	0	1	5	3	4
6	3	31552	0	1	2	1	0
6	3	72800	0	1	2	3	4
6	3	1.09773e+07	0	1	2	5	4
6	3	250	0	1	5	3	4
6	4	29376	0	1	2	1	0
6	4	70200	0	1	2	3	4
6	4	1.10797e+07	0	1	2	5	4
6	4	300	0	1	5	3	4
6	5	30336	0	1	2	1	0
6	5	68200	0	1	2	3	4
6	5	1.06742e+07	0	1	2	5	4
6	5	300	0	1	5	3	4
6	7	29312	0	1	2	1	0
6	7	69200	0	1	2	3	4
6	7	1.07971e+07	0	1	2	5	4
6	7	500	0	1	5	3	4
6	8	27648	0	1	2	1	0
6	8	73100	0	1	2	3	4
6	8	1.0752e+07	0	1	2	5	4
6	8	250	0	1	5	3	4
6	9	30144	0	1	2	1	0
6	9	72300	0	1	2	3	4
6	9	1.09117e+07	0	1	2	5	4
6	9	250	0	1	5	3	4
7	0	26112	0	1	2	1	0
7	0	68100	0	1	2	3	4
7	0	1.11575e+07	0	1	2	5	4
7	0	250	0	1	5	3	4
7	1	27712	0	1	2	1	0
7	1	76800	0	1	2	3	4
7	1	1.08216e+07	0	1	2	5	4
7	1	250	0	1	5	3	4
7	2	27136	0	1	2	1	0
7	2	66000	0	1	2	3	4
7	2	1.10592e+07	0	1	2	5	4
7	2	200	0	1	5	3	4
7	3	30464	0	1	2	1	0
7	3	72600	0	1	2	3	4
7	3	1.14196e+07	0	1	2	5	4
7	3	550	0	1	5	3	4
7	4	29376	0	1	2	1	0
7	4	68200	0	1	2	3	4
7	4	1.06578e+07	0	1	2	5	4
7	4	300	0	1	5	3	4
7	5	28928	0	1	2	1	0
7	5	63200	0	1	2	3	4
7	5	1.09199e+07	0	1	2	5	4
7	5	400	0	1	5	3	4
7	6	30912	0	1	2	1	0
7	6	67600	0	1	2	3	4
7	6	1.05185e+07	0	1	2	5	4
7	6	200	0	1	5	3	4
7	8	31232	0	1	2	1	0
7	8	68500	0	1	2	3	4
7	8	1.09036e+07	0	1	2	5	4
7	8	300	0	1	5	3	4
7	9	29760	0	1	2	1	0
7	9	71500	0	1	2	3	4
7	9	1.08421e+07	0	1	2	5	4
7	9	100	0	1	5	3	4
8	0	31488	0	1	2	1	0
8	0	72700	0	1	2	3	4
8	0	1.08626e+07	0	1	2	5	4
8	0	150	0	1	5	3	4
8	1	29184	0	1	2	1	0
8	1	67900	0	1	2	3	4
8	1	1.11247e+07	0	1	2	5	4
8	1	200	0	1	5	3	4
8	2	29632	0	1	2	1	0
8	2	68200	0	1	2	3	4
8	2	1.10879e+07	0	1	2	5	4
8	2	400	0	1	5	3	4
8	3	28096	0	1	2	1	0
8	3	74900	0	1	2	3	4
8	3	1.12108e+07	0	1	2	5	4
8	3	200	0	1	5	3	4
8	4	29184	0	1	2	1	0
8	4	69700	0	1	2	3	4
8	4	1.08708e+07	0	1	2	5	4
8	4	100	0	1	5	3	4
8	5	27968	0	1	2	1	0
8	5	70600	0	1	2	3	4
8	5	1.08421e+07	0	1	2	5	4
8	5	200	0	1	5	3	4
8	6	29376	0	1	2	1	0
8	6	68500	0	1	2	3	4
8	6	1.13582e+07	0	1	2	5	4
8	6	150	0	1	5	3	4
8	7	27392	0	1	2	1	0
8	7	67000	0	1	2	3	4
8	7	1.09527e+07	0	1	2	5	4
8	7	200	0	1	5	3	4
8	9	27776	0	1	2	1	0
8	9	71400	0	1	2	3	4
8	9	1.0666e+07	0	1	2	5	4
8	9	250	0	1	5	3	4
9	0	28032	0	1	2	1	0
9	0	70000	0	1	2	3	4
9	0	1.09404e+07	0	1	2	5	4
9	0	300	0	1	5	3	4
9	1	29824	0	1	2	1	0
9	1	67700	0	1	2	3	4
9	1	1.08749e+07	0	1	2	5	4
9	1	300	0	1	5	3	4
9	2	29696	0	1	2	1	0
9	2	66600	0	1	2	3	4
9	2	1.08872e+07	0	1	2	5	4
9	2	250	0	1	5	3	4
9	3	30144	0	1	2	1	0
9	3	69000	0	1	2	3	4
9	3	1.11534e+07	0	1	2	5	4
9	3	350	0	1	5	3	4
9	4	26112	0	1	2	1	0
9	4	66100	0	1	2	3	4
9	4	1.101e+07	0	1	2	5	4
9	4	300	0	1	5	3	4
9	5	28608	0	1	2	1	0
9	5	71600	0	1	2	3	4
9	5	1.13705e+07	0	1	2	5	4
9	5	300	0	1	5	3	4
9	6	29248	0	1	2	1	0
9	6	68600	0	1	2	3	4
9	6	1.09158e+07	0	1	2	5	4
9	6	250	0	1	5	3	4
9	7	27904	0	1	2	1	0
9	7	72900	0	1	2	3	4
9	7	1.08134e+07	0	1	2	5	4
9	7	400	0	1	5	3	4
9	8	29632	0	1	2	1	0
9	8	69800	0	1	2	3	4
9	8	1.08626e+07	0	1	2	5	4
9	8	400	0	1	5	3	4
