10
0	1	1e+12
0	2	1e+12
0	3	1e+12
0	5	1e+12
0	7	1e+12
1	0	1e+12
1	2	1e+12
1	3	1e+12
1	4	1e+12
1	5	1e+12
1	7	1e+12
1	9	1e+12
2	0	1e+12
2	1	1e+12
2	3	1e+12
2	5	1e+12
2	6	1e+12
2	8	1e+12
3	0	1e+12
3	1	1e+12
3	2	1e+12
3	5	1e+12
3	7	1e+12
3	8	1e+12
4	1	1e+12
4	5	1e+12
4	6	1e+12
4	9	1e+12
5	0	1e+12
5	1	1e+12
5	2	1e+12
5	3	1e+12
5	4	1e+12
5	6	1e+12
5	7	1e+12
5	8	1e+12
5	9	1e+12
6	2	1e+12
6	4	1e+12
6	5	1e+12
6	7	1e+12
6	9	1e+12
7	0	1e+12
7	1	1e+12
7	3	1e+12
7	5	1e+12
7	6	1e+12
8	2	1e+12
8	3	1e+12
8	5	1e+12
8	9	1e+12
9	1	1e+12
9	4	1e+12
9	5	1e+12
9	6	1e+12
9	8	1e+12
