18
0	1	1e+12
0	5	1e+12
0	7	1e+12
0	9	1e+12
0	12	1e+12
0	13	1e+12
0	16	1e+12
1	0	1e+12
1	2	1e+12
1	9	1e+12
1	13	1e+12
2	1	1e+12
2	9	1e+12
2	10	1e+12
2	11	1e+12
3	11	1e+12
4	5	1e+12
4	8	1e+12
4	9	1e+12
4	15	1e+12
5	0	1e+12
5	4	1e+12
5	10	1e+12
6	11	1e+12
7	0	1e+12
7	8	1e+12
7	13	1e+12
8	4	1e+12
8	7	1e+12
8	14	1e+12
9	0	1e+12
9	1	1e+12
9	2	1e+12
9	4	1e+12
9	10	1e+12
9	11	1e+12
9	17	1e+12
10	2	1e+12
10	5	1e+12
10	9	1e+12
10	14	1e+12
11	2	1e+12
11	3	1e+12
11	6	1e+12
11	9	1e+12
11	12	1e+12
11	16	1e+12
12	0	1e+12
12	11	1e+12
13	0	1e+12
13	1	1e+12
13	7	1e+12
13	14	1e+12
13	16	1e+12
14	8	1e+12
14	10	1e+12
14	13	1e+12
15	4	1e+12
15	17	1e+12
16	0	1e+12
16	11	1e+12
16	13	1e+12
17	9	1e+12
17	15	1e+12
