10000	100000	1000	100000	10000	1000
0	1	1.11333e+07	0	4	0	0	1
0	2	1.10078e+07	0	4	0	0	1
0	3	1.10224e+07	0	4	0	0	1
0	4	1.11234e+07	0	4	0	0	1
0	5	1.10186e+07	0	4	0	0	1
0	6	1.10796e+07	0	4	0	0	1
0	7	1.10275e+07	0	4	0	0	1
0	8	1.11634e+07	0	4	0	0	1
0	9	1.10777e+07	0	4	0	0	1
1	0	1.12098e+07	0	4	0	0	1
1	2	1.11425e+07	0	4	0	0	1
1	3	1.11364e+07	0	4	0	0	1
1	4	1.10415e+07	0	4	0	0	1
1	5	1.1112e+07	0	4	0	0	1
1	6	1.10332e+07	0	4	0	0	1
1	7	1.11444e+07	0	4	0	0	1
1	8	1.10151e+07	0	4	0	0	1
1	9	1.11313e+07	0	4	0	0	1
2	0	1.10138e+07	0	4	0	0	1
2	1	1.12219e+07	0	4	0	0	1
2	3	1.1125e+07	0	4	0	0	1
2	4	1.1139e+07	0	4	0	0	1
2	5	1.10964e+07	0	4	0	0	1
2	6	1.11288e+07	0	4	0	0	1
2	7	1.11501e+07	0	4	0	0	1
2	8	1.11371e+07	0	4	0	0	1
2	9	1.10948e+07	0	4	0	0	1
3	0	1.11663e+07	0	4	0	0	1
3	1	1.11545e+07	0	4	0	0	1
3	2	1.11758e+07	0	4	0	0	1
3	4	1.11863e+07	0	4	0	0	1
3	5	1.10786e+07	0	4	0	0	1
3	6	1.10961e+07	0	4	0	0	1
3	7	1.10211e+07	0	4	0	0	1
3	8	1.10688e+07	0	4	0	0	1
3	9	1.1132e+07	0	4	0	0	1
4	0	1.11504e+07	0	4	0	0	1
4	1	1.1064e+07	0	4	0	0	1
4	2	1.11279e+07	0	4	0	0	1
4	3	1.10494e+07	0	4	0	0	1
4	5	1.11691e+07	0	4	0	0	1
4	6	1.10869e+07	0	4	0	0	1
4	7	1.10491e+07	0	4	0	0	1
4	8	1.10713e+07	0	4	0	0	1
4	9	1.11282e+07	0	4	0	0	1
5	0	1.10993e+07	0	4	0	0	1
5	1	1.12667e+07	0	4	0	0	1
5	2	1.10373e+07	0	4	0	0	1
5	3	1.10516e+07	0	4	0	0	1
5	4	1.11126e+07	0	4	0	0	1
5	6	1.11574e+07	0	4	0	0	1
5	7	1.1092e+07	0	4	0	0	1
5	8	1.11275e+07	0	4	0	0	1
5	9	1.1138e+07	0	4	0	0	1
6	0	1.10211e+07	0	4	0	0	1
6	1	1.10885e+07	0	4	0	0	1
6	2	1.10478e+07	0	4	0	0	1
6	3	1.10821e+07	0	4	0	0	1
6	4	1.10932e+07	0	4	0	0	1
6	5	1.10964e+07	0	4	0	0	1
6	7	1.10948e+07	0	4	0	0	1
6	8	1.1031e+07	0	4	0	0	1
6	9	1.10434e+07	0	4	0	0	1
7	0	1.11707e+07	0	4	0	0	1
7	1	1.1139e+07	0	4	0	0	1
7	2	1.11787e+07	0	4	0	0	1
7	3	1.10208e+07	0	4	0	0	1
7	4	1.10059e+07	0	4	0	0	1
7	5	1.11151e+07	0	4	0	0	1
7	6	1.12597e+07	0	4	0	0	1
7	8	1.12076e+07	0	4	0	0	1
7	9	1.11364e+07	0	4	0	0	1
8	0	1.11495e+07	0	4	0	0	1
8	1	1.11091e+07	0	4	0	0	1
8	2	1.11606e+07	0	4	0	0	1
8	3	1.11237e+07	0	4	0	0	1
8	4	1.11564e+07	0	4	0	0	1
8	5	1.10894e+07	0	4	0	0	1
8	6	1.12e+07	0	4	0	0	1
8	7	1.11568e+07	0	4	0	0	1
8	9	1.11415e+07	0	4	0	0	1
9	0	1.09709e+07	0	4	0	0	1
9	1	1.1118e+07	0	4	0	0	1
9	2	1.11806e+07	0	4	0	0	1
9	3	1.11631e+07	0	4	0	0	1
9	4	1.11043e+07	0	4	0	0	1
9	5	1.11333e+07	0	4	0	0	1
9	6	1.12635e+07	0	4	0	0	1
9	7	1.10573e+07	0	4	0	0	1
9	8	1.11053e+07	0	4	0	0	1
