10
0	2	1e+12
0	5	1e+12
0	7	1e+12
0	9	1e+12
1	2	1e+12
1	3	1e+12
1	4	1e+12
1	5	1e+12
2	0	1e+12
2	1	1e+12
2	8	1e+12
3	1	1e+12
3	4	1e+12
3	6	1e+12
3	9	1e+12
4	1	1e+12
4	3	1e+12
4	6	1e+12
5	0	1e+12
5	1	1e+12
6	3	1e+12
6	4	1e+12
7	0	1e+12
7	9	1e+12
8	2	1e+12
9	0	1e+12
9	3	1e+12
9	7	1e+12
