100000	100000	100000	10000	1000	1000
0	1	19968	0	1	2	1	0
0	1	50500	0	1	2	3	4
0	1	7.8848e+06	0	1	2	5	4
0	1	50	0	1	5	3	4
0	2	20352	0	1	2	1	0
0	2	41700	0	1	2	3	4
0	2	7.61446e+06	0	1	2	5	4
0	2	100	0	1	5	3	4
0	3	20928	0	1	2	1	0
0	3	47300	0	1	2	3	4
0	3	7.60218e+06	0	1	2	5	4
0	3	150	0	1	5	3	4
0	4	20096	0	1	2	1	0
0	4	50000	0	1	2	3	4
0	4	7.56941e+06	0	1	2	5	4
0	4	50	0	1	5	3	4
0	5	17984	0	1	2	1	0
0	5	45500	0	1	2	3	4
0	5	7.43834e+06	0	1	2	5	4
0	5	200	0	1	5	3	4
0	6	16768	0	1	2	1	0
0	6	45900	0	1	2	3	4
0	6	7.84384e+06	0	1	2	5	4
0	6	150	0	1	5	3	4
0	7	19456	0	1	2	1	0
0	7	51500	0	1	2	3	4
0	7	7.44243e+06	0	1	2	5	4
0	7	250	0	1	5	3	4
0	8	19712	0	1	2	1	0
0	8	47100	0	1	2	3	4
0	8	7.40966e+06	0	1	2	5	4
0	8	300	0	1	5	3	4
0	9	19648	0	1	2	1	0
0	9	49700	0	1	2	3	4
0	9	7.2704e+06	0	1	2	5	4
0	9	200	0	1	5	3	4
0	10	19904	0	1	2	1	0
0	10	45200	0	1	2	3	4
0	10	7.5817e+06	0	1	2	5	4
0	10	300	0	1	5	3	4
0	11	19584	0	1	2	1	0
0	11	50800	0	1	2	3	4
0	11	7.65133e+06	0	1	2	5	4
0	11	50	0	1	5	3	4
1	0	19264	0	1	2	1	0
1	0	52400	0	1	2	3	4
1	0	7.18438e+06	0	1	2	5	4
1	0	150	0	1	5	3	4
1	2	20800	0	1	2	1	0
1	2	50000	0	1	2	3	4
1	2	7.52435e+06	0	1	2	5	4
1	2	100	0	1	5	3	4
1	3	20416	0	1	2	1	0
1	3	44300	0	1	2	3	4
1	3	7.72915e+06	0	1	2	5	4
1	3	100	0	1	5	3	4
1	4	21312	0	1	2	1	0
1	4	46900	0	1	2	3	4
1	4	7.45882e+06	0	1	2	5	4
1	4	350	0	1	5	3	4
1	5	19136	0	1	2	1	0
1	5	46000	0	1	2	3	4
1	5	7.26221e+06	0	1	2	5	4
1	5	200	0	1	5	3	4
1	6	19264	0	1	2	1	0
1	6	48200	0	1	2	3	4
1	6	7.62675e+06	0	1	2	5	4
1	6	50	0	1	5	3	4
1	7	17984	0	1	2	1	0
1	7	51300	0	1	2	3	4
1	7	7.39328e+06	0	1	2	5	4
1	7	250	0	1	5	3	4
1	8	19840	0	1	2	1	0
1	8	47800	0	1	2	3	4
1	8	7.41376e+06	0	1	2	5	4
1	8	150	0	1	5	3	4
1	9	19904	0	1	2	1	0
1	9	46200	0	1	2	3	4
1	9	7.79878e+06	0	1	2	5	4
1	9	200	0	1	5	3	4
1	10	18368	0	1	2	1	0
1	10	47500	0	1	2	3	4
1	10	7.60218e+06	0	1	2	5	4
1	10	200	0	1	5	3	4
1	11	18752	0	1	2	1	0
1	11	50500	0	1	2	3	4
1	11	7.63085e+06	0	1	2	5	4
1	11	100	0	1	5	3	4
2	0	19520	0	1	2	1	0
2	0	48800	0	1	2	3	4
2	0	7.53254e+06	0	1	2	5	4
2	0	150	0	1	5	3	4
2	1	19072	0	1	2	1	0
2	1	47400	0	1	2	3	4
2	1	7.31955e+06	0	1	2	5	4
2	1	200	0	1	5	3	4
2	3	18176	0	1	2	1	0
2	3	48300	0	1	2	3	4
2	3	7.61856e+06	0	1	2	5	4
2	3	150	0	1	5	3	4
2	4	20800	0	1	2	1	0
2	4	45500	0	1	2	3	4
2	4	7.34413e+06	0	1	2	5	4
2	4	250	0	1	5	3	4
2	5	21824	0	1	2	1	0
2	5	46400	0	1	2	3	4
2	5	7.61037e+06	0	1	2	5	4
2	5	300	0	1	5	3	4
2	6	19456	0	1	2	1	0
2	6	48000	0	1	2	3	4
2	6	7.71277e+06	0	1	2	5	4
2	6	250	0	1	5	3	4
2	7	18944	0	1	2	1	0
2	7	45700	0	1	2	3	4
2	7	7.40557e+06	0	1	2	5	4
2	7	250	0	1	5	3	4
2	8	19264	0	1	2	1	0
2	8	47200	0	1	2	3	4
2	8	7.55302e+06	0	1	2	5	4
2	8	300	0	1	5	3	4
2	9	19200	0	1	2	1	0
2	9	44900	0	1	2	3	4
2	9	7.34413e+06	0	1	2	5	4
2	9	150	0	1	5	3	4
2	10	18816	0	1	2	1	0
2	10	46600	0	1	2	3	4
2	10	7.34003e+06	0	1	2	5	4
2	10	50	0	1	5	3	4
2	11	17600	0	1	2	1	0
2	11	45000	0	1	2	3	4
2	11	7.63904e+06	0	1	2	5	4
2	11	100	0	1	5	3	4
3	0	19584	0	1	2	1	0
3	0	45700	0	1	2	3	4
3	0	7.56531e+06	0	1	2	5	4
3	0	50	0	1	5	3	4
3	1	19456	0	1	2	1	0
3	1	50300	0	1	2	3	4
3	1	7.32365e+06	0	1	2	5	4
3	1	100	0	1	5	3	4
3	2	19392	0	1	2	1	0
3	2	50800	0	1	2	3	4
3	2	7.71277e+06	0	1	2	5	4
3	2	200	0	1	5	3	4
3	4	20224	0	1	2	1	0
3	4	45100	0	1	2	3	4
3	4	7.71277e+06	0	1	2	5	4
3	4	200	0	1	5	3	4
3	5	21120	0	1	2	1	0
3	5	44900	0	1	2	3	4
3	5	7.50387e+06	0	1	2	5	4
3	6	20480	0	1	2	1	0
3	6	44600	0	1	2	3	4
3	6	7.50797e+06	0	1	2	5	4
3	6	250	0	1	5	3	4
3	7	20032	0	1	2	1	0
3	7	46300	0	1	2	3	4
3	7	7.34003e+06	0	1	2	5	4
3	7	150	0	1	5	3	4
3	8	20224	0	1	2	1	0
3	8	48400	0	1	2	3	4
3	8	7.40147e+06	0	1	2	5	4
3	9	19648	0	1	2	1	0
3	9	47600	0	1	2	3	4
3	9	7.01235e+06	0	1	2	5	4
3	9	100	0	1	5	3	4
3	10	19520	0	1	2	1	0
3	10	46700	0	1	2	3	4
3	10	7.51206e+06	0	1	2	5	4
3	10	300	0	1	5	3	4
3	11	19392	0	1	2	1	0
3	11	47400	0	1	2	3	4
3	11	7.60627e+06	0	1	2	5	4
3	11	150	0	1	5	3	4
4	0	18816	0	1	2	1	0
4	0	48300	0	1	2	3	4
4	0	7.40557e+06	0	1	2	5	4
4	0	150	0	1	5	3	4
4	1	21248	0	1	2	1	0
4	1	49600	0	1	2	3	4
4	1	7.43014e+06	0	1	2	5	4
4	1	250	0	1	5	3	4
4	2	20736	0	1	2	1	0
4	2	47700	0	1	2	3	4
4	2	7.66771e+06	0	1	2	5	4
4	2	350	0	1	5	3	4
4	3	20096	0	1	2	1	0
4	3	44300	0	1	2	3	4
4	3	7.22944e+06	0	1	2	5	4
4	3	300	0	1	5	3	4
4	5	21184	0	1	2	1	0
4	5	46600	0	1	2	3	4
4	5	7.83974e+06	0	1	2	5	4
4	5	100	0	1	5	3	4
4	6	19392	0	1	2	1	0
4	6	47800	0	1	2	3	4
4	6	7.64723e+06	0	1	2	5	4
4	6	100	0	1	5	3	4
4	7	19584	0	1	2	1	0
4	7	47900	0	1	2	3	4
4	7	7.32365e+06	0	1	2	5	4
4	7	350	0	1	5	3	4
4	8	18944	0	1	2	1	0
4	8	47300	0	1	2	3	4
4	8	7.54483e+06	0	1	2	5	4
4	8	350	0	1	5	3	4
4	9	20032	0	1	2	1	0
4	9	45400	0	1	2	3	4
4	9	7.49978e+06	0	1	2	5	4
4	9	100	0	1	5	3	4
4	10	20416	0	1	2	1	0
4	10	47700	0	1	2	3	4
4	10	7.3687e+06	0	1	2	5	4
4	10	150	0	1	5	3	4
4	11	22016	0	1	2	1	0
4	11	47600	0	1	2	3	4
4	11	7.52845e+06	0	1	2	5	4
4	11	400	0	1	5	3	4
5	0	19392	0	1	2	1	0
5	0	48400	0	1	2	3	4
5	0	7.55302e+06	0	1	2	5	4
5	0	200	0	1	5	3	4
5	1	21056	0	1	2	1	0
5	1	51500	0	1	2	3	4
5	1	7.23354e+06	0	1	2	5	4
5	1	150	0	1	5	3	4
5	2	20992	0	1	2	1	0
5	2	47400	0	1	2	3	4
5	2	7.71277e+06	0	1	2	5	4
5	2	200	0	1	5	3	4
5	3	19648	0	1	2	1	0
5	3	47100	0	1	2	3	4
5	3	7.61446e+06	0	1	2	5	4
5	3	300	0	1	5	3	4
5	4	19904	0	1	2	1	0
5	4	48000	0	1	2	3	4
5	4	7.33594e+06	0	1	2	5	4
5	4	150	0	1	5	3	4
5	6	19584	0	1	2	1	0
5	6	48100	0	1	2	3	4
5	6	7.54074e+06	0	1	2	5	4
5	6	200	0	1	5	3	4
5	7	17856	0	1	2	1	0
5	7	50400	0	1	2	3	4
5	7	7.29498e+06	0	1	2	5	4
5	7	200	0	1	5	3	4
5	8	19648	0	1	2	1	0
5	8	47600	0	1	2	3	4
5	8	7.41376e+06	0	1	2	5	4
5	8	150	0	1	5	3	4
5	9	18816	0	1	2	1	0
5	9	49700	0	1	2	3	4
5	9	7.33594e+06	0	1	2	5	4
5	9	300	0	1	5	3	4
5	10	20544	0	1	2	1	0
5	10	51400	0	1	2	3	4
5	10	7.71277e+06	0	1	2	5	4
5	10	250	0	1	5	3	4
5	11	18240	0	1	2	1	0
5	11	48000	0	1	2	3	4
5	11	7.34003e+06	0	1	2	5	4
5	11	350	0	1	5	3	4
6	0	20608	0	1	2	1	0
6	0	45300	0	1	2	3	4
6	0	7.81926e+06	0	1	2	5	4
6	0	250	0	1	5	3	4
6	1	18560	0	1	2	1	0
6	1	51300	0	1	2	3	4
6	1	7.49158e+06	0	1	2	5	4
6	1	200	0	1	5	3	4
6	2	19648	0	1	2	1	0
6	2	44900	0	1	2	3	4
6	2	7.29498e+06	0	1	2	5	4
6	2	250	0	1	5	3	4
6	3	19136	0	1	2	1	0
6	3	47200	0	1	2	3	4
6	3	7.52845e+06	0	1	2	5	4
6	3	250	0	1	5	3	4
6	4	21184	0	1	2	1	0
6	4	44600	0	1	2	3	4
6	4	7.60218e+06	0	1	2	5	4
6	4	250	0	1	5	3	4
6	5	18560	0	1	2	1	0
6	5	49700	0	1	2	3	4
6	5	7.33184e+06	0	1	2	5	4
6	7	18496	0	1	2	1	0
6	7	47400	0	1	2	3	4
6	7	7.65952e+06	0	1	2	5	4
6	7	500	0	1	5	3	4
6	8	19904	0	1	2	1	0
6	8	46100	0	1	2	3	4
6	8	7.48339e+06	0	1	2	5	4
6	8	50	0	1	5	3	4
6	9	18560	0	1	2	1	0
6	9	50900	0	1	2	3	4
6	9	7.61037e+06	0	1	2	5	4
6	9	100	0	1	5	3	4
6	10	20352	0	1	2	1	0
6	10	47000	0	1	2	3	4
6	10	7.56941e+06	0	1	2	5	4
6	10	150	0	1	5	3	4
6	11	20992	0	1	2	1	0
6	11	45300	0	1	2	3	4
6	11	7.68e+06	0	1	2	5	4
6	11	400	0	1	5	3	4
7	0	20160	0	1	2	1	0
7	0	50900	0	1	2	3	4
7	0	7.70867e+06	0	1	2	5	4
7	0	150	0	1	5	3	4
7	1	19712	0	1	2	1	0
7	1	46700	0	1	2	3	4
7	1	7.40557e+06	0	1	2	5	4
7	1	150	0	1	5	3	4
7	2	20480	0	1	2	1	0
7	2	45800	0	1	2	3	4
7	2	7.56941e+06	0	1	2	5	4
7	2	100	0	1	5	3	4
7	3	18048	0	1	2	1	0
7	3	45000	0	1	2	3	4
7	3	7.68e+06	0	1	2	5	4
7	3	200	0	1	5	3	4
7	4	19840	0	1	2	1	0
7	4	48300	0	1	2	3	4
7	4	7.2745e+06	0	1	2	5	4
7	4	150	0	1	5	3	4
7	5	21056	0	1	2	1	0
7	5	47500	0	1	2	3	4
7	5	7.35642e+06	0	1	2	5	4
7	5	100	0	1	5	3	4
7	6	21504	0	1	2	1	0
7	6	45500	0	1	2	3	4
7	6	7.54074e+06	0	1	2	5	4
7	6	400	0	1	5	3	4
7	8	20992	0	1	2	1	0
7	8	46800	0	1	2	3	4
7	8	7.31955e+06	0	1	2	5	4
7	8	150	0	1	5	3	4
7	9	22656	0	1	2	1	0
7	9	45900	0	1	2	3	4
7	9	7.24582e+06	0	1	2	5	4
7	9	200	0	1	5	3	4
7	10	19456	0	1	2	1	0
7	10	47800	0	1	2	3	4
7	10	7.29907e+06	0	1	2	5	4
7	10	200	0	1	5	3	4
7	11	17984	0	1	2	1	0
7	11	46400	0	1	2	3	4
7	11	7.4752e+06	0	1	2	5	4
7	11	250	0	1	5	3	4
8	0	21312	0	1	2	1	0
8	0	47200	0	1	2	3	4
8	0	7.65952e+06	0	1	2	5	4
8	0	200	0	1	5	3	4
8	1	20096	0	1	2	1	0
8	1	50500	0	1	2	3	4
8	1	7.44653e+06	0	1	2	5	4
8	1	200	0	1	5	3	4
8	2	22208	0	1	2	1	0
8	2	45500	0	1	2	3	4
8	2	7.31546e+06	0	1	2	5	4
8	2	100	0	1	5	3	4
8	3	20992	0	1	2	1	0
8	3	49000	0	1	2	3	4
8	3	7.70048e+06	0	1	2	5	4
8	4	17792	0	1	2	1	0
8	4	48900	0	1	2	3	4
8	4	7.67181e+06	0	1	2	5	4
8	4	250	0	1	5	3	4
8	5	19776	0	1	2	1	0
8	5	42700	0	1	2	3	4
8	5	7.2663e+06	0	1	2	5	4
8	5	200	0	1	5	3	4
8	6	20864	0	1	2	1	0
8	6	48800	0	1	2	3	4
8	6	7.43014e+06	0	1	2	5	4
8	6	250	0	1	5	3	4
8	7	20288	0	1	2	1	0
8	7	45700	0	1	2	3	4
8	7	7.50797e+06	0	1	2	5	4
8	7	200	0	1	5	3	4
8	9	19072	0	1	2	1	0
8	9	49000	0	1	2	3	4
8	9	7.34413e+06	0	1	2	5	4
8	9	50	0	1	5	3	4
8	10	19904	0	1	2	1	0
8	10	48100	0	1	2	3	4
8	10	7.46291e+06	0	1	2	5	4
8	10	250	0	1	5	3	4
8	11	18816	0	1	2	1	0
8	11	44300	0	1	2	3	4
8	11	7.71277e+06	0	1	2	5	4
8	11	150	0	1	5	3	4
9	0	18560	0	1	2	1	0
9	0	51800	0	1	2	3	4
9	0	7.59398e+06	0	1	2	5	4
9	0	300	0	1	5	3	4
9	1	20416	0	1	2	1	0
9	1	51200	0	1	2	3	4
9	1	7.93805e+06	0	1	2	5	4
9	1	300	0	1	5	3	4
9	2	19712	0	1	2	1	0
9	2	48100	0	1	2	3	4
9	2	7.40557e+06	0	1	2	5	4
9	2	50	0	1	5	3	4
9	3	20352	0	1	2	1	0
9	3	46100	0	1	2	3	4
9	3	7.70458e+06	0	1	2	5	4
9	3	250	0	1	5	3	4
9	4	18048	0	1	2	1	0
9	4	48800	0	1	2	3	4
9	4	7.43424e+06	0	1	2	5	4
9	4	50	0	1	5	3	4
9	5	20032	0	1	2	1	0
9	5	49100	0	1	2	3	4
9	5	7.44653e+06	0	1	2	5	4
9	5	100	0	1	5	3	4
9	6	19776	0	1	2	1	0
9	6	46700	0	1	2	3	4
9	6	7.62675e+06	0	1	2	5	4
9	6	400	0	1	5	3	4
9	7	20672	0	1	2	1	0
9	7	48000	0	1	2	3	4
9	7	7.5735e+06	0	1	2	5	4
9	7	150	0	1	5	3	4
9	8	21440	0	1	2	1	0
9	8	49400	0	1	2	3	4
9	8	7.33184e+06	0	1	2	5	4
9	8	550	0	1	5	3	4
9	10	19264	0	1	2	1	0
9	10	47900	0	1	2	3	4
9	10	7.27859e+06	0	1	2	5	4
9	11	18688	0	1	2	1	0
9	11	46000	0	1	2	3	4
9	11	7.38918e+06	0	1	2	5	4
9	11	50	0	1	5	3	4
10	0	19648	0	1	2	1	0
10	0	45500	0	1	2	3	4
10	0	7.60627e+06	0	1	2	5	4
10	0	100	0	1	5	3	4
10	1	20160	0	1	2	1	0
10	1	45500	0	1	2	3	4
10	1	7.52845e+06	0	1	2	5	4
10	1	150	0	1	5	3	4
10	2	22016	0	1	2	1	0
10	2	48600	0	1	2	3	4
10	2	7.72096e+06	0	1	2	5	4
10	2	50	0	1	5	3	4
10	3	20736	0	1	2	1	0
10	3	49900	0	1	2	3	4
10	3	7.42605e+06	0	1	2	5	4
10	3	50	0	1	5	3	4
10	4	18944	0	1	2	1	0
10	4	51000	0	1	2	3	4
10	4	7.59808e+06	0	1	2	5	4
10	4	300	0	1	5	3	4
10	5	19904	0	1	2	1	0
10	5	48500	0	1	2	3	4
10	5	7.52845e+06	0	1	2	5	4
10	5	150	0	1	5	3	4
10	6	19264	0	1	2	1	0
10	6	49000	0	1	2	3	4
10	6	7.84384e+06	0	1	2	5	4
10	6	150	0	1	5	3	4
10	7	20224	0	1	2	1	0
10	7	45700	0	1	2	3	4
10	7	7.53254e+06	0	1	2	5	4
10	7	250	0	1	5	3	4
10	8	20736	0	1	2	1	0
10	8	45100	0	1	2	3	4
10	8	7.52026e+06	0	1	2	5	4
10	8	200	0	1	5	3	4
10	9	21120	0	1	2	1	0
10	9	48200	0	1	2	3	4
10	9	7.52026e+06	0	1	2	5	4
10	9	100	0	1	5	3	4
10	11	18944	0	1	2	1	0
10	11	50000	0	1	2	3	4
10	11	7.68819e+06	0	1	2	5	4
10	11	200	0	1	5	3	4
11	0	20544	0	1	2	1	0
11	0	47900	0	1	2	3	4
11	0	7.49978e+06	0	1	2	5	4
11	0	200	0	1	5	3	4
11	1	21504	0	1	2	1	0
11	1	50100	0	1	2	3	4
11	1	7.39328e+06	0	1	2	5	4
11	1	150	0	1	5	3	4
11	2	17728	0	1	2	1	0
11	2	48100	0	1	2	3	4
11	2	7.20486e+06	0	1	2	5	4
11	2	100	0	1	5	3	4
11	3	19584	0	1	2	1	0
11	3	48800	0	1	2	3	4
11	3	7.38099e+06	0	1	2	5	4
11	3	150	0	1	5	3	4
11	4	18880	0	1	2	1	0
11	4	48400	0	1	2	3	4
11	4	7.79059e+06	0	1	2	5	4
11	4	150	0	1	5	3	4
11	5	22400	0	1	2	1	0
11	5	48800	0	1	2	3	4
11	5	7.38918e+06	0	1	2	5	4
11	5	200	0	1	5	3	4
11	6	19584	0	1	2	1	0
11	6	48700	0	1	2	3	4
11	6	7.44653e+06	0	1	2	5	4
11	6	250	0	1	5	3	4
11	7	19584	0	1	2	1	0
11	7	47100	0	1	2	3	4
11	7	7.62266e+06	0	1	2	5	4
11	7	100	0	1	5	3	4
11	8	20160	0	1	2	1	0
11	8	45700	0	1	2	3	4
11	8	7.4793e+06	0	1	2	5	4
11	8	100	0	1	5	3	4
11	9	17216	0	1	2	1	0
11	9	47700	0	1	2	3	4
11	9	7.44653e+06	0	1	2	5	4
11	9	50	0	1	5	3	4
11	10	19328	0	1	2	1	0
11	10	46600	0	1	2	3	4
11	10	7.59808e+06	0	1	2	5	4
11	10	250	0	1	5	3	4
