100000	100000	100000	10000	1000	1000
0	1	8448	0	1	2	1	0
0	1	17800	0	1	2	3	4
0	1	2.75251e+06	0	1	2	5	4
0	1	50	0	1	5	3	4
0	2	5888	0	1	2	1	0
0	2	18700	0	1	2	3	4
0	2	2.54771e+06	0	1	2	5	4
0	2	150	0	1	5	3	4
0	3	7424	0	1	2	1	0
0	3	15400	0	1	2	3	4
0	3	2.61734e+06	0	1	2	5	4
0	4	5824	0	1	2	1	0
0	4	18600	0	1	2	3	4
0	4	2.67469e+06	0	1	2	5	4
0	5	8000	0	1	2	1	0
0	5	17200	0	1	2	3	4
0	5	2.72794e+06	0	1	2	5	4
0	6	6528	0	1	2	1	0
0	6	15500	0	1	2	3	4
0	6	2.64192e+06	0	1	2	5	4
0	6	50	0	1	5	3	4
0	7	6784	0	1	2	1	0
0	7	14600	0	1	2	3	4
0	7	2.57638e+06	0	1	2	5	4
0	8	7360	0	1	2	1	0
0	8	16200	0	1	2	3	4
0	8	2.51904e+06	0	1	2	5	4
0	8	100	0	1	5	3	4
0	9	7040	0	1	2	1	0
0	9	14200	0	1	2	3	4
0	9	2.42483e+06	0	1	2	5	4
0	10	7360	0	1	2	1	0
0	10	16000	0	1	2	3	4
0	10	2.77299e+06	0	1	2	5	4
0	10	100	0	1	5	3	4
0	11	5568	0	1	2	1	0
0	11	16900	0	1	2	3	4
0	11	2.48218e+06	0	1	2	5	4
0	11	100	0	1	5	3	4
0	12	6336	0	1	2	1	0
0	12	18300	0	1	2	3	4
0	12	2.63782e+06	0	1	2	5	4
0	12	100	0	1	5	3	4
0	13	7104	0	1	2	1	0
0	13	13500	0	1	2	3	4
0	13	2.58048e+06	0	1	2	5	4
0	13	100	0	1	5	3	4
0	14	7232	0	1	2	1	0
0	14	15400	0	1	2	3	4
0	14	2.64602e+06	0	1	2	5	4
0	14	150	0	1	5	3	4
0	15	6848	0	1	2	1	0
0	15	17800	0	1	2	3	4
0	15	2.54771e+06	0	1	2	5	4
0	15	50	0	1	5	3	4
0	16	6720	0	1	2	1	0
0	16	16900	0	1	2	3	4
0	16	2.67469e+06	0	1	2	5	4
0	16	50	0	1	5	3	4
0	17	7744	0	1	2	1	0
0	17	14200	0	1	2	3	4
0	17	2.70336e+06	0	1	2	5	4
0	18	5888	0	1	2	1	0
0	18	16500	0	1	2	3	4
0	18	2.50266e+06	0	1	2	5	4
0	18	100	0	1	5	3	4
0	19	9216	0	1	2	1	0
0	19	17900	0	1	2	3	4
0	19	2.59686e+06	0	1	2	5	4
0	19	50	0	1	5	3	4
1	0	6784	0	1	2	1	0
1	0	16400	0	1	2	3	4
1	0	2.50675e+06	0	1	2	5	4
1	0	50	0	1	5	3	4
1	2	7424	0	1	2	1	0
1	2	15700	0	1	2	3	4
1	2	2.74432e+06	0	1	2	5	4
1	2	50	0	1	5	3	4
1	3	6592	0	1	2	1	0
1	3	17600	0	1	2	3	4
1	3	2.7607e+06	0	1	2	5	4
1	4	8128	0	1	2	1	0
1	4	14500	0	1	2	3	4
1	4	2.46579e+06	0	1	2	5	4
1	4	50	0	1	5	3	4
1	5	7360	0	1	2	1	0
1	5	14200	0	1	2	3	4
1	5	2.38797e+06	0	1	2	5	4
1	6	7680	0	1	2	1	0
1	6	15900	0	1	2	3	4
1	6	2.52723e+06	0	1	2	5	4
1	6	50	0	1	5	3	4
1	7	6016	0	1	2	1	0
1	7	17300	0	1	2	3	4
1	7	2.71565e+06	0	1	2	5	4
1	7	50	0	1	5	3	4
1	8	7488	0	1	2	1	0
1	8	16800	0	1	2	3	4
1	8	2.36339e+06	0	1	2	5	4
1	8	50	0	1	5	3	4
1	9	6592	0	1	2	1	0
1	9	17000	0	1	2	3	4
1	9	2.72384e+06	0	1	2	5	4
1	10	7424	0	1	2	1	0
1	10	16700	0	1	2	3	4
1	10	2.53542e+06	0	1	2	5	4
1	10	50	0	1	5	3	4
1	11	6720	0	1	2	1	0
1	11	17400	0	1	2	3	4
1	11	2.42074e+06	0	1	2	5	4
1	11	150	0	1	5	3	4
1	12	6784	0	1	2	1	0
1	12	18900	0	1	2	3	4
1	12	2.53133e+06	0	1	2	5	4
1	13	6912	0	1	2	1	0
1	13	15800	0	1	2	3	4
1	13	2.62554e+06	0	1	2	5	4
1	13	150	0	1	5	3	4
1	14	7040	0	1	2	1	0
1	14	16400	0	1	2	3	4
1	14	2.62554e+06	0	1	2	5	4
1	15	8064	0	1	2	1	0
1	15	14800	0	1	2	3	4
1	15	2.52723e+06	0	1	2	5	4
1	15	100	0	1	5	3	4
1	16	7040	0	1	2	1	0
1	16	15900	0	1	2	3	4
1	16	2.62554e+06	0	1	2	5	4
1	16	100	0	1	5	3	4
1	17	6528	0	1	2	1	0
1	17	15400	0	1	2	3	4
1	17	2.6624e+06	0	1	2	5	4
1	17	100	0	1	5	3	4
1	18	7424	0	1	2	1	0
1	18	18400	0	1	2	3	4
1	18	2.51904e+06	0	1	2	5	4
1	18	50	0	1	5	3	4
1	19	7232	0	1	2	1	0
1	19	17600	0	1	2	3	4
1	19	2.56819e+06	0	1	2	5	4
1	19	50	0	1	5	3	4
2	0	7808	0	1	2	1	0
2	0	17300	0	1	2	3	4
2	0	2.6583e+06	0	1	2	5	4
2	0	100	0	1	5	3	4
2	1	7168	0	1	2	1	0
2	1	17700	0	1	2	3	4
2	1	2.63782e+06	0	1	2	5	4
2	3	6208	0	1	2	1	0
2	3	15200	0	1	2	3	4
2	3	2.56e+06	0	1	2	5	4
2	4	6720	0	1	2	1	0
2	4	16600	0	1	2	3	4
2	4	2.52723e+06	0	1	2	5	4
2	4	50	0	1	5	3	4
2	5	7040	0	1	2	1	0
2	5	16400	0	1	2	3	4
2	5	2.54771e+06	0	1	2	5	4
2	6	7296	0	1	2	1	0
2	6	16600	0	1	2	3	4
2	6	2.42074e+06	0	1	2	5	4
2	6	50	0	1	5	3	4
2	7	7040	0	1	2	1	0
2	7	18500	0	1	2	3	4
2	7	2.4535e+06	0	1	2	5	4
2	8	6976	0	1	2	1	0
2	8	15800	0	1	2	3	4
2	8	2.49037e+06	0	1	2	5	4
2	8	50	0	1	5	3	4
2	9	6912	0	1	2	1	0
2	9	17600	0	1	2	3	4
2	9	2.54362e+06	0	1	2	5	4
2	9	100	0	1	5	3	4
2	10	6592	0	1	2	1	0
2	10	17200	0	1	2	3	4
2	10	2.42074e+06	0	1	2	5	4
2	10	150	0	1	5	3	4
2	11	5760	0	1	2	1	0
2	11	17100	0	1	2	3	4
2	11	2.40435e+06	0	1	2	5	4
2	11	50	0	1	5	3	4
2	12	6976	0	1	2	1	0
2	12	17100	0	1	2	3	4
2	12	2.81805e+06	0	1	2	5	4
2	12	50	0	1	5	3	4
2	13	6080	0	1	2	1	0
2	13	16400	0	1	2	3	4
2	13	2.83443e+06	0	1	2	5	4
2	13	50	0	1	5	3	4
2	14	6720	0	1	2	1	0
2	14	19000	0	1	2	3	4
2	14	2.55181e+06	0	1	2	5	4
2	14	100	0	1	5	3	4
2	15	5760	0	1	2	1	0
2	15	17100	0	1	2	3	4
2	15	2.6665e+06	0	1	2	5	4
2	15	100	0	1	5	3	4
2	16	7296	0	1	2	1	0
2	16	17600	0	1	2	3	4
2	16	2.4617e+06	0	1	2	5	4
2	16	100	0	1	5	3	4
2	17	5696	0	1	2	1	0
2	17	15400	0	1	2	3	4
2	17	2.58458e+06	0	1	2	5	4
2	17	50	0	1	5	3	4
2	18	5952	0	1	2	1	0
2	18	15900	0	1	2	3	4
2	18	2.64602e+06	0	1	2	5	4
2	19	7296	0	1	2	1	0
2	19	16900	0	1	2	3	4
2	19	2.56819e+06	0	1	2	5	4
2	19	50	0	1	5	3	4
3	0	5952	0	1	2	1	0
3	0	17500	0	1	2	3	4
3	0	2.6665e+06	0	1	2	5	4
3	0	100	0	1	5	3	4
3	1	7872	0	1	2	1	0
3	1	17700	0	1	2	3	4
3	1	2.60915e+06	0	1	2	5	4
3	1	100	0	1	5	3	4
3	2	7424	0	1	2	1	0
3	2	15800	0	1	2	3	4
3	2	2.49856e+06	0	1	2	5	4
3	4	6912	0	1	2	1	0
3	4	18300	0	1	2	3	4
3	4	2.58867e+06	0	1	2	5	4
3	4	150	0	1	5	3	4
3	5	7168	0	1	2	1	0
3	5	14300	0	1	2	3	4
3	5	2.6624e+06	0	1	2	5	4
3	5	50	0	1	5	3	4
3	6	7232	0	1	2	1	0
3	6	18200	0	1	2	3	4
3	6	2.49446e+06	0	1	2	5	4
3	6	50	0	1	5	3	4
3	7	6144	0	1	2	1	0
3	7	15900	0	1	2	3	4
3	7	2.77709e+06	0	1	2	5	4
3	7	150	0	1	5	3	4
3	8	6528	0	1	2	1	0
3	8	16200	0	1	2	3	4
3	8	2.67059e+06	0	1	2	5	4
3	8	50	0	1	5	3	4
3	9	5952	0	1	2	1	0
3	9	18000	0	1	2	3	4
3	9	2.91635e+06	0	1	2	5	4
3	9	50	0	1	5	3	4
3	10	6976	0	1	2	1	0
3	10	16900	0	1	2	3	4
3	10	2.67878e+06	0	1	2	5	4
3	10	50	0	1	5	3	4
3	11	5696	0	1	2	1	0
3	11	17900	0	1	2	3	4
3	11	2.63373e+06	0	1	2	5	4
3	12	7296	0	1	2	1	0
3	12	14900	0	1	2	3	4
3	12	2.55181e+06	0	1	2	5	4
3	12	50	0	1	5	3	4
3	13	7552	0	1	2	1	0
3	13	17300	0	1	2	3	4
3	13	2.51904e+06	0	1	2	5	4
3	13	100	0	1	5	3	4
3	14	6464	0	1	2	1	0
3	14	18800	0	1	2	3	4
3	14	2.67469e+06	0	1	2	5	4
3	14	50	0	1	5	3	4
3	15	6208	0	1	2	1	0
3	15	15500	0	1	2	3	4
3	15	2.64192e+06	0	1	2	5	4
3	15	50	0	1	5	3	4
3	16	7296	0	1	2	1	0
3	16	19300	0	1	2	3	4
3	16	2.68288e+06	0	1	2	5	4
3	16	100	0	1	5	3	4
3	17	7616	0	1	2	1	0
3	17	16300	0	1	2	3	4
3	17	2.54362e+06	0	1	2	5	4
3	17	150	0	1	5	3	4
3	18	6912	0	1	2	1	0
3	18	17800	0	1	2	3	4
3	18	2.4617e+06	0	1	2	5	4
3	19	6912	0	1	2	1	0
3	19	17700	0	1	2	3	4
3	19	2.67469e+06	0	1	2	5	4
4	0	6528	0	1	2	1	0
4	0	16700	0	1	2	3	4
4	0	2.70336e+06	0	1	2	5	4
4	1	7168	0	1	2	1	0
4	1	18500	0	1	2	3	4
4	1	2.6583e+06	0	1	2	5	4
4	1	50	0	1	5	3	4
4	2	6848	0	1	2	1	0
4	2	15900	0	1	2	3	4
4	2	2.60096e+06	0	1	2	5	4
4	2	50	0	1	5	3	4
4	3	6464	0	1	2	1	0
4	3	13000	0	1	2	3	4
4	3	2.53952e+06	0	1	2	5	4
4	3	150	0	1	5	3	4
4	5	6592	0	1	2	1	0
4	5	16600	0	1	2	3	4
4	5	2.5641e+06	0	1	2	5	4
4	5	100	0	1	5	3	4
4	6	6016	0	1	2	1	0
4	6	19000	0	1	2	3	4
4	6	2.60506e+06	0	1	2	5	4
4	6	100	0	1	5	3	4
4	7	7808	0	1	2	1	0
4	7	13500	0	1	2	3	4
4	7	2.68698e+06	0	1	2	5	4
4	7	100	0	1	5	3	4
4	8	7168	0	1	2	1	0
4	8	16200	0	1	2	3	4
4	8	2.69107e+06	0	1	2	5	4
4	9	6144	0	1	2	1	0
4	9	18100	0	1	2	3	4
4	9	2.56e+06	0	1	2	5	4
4	9	50	0	1	5	3	4
4	10	5888	0	1	2	1	0
4	10	15200	0	1	2	3	4
4	10	2.40026e+06	0	1	2	5	4
4	10	100	0	1	5	3	4
4	11	7104	0	1	2	1	0
4	11	18200	0	1	2	3	4
4	11	2.51085e+06	0	1	2	5	4
4	11	50	0	1	5	3	4
4	12	6208	0	1	2	1	0
4	12	18000	0	1	2	3	4
4	12	2.58458e+06	0	1	2	5	4
4	12	50	0	1	5	3	4
4	13	7104	0	1	2	1	0
4	13	15700	0	1	2	3	4
4	13	2.60506e+06	0	1	2	5	4
4	13	200	0	1	5	3	4
4	14	6912	0	1	2	1	0
4	14	15500	0	1	2	3	4
4	14	2.54771e+06	0	1	2	5	4
4	15	7424	0	1	2	1	0
4	15	16900	0	1	2	3	4
4	15	2.44122e+06	0	1	2	5	4
4	15	150	0	1	5	3	4
4	16	6592	0	1	2	1	0
4	16	17000	0	1	2	3	4
4	16	2.53133e+06	0	1	2	5	4
4	16	200	0	1	5	3	4
4	17	6720	0	1	2	1	0
4	17	15000	0	1	2	3	4
4	17	2.71974e+06	0	1	2	5	4
4	17	100	0	1	5	3	4
4	18	6400	0	1	2	1	0
4	18	16800	0	1	2	3	4
4	18	2.53542e+06	0	1	2	5	4
4	18	50	0	1	5	3	4
4	19	7104	0	1	2	1	0
4	19	16700	0	1	2	3	4
4	19	2.71974e+06	0	1	2	5	4
4	19	100	0	1	5	3	4
5	0	5952	0	1	2	1	0
5	0	16100	0	1	2	3	4
5	0	2.71565e+06	0	1	2	5	4
5	0	100	0	1	5	3	4
5	1	7680	0	1	2	1	0
5	1	16100	0	1	2	3	4
5	1	2.60506e+06	0	1	2	5	4
5	2	6144	0	1	2	1	0
5	2	15900	0	1	2	3	4
5	2	2.51085e+06	0	1	2	5	4
5	3	7808	0	1	2	1	0
5	3	16400	0	1	2	3	4
5	3	2.5559e+06	0	1	2	5	4
5	3	50	0	1	5	3	4
5	4	5696	0	1	2	1	0
5	4	16500	0	1	2	3	4
5	4	2.62554e+06	0	1	2	5	4
5	4	50	0	1	5	3	4
5	6	6272	0	1	2	1	0
5	6	17700	0	1	2	3	4
5	6	2.51904e+06	0	1	2	5	4
5	7	6976	0	1	2	1	0
5	7	17500	0	1	2	3	4
5	7	2.49037e+06	0	1	2	5	4
5	7	100	0	1	5	3	4
5	8	6464	0	1	2	1	0
5	8	17600	0	1	2	3	4
5	8	2.53542e+06	0	1	2	5	4
5	8	100	0	1	5	3	4
5	9	7168	0	1	2	1	0
5	9	15500	0	1	2	3	4
5	9	2.52314e+06	0	1	2	5	4
5	9	50	0	1	5	3	4
5	10	6144	0	1	2	1	0
5	10	16400	0	1	2	3	4
5	10	2.78938e+06	0	1	2	5	4
5	11	6336	0	1	2	1	0
5	11	18100	0	1	2	3	4
5	11	2.71974e+06	0	1	2	5	4
5	11	50	0	1	5	3	4
5	12	5824	0	1	2	1	0
5	12	16500	0	1	2	3	4
5	12	2.78528e+06	0	1	2	5	4
5	12	50	0	1	5	3	4
5	13	6400	0	1	2	1	0
5	13	15400	0	1	2	3	4
5	13	2.6583e+06	0	1	2	5	4
5	14	6144	0	1	2	1	0
5	14	18500	0	1	2	3	4
5	14	2.4576e+06	0	1	2	5	4
5	14	50	0	1	5	3	4
5	15	6592	0	1	2	1	0
5	15	15300	0	1	2	3	4
5	15	2.52723e+06	0	1	2	5	4
5	15	100	0	1	5	3	4
5	16	5952	0	1	2	1	0
5	16	17000	0	1	2	3	4
5	16	2.67878e+06	0	1	2	5	4
5	16	50	0	1	5	3	4
5	17	6720	0	1	2	1	0
5	17	16300	0	1	2	3	4
5	17	2.72794e+06	0	1	2	5	4
5	17	50	0	1	5	3	4
5	18	6528	0	1	2	1	0
5	18	21900	0	1	2	3	4
5	18	2.58048e+06	0	1	2	5	4
5	18	50	0	1	5	3	4
5	19	7168	0	1	2	1	0
5	19	16300	0	1	2	3	4
5	19	2.54771e+06	0	1	2	5	4
6	0	7616	0	1	2	1	0
6	0	16300	0	1	2	3	4
6	0	2.49856e+06	0	1	2	5	4
6	0	100	0	1	5	3	4
6	1	6016	0	1	2	1	0
6	1	18600	0	1	2	3	4
6	1	2.62554e+06	0	1	2	5	4
6	1	100	0	1	5	3	4
6	2	7680	0	1	2	1	0
6	2	17700	0	1	2	3	4
6	2	2.72794e+06	0	1	2	5	4
6	2	200	0	1	5	3	4
6	3	8448	0	1	2	1	0
6	3	17700	0	1	2	3	4
6	3	2.4576e+06	0	1	2	5	4
6	3	50	0	1	5	3	4
6	4	6464	0	1	2	1	0
6	4	17200	0	1	2	3	4
6	4	2.51085e+06	0	1	2	5	4
6	4	150	0	1	5	3	4
6	5	6976	0	1	2	1	0
6	5	15700	0	1	2	3	4
6	5	2.58458e+06	0	1	2	5	4
6	5	50	0	1	5	3	4
6	7	6336	0	1	2	1	0
6	7	18500	0	1	2	3	4
6	7	2.69926e+06	0	1	2	5	4
6	8	7680	0	1	2	1	0
6	8	15200	0	1	2	3	4
6	8	2.7607e+06	0	1	2	5	4
6	8	50	0	1	5	3	4
6	9	7104	0	1	2	1	0
6	9	15900	0	1	2	3	4
6	9	2.70336e+06	0	1	2	5	4
6	10	6848	0	1	2	1	0
6	10	17200	0	1	2	3	4
6	10	2.49856e+06	0	1	2	5	4
6	11	8000	0	1	2	1	0
6	11	17500	0	1	2	3	4
6	11	2.47398e+06	0	1	2	5	4
6	11	100	0	1	5	3	4
6	12	7040	0	1	2	1	0
6	12	15700	0	1	2	3	4
6	12	2.49446e+06	0	1	2	5	4
6	12	50	0	1	5	3	4
6	13	8448	0	1	2	1	0
6	13	17600	0	1	2	3	4
6	13	2.4617e+06	0	1	2	5	4
6	14	7104	0	1	2	1	0
6	14	16000	0	1	2	3	4
6	14	2.54771e+06	0	1	2	5	4
6	14	150	0	1	5	3	4
6	15	7168	0	1	2	1	0
6	15	17800	0	1	2	3	4
6	15	2.65421e+06	0	1	2	5	4
6	16	7232	0	1	2	1	0
6	16	18500	0	1	2	3	4
6	16	2.72794e+06	0	1	2	5	4
6	16	50	0	1	5	3	4
6	17	7040	0	1	2	1	0
6	17	13700	0	1	2	3	4
6	17	2.43302e+06	0	1	2	5	4
6	17	50	0	1	5	3	4
6	18	7488	0	1	2	1	0
6	18	18300	0	1	2	3	4
6	18	2.64192e+06	0	1	2	5	4
6	18	50	0	1	5	3	4
6	19	6528	0	1	2	1	0
6	19	17300	0	1	2	3	4
6	19	2.54362e+06	0	1	2	5	4
6	19	100	0	1	5	3	4
7	0	7488	0	1	2	1	0
7	0	15300	0	1	2	3	4
7	0	2.65011e+06	0	1	2	5	4
7	0	100	0	1	5	3	4
7	1	6592	0	1	2	1	0
7	1	16000	0	1	2	3	4
7	1	2.52314e+06	0	1	2	5	4
7	1	150	0	1	5	3	4
7	2	7232	0	1	2	1	0
7	2	15300	0	1	2	3	4
7	2	2.72384e+06	0	1	2	5	4
7	2	150	0	1	5	3	4
7	3	6976	0	1	2	1	0
7	3	15200	0	1	2	3	4
7	3	2.52723e+06	0	1	2	5	4
7	3	50	0	1	5	3	4
7	4	8576	0	1	2	1	0
7	4	17100	0	1	2	3	4
7	4	2.6665e+06	0	1	2	5	4
7	4	150	0	1	5	3	4
7	5	6336	0	1	2	1	0
7	5	15700	0	1	2	3	4
7	5	2.44941e+06	0	1	2	5	4
7	5	50	0	1	5	3	4
7	6	6784	0	1	2	1	0
7	6	17100	0	1	2	3	4
7	6	2.60096e+06	0	1	2	5	4
7	6	100	0	1	5	3	4
7	8	7808	0	1	2	1	0
7	8	17000	0	1	2	3	4
7	8	2.59277e+06	0	1	2	5	4
7	8	50	0	1	5	3	4
7	9	8000	0	1	2	1	0
7	9	14900	0	1	2	3	4
7	9	2.42893e+06	0	1	2	5	4
7	9	50	0	1	5	3	4
7	10	7232	0	1	2	1	0
7	10	16900	0	1	2	3	4
7	10	2.70336e+06	0	1	2	5	4
7	10	150	0	1	5	3	4
7	11	6528	0	1	2	1	0
7	11	16200	0	1	2	3	4
7	11	2.70746e+06	0	1	2	5	4
7	12	5632	0	1	2	1	0
7	12	15700	0	1	2	3	4
7	12	2.71974e+06	0	1	2	5	4
7	12	100	0	1	5	3	4
7	13	6528	0	1	2	1	0
7	13	16100	0	1	2	3	4
7	13	2.63782e+06	0	1	2	5	4
7	13	50	0	1	5	3	4
7	14	6784	0	1	2	1	0
7	14	14300	0	1	2	3	4
7	14	2.53133e+06	0	1	2	5	4
7	14	50	0	1	5	3	4
7	15	8192	0	1	2	1	0
7	15	18000	0	1	2	3	4
7	15	2.57638e+06	0	1	2	5	4
7	16	5120	0	1	2	1	0
7	16	17100	0	1	2	3	4
7	16	2.42074e+06	0	1	2	5	4
7	16	50	0	1	5	3	4
7	17	8064	0	1	2	1	0
7	17	19100	0	1	2	3	4
7	17	2.69107e+06	0	1	2	5	4
7	17	50	0	1	5	3	4
7	18	6592	0	1	2	1	0
7	18	16600	0	1	2	3	4
7	18	2.56819e+06	0	1	2	5	4
7	18	50	0	1	5	3	4
7	19	7040	0	1	2	1	0
7	19	17800	0	1	2	3	4
7	19	2.67469e+06	0	1	2	5	4
8	0	7488	0	1	2	1	0
8	0	18700	0	1	2	3	4
8	0	2.60506e+06	0	1	2	5	4
8	1	6400	0	1	2	1	0
8	1	15100	0	1	2	3	4
8	1	2.59277e+06	0	1	2	5	4
8	1	50	0	1	5	3	4
8	2	6912	0	1	2	1	0
8	2	15500	0	1	2	3	4
8	2	2.55181e+06	0	1	2	5	4
8	2	100	0	1	5	3	4
8	3	7168	0	1	2	1	0
8	3	16800	0	1	2	3	4
8	3	2.6583e+06	0	1	2	5	4
8	3	100	0	1	5	3	4
8	4	7424	0	1	2	1	0
8	4	17600	0	1	2	3	4
8	4	2.74022e+06	0	1	2	5	4
8	4	50	0	1	5	3	4
8	5	7424	0	1	2	1	0
8	5	17400	0	1	2	3	4
8	5	2.63373e+06	0	1	2	5	4
8	5	50	0	1	5	3	4
8	6	7168	0	1	2	1	0
8	6	15300	0	1	2	3	4
8	6	2.57638e+06	0	1	2	5	4
8	6	150	0	1	5	3	4
8	7	7296	0	1	2	1	0
8	7	18000	0	1	2	3	4
8	7	2.53133e+06	0	1	2	5	4
8	7	50	0	1	5	3	4
8	9	7296	0	1	2	1	0
8	9	15700	0	1	2	3	4
8	9	2.56e+06	0	1	2	5	4
8	9	50	0	1	5	3	4
8	10	6656	0	1	2	1	0
8	10	16500	0	1	2	3	4
8	10	2.60096e+06	0	1	2	5	4
8	10	100	0	1	5	3	4
8	11	7296	0	1	2	1	0
8	11	17200	0	1	2	3	4
8	11	2.71155e+06	0	1	2	5	4
8	11	100	0	1	5	3	4
8	12	7104	0	1	2	1	0
8	12	16900	0	1	2	3	4
8	12	2.31424e+06	0	1	2	5	4
8	12	150	0	1	5	3	4
8	13	6720	0	1	2	1	0
8	13	17100	0	1	2	3	4
8	13	2.6665e+06	0	1	2	5	4
8	13	100	0	1	5	3	4
8	14	6784	0	1	2	1	0
8	14	17300	0	1	2	3	4
8	14	2.58867e+06	0	1	2	5	4
8	14	50	0	1	5	3	4
8	15	7232	0	1	2	1	0
8	15	16100	0	1	2	3	4
8	15	2.50266e+06	0	1	2	5	4
8	15	100	0	1	5	3	4
8	16	5952	0	1	2	1	0
8	16	18100	0	1	2	3	4
8	16	2.41254e+06	0	1	2	5	4
8	16	50	0	1	5	3	4
8	17	7104	0	1	2	1	0
8	17	17800	0	1	2	3	4
8	17	2.79757e+06	0	1	2	5	4
8	17	100	0	1	5	3	4
8	18	6592	0	1	2	1	0
8	18	17400	0	1	2	3	4
8	18	2.61325e+06	0	1	2	5	4
8	18	100	0	1	5	3	4
8	19	6656	0	1	2	1	0
8	19	16000	0	1	2	3	4
8	19	2.61325e+06	0	1	2	5	4
8	19	50	0	1	5	3	4
9	0	6592	0	1	2	1	0
9	0	15800	0	1	2	3	4
9	0	2.68288e+06	0	1	2	5	4
9	0	50	0	1	5	3	4
9	1	7040	0	1	2	1	0
9	1	15100	0	1	2	3	4
9	1	2.60506e+06	0	1	2	5	4
9	1	100	0	1	5	3	4
9	2	7552	0	1	2	1	0
9	2	14400	0	1	2	3	4
9	2	2.67059e+06	0	1	2	5	4
9	2	150	0	1	5	3	4
9	3	6784	0	1	2	1	0
9	3	15400	0	1	2	3	4
9	3	2.82214e+06	0	1	2	5	4
9	3	100	0	1	5	3	4
9	4	7488	0	1	2	1	0
9	4	17400	0	1	2	3	4
9	4	2.70746e+06	0	1	2	5	4
9	4	100	0	1	5	3	4
9	5	6656	0	1	2	1	0
9	5	17800	0	1	2	3	4
9	5	2.73613e+06	0	1	2	5	4
9	5	50	0	1	5	3	4
9	6	7296	0	1	2	1	0
9	6	14700	0	1	2	3	4
9	6	2.68698e+06	0	1	2	5	4
9	6	50	0	1	5	3	4
9	7	8320	0	1	2	1	0
9	7	17300	0	1	2	3	4
9	7	2.6583e+06	0	1	2	5	4
9	7	150	0	1	5	3	4
9	8	8064	0	1	2	1	0
9	8	17100	0	1	2	3	4
9	8	2.50266e+06	0	1	2	5	4
9	10	7360	0	1	2	1	0
9	10	16500	0	1	2	3	4
9	10	2.60506e+06	0	1	2	5	4
9	11	7104	0	1	2	1	0
9	11	14800	0	1	2	3	4
9	11	2.77709e+06	0	1	2	5	4
9	12	7168	0	1	2	1	0
9	12	17800	0	1	2	3	4
9	12	2.64192e+06	0	1	2	5	4
9	13	6720	0	1	2	1	0
9	13	17800	0	1	2	3	4
9	13	2.64192e+06	0	1	2	5	4
9	14	6912	0	1	2	1	0
9	14	16600	0	1	2	3	4
9	14	2.6624e+06	0	1	2	5	4
9	15	6208	0	1	2	1	0
9	15	16300	0	1	2	3	4
9	15	2.58867e+06	0	1	2	5	4
9	15	50	0	1	5	3	4
9	16	7296	0	1	2	1	0
9	16	15900	0	1	2	3	4
9	16	2.58048e+06	0	1	2	5	4
9	17	7296	0	1	2	1	0
9	17	17200	0	1	2	3	4
9	17	2.62554e+06	0	1	2	5	4
9	17	50	0	1	5	3	4
9	18	7168	0	1	2	1	0
9	18	17200	0	1	2	3	4
9	18	2.59277e+06	0	1	2	5	4
9	18	50	0	1	5	3	4
9	19	7936	0	1	2	1	0
9	19	16700	0	1	2	3	4
9	19	2.60096e+06	0	1	2	5	4
9	19	50	0	1	5	3	4
10	0	7424	0	1	2	1	0
10	0	13200	0	1	2	3	4
10	0	2.62144e+06	0	1	2	5	4
10	0	150	0	1	5	3	4
10	1	6464	0	1	2	1	0
10	1	14700	0	1	2	3	4
10	1	2.73203e+06	0	1	2	5	4
10	2	6848	0	1	2	1	0
10	2	14200	0	1	2	3	4
10	2	2.62144e+06	0	1	2	5	4
10	2	50	0	1	5	3	4
10	3	6912	0	1	2	1	0
10	3	15700	0	1	2	3	4
10	3	2.5559e+06	0	1	2	5	4
10	3	50	0	1	5	3	4
10	4	6208	0	1	2	1	0
10	4	16100	0	1	2	3	4
10	4	2.49446e+06	0	1	2	5	4
10	4	100	0	1	5	3	4
10	5	7872	0	1	2	1	0
10	5	18700	0	1	2	3	4
10	5	2.71974e+06	0	1	2	5	4
10	5	50	0	1	5	3	4
10	6	6784	0	1	2	1	0
10	6	16500	0	1	2	3	4
10	6	2.72384e+06	0	1	2	5	4
10	6	50	0	1	5	3	4
10	7	7168	0	1	2	1	0
10	7	17600	0	1	2	3	4
10	7	2.70336e+06	0	1	2	5	4
10	8	6592	0	1	2	1	0
10	8	16800	0	1	2	3	4
10	8	2.72794e+06	0	1	2	5	4
10	9	7808	0	1	2	1	0
10	9	16600	0	1	2	3	4
10	9	2.53133e+06	0	1	2	5	4
10	9	50	0	1	5	3	4
10	11	7232	0	1	2	1	0
10	11	17500	0	1	2	3	4
10	11	2.72384e+06	0	1	2	5	4
10	11	50	0	1	5	3	4
10	12	5696	0	1	2	1	0
10	12	14600	0	1	2	3	4
10	12	2.74022e+06	0	1	2	5	4
10	12	150	0	1	5	3	4
10	13	6592	0	1	2	1	0
10	13	17700	0	1	2	3	4
10	13	2.5559e+06	0	1	2	5	4
10	13	50	0	1	5	3	4
10	14	7296	0	1	2	1	0
10	14	14800	0	1	2	3	4
10	14	2.73613e+06	0	1	2	5	4
10	15	6976	0	1	2	1	0
10	15	17700	0	1	2	3	4
10	15	2.49446e+06	0	1	2	5	4
10	15	100	0	1	5	3	4
10	16	6656	0	1	2	1	0
10	16	16600	0	1	2	3	4
10	16	2.7689e+06	0	1	2	5	4
10	16	50	0	1	5	3	4
10	17	5888	0	1	2	1	0
10	17	15700	0	1	2	3	4
10	17	2.63373e+06	0	1	2	5	4
10	18	6976	0	1	2	1	0
10	18	16200	0	1	2	3	4
10	18	2.57229e+06	0	1	2	5	4
10	18	50	0	1	5	3	4
10	19	6784	0	1	2	1	0
10	19	15600	0	1	2	3	4
10	19	2.91226e+06	0	1	2	5	4
10	19	100	0	1	5	3	4
11	0	6720	0	1	2	1	0
11	0	19100	0	1	2	3	4
11	0	2.58458e+06	0	1	2	5	4
11	0	200	0	1	5	3	4
11	1	7424	0	1	2	1	0
11	1	15600	0	1	2	3	4
11	1	2.49037e+06	0	1	2	5	4
11	2	5568	0	1	2	1	0
11	2	15600	0	1	2	3	4
11	2	2.61325e+06	0	1	2	5	4
11	3	7424	0	1	2	1	0
11	3	15900	0	1	2	3	4
11	3	2.71155e+06	0	1	2	5	4
11	4	5952	0	1	2	1	0
11	4	19000	0	1	2	3	4
11	4	2.60915e+06	0	1	2	5	4
11	4	150	0	1	5	3	4
11	5	6912	0	1	2	1	0
11	5	14800	0	1	2	3	4
11	5	2.61325e+06	0	1	2	5	4
11	5	100	0	1	5	3	4
11	6	5888	0	1	2	1	0
11	6	16500	0	1	2	3	4
11	6	2.74022e+06	0	1	2	5	4
11	7	7552	0	1	2	1	0
11	7	15900	0	1	2	3	4
11	7	2.83034e+06	0	1	2	5	4
11	8	7296	0	1	2	1	0
11	8	17100	0	1	2	3	4
11	8	2.58867e+06	0	1	2	5	4
11	8	100	0	1	5	3	4
11	9	6400	0	1	2	1	0
11	9	17800	0	1	2	3	4
11	9	2.52314e+06	0	1	2	5	4
11	9	50	0	1	5	3	4
11	10	7680	0	1	2	1	0
11	10	15600	0	1	2	3	4
11	10	2.54362e+06	0	1	2	5	4
11	10	100	0	1	5	3	4
11	12	7424	0	1	2	1	0
11	12	16400	0	1	2	3	4
11	12	2.59277e+06	0	1	2	5	4
11	12	100	0	1	5	3	4
11	13	6848	0	1	2	1	0
11	13	18700	0	1	2	3	4
11	13	2.58458e+06	0	1	2	5	4
11	13	50	0	1	5	3	4
11	14	6400	0	1	2	1	0
11	14	14600	0	1	2	3	4
11	14	2.80986e+06	0	1	2	5	4
11	14	200	0	1	5	3	4
11	15	5696	0	1	2	1	0
11	15	17800	0	1	2	3	4
11	15	2.43302e+06	0	1	2	5	4
11	15	50	0	1	5	3	4
11	16	7552	0	1	2	1	0
11	16	17500	0	1	2	3	4
11	16	2.71155e+06	0	1	2	5	4
11	16	100	0	1	5	3	4
11	17	6784	0	1	2	1	0
11	17	15600	0	1	2	3	4
11	17	2.72384e+06	0	1	2	5	4
11	17	100	0	1	5	3	4
11	18	5952	0	1	2	1	0
11	18	16800	0	1	2	3	4
11	18	2.6665e+06	0	1	2	5	4
11	19	7232	0	1	2	1	0
11	19	15100	0	1	2	3	4
11	19	2.56e+06	0	1	2	5	4
12	0	8000	0	1	2	1	0
12	0	18400	0	1	2	3	4
12	0	2.64192e+06	0	1	2	5	4
12	0	150	0	1	5	3	4
12	1	8512	0	1	2	1	0
12	1	15900	0	1	2	3	4
12	1	2.50675e+06	0	1	2	5	4
12	1	50	0	1	5	3	4
12	2	6784	0	1	2	1	0
12	2	14600	0	1	2	3	4
12	2	2.56e+06	0	1	2	5	4
12	2	100	0	1	5	3	4
12	3	6144	0	1	2	1	0
12	3	16800	0	1	2	3	4
12	3	2.53542e+06	0	1	2	5	4
12	3	150	0	1	5	3	4
12	4	6720	0	1	2	1	0
12	4	15600	0	1	2	3	4
12	4	2.63373e+06	0	1	2	5	4
12	5	5760	0	1	2	1	0
12	5	16100	0	1	2	3	4
12	5	2.53542e+06	0	1	2	5	4
12	6	7168	0	1	2	1	0
12	6	17500	0	1	2	3	4
12	6	2.68698e+06	0	1	2	5	4
12	7	6784	0	1	2	1	0
12	7	16300	0	1	2	3	4
12	7	2.57638e+06	0	1	2	5	4
12	7	100	0	1	5	3	4
12	8	6528	0	1	2	1	0
12	8	15300	0	1	2	3	4
12	8	2.72794e+06	0	1	2	5	4
12	9	7040	0	1	2	1	0
12	9	16600	0	1	2	3	4
12	9	2.36339e+06	0	1	2	5	4
12	10	6848	0	1	2	1	0
12	10	16600	0	1	2	3	4
12	10	2.49446e+06	0	1	2	5	4
12	10	150	0	1	5	3	4
12	11	8256	0	1	2	1	0
12	11	15100	0	1	2	3	4
12	11	2.82624e+06	0	1	2	5	4
12	11	50	0	1	5	3	4
12	13	6976	0	1	2	1	0
12	13	14800	0	1	2	3	4
12	13	2.69107e+06	0	1	2	5	4
12	13	50	0	1	5	3	4
12	14	6912	0	1	2	1	0
12	14	16900	0	1	2	3	4
12	14	2.67059e+06	0	1	2	5	4
12	14	50	0	1	5	3	4
12	15	7872	0	1	2	1	0
12	15	15500	0	1	2	3	4
12	15	2.71155e+06	0	1	2	5	4
12	15	100	0	1	5	3	4
12	16	7424	0	1	2	1	0
12	16	16500	0	1	2	3	4
12	16	2.56819e+06	0	1	2	5	4
12	17	7104	0	1	2	1	0
12	17	17000	0	1	2	3	4
12	17	2.54771e+06	0	1	2	5	4
12	17	100	0	1	5	3	4
12	18	6144	0	1	2	1	0
12	18	16100	0	1	2	3	4
12	18	2.68698e+06	0	1	2	5	4
12	18	100	0	1	5	3	4
12	19	6272	0	1	2	1	0
12	19	16500	0	1	2	3	4
12	19	2.5641e+06	0	1	2	5	4
13	0	6592	0	1	2	1	0
13	0	17300	0	1	2	3	4
13	0	2.58867e+06	0	1	2	5	4
13	0	100	0	1	5	3	4
13	1	6592	0	1	2	1	0
13	1	17200	0	1	2	3	4
13	1	2.8713e+06	0	1	2	5	4
13	1	100	0	1	5	3	4
13	2	6464	0	1	2	1	0
13	2	17000	0	1	2	3	4
13	2	2.52314e+06	0	1	2	5	4
13	2	50	0	1	5	3	4
13	3	7168	0	1	2	1	0
13	3	17300	0	1	2	3	4
13	3	2.59277e+06	0	1	2	5	4
13	4	5952	0	1	2	1	0
13	4	17500	0	1	2	3	4
13	4	2.59277e+06	0	1	2	5	4
13	5	6656	0	1	2	1	0
13	5	16400	0	1	2	3	4
13	5	2.48627e+06	0	1	2	5	4
13	6	6720	0	1	2	1	0
13	6	17700	0	1	2	3	4
13	6	2.46989e+06	0	1	2	5	4
13	7	6784	0	1	2	1	0
13	7	17800	0	1	2	3	4
13	7	2.65011e+06	0	1	2	5	4
13	8	7360	0	1	2	1	0
13	8	16100	0	1	2	3	4
13	8	2.6583e+06	0	1	2	5	4
13	8	250	0	1	5	3	4
13	9	6208	0	1	2	1	0
13	9	17000	0	1	2	3	4
13	9	2.59277e+06	0	1	2	5	4
13	9	50	0	1	5	3	4
13	10	7744	0	1	2	1	0
13	10	18800	0	1	2	3	4
13	10	2.79757e+06	0	1	2	5	4
13	10	100	0	1	5	3	4
13	11	7040	0	1	2	1	0
13	11	19500	0	1	2	3	4
13	11	2.61734e+06	0	1	2	5	4
13	11	50	0	1	5	3	4
13	12	6272	0	1	2	1	0
13	12	16600	0	1	2	3	4
13	12	2.69926e+06	0	1	2	5	4
13	12	100	0	1	5	3	4
13	14	7552	0	1	2	1	0
13	14	18400	0	1	2	3	4
13	14	2.61734e+06	0	1	2	5	4
13	14	100	0	1	5	3	4
13	15	7104	0	1	2	1	0
13	15	15600	0	1	2	3	4
13	15	2.67469e+06	0	1	2	5	4
13	15	50	0	1	5	3	4
13	16	5120	0	1	2	1	0
13	16	16300	0	1	2	3	4
13	16	2.51085e+06	0	1	2	5	4
13	16	150	0	1	5	3	4
13	17	7040	0	1	2	1	0
13	17	16000	0	1	2	3	4
13	17	2.59277e+06	0	1	2	5	4
13	17	150	0	1	5	3	4
13	18	7040	0	1	2	1	0
13	18	17000	0	1	2	3	4
13	18	2.8672e+06	0	1	2	5	4
13	19	6528	0	1	2	1	0
13	19	17500	0	1	2	3	4
13	19	2.77709e+06	0	1	2	5	4
13	19	200	0	1	5	3	4
14	0	7168	0	1	2	1	0
14	0	16300	0	1	2	3	4
14	0	2.47808e+06	0	1	2	5	4
14	1	8064	0	1	2	1	0
14	1	15400	0	1	2	3	4
14	1	2.74432e+06	0	1	2	5	4
14	2	6592	0	1	2	1	0
14	2	14400	0	1	2	3	4
14	2	2.41664e+06	0	1	2	5	4
14	2	50	0	1	5	3	4
14	3	7168	0	1	2	1	0
14	3	16200	0	1	2	3	4
14	3	2.60096e+06	0	1	2	5	4
14	3	200	0	1	5	3	4
14	4	7360	0	1	2	1	0
14	4	15400	0	1	2	3	4
14	4	2.67059e+06	0	1	2	5	4
14	4	50	0	1	5	3	4
14	5	6208	0	1	2	1	0
14	5	17900	0	1	2	3	4
14	5	2.54362e+06	0	1	2	5	4
14	5	50	0	1	5	3	4
14	6	6656	0	1	2	1	0
14	6	18900	0	1	2	3	4
14	6	2.65011e+06	0	1	2	5	4
14	6	50	0	1	5	3	4
14	7	5696	0	1	2	1	0
14	7	16900	0	1	2	3	4
14	7	2.62554e+06	0	1	2	5	4
14	7	150	0	1	5	3	4
14	8	7360	0	1	2	1	0
14	8	15400	0	1	2	3	4
14	8	2.67059e+06	0	1	2	5	4
14	9	7424	0	1	2	1	0
14	9	16300	0	1	2	3	4
14	9	2.5641e+06	0	1	2	5	4
14	9	50	0	1	5	3	4
14	10	7168	0	1	2	1	0
14	10	17000	0	1	2	3	4
14	10	2.42893e+06	0	1	2	5	4
14	11	5952	0	1	2	1	0
14	11	17300	0	1	2	3	4
14	11	2.61734e+06	0	1	2	5	4
14	11	100	0	1	5	3	4
14	12	6592	0	1	2	1	0
14	12	15900	0	1	2	3	4
14	12	2.64192e+06	0	1	2	5	4
14	12	100	0	1	5	3	4
14	13	7040	0	1	2	1	0
14	13	16300	0	1	2	3	4
14	13	2.49446e+06	0	1	2	5	4
14	15	7104	0	1	2	1	0
14	15	13700	0	1	2	3	4
14	15	2.71155e+06	0	1	2	5	4
14	15	50	0	1	5	3	4
14	16	7616	0	1	2	1	0
14	16	17100	0	1	2	3	4
14	16	2.52723e+06	0	1	2	5	4
14	16	150	0	1	5	3	4
14	17	5888	0	1	2	1	0
14	17	14300	0	1	2	3	4
14	17	2.7689e+06	0	1	2	5	4
14	17	50	0	1	5	3	4
14	18	7936	0	1	2	1	0
14	18	19000	0	1	2	3	4
14	18	2.59277e+06	0	1	2	5	4
14	18	100	0	1	5	3	4
14	19	7936	0	1	2	1	0
14	19	17500	0	1	2	3	4
14	19	2.80986e+06	0	1	2	5	4
14	19	150	0	1	5	3	4
15	0	7552	0	1	2	1	0
15	0	16700	0	1	2	3	4
15	0	2.73203e+06	0	1	2	5	4
15	0	150	0	1	5	3	4
15	1	6784	0	1	2	1	0
15	1	17000	0	1	2	3	4
15	1	2.46579e+06	0	1	2	5	4
15	2	7296	0	1	2	1	0
15	2	15800	0	1	2	3	4
15	2	2.46989e+06	0	1	2	5	4
15	3	7744	0	1	2	1	0
15	3	15100	0	1	2	3	4
15	3	2.81395e+06	0	1	2	5	4
15	3	50	0	1	5	3	4
15	4	6464	0	1	2	1	0
15	4	17300	0	1	2	3	4
15	4	2.5559e+06	0	1	2	5	4
15	5	6016	0	1	2	1	0
15	5	17400	0	1	2	3	4
15	5	2.37978e+06	0	1	2	5	4
15	6	6144	0	1	2	1	0
15	6	19700	0	1	2	3	4
15	6	2.56e+06	0	1	2	5	4
15	6	100	0	1	5	3	4
15	7	5888	0	1	2	1	0
15	7	16400	0	1	2	3	4
15	7	2.59277e+06	0	1	2	5	4
15	7	50	0	1	5	3	4
15	8	6464	0	1	2	1	0
15	8	17600	0	1	2	3	4
15	8	2.68698e+06	0	1	2	5	4
15	9	5888	0	1	2	1	0
15	9	17700	0	1	2	3	4
15	9	2.46989e+06	0	1	2	5	4
15	9	50	0	1	5	3	4
15	10	6720	0	1	2	1	0
15	10	16100	0	1	2	3	4
15	10	2.60915e+06	0	1	2	5	4
15	10	50	0	1	5	3	4
15	11	6464	0	1	2	1	0
15	11	15800	0	1	2	3	4
15	11	2.51085e+06	0	1	2	5	4
15	11	50	0	1	5	3	4
15	12	6528	0	1	2	1	0
15	12	17600	0	1	2	3	4
15	12	2.87949e+06	0	1	2	5	4
15	13	7360	0	1	2	1	0
15	13	16300	0	1	2	3	4
15	13	2.41254e+06	0	1	2	5	4
15	13	50	0	1	5	3	4
15	14	6400	0	1	2	1	0
15	14	14900	0	1	2	3	4
15	14	2.53952e+06	0	1	2	5	4
15	14	150	0	1	5	3	4
15	16	6912	0	1	2	1	0
15	16	17300	0	1	2	3	4
15	16	2.57229e+06	0	1	2	5	4
15	17	6400	0	1	2	1	0
15	17	17000	0	1	2	3	4
15	17	2.48218e+06	0	1	2	5	4
15	17	100	0	1	5	3	4
15	18	6464	0	1	2	1	0
15	18	16800	0	1	2	3	4
15	18	2.55181e+06	0	1	2	5	4
15	18	100	0	1	5	3	4
15	19	6144	0	1	2	1	0
15	19	19000	0	1	2	3	4
15	19	2.51494e+06	0	1	2	5	4
15	19	50	0	1	5	3	4
16	0	6656	0	1	2	1	0
16	0	18300	0	1	2	3	4
16	0	2.69107e+06	0	1	2	5	4
16	0	50	0	1	5	3	4
16	1	7424	0	1	2	1	0
16	1	15800	0	1	2	3	4
16	1	2.55181e+06	0	1	2	5	4
16	1	100	0	1	5	3	4
16	2	7104	0	1	2	1	0
16	2	17700	0	1	2	3	4
16	2	2.40435e+06	0	1	2	5	4
16	2	50	0	1	5	3	4
16	3	6848	0	1	2	1	0
16	3	15600	0	1	2	3	4
16	3	2.62144e+06	0	1	2	5	4
16	3	50	0	1	5	3	4
16	4	7232	0	1	2	1	0
16	4	17700	0	1	2	3	4
16	4	2.53952e+06	0	1	2	5	4
16	5	6528	0	1	2	1	0
16	5	16000	0	1	2	3	4
16	5	2.50675e+06	0	1	2	5	4
16	5	150	0	1	5	3	4
16	6	7680	0	1	2	1	0
16	6	16600	0	1	2	3	4
16	6	2.60506e+06	0	1	2	5	4
16	6	100	0	1	5	3	4
16	7	6080	0	1	2	1	0
16	7	18400	0	1	2	3	4
16	7	2.68698e+06	0	1	2	5	4
16	7	250	0	1	5	3	4
16	8	7744	0	1	2	1	0
16	8	17800	0	1	2	3	4
16	8	2.79347e+06	0	1	2	5	4
16	8	100	0	1	5	3	4
16	9	6144	0	1	2	1	0
16	9	17400	0	1	2	3	4
16	9	2.6583e+06	0	1	2	5	4
16	10	7424	0	1	2	1	0
16	10	15800	0	1	2	3	4
16	10	2.62963e+06	0	1	2	5	4
16	10	200	0	1	5	3	4
16	11	6592	0	1	2	1	0
16	11	14200	0	1	2	3	4
16	11	2.54362e+06	0	1	2	5	4
16	11	100	0	1	5	3	4
16	12	6464	0	1	2	1	0
16	12	17000	0	1	2	3	4
16	12	2.70336e+06	0	1	2	5	4
16	12	100	0	1	5	3	4
16	13	6272	0	1	2	1	0
16	13	17100	0	1	2	3	4
16	13	2.56e+06	0	1	2	5	4
16	14	7552	0	1	2	1	0
16	14	15200	0	1	2	3	4
16	14	2.71155e+06	0	1	2	5	4
16	15	8064	0	1	2	1	0
16	15	17700	0	1	2	3	4
16	15	2.5641e+06	0	1	2	5	4
16	17	6912	0	1	2	1	0
16	17	14300	0	1	2	3	4
16	17	2.58458e+06	0	1	2	5	4
16	17	100	0	1	5	3	4
16	18	6528	0	1	2	1	0
16	18	16800	0	1	2	3	4
16	18	2.5641e+06	0	1	2	5	4
16	18	50	0	1	5	3	4
16	19	7168	0	1	2	1	0
16	19	19000	0	1	2	3	4
16	19	2.7689e+06	0	1	2	5	4
17	0	7360	0	1	2	1	0
17	0	15600	0	1	2	3	4
17	0	2.59686e+06	0	1	2	5	4
17	0	50	0	1	5	3	4
17	1	6848	0	1	2	1	0
17	1	16500	0	1	2	3	4
17	1	2.64602e+06	0	1	2	5	4
17	1	50	0	1	5	3	4
17	2	6656	0	1	2	1	0
17	2	15900	0	1	2	3	4
17	2	2.53133e+06	0	1	2	5	4
17	2	100	0	1	5	3	4
17	3	6208	0	1	2	1	0
17	3	13600	0	1	2	3	4
17	3	2.61734e+06	0	1	2	5	4
17	4	6528	0	1	2	1	0
17	4	15600	0	1	2	3	4
17	4	2.55181e+06	0	1	2	5	4
17	4	150	0	1	5	3	4
17	5	7552	0	1	2	1	0
17	5	17200	0	1	2	3	4
17	5	2.51494e+06	0	1	2	5	4
17	5	50	0	1	5	3	4
17	6	6720	0	1	2	1	0
17	6	18400	0	1	2	3	4
17	6	2.74842e+06	0	1	2	5	4
17	6	100	0	1	5	3	4
17	7	6464	0	1	2	1	0
17	7	19100	0	1	2	3	4
17	7	2.49446e+06	0	1	2	5	4
17	7	100	0	1	5	3	4
17	8	6208	0	1	2	1	0
17	8	15500	0	1	2	3	4
17	8	2.62963e+06	0	1	2	5	4
17	8	150	0	1	5	3	4
17	9	6464	0	1	2	1	0
17	9	14800	0	1	2	3	4
17	9	2.58458e+06	0	1	2	5	4
17	9	50	0	1	5	3	4
17	10	6784	0	1	2	1	0
17	10	15500	0	1	2	3	4
17	10	2.40435e+06	0	1	2	5	4
17	10	50	0	1	5	3	4
17	11	6528	0	1	2	1	0
17	11	16000	0	1	2	3	4
17	11	2.51494e+06	0	1	2	5	4
17	11	250	0	1	5	3	4
17	12	6592	0	1	2	1	0
17	12	16200	0	1	2	3	4
17	12	2.42483e+06	0	1	2	5	4
17	12	100	0	1	5	3	4
17	13	6464	0	1	2	1	0
17	13	15200	0	1	2	3	4
17	13	2.68288e+06	0	1	2	5	4
17	13	150	0	1	5	3	4
17	14	7104	0	1	2	1	0
17	14	14400	0	1	2	3	4
17	14	2.69926e+06	0	1	2	5	4
17	14	50	0	1	5	3	4
17	15	6400	0	1	2	1	0
17	15	15300	0	1	2	3	4
17	15	2.61734e+06	0	1	2	5	4
17	16	7168	0	1	2	1	0
17	16	15600	0	1	2	3	4
17	16	2.72794e+06	0	1	2	5	4
17	16	100	0	1	5	3	4
17	18	6976	0	1	2	1	0
17	18	18300	0	1	2	3	4
17	18	2.67469e+06	0	1	2	5	4
17	18	100	0	1	5	3	4
17	19	6720	0	1	2	1	0
17	19	15000	0	1	2	3	4
17	19	2.58458e+06	0	1	2	5	4
17	19	100	0	1	5	3	4
18	0	6592	0	1	2	1	0
18	0	15200	0	1	2	3	4
18	0	2.6665e+06	0	1	2	5	4
18	1	6400	0	1	2	1	0
18	1	15400	0	1	2	3	4
18	1	2.70746e+06	0	1	2	5	4
18	1	100	0	1	5	3	4
18	2	7232	0	1	2	1	0
18	2	18000	0	1	2	3	4
18	2	2.74432e+06	0	1	2	5	4
18	2	100	0	1	5	3	4
18	3	6848	0	1	2	1	0
18	3	17200	0	1	2	3	4
18	3	2.56819e+06	0	1	2	5	4
18	3	100	0	1	5	3	4
18	4	6528	0	1	2	1	0
18	4	17300	0	1	2	3	4
18	4	2.83034e+06	0	1	2	5	4
18	4	50	0	1	5	3	4
18	5	5760	0	1	2	1	0
18	5	17100	0	1	2	3	4
18	5	2.54771e+06	0	1	2	5	4
18	5	100	0	1	5	3	4
18	6	7104	0	1	2	1	0
18	6	14900	0	1	2	3	4
18	6	2.69926e+06	0	1	2	5	4
18	6	150	0	1	5	3	4
18	7	7424	0	1	2	1	0
18	7	13200	0	1	2	3	4
18	7	2.85491e+06	0	1	2	5	4
18	7	150	0	1	5	3	4
18	8	8000	0	1	2	1	0
18	8	16200	0	1	2	3	4
18	8	2.60506e+06	0	1	2	5	4
18	8	50	0	1	5	3	4
18	9	8256	0	1	2	1	0
18	9	15600	0	1	2	3	4
18	9	2.69926e+06	0	1	2	5	4
18	10	8128	0	1	2	1	0
18	10	18000	0	1	2	3	4
18	10	2.50675e+06	0	1	2	5	4
18	10	200	0	1	5	3	4
18	11	6784	0	1	2	1	0
18	11	15800	0	1	2	3	4
18	11	2.54771e+06	0	1	2	5	4
18	12	6720	0	1	2	1	0
18	12	15300	0	1	2	3	4
18	12	2.62963e+06	0	1	2	5	4
18	12	50	0	1	5	3	4
18	13	6976	0	1	2	1	0
18	13	16000	0	1	2	3	4
18	13	2.60096e+06	0	1	2	5	4
18	14	7360	0	1	2	1	0
18	14	17600	0	1	2	3	4
18	14	2.53952e+06	0	1	2	5	4
18	14	50	0	1	5	3	4
18	15	6976	0	1	2	1	0
18	15	16300	0	1	2	3	4
18	15	2.6583e+06	0	1	2	5	4
18	16	7552	0	1	2	1	0
18	16	18400	0	1	2	3	4
18	16	2.79347e+06	0	1	2	5	4
18	16	100	0	1	5	3	4
18	17	6208	0	1	2	1	0
18	17	16200	0	1	2	3	4
18	17	2.52314e+06	0	1	2	5	4
18	17	150	0	1	5	3	4
18	19	7488	0	1	2	1	0
18	19	18600	0	1	2	3	4
18	19	2.43302e+06	0	1	2	5	4
18	19	200	0	1	5	3	4
19	0	6592	0	1	2	1	0
19	0	15600	0	1	2	3	4
19	0	2.6665e+06	0	1	2	5	4
19	0	50	0	1	5	3	4
19	1	7616	0	1	2	1	0
19	1	15900	0	1	2	3	4
19	1	2.70746e+06	0	1	2	5	4
19	1	100	0	1	5	3	4
19	2	8896	0	1	2	1	0
19	2	17500	0	1	2	3	4
19	2	2.65421e+06	0	1	2	5	4
19	2	100	0	1	5	3	4
19	3	6592	0	1	2	1	0
19	3	17900	0	1	2	3	4
19	3	2.68288e+06	0	1	2	5	4
19	3	150	0	1	5	3	4
19	4	6848	0	1	2	1	0
19	4	17300	0	1	2	3	4
19	4	2.58048e+06	0	1	2	5	4
19	4	50	0	1	5	3	4
19	5	6272	0	1	2	1	0
19	5	17500	0	1	2	3	4
19	5	2.52314e+06	0	1	2	5	4
19	5	50	0	1	5	3	4
19	6	6336	0	1	2	1	0
19	6	18600	0	1	2	3	4
19	6	2.62144e+06	0	1	2	5	4
19	7	7168	0	1	2	1	0
19	7	17100	0	1	2	3	4
19	7	2.41664e+06	0	1	2	5	4
19	7	150	0	1	5	3	4
19	8	6464	0	1	2	1	0
19	8	16700	0	1	2	3	4
19	8	2.54362e+06	0	1	2	5	4
19	9	5888	0	1	2	1	0
19	9	15900	0	1	2	3	4
19	9	2.49446e+06	0	1	2	5	4
19	9	50	0	1	5	3	4
19	10	6272	0	1	2	1	0
19	10	14700	0	1	2	3	4
19	10	2.69107e+06	0	1	2	5	4
19	10	100	0	1	5	3	4
19	11	6400	0	1	2	1	0
19	11	16400	0	1	2	3	4
19	11	2.5559e+06	0	1	2	5	4
19	11	50	0	1	5	3	4
19	12	5632	0	1	2	1	0
19	12	16900	0	1	2	3	4
19	12	2.65421e+06	0	1	2	5	4
19	12	50	0	1	5	3	4
19	13	5888	0	1	2	1	0
19	13	16400	0	1	2	3	4
19	13	2.50266e+06	0	1	2	5	4
19	13	150	0	1	5	3	4
19	14	7040	0	1	2	1	0
19	14	17200	0	1	2	3	4
19	14	2.64602e+06	0	1	2	5	4
19	14	150	0	1	5	3	4
19	15	5504	0	1	2	1	0
19	15	16300	0	1	2	3	4
19	15	2.58867e+06	0	1	2	5	4
19	15	150	0	1	5	3	4
19	16	5952	0	1	2	1	0
19	16	16400	0	1	2	3	4
19	16	2.68288e+06	0	1	2	5	4
19	17	6208	0	1	2	1	0
19	17	15200	0	1	2	3	4
19	17	2.59277e+06	0	1	2	5	4
19	17	50	0	1	5	3	4
19	18	7808	0	1	2	1	0
19	18	18300	0	1	2	3	4
19	18	2.52314e+06	0	1	2	5	4
19	18	50	0	1	5	3	4
