15
0	1	1e+12
1	0	1e+12
1	3	1e+12
1	5	1e+12
1	7	1e+12
1	11	1e+12
2	5	1e+12
2	6	1e+12
2	7	1e+12
2	10	1e+12
3	1	1e+12
3	9	1e+12
3	10	1e+12
3	11	1e+12
4	6	1e+12
4	8	1e+12
4	13	1e+12
5	1	1e+12
5	2	1e+12
5	12	1e+12
6	2	1e+12
6	4	1e+12
6	9	1e+12
7	1	1e+12
7	2	1e+12
7	8	1e+12
8	4	1e+12
8	7	1e+12
8	10	1e+12
9	3	1e+12
9	6	1e+12
9	10	1e+12
9	11	1e+12
9	13	1e+12
9	14	1e+12
10	2	1e+12
10	3	1e+12
10	8	1e+12
10	9	1e+12
10	12	1e+12
11	1	1e+12
11	3	1e+12
11	9	1e+12
12	5	1e+12
12	10	1e+12
12	13	1e+12
13	4	1e+12
13	9	1e+12
13	12	1e+12
13	14	1e+12
14	9	1e+12
14	13	1e+12
