100000	100000	100000	10000	1000	1000
0	1	129920	0	1	2	1	0
0	1	319900	0	1	2	3	4
0	1	4.7956e+07	0	1	2	5	4
0	1	1150	0	1	5	3	4
0	2	254144	0	1	2	1	0
0	2	616400	0	1	2	3	4
0	2	9.61413e+07	0	1	2	5	4
0	2	2600	0	1	5	3	4
0	3	91520	0	1	2	1	0
0	3	230400	0	1	2	3	4
0	3	3.58687e+07	0	1	2	5	4
0	3	850	0	1	5	3	4
0	4	38400	0	1	2	1	0
0	4	88300	0	1	2	3	4
0	4	1.41885e+07	0	1	2	5	4
0	4	250	0	1	5	3	4
0	5	42432	0	1	2	1	0
0	5	109700	0	1	2	3	4
0	5	1.64045e+07	0	1	2	5	4
0	5	300	0	1	5	3	4
0	6	33856	0	1	2	1	0
0	6	85900	0	1	2	3	4
0	6	1.35741e+07	0	1	2	5	4
0	6	250	0	1	5	3	4
0	7	23936	0	1	2	1	0
0	7	54900	0	1	2	3	4
0	7	8.94976e+06	0	1	2	5	4
0	7	350	0	1	5	3	4
0	8	40576	0	1	2	1	0
0	8	99300	0	1	2	3	4
0	8	1.60809e+07	0	1	2	5	4
0	8	300	0	1	5	3	4
0	9	37248	0	1	2	1	0
0	9	91900	0	1	2	3	4
0	9	1.43319e+07	0	1	2	5	4
0	9	350	0	1	5	3	4
1	0	122880	0	1	2	1	0
1	0	298900	0	1	2	3	4
1	0	4.7915e+07	0	1	2	5	4
1	0	1000	0	1	5	3	4
1	2	63808	0	1	2	1	0
1	2	152200	0	1	2	3	4
1	2	2.41951e+07	0	1	2	5	4
1	2	400	0	1	5	3	4
1	3	27776	0	1	2	1	0
1	3	82400	0	1	2	3	4
1	3	1.21201e+07	0	1	2	5	4
1	3	500	0	1	5	3	4
1	4	18816	0	1	2	1	0
1	4	46000	0	1	2	3	4
1	4	7.2704e+06	0	1	2	5	4
1	4	50	0	1	5	3	4
1	5	22592	0	1	2	1	0
1	5	48400	0	1	2	3	4
1	5	8.01997e+06	0	1	2	5	4
1	5	200	0	1	5	3	4
1	6	16768	0	1	2	1	0
1	6	40700	0	1	2	3	4
1	6	6.87718e+06	0	1	2	5	4
1	6	200	0	1	5	3	4
1	7	11136	0	1	2	1	0
1	7	28900	0	1	2	3	4
1	7	4.42368e+06	0	1	2	5	4
1	7	300	0	1	5	3	4
1	8	20096	0	1	2	1	0
1	8	53100	0	1	2	3	4
1	8	7.86432e+06	0	1	2	5	4
1	8	300	0	1	5	3	4
1	9	35776	0	1	2	1	0
1	9	91300	0	1	2	3	4
1	9	1.41558e+07	0	1	2	5	4
1	9	350	0	1	5	3	4
2	0	249792	0	1	2	1	0
2	0	603100	0	1	2	3	4
2	0	9.53713e+07	0	1	2	5	4
2	0	1900	0	1	5	3	4
2	1	63424	0	1	2	1	0
2	1	152500	0	1	2	3	4
2	1	2.43261e+07	0	1	2	5	4
2	1	650	0	1	5	3	4
2	3	63936	0	1	2	1	0
2	3	151400	0	1	2	3	4
2	3	2.34619e+07	0	1	2	5	4
2	3	700	0	1	5	3	4
2	4	16704	0	1	2	1	0
2	4	38200	0	1	2	3	4
2	4	6.20954e+06	0	1	2	5	4
2	4	200	0	1	5	3	4
2	5	20864	0	1	2	1	0
2	5	47600	0	1	2	3	4
2	5	7.72915e+06	0	1	2	5	4
2	5	100	0	1	5	3	4
2	6	18048	0	1	2	1	0
2	6	40700	0	1	2	3	4
2	6	6.93043e+06	0	1	2	5	4
2	6	200	0	1	5	3	4
2	7	9600	0	1	2	1	0
2	7	28200	0	1	2	3	4
2	7	3.94445e+06	0	1	2	5	4
2	7	50	0	1	5	3	4
2	8	27520	0	1	2	1	0
2	8	69200	0	1	2	3	4
2	8	1.08012e+07	0	1	2	5	4
2	8	200	0	1	5	3	4
2	9	25792	0	1	2	1	0
2	9	59900	0	1	2	3	4
2	9	9.74848e+06	0	1	2	5	4
2	9	400	0	1	5	3	4
3	0	92800	0	1	2	1	0
3	0	230100	0	1	2	3	4
3	0	3.62742e+07	0	1	2	5	4
3	0	600	0	1	5	3	4
3	1	31296	0	1	2	1	0
3	1	75400	0	1	2	3	4
3	1	1.1862e+07	0	1	2	5	4
3	1	450	0	1	5	3	4
3	2	65280	0	1	2	1	0
3	2	152000	0	1	2	3	4
3	2	2.37445e+07	0	1	2	5	4
3	2	500	0	1	5	3	4
3	4	8576	0	1	2	1	0
3	4	23200	0	1	2	3	4
3	4	3.71917e+06	0	1	2	5	4
3	4	150	0	1	5	3	4
3	5	12352	0	1	2	1	0
3	5	25200	0	1	2	3	4
3	5	3.85434e+06	0	1	2	5	4
3	5	200	0	1	5	3	4
3	6	11584	0	1	2	1	0
3	6	23200	0	1	2	3	4
3	6	3.35053e+06	0	1	2	5	4
3	6	100	0	1	5	3	4
3	7	5568	0	1	2	1	0
3	7	15900	0	1	2	3	4
3	7	1.93741e+06	0	1	2	5	4
3	7	100	0	1	5	3	4
3	8	11136	0	1	2	1	0
3	8	23600	0	1	2	3	4
3	8	4.07962e+06	0	1	2	5	4
3	9	9152	0	1	2	1	0
3	9	21600	0	1	2	3	4
3	9	3.48979e+06	0	1	2	5	4
4	0	36928	0	1	2	1	0
4	0	95400	0	1	2	3	4
4	0	1.41107e+07	0	1	2	5	4
4	0	300	0	1	5	3	4
4	1	19968	0	1	2	1	0
4	1	45000	0	1	2	3	4
4	1	7.15162e+06	0	1	2	5	4
4	1	150	0	1	5	3	4
4	2	16640	0	1	2	1	0
4	2	39800	0	1	2	3	4
4	2	6.37338e+06	0	1	2	5	4
4	2	300	0	1	5	3	4
4	3	10560	0	1	2	1	0
4	3	20900	0	1	2	3	4
4	3	3.50618e+06	0	1	2	5	4
4	3	50	0	1	5	3	4
4	5	25984	0	1	2	1	0
4	5	61100	0	1	2	3	4
4	5	9.75258e+06	0	1	2	5	4
4	5	250	0	1	5	3	4
4	6	19968	0	1	2	1	0
4	6	57100	0	1	2	3	4
4	6	8.27392e+06	0	1	2	5	4
4	6	200	0	1	5	3	4
4	7	8960	0	1	2	1	0
4	7	22700	0	1	2	3	4
4	7	3.62086e+06	0	1	2	5	4
4	7	50	0	1	5	3	4
4	8	7936	0	1	2	1	0
4	8	18200	0	1	2	3	4
4	8	3.02694e+06	0	1	2	5	4
4	8	50	0	1	5	3	4
4	9	5632	0	1	2	1	0
4	9	13100	0	1	2	3	4
4	9	1.82682e+06	0	1	2	5	4
4	9	50	0	1	5	3	4
5	0	40640	0	1	2	1	0
5	0	108800	0	1	2	3	4
5	0	1.62202e+07	0	1	2	5	4
5	0	500	0	1	5	3	4
5	1	20352	0	1	2	1	0
5	1	50300	0	1	2	3	4
5	1	7.90118e+06	0	1	2	5	4
5	1	200	0	1	5	3	4
5	2	20800	0	1	2	1	0
5	2	49100	0	1	2	3	4
5	2	8.10189e+06	0	1	2	5	4
5	2	150	0	1	5	3	4
5	3	10240	0	1	2	1	0
5	3	23700	0	1	2	3	4
5	3	4.15334e+06	0	1	2	5	4
5	4	23616	0	1	2	1	0
5	4	60700	0	1	2	3	4
5	4	9.6215e+06	0	1	2	5	4
5	4	300	0	1	5	3	4
5	6	7616	0	1	2	1	0
5	6	21300	0	1	2	3	4
5	6	3.36282e+06	0	1	2	5	4
5	7	4800	0	1	2	1	0
5	7	12800	0	1	2	3	4
5	7	1.91283e+06	0	1	2	5	4
5	7	50	0	1	5	3	4
5	8	13824	0	1	2	1	0
5	8	32200	0	1	2	3	4
5	8	5.39853e+06	0	1	2	5	4
5	8	50	0	1	5	3	4
5	9	6656	0	1	2	1	0
5	9	15500	0	1	2	3	4
5	9	2.41254e+06	0	1	2	5	4
5	9	50	0	1	5	3	4
6	0	35712	0	1	2	1	0
6	0	87600	0	1	2	3	4
6	0	1.40411e+07	0	1	2	5	4
6	0	300	0	1	5	3	4
6	1	19328	0	1	2	1	0
6	1	45500	0	1	2	3	4
6	1	7.15571e+06	0	1	2	5	4
6	2	15168	0	1	2	1	0
6	2	41100	0	1	2	3	4
6	2	6.81165e+06	0	1	2	5	4
6	2	350	0	1	5	3	4
6	3	9856	0	1	2	1	0
6	3	19800	0	1	2	3	4
6	3	3.41197e+06	0	1	2	5	4
6	3	50	0	1	5	3	4
6	4	22720	0	1	2	1	0
6	4	54100	0	1	2	3	4
6	4	8.00768e+06	0	1	2	5	4
6	4	200	0	1	5	3	4
6	5	9408	0	1	2	1	0
6	5	23100	0	1	2	3	4
6	5	3.24403e+06	0	1	2	5	4
6	5	150	0	1	5	3	4
6	7	14784	0	1	2	1	0
6	7	33100	0	1	2	3	4
6	7	5.35757e+06	0	1	2	5	4
6	7	200	0	1	5	3	4
6	8	12160	0	1	2	1	0
6	8	30800	0	1	2	3	4
6	8	4.70221e+06	0	1	2	5	4
6	8	150	0	1	5	3	4
6	9	4672	0	1	2	1	0
6	9	12300	0	1	2	3	4
6	9	2.01523e+06	0	1	2	5	4
7	0	24064	0	1	2	1	0
7	0	60000	0	1	2	3	4
7	0	9.06445e+06	0	1	2	5	4
7	0	150	0	1	5	3	4
7	1	10624	0	1	2	1	0
7	1	30800	0	1	2	3	4
7	1	4.2967e+06	0	1	2	5	4
7	1	150	0	1	5	3	4
7	2	9728	0	1	2	1	0
7	2	27200	0	1	2	3	4
7	2	4.04685e+06	0	1	2	5	4
7	2	250	0	1	5	3	4
7	3	5376	0	1	2	1	0
7	3	15500	0	1	2	3	4
7	3	2.39616e+06	0	1	2	5	4
7	4	8960	0	1	2	1	0
7	4	22800	0	1	2	3	4
7	4	3.73146e+06	0	1	2	5	4
7	4	200	0	1	5	3	4
7	5	6208	0	1	2	1	0
7	5	12300	0	1	2	3	4
7	5	1.95379e+06	0	1	2	5	4
7	5	150	0	1	5	3	4
7	6	13696	0	1	2	1	0
7	6	34300	0	1	2	3	4
7	6	4.87424e+06	0	1	2	5	4
7	6	200	0	1	5	3	4
7	8	5824	0	1	2	1	0
7	8	14100	0	1	2	3	4
7	8	1.78176e+06	0	1	2	5	4
7	8	50	0	1	5	3	4
7	9	3520	0	1	2	1	0
7	9	6700	0	1	2	3	4
7	9	1.29434e+06	0	1	2	5	4
8	0	42240	0	1	2	1	0
8	0	96400	0	1	2	3	4
8	0	1.57532e+07	0	1	2	5	4
8	0	500	0	1	5	3	4
8	1	23616	0	1	2	1	0
8	1	47800	0	1	2	3	4
8	1	7.89709e+06	0	1	2	5	4
8	1	250	0	1	5	3	4
8	2	26688	0	1	2	1	0
8	2	68900	0	1	2	3	4
8	2	1.05226e+07	0	1	2	5	4
8	2	250	0	1	5	3	4
8	3	9984	0	1	2	1	0
8	3	28800	0	1	2	3	4
8	3	4.11238e+06	0	1	2	5	4
8	4	9152	0	1	2	1	0
8	4	19100	0	1	2	3	4
8	4	3.21946e+06	0	1	2	5	4
8	4	100	0	1	5	3	4
8	5	15680	0	1	2	1	0
8	5	28900	0	1	2	3	4
8	5	5.41082e+06	0	1	2	5	4
8	5	50	0	1	5	3	4
8	6	12480	0	1	2	1	0
8	6	25700	0	1	2	3	4
8	6	4.7104e+06	0	1	2	5	4
8	7	5504	0	1	2	1	0
8	7	14000	0	1	2	3	4
8	7	2.07667e+06	0	1	2	5	4
8	7	150	0	1	5	3	4
8	9	8256	0	1	2	1	0
8	9	19700	0	1	2	3	4
8	9	3.14573e+06	0	1	2	5	4
8	9	150	0	1	5	3	4
9	0	37120	0	1	2	1	0
9	0	89700	0	1	2	3	4
9	0	1.41189e+07	0	1	2	5	4
9	0	300	0	1	5	3	4
9	1	37632	0	1	2	1	0
9	1	92700	0	1	2	3	4
9	1	1.46842e+07	0	1	2	5	4
9	1	350	0	1	5	3	4
9	2	25408	0	1	2	1	0
9	2	57900	0	1	2	3	4
9	2	9.15456e+06	0	1	2	5	4
9	2	500	0	1	5	3	4
9	3	8960	0	1	2	1	0
9	3	22600	0	1	2	3	4
9	3	3.76013e+06	0	1	2	5	4
9	3	100	0	1	5	3	4
9	4	4416	0	1	2	1	0
9	4	12500	0	1	2	3	4
9	4	1.93741e+06	0	1	2	5	4
9	4	50	0	1	5	3	4
9	5	5824	0	1	2	1	0
9	5	15600	0	1	2	3	4
9	5	2.33882e+06	0	1	2	5	4
9	5	100	0	1	5	3	4
9	6	6080	0	1	2	1	0
9	6	12000	0	1	2	3	4
9	6	2.05619e+06	0	1	2	5	4
9	6	100	0	1	5	3	4
9	7	2880	0	1	2	1	0
9	7	8100	0	1	2	3	4
9	7	1.09363e+06	0	1	2	5	4
9	8	7488	0	1	2	1	0
9	8	19300	0	1	2	3	4
9	8	2.98598e+06	0	1	2	5	4
9	8	50	0	1	5	3	4
