12
0	3	1e+12
1	8	1e+12
2	6	1e+12
2	9	1e+12
3	0	1e+12
3	6	1e+12
4	6	1e+12
5	7	1e+12
5	10	1e+12
6	2	1e+12
6	3	1e+12
6	4	1e+12
6	7	1e+12
7	5	1e+12
7	6	1e+12
7	10	1e+12
8	1	1e+12
8	9	1e+12
8	11	1e+12
9	2	1e+12
9	8	1e+12
9	10	1e+12
10	5	1e+12
10	7	1e+12
10	9	1e+12
10	11	1e+12
11	8	1e+12
11	10	1e+12
