100000	1000	100000	100000	10000	1000
0	1	1.09798e+07	4	1	3	4	2
0	2	1.11002e+07	4	1	3	4	2
0	3	1.12637e+07	4	1	3	4	2
0	4	1.11497e+07	4	1	3	4	2
0	5	1.10327e+07	4	1	3	4	2
0	6	1.12598e+07	4	1	3	4	2
0	7	1.10723e+07	4	1	3	4	2
0	8	1.12162e+07	4	1	3	4	2
0	9	1.11624e+07	4	1	3	4	2
1	0	1.11722e+07	4	1	3	4	2
1	2	1.11095e+07	4	1	3	4	2
1	3	1.10934e+07	4	1	3	4	2
1	4	1.10694e+07	4	1	3	4	2
1	5	1.1248e+07	4	1	3	4	2
1	6	1.10381e+07	4	1	3	4	2
1	7	1.10797e+07	4	1	3	4	2
1	8	1.10738e+07	4	1	3	4	2
1	9	1.10777e+07	4	1	3	4	2
2	0	1.10253e+07	4	1	3	4	2
2	1	1.11257e+07	4	1	3	4	2
2	3	1.12055e+07	4	1	3	4	2
2	4	1.10988e+07	4	1	3	4	2
2	5	1.11825e+07	4	1	3	4	2
2	6	1.11502e+07	4	1	3	4	2
2	7	1.11149e+07	4	1	3	4	2
2	8	1.11462e+07	4	1	3	4	2
2	9	1.1159e+07	4	1	3	4	2
3	0	1.10112e+07	4	1	3	4	2
3	1	1.09593e+07	4	1	3	4	2
3	2	1.11506e+07	4	1	3	4	2
3	4	1.10067e+07	4	1	3	4	2
3	5	1.109e+07	4	1	3	4	2
3	6	1.10072e+07	4	1	3	4	2
3	7	1.1203e+07	4	1	3	4	2
3	8	1.1064e+07	4	1	3	4	2
3	9	1.1202e+07	4	1	3	4	2
4	0	1.10067e+07	4	1	3	4	2
4	1	1.11864e+07	4	1	3	4	2
4	2	1.11825e+07	4	1	3	4	2
4	3	1.11565e+07	4	1	3	4	2
4	5	1.10855e+07	4	1	3	4	2
4	6	1.10802e+07	4	1	3	4	2
4	7	1.09563e+07	4	1	3	4	2
4	8	1.10846e+07	4	1	3	4	2
4	9	1.10694e+07	4	1	3	4	2
5	0	1.11516e+07	4	1	3	4	2
5	1	1.10934e+07	4	1	3	4	2
5	2	1.11159e+07	4	1	3	4	2
5	3	1.10885e+07	4	1	3	4	2
5	4	1.12755e+07	4	1	3	4	2
5	6	1.1064e+07	4	1	3	4	2
5	7	1.10934e+07	4	1	3	4	2
5	8	1.11462e+07	4	1	3	4	2
5	9	1.10919e+07	4	1	3	4	2
6	0	1.11262e+07	4	1	3	4	2
6	1	1.11472e+07	4	1	3	4	2
6	2	1.09725e+07	4	1	3	4	2
6	3	1.10924e+07	4	1	3	4	2
6	4	1.09544e+07	4	1	3	4	2
6	5	1.11981e+07	4	1	3	4	2
6	7	1.10904e+07	4	1	3	4	2
6	8	1.102e+07	4	1	3	4	2
6	9	1.10146e+07	4	1	3	4	2
7	0	1.12113e+07	4	1	3	4	2
7	1	1.11761e+07	4	1	3	4	2
7	2	1.10792e+07	4	1	3	4	2
7	3	1.11453e+07	4	1	3	4	2
7	4	1.11673e+07	4	1	3	4	2
7	5	1.1155e+07	4	1	3	4	2
7	6	1.10841e+07	4	1	3	4	2
7	8	1.10249e+07	4	1	3	4	2
7	9	1.11668e+07	4	1	3	4	2
8	0	1.11379e+07	4	1	3	4	2
8	1	1.11188e+07	4	1	3	4	2
8	2	1.1042e+07	4	1	3	4	2
8	3	1.10249e+07	4	1	3	4	2
8	4	1.10151e+07	4	1	3	4	2
8	5	1.11717e+07	4	1	3	4	2
8	6	1.11394e+07	4	1	3	4	2
8	7	1.11692e+07	4	1	3	4	2
8	9	1.10601e+07	4	1	3	4	2
9	0	1.11874e+07	4	1	3	4	2
9	1	1.12696e+07	4	1	3	4	2
9	2	1.12412e+07	4	1	3	4	2
9	3	1.1088e+07	4	1	3	4	2
9	4	1.11516e+07	4	1	3	4	2
9	5	1.11898e+07	4	1	3	4	2
9	6	1.10733e+07	4	1	3	4	2
9	7	1.10596e+07	4	1	3	4	2
9	8	1.10058e+07	4	1	3	4	2
