100000	100000	100000	10000	1000	1000
0	1	29568	0	1	2	1	0
0	1	67800	0	1	2	3	4
0	1	1.12394e+07	0	1	2	5	4
0	1	150	0	1	5	3	4
0	2	28864	0	1	2	1	0
0	2	66400	0	1	2	3	4
0	2	1.09609e+07	0	1	2	5	4
0	2	250	0	1	5	3	4
0	3	27584	0	1	2	1	0
0	3	72500	0	1	2	3	4
0	3	1.15016e+07	0	1	2	5	4
0	3	300	0	1	5	3	4
0	4	28160	0	1	2	1	0
0	4	68100	0	1	2	3	4
0	4	1.10264e+07	0	1	2	5	4
0	4	200	0	1	5	3	4
0	5	28992	0	1	2	1	0
0	5	66800	0	1	2	3	4
0	5	1.12476e+07	0	1	2	5	4
0	5	500	0	1	5	3	4
0	6	27840	0	1	2	1	0
0	6	67100	0	1	2	3	4
0	6	1.09855e+07	0	1	2	5	4
0	6	200	0	1	5	3	4
0	7	30976	0	1	2	1	0
0	7	70000	0	1	2	3	4
0	7	1.11493e+07	0	1	2	5	4
0	7	150	0	1	5	3	4
0	8	27456	0	1	2	1	0
0	8	66100	0	1	2	3	4
0	8	1.10264e+07	0	1	2	5	4
0	8	400	0	1	5	3	4
0	9	27776	0	1	2	1	0
0	9	70600	0	1	2	3	4
0	9	1.13869e+07	0	1	2	5	4
0	9	400	0	1	5	3	4
1	0	28416	0	1	2	1	0
1	0	67800	0	1	2	3	4
1	0	1.09773e+07	0	1	2	5	4
1	0	350	0	1	5	3	4
1	2	27392	0	1	2	1	0
1	2	69800	0	1	2	3	4
1	2	1.09486e+07	0	1	2	5	4
1	2	200	0	1	5	3	4
1	3	30464	0	1	2	1	0
1	3	69000	0	1	2	3	4
1	3	1.11903e+07	0	1	2	5	4
1	3	150	0	1	5	3	4
1	4	29120	0	1	2	1	0
1	4	74200	0	1	2	3	4
1	4	1.05964e+07	0	1	2	5	4
1	4	400	0	1	5	3	4
1	5	27392	0	1	2	1	0
1	5	71700	0	1	2	3	4
1	5	1.08462e+07	0	1	2	5	4
1	5	150	0	1	5	3	4
1	6	28032	0	1	2	1	0
1	6	66900	0	1	2	3	4
1	6	1.10592e+07	0	1	2	5	4
1	6	400	0	1	5	3	4
1	7	28672	0	1	2	1	0
1	7	68800	0	1	2	3	4
1	7	1.06578e+07	0	1	2	5	4
1	7	350	0	1	5	3	4
1	8	31488	0	1	2	1	0
1	8	74500	0	1	2	3	4
1	8	1.08298e+07	0	1	2	5	4
1	8	150	0	1	5	3	4
1	9	30848	0	1	2	1	0
1	9	68600	0	1	2	3	4
1	9	1.13377e+07	0	1	2	5	4
1	9	200	0	1	5	3	4
2	0	30464	0	1	2	1	0
2	0	68900	0	1	2	3	4
2	0	1.10223e+07	0	1	2	5	4
2	0	200	0	1	5	3	4
2	1	28800	0	1	2	1	0
2	1	71300	0	1	2	3	4
2	1	1.06783e+07	0	1	2	5	4
2	1	450	0	1	5	3	4
2	3	30528	0	1	2	1	0
2	3	68100	0	1	2	3	4
2	3	1.04858e+07	0	1	2	5	4
2	3	200	0	1	5	3	4
2	4	27968	0	1	2	1	0
2	4	69300	0	1	2	3	4
2	4	1.12845e+07	0	1	2	5	4
2	4	150	0	1	5	3	4
2	5	28480	0	1	2	1	0
2	5	70500	0	1	2	3	4
2	5	1.09076e+07	0	1	2	5	4
2	5	150	0	1	5	3	4
2	6	27392	0	1	2	1	0
2	6	69900	0	1	2	3	4
2	6	1.06619e+07	0	1	2	5	4
2	6	200	0	1	5	3	4
2	7	27456	0	1	2	1	0
2	7	67300	0	1	2	3	4
2	7	1.11452e+07	0	1	2	5	4
2	7	250	0	1	5	3	4
2	8	28608	0	1	2	1	0
2	8	68600	0	1	2	3	4
2	8	1.07807e+07	0	1	2	5	4
2	8	250	0	1	5	3	4
2	9	27392	0	1	2	1	0
2	9	67200	0	1	2	3	4
2	9	1.12026e+07	0	1	2	5	4
2	9	250	0	1	5	3	4
3	0	29440	0	1	2	1	0
3	0	70600	0	1	2	3	4
3	0	1.11944e+07	0	1	2	5	4
3	0	100	0	1	5	3	4
3	1	30784	0	1	2	1	0
3	1	75300	0	1	2	3	4
3	1	1.12353e+07	0	1	2	5	4
3	1	450	0	1	5	3	4
3	2	30400	0	1	2	1	0
3	2	70000	0	1	2	3	4
3	2	1.10346e+07	0	1	2	5	4
3	2	500	0	1	5	3	4
3	4	30912	0	1	2	1	0
3	4	69400	0	1	2	3	4
3	4	1.09978e+07	0	1	2	5	4
3	4	300	0	1	5	3	4
3	5	29824	0	1	2	1	0
3	5	74900	0	1	2	3	4
3	5	1.11043e+07	0	1	2	5	4
3	5	100	0	1	5	3	4
3	6	29376	0	1	2	1	0
3	6	71100	0	1	2	3	4
3	6	1.08052e+07	0	1	2	5	4
3	6	100	0	1	5	3	4
3	7	27776	0	1	2	1	0
3	7	71300	0	1	2	3	4
3	7	1.10223e+07	0	1	2	5	4
3	7	350	0	1	5	3	4
3	8	29632	0	1	2	1	0
3	8	67600	0	1	2	3	4
3	8	1.09158e+07	0	1	2	5	4
3	8	250	0	1	5	3	4
3	9	27648	0	1	2	1	0
3	9	74700	0	1	2	3	4
3	9	1.08093e+07	0	1	2	5	4
3	9	500	0	1	5	3	4
4	0	30016	0	1	2	1	0
4	0	70700	0	1	2	3	4
4	0	1.09036e+07	0	1	2	5	4
4	0	350	0	1	5	3	4
4	1	28032	0	1	2	1	0
4	1	71900	0	1	2	3	4
4	1	1.10592e+07	0	1	2	5	4
4	1	350	0	1	5	3	4
4	2	27904	0	1	2	1	0
4	2	69300	0	1	2	3	4
4	2	1.08749e+07	0	1	2	5	4
4	2	350	0	1	5	3	4
4	3	32576	0	1	2	1	0
4	3	71700	0	1	2	3	4
4	3	1.07971e+07	0	1	2	5	4
4	3	450	0	1	5	3	4
4	5	25408	0	1	2	1	0
4	5	70500	0	1	2	3	4
4	5	1.07356e+07	0	1	2	5	4
4	5	200	0	1	5	3	4
4	6	30400	0	1	2	1	0
4	6	72300	0	1	2	3	4
4	6	1.09814e+07	0	1	2	5	4
4	6	450	0	1	5	3	4
4	7	29120	0	1	2	1	0
4	7	67100	0	1	2	3	4
4	7	1.08421e+07	0	1	2	5	4
4	7	150	0	1	5	3	4
4	8	29184	0	1	2	1	0
4	8	68300	0	1	2	3	4
4	8	1.10305e+07	0	1	2	5	4
4	8	250	0	1	5	3	4
4	9	30080	0	1	2	1	0
4	9	73900	0	1	2	3	4
4	9	1.16285e+07	0	1	2	5	4
4	9	250	0	1	5	3	4
5	0	27648	0	1	2	1	0
5	0	68800	0	1	2	3	4
5	0	1.09609e+07	0	1	2	5	4
5	0	50	0	1	5	3	4
5	1	29568	0	1	2	1	0
5	1	69300	0	1	2	3	4
5	1	1.07684e+07	0	1	2	5	4
5	1	250	0	1	5	3	4
5	2	30080	0	1	2	1	0
5	2	71900	0	1	2	3	4
5	2	1.10756e+07	0	1	2	5	4
5	2	350	0	1	5	3	4
5	3	28352	0	1	2	1	0
5	3	74200	0	1	2	3	4
5	3	1.1092e+07	0	1	2	5	4
5	3	200	0	1	5	3	4
5	4	27968	0	1	2	1	0
5	4	76500	0	1	2	3	4
5	4	1.10551e+07	0	1	2	5	4
5	4	700	0	1	5	3	4
5	6	30016	0	1	2	1	0
5	6	69800	0	1	2	3	4
5	6	1.10715e+07	0	1	2	5	4
5	6	450	0	1	5	3	4
5	7	28800	0	1	2	1	0
5	7	71100	0	1	2	3	4
5	7	1.11288e+07	0	1	2	5	4
5	7	350	0	1	5	3	4
5	8	28800	0	1	2	1	0
5	8	65900	0	1	2	3	4
5	8	1.08831e+07	0	1	2	5	4
5	8	700	0	1	5	3	4
5	9	30016	0	1	2	1	0
5	9	67800	0	1	2	3	4
5	9	1.09199e+07	0	1	2	5	4
5	9	350	0	1	5	3	4
6	0	32320	0	1	2	1	0
6	0	74600	0	1	2	3	4
6	0	1.09732e+07	0	1	2	5	4
6	0	100	0	1	5	3	4
6	1	27840	0	1	2	1	0
6	1	68800	0	1	2	3	4
6	1	1.09855e+07	0	1	2	5	4
6	1	350	0	1	5	3	4
6	2	28864	0	1	2	1	0
6	2	63100	0	1	2	3	4
6	2	1.10592e+07	0	1	2	5	4
6	2	400	0	1	5	3	4
6	3	33152	0	1	2	1	0
6	3	67100	0	1	2	3	4
6	3	1.12558e+07	0	1	2	5	4
6	3	350	0	1	5	3	4
6	4	29312	0	1	2	1	0
6	4	64000	0	1	2	3	4
6	4	1.06701e+07	0	1	2	5	4
6	4	200	0	1	5	3	4
6	5	29440	0	1	2	1	0
6	5	71100	0	1	2	3	4
6	5	1.09773e+07	0	1	2	5	4
6	5	250	0	1	5	3	4
6	7	28416	0	1	2	1	0
6	7	74300	0	1	2	3	4
6	7	1.0879e+07	0	1	2	5	4
6	7	150	0	1	5	3	4
6	8	27840	0	1	2	1	0
6	8	67000	0	1	2	3	4
6	8	1.09404e+07	0	1	2	5	4
6	8	150	0	1	5	3	4
6	9	30400	0	1	2	1	0
6	9	67600	0	1	2	3	4
6	9	1.08585e+07	0	1	2	5	4
6	9	400	0	1	5	3	4
7	0	29888	0	1	2	1	0
7	0	66300	0	1	2	3	4
7	0	1.08421e+07	0	1	2	5	4
7	0	350	0	1	5	3	4
7	1	27712	0	1	2	1	0
7	1	69700	0	1	2	3	4
7	1	1.11165e+07	0	1	2	5	4
7	1	450	0	1	5	3	4
7	2	28928	0	1	2	1	0
7	2	72600	0	1	2	3	4
7	2	1.1051e+07	0	1	2	5	4
7	2	650	0	1	5	3	4
7	3	30336	0	1	2	1	0
7	3	69800	0	1	2	3	4
7	3	1.09568e+07	0	1	2	5	4
7	3	250	0	1	5	3	4
7	4	29632	0	1	2	1	0
7	4	70400	0	1	2	3	4
7	4	1.09609e+07	0	1	2	5	4
7	4	250	0	1	5	3	4
7	5	29312	0	1	2	1	0
7	5	71500	0	1	2	3	4
7	5	1.10797e+07	0	1	2	5	4
7	5	250	0	1	5	3	4
7	6	29504	0	1	2	1	0
7	6	72000	0	1	2	3	4
7	6	1.10141e+07	0	1	2	5	4
7	6	200	0	1	5	3	4
7	8	26688	0	1	2	1	0
7	8	68600	0	1	2	3	4
7	8	1.11002e+07	0	1	2	5	4
7	8	450	0	1	5	3	4
7	9	33536	0	1	2	1	0
7	9	70800	0	1	2	3	4
7	9	1.07889e+07	0	1	2	5	4
7	9	350	0	1	5	3	4
8	0	28608	0	1	2	1	0
8	0	69600	0	1	2	3	4
8	0	1.11002e+07	0	1	2	5	4
8	0	250	0	1	5	3	4
8	1	27392	0	1	2	1	0
8	1	69000	0	1	2	3	4
8	1	1.11575e+07	0	1	2	5	4
8	1	300	0	1	5	3	4
8	2	27712	0	1	2	1	0
8	2	73500	0	1	2	3	4
8	2	1.08216e+07	0	1	2	5	4
8	2	350	0	1	5	3	4
8	3	29440	0	1	2	1	0
8	3	68800	0	1	2	3	4
8	3	1.12067e+07	0	1	2	5	4
8	3	400	0	1	5	3	4
8	4	29376	0	1	2	1	0
8	4	71400	0	1	2	3	4
8	4	1.08667e+07	0	1	2	5	4
8	4	400	0	1	5	3	4
8	5	30848	0	1	2	1	0
8	5	72000	0	1	2	3	4
8	5	1.13992e+07	0	1	2	5	4
8	5	200	0	1	5	3	4
8	6	26688	0	1	2	1	0
8	6	74800	0	1	2	3	4
8	6	1.10346e+07	0	1	2	5	4
8	6	600	0	1	5	3	4
8	7	28672	0	1	2	1	0
8	7	71800	0	1	2	3	4
8	7	1.11944e+07	0	1	2	5	4
8	7	400	0	1	5	3	4
8	9	30464	0	1	2	1	0
8	9	73400	0	1	2	3	4
8	9	1.11575e+07	0	1	2	5	4
8	9	150	0	1	5	3	4
9	0	30784	0	1	2	1	0
9	0	72800	0	1	2	3	4
9	0	1.12026e+07	0	1	2	5	4
9	0	300	0	1	5	3	4
9	1	28160	0	1	2	1	0
9	1	69400	0	1	2	3	4
9	1	1.12558e+07	0	1	2	5	4
9	1	200	0	1	5	3	4
9	2	28032	0	1	2	1	0
9	2	73500	0	1	2	3	4
9	2	1.12394e+07	0	1	2	5	4
9	2	200	0	1	5	3	4
9	3	30208	0	1	2	1	0
9	3	72900	0	1	2	3	4
9	3	1.13336e+07	0	1	2	5	4
9	3	600	0	1	5	3	4
9	4	33472	0	1	2	1	0
9	4	73100	0	1	2	3	4
9	4	1.10019e+07	0	1	2	5	4
9	4	300	0	1	5	3	4
9	5	27776	0	1	2	1	0
9	5	69200	0	1	2	3	4
9	5	1.07643e+07	0	1	2	5	4
9	5	650	0	1	5	3	4
9	6	28416	0	1	2	1	0
9	6	68800	0	1	2	3	4
9	6	1.08134e+07	0	1	2	5	4
9	6	300	0	1	5	3	4
9	7	29952	0	1	2	1	0
9	7	63700	0	1	2	3	4
9	7	1.1006e+07	0	1	2	5	4
9	7	50	0	1	5	3	4
9	8	28096	0	1	2	1	0
9	8	72700	0	1	2	3	4
9	8	1.09117e+07	0	1	2	5	4
9	8	150	0	1	5	3	4
