10
0	3	1e+12
0	4	1e+12
1	6	1e+12
2	3	1e+12
3	0	1e+12
3	2	1e+12
3	9	1e+12
4	0	1e+12
4	5	1e+12
4	9	1e+12
5	4	1e+12
5	8	1e+12
6	1	1e+12
6	9	1e+12
7	9	1e+12
8	5	1e+12
8	9	1e+12
9	3	1e+12
9	4	1e+12
9	6	1e+12
9	7	1e+12
9	8	1e+12
