100000	1000	1000	100000	100000	1000
0	1	1.1243e+07	2	3	2	5	3	2	4	4	2	3
0	2	1.10593e+07	2	3	2	5	3	2	4	4	2	3
0	3	1.10545e+07	2	3	2	5	3	2	4	4	2	3
0	4	1.11382e+07	2	3	2	5	3	2	4	4	2	3
0	5	1.12391e+07	2	3	2	5	3	2	4	4	2	3
0	6	1.10999e+07	2	3	2	5	3	2	4	4	2	3
0	7	1.0999e+07	2	3	2	5	3	2	4	4	2	3
0	8	1.11247e+07	2	3	2	5	3	2	4	4	2	3
0	9	1.1145e+07	2	3	2	5	3	2	4	4	2	3
1	0	1.11227e+07	2	3	2	5	3	2	4	4	2	3
1	2	1.11847e+07	2	3	2	5	3	2	4	4	2	3
1	3	1.1139e+07	2	3	2	5	3	2	4	4	2	3
1	4	1.10849e+07	2	3	2	5	3	2	4	4	2	3
1	5	1.12484e+07	2	3	2	5	3	2	4	4	2	3
1	6	1.11878e+07	2	3	2	5	3	2	4	4	2	3
1	7	1.115e+07	2	3	2	5	3	2	4	4	2	3
1	8	1.10026e+07	2	3	2	5	3	2	4	4	2	3
1	9	1.11698e+07	2	3	2	5	3	2	4	4	2	3
2	0	1.11016e+07	2	3	2	5	3	2	4	4	2	3
2	1	1.11185e+07	2	3	2	5	3	2	4	4	2	3
2	3	1.10872e+07	2	3	2	5	3	2	4	4	2	3
2	4	1.12041e+07	2	3	2	5	3	2	4	4	2	3
2	5	1.10852e+07	2	3	2	5	3	2	4	4	2	3
2	6	1.1141e+07	2	3	2	5	3	2	4	4	2	3
2	7	1.11097e+07	2	3	2	5	3	2	4	4	2	3
2	8	1.10401e+07	2	3	2	5	3	2	4	4	2	3
2	9	1.10714e+07	2	3	2	5	3	2	4	4	2	3
3	0	1.10444e+07	2	3	2	5	3	2	4	4	2	3
3	1	1.11024e+07	2	3	2	5	3	2	4	4	2	3
3	2	1.10531e+07	2	3	2	5	3	2	4	4	2	3
3	4	1.10973e+07	2	3	2	5	3	2	4	4	2	3
3	5	1.11424e+07	2	3	2	5	3	2	4	4	2	3
3	6	1.10424e+07	2	3	2	5	3	2	4	4	2	3
3	7	1.11252e+07	2	3	2	5	3	2	4	4	2	3
3	8	1.11996e+07	2	3	2	5	3	2	4	4	2	3
3	9	1.11219e+07	2	3	2	5	3	2	4	4	2	3
4	0	1.11061e+07	2	3	2	5	3	2	4	4	2	3
4	1	1.10976e+07	2	3	2	5	3	2	4	4	2	3
4	2	1.10367e+07	2	3	2	5	3	2	4	4	2	3
4	3	1.11334e+07	2	3	2	5	3	2	4	4	2	3
4	5	1.11264e+07	2	3	2	5	3	2	4	4	2	3
4	6	1.10556e+07	2	3	2	5	3	2	4	4	2	3
4	7	1.1068e+07	2	3	2	5	3	2	4	4	2	3
4	8	1.1046e+07	2	3	2	5	3	2	4	4	2	3
4	9	1.11244e+07	2	3	2	5	3	2	4	4	2	3
5	0	1.10486e+07	2	3	2	5	3	2	4	4	2	3
5	1	1.11667e+07	2	3	2	5	3	2	4	4	2	3
5	2	1.11709e+07	2	3	2	5	3	2	4	4	2	3
5	3	1.10362e+07	2	3	2	5	3	2	4	4	2	3
5	4	1.10618e+07	2	3	2	5	3	2	4	4	2	3
5	6	1.11963e+07	2	3	2	5	3	2	4	4	2	3
5	7	1.10931e+07	2	3	2	5	3	2	4	4	2	3
5	8	1.11261e+07	2	3	2	5	3	2	4	4	2	3
5	9	1.10438e+07	2	3	2	5	3	2	4	4	2	3
6	0	1.10863e+07	2	3	2	5	3	2	4	4	2	3
6	1	1.1092e+07	2	3	2	5	3	2	4	4	2	3
6	2	1.11512e+07	2	3	2	5	3	2	4	4	2	3
6	3	1.10686e+07	2	3	2	5	3	2	4	4	2	3
6	4	1.11379e+07	2	3	2	5	3	2	4	4	2	3
6	5	1.10869e+07	2	3	2	5	3	2	4	4	2	3
6	7	1.1039e+07	2	3	2	5	3	2	4	4	2	3
6	8	1.11503e+07	2	3	2	5	3	2	4	4	2	3
6	9	1.11086e+07	2	3	2	5	3	2	4	4	2	3
7	0	1.11103e+07	2	3	2	5	3	2	4	4	2	3
7	1	1.11227e+07	2	3	2	5	3	2	4	4	2	3
7	2	1.11512e+07	2	3	2	5	3	2	4	4	2	3
7	3	1.10661e+07	2	3	2	5	3	2	4	4	2	3
7	4	1.11407e+07	2	3	2	5	3	2	4	4	2	3
7	5	1.10568e+07	2	3	2	5	3	2	4	4	2	3
7	6	1.11793e+07	2	3	2	5	3	2	4	4	2	3
7	8	1.11075e+07	2	3	2	5	3	2	4	4	2	3
7	9	1.1068e+07	2	3	2	5	3	2	4	4	2	3
8	0	1.11551e+07	2	3	2	5	3	2	4	4	2	3
8	1	1.11452e+07	2	3	2	5	3	2	4	4	2	3
8	2	1.10714e+07	2	3	2	5	3	2	4	4	2	3
8	3	1.11661e+07	2	3	2	5	3	2	4	4	2	3
8	4	1.10641e+07	2	3	2	5	3	2	4	4	2	3
8	5	1.11903e+07	2	3	2	5	3	2	4	4	2	3
8	6	1.10624e+07	2	3	2	5	3	2	4	4	2	3
8	7	1.117e+07	2	3	2	5	3	2	4	4	2	3
8	9	1.11405e+07	2	3	2	5	3	2	4	4	2	3
9	0	1.1123e+07	2	3	2	5	3	2	4	4	2	3
9	1	1.11283e+07	2	3	2	5	3	2	4	4	2	3
9	2	1.10838e+07	2	3	2	5	3	2	4	4	2	3
9	3	1.10455e+07	2	3	2	5	3	2	4	4	2	3
9	4	1.10765e+07	2	3	2	5	3	2	4	4	2	3
9	5	1.11221e+07	2	3	2	5	3	2	4	4	2	3
9	6	1.10844e+07	2	3	2	5	3	2	4	4	2	3
9	7	1.1143e+07	2	3	2	5	3	2	4	4	2	3
9	8	1.10872e+07	2	3	2	5	3	2	4	4	2	3
