10
0	8	1e+12
1	8	1e+12
1	9	1e+12
2	4	1e+12
2	8	1e+12
3	4	1e+12
3	6	1e+12
4	2	1e+12
4	3	1e+12
4	7	1e+12
4	8	1e+12
5	7	1e+12
6	3	1e+12
6	7	1e+12
7	4	1e+12
7	5	1e+12
7	6	1e+12
7	8	1e+12
8	0	1e+12
8	1	1e+12
8	2	1e+12
8	4	1e+12
8	7	1e+12
9	1	1e+12
