10
0	2	1e+12
1	9	1e+12
2	0	1e+12
2	3	1e+12
2	7	1e+12
2	8	1e+12
2	9	1e+12
3	2	1e+12
4	5	1e+12
4	6	1e+12
5	4	1e+12
5	8	1e+12
6	4	1e+12
6	7	1e+12
6	8	1e+12
7	2	1e+12
7	6	1e+12
8	2	1e+12
8	5	1e+12
8	6	1e+12
8	9	1e+12
9	1	1e+12
9	2	1e+12
9	8	1e+12
