100000	100000	100000	10000	1000	1000
0	1	153152	0	1	2	1	0
0	1	362000	0	1	2	3	4
0	1	5.6918e+07	0	1	2	5	4
0	1	1300	0	1	5	3	4
0	2	203776	0	1	2	1	0
0	2	481300	0	1	2	3	4
0	2	7.68901e+07	0	1	2	5	4
0	2	2250	0	1	5	3	4
0	3	75520	0	1	2	1	0
0	3	179200	0	1	2	3	4
0	3	2.83034e+07	0	1	2	5	4
0	3	750	0	1	5	3	4
0	4	57856	0	1	2	1	0
0	4	141000	0	1	2	3	4
0	4	2.29212e+07	0	1	2	5	4
0	4	600	0	1	5	3	4
0	5	105792	0	1	2	1	0
0	5	243900	0	1	2	3	4
0	5	3.78839e+07	0	1	2	5	4
0	5	900	0	1	5	3	4
0	6	30528	0	1	2	1	0
0	6	69800	0	1	2	3	4
0	6	1.0965e+07	0	1	2	5	4
0	6	200	0	1	5	3	4
0	7	38336	0	1	2	1	0
0	7	93400	0	1	2	3	4
0	7	1.425e+07	0	1	2	5	4
0	7	300	0	1	5	3	4
0	8	68800	0	1	2	1	0
0	8	154200	0	1	2	3	4
0	8	2.58376e+07	0	1	2	5	4
0	8	850	0	1	5	3	4
0	9	61248	0	1	2	1	0
0	9	145000	0	1	2	3	4
0	9	2.25198e+07	0	1	2	5	4
0	9	550	0	1	5	3	4
1	0	149952	0	1	2	1	0
1	0	365100	0	1	2	3	4
1	0	5.66886e+07	0	1	2	5	4
1	0	2000	0	1	5	3	4
1	2	34944	0	1	2	1	0
1	2	81500	0	1	2	3	4
1	2	1.28041e+07	0	1	2	5	4
1	2	250	0	1	5	3	4
1	3	25792	0	1	2	1	0
1	3	64400	0	1	2	3	4
1	3	9.30611e+06	0	1	2	5	4
1	3	650	0	1	5	3	4
1	4	19584	0	1	2	1	0
1	4	50800	0	1	2	3	4
1	4	7.8848e+06	0	1	2	5	4
1	4	300	0	1	5	3	4
1	5	25344	0	1	2	1	0
1	5	60300	0	1	2	3	4
1	5	9.91232e+06	0	1	2	5	4
1	5	300	0	1	5	3	4
1	6	15808	0	1	2	1	0
1	6	35300	0	1	2	3	4
1	6	5.58285e+06	0	1	2	5	4
1	6	150	0	1	5	3	4
1	7	19648	0	1	2	1	0
1	7	44000	0	1	2	3	4
1	7	7.24582e+06	0	1	2	5	4
1	7	450	0	1	5	3	4
1	8	34688	0	1	2	1	0
1	8	73900	0	1	2	3	4
1	8	1.26935e+07	0	1	2	5	4
1	8	200	0	1	5	3	4
1	9	15552	0	1	2	1	0
1	9	37800	0	1	2	3	4
1	9	5.48045e+06	0	1	2	5	4
1	9	100	0	1	5	3	4
2	0	200512	0	1	2	1	0
2	0	477600	0	1	2	3	4
2	0	7.74758e+07	0	1	2	5	4
2	0	1650	0	1	5	3	4
2	1	33280	0	1	2	1	0
2	1	81300	0	1	2	3	4
2	1	1.27672e+07	0	1	2	5	4
2	1	350	0	1	5	3	4
2	3	23232	0	1	2	1	0
2	3	61500	0	1	2	3	4
2	3	9.65837e+06	0	1	2	5	4
2	3	150	0	1	5	3	4
2	4	41408	0	1	2	1	0
2	4	93100	0	1	2	3	4
2	4	1.56877e+07	0	1	2	5	4
2	4	450	0	1	5	3	4
2	5	17536	0	1	2	1	0
2	5	40800	0	1	2	3	4
2	5	6.2464e+06	0	1	2	5	4
2	5	150	0	1	5	3	4
2	6	9920	0	1	2	1	0
2	6	22400	0	1	2	3	4
2	6	3.44474e+06	0	1	2	5	4
2	7	10304	0	1	2	1	0
2	7	30400	0	1	2	3	4
2	7	4.93158e+06	0	1	2	5	4
2	7	50	0	1	5	3	4
2	8	10688	0	1	2	1	0
2	8	29400	0	1	2	3	4
2	8	4.36634e+06	0	1	2	5	4
2	8	100	0	1	5	3	4
2	9	8640	0	1	2	1	0
2	9	21600	0	1	2	3	4
2	9	3.80109e+06	0	1	2	5	4
2	9	100	0	1	5	3	4
3	0	76480	0	1	2	1	0
3	0	185100	0	1	2	3	4
3	0	2.87908e+07	0	1	2	5	4
3	0	850	0	1	5	3	4
3	1	24576	0	1	2	1	0
3	1	62100	0	1	2	3	4
3	1	9.39213e+06	0	1	2	5	4
3	1	400	0	1	5	3	4
3	2	24000	0	1	2	1	0
3	2	61000	0	1	2	3	4
3	2	9.53958e+06	0	1	2	5	4
3	2	300	0	1	5	3	4
3	4	28736	0	1	2	1	0
3	4	75100	0	1	2	3	4
3	4	1.1223e+07	0	1	2	5	4
3	4	200	0	1	5	3	4
3	5	24128	0	1	2	1	0
3	5	57700	0	1	2	3	4
3	5	9.85907e+06	0	1	2	5	4
3	5	200	0	1	5	3	4
3	6	7616	0	1	2	1	0
3	6	14700	0	1	2	3	4
3	6	2.81805e+06	0	1	2	5	4
3	6	50	0	1	5	3	4
3	7	9152	0	1	2	1	0
3	7	20700	0	1	2	3	4
3	7	3.64134e+06	0	1	2	5	4
3	7	50	0	1	5	3	4
3	8	8128	0	1	2	1	0
3	8	20400	0	1	2	3	4
3	8	3.26042e+06	0	1	2	5	4
3	9	8000	0	1	2	1	0
3	9	18700	0	1	2	3	4
3	9	2.83034e+06	0	1	2	5	4
3	9	50	0	1	5	3	4
4	0	62400	0	1	2	1	0
4	0	146300	0	1	2	3	4
4	0	2.23396e+07	0	1	2	5	4
4	0	850	0	1	5	3	4
4	1	21376	0	1	2	1	0
4	1	48300	0	1	2	3	4
4	1	7.51206e+06	0	1	2	5	4
4	1	250	0	1	5	3	4
4	2	39808	0	1	2	1	0
4	2	89200	0	1	2	3	4
4	2	1.52166e+07	0	1	2	5	4
4	2	100	0	1	5	3	4
4	3	31168	0	1	2	1	0
4	3	72700	0	1	2	3	4
4	3	1.14319e+07	0	1	2	5	4
4	3	100	0	1	5	3	4
4	5	9984	0	1	2	1	0
4	5	22500	0	1	2	3	4
4	5	3.60448e+06	0	1	2	5	4
4	6	7360	0	1	2	1	0
4	6	22800	0	1	2	3	4
4	6	3.3833e+06	0	1	2	5	4
4	6	150	0	1	5	3	4
4	7	15360	0	1	2	1	0
4	7	35100	0	1	2	3	4
4	7	5.86547e+06	0	1	2	5	4
4	7	150	0	1	5	3	4
4	8	7168	0	1	2	1	0
4	8	16700	0	1	2	3	4
4	8	2.64602e+06	0	1	2	5	4
4	8	50	0	1	5	3	4
4	9	6656	0	1	2	1	0
4	9	12700	0	1	2	3	4
4	9	2.33882e+06	0	1	2	5	4
4	9	150	0	1	5	3	4
5	0	102528	0	1	2	1	0
5	0	240700	0	1	2	3	4
5	0	3.83508e+07	0	1	2	5	4
5	0	1150	0	1	5	3	4
5	1	25280	0	1	2	1	0
5	1	63100	0	1	2	3	4
5	1	9.78125e+06	0	1	2	5	4
5	1	50	0	1	5	3	4
5	2	15296	0	1	2	1	0
5	2	36800	0	1	2	3	4
5	2	6.33651e+06	0	1	2	5	4
5	2	150	0	1	5	3	4
5	3	23808	0	1	2	1	0
5	3	60000	0	1	2	3	4
5	3	9.65427e+06	0	1	2	5	4
5	3	350	0	1	5	3	4
5	4	10688	0	1	2	1	0
5	4	24900	0	1	2	3	4
5	4	3.584e+06	0	1	2	5	4
5	4	50	0	1	5	3	4
5	6	4736	0	1	2	1	0
5	6	11000	0	1	2	3	4
5	6	1.78995e+06	0	1	2	5	4
5	6	100	0	1	5	3	4
5	7	6016	0	1	2	1	0
5	7	16000	0	1	2	3	4
5	7	2.5559e+06	0	1	2	5	4
5	7	50	0	1	5	3	4
5	8	11648	0	1	2	1	0
5	8	29600	0	1	2	3	4
5	8	4.39091e+06	0	1	2	5	4
5	8	100	0	1	5	3	4
5	9	10944	0	1	2	1	0
5	9	23800	0	1	2	3	4
5	9	3.64544e+06	0	1	2	5	4
5	9	100	0	1	5	3	4
6	0	28288	0	1	2	1	0
6	0	70400	0	1	2	3	4
6	0	1.11862e+07	0	1	2	5	4
6	0	350	0	1	5	3	4
6	1	10944	0	1	2	1	0
6	1	36500	0	1	2	3	4
6	1	5.45997e+06	0	1	2	5	4
6	1	150	0	1	5	3	4
6	2	8768	0	1	2	1	0
6	2	20200	0	1	2	3	4
6	2	3.79699e+06	0	1	2	5	4
6	2	100	0	1	5	3	4
6	3	7936	0	1	2	1	0
6	3	16200	0	1	2	3	4
6	3	2.71974e+06	0	1	2	5	4
6	4	8512	0	1	2	1	0
6	4	22800	0	1	2	3	4
6	4	3.16621e+06	0	1	2	5	4
6	4	200	0	1	5	3	4
6	5	5440	0	1	2	1	0
6	5	11300	0	1	2	3	4
6	5	1.88006e+06	0	1	2	5	4
6	5	100	0	1	5	3	4
6	7	8896	0	1	2	1	0
6	7	25300	0	1	2	3	4
6	7	4.14925e+06	0	1	2	5	4
6	8	4288	0	1	2	1	0
6	8	10000	0	1	2	3	4
6	8	1.8473e+06	0	1	2	5	4
6	9	3904	0	1	2	1	0
6	9	6600	0	1	2	3	4
6	9	1.68755e+06	0	1	2	5	4
6	9	50	0	1	5	3	4
7	0	37760	0	1	2	1	0
7	0	90500	0	1	2	3	4
7	0	1.43442e+07	0	1	2	5	4
7	0	600	0	1	5	3	4
7	1	19200	0	1	2	1	0
7	1	42200	0	1	2	3	4
7	1	7.08608e+06	0	1	2	5	4
7	1	50	0	1	5	3	4
7	2	13312	0	1	2	1	0
7	2	33200	0	1	2	3	4
7	2	4.84147e+06	0	1	2	5	4
7	2	150	0	1	5	3	4
7	3	8640	0	1	2	1	0
7	3	20900	0	1	2	3	4
7	3	3.44474e+06	0	1	2	5	4
7	3	250	0	1	5	3	4
7	4	16704	0	1	2	1	0
7	4	40300	0	1	2	3	4
7	4	5.50912e+06	0	1	2	5	4
7	4	100	0	1	5	3	4
7	5	6464	0	1	2	1	0
7	5	17800	0	1	2	3	4
7	5	2.53133e+06	0	1	2	5	4
7	6	11904	0	1	2	1	0
7	6	20200	0	1	2	3	4
7	6	4.28851e+06	0	1	2	5	4
7	6	150	0	1	5	3	4
7	8	9408	0	1	2	1	0
7	8	18800	0	1	2	3	4
7	8	3.10886e+06	0	1	2	5	4
7	8	100	0	1	5	3	4
7	9	7296	0	1	2	1	0
7	9	16100	0	1	2	3	4
7	9	2.85491e+06	0	1	2	5	4
7	9	50	0	1	5	3	4
8	0	71616	0	1	2	1	0
8	0	160400	0	1	2	3	4
8	0	2.53215e+07	0	1	2	5	4
8	0	650	0	1	5	3	4
8	1	34368	0	1	2	1	0
8	1	83000	0	1	2	3	4
8	1	1.28287e+07	0	1	2	5	4
8	1	300	0	1	5	3	4
8	2	10880	0	1	2	1	0
8	2	24100	0	1	2	3	4
8	2	4.35405e+06	0	1	2	5	4
8	2	150	0	1	5	3	4
8	3	7552	0	1	2	1	0
8	3	20600	0	1	2	3	4
8	3	3.13344e+06	0	1	2	5	4
8	3	150	0	1	5	3	4
8	4	6528	0	1	2	1	0
8	4	15400	0	1	2	3	4
8	4	2.3552e+06	0	1	2	5	4
8	4	50	0	1	5	3	4
8	5	11904	0	1	2	1	0
8	5	25000	0	1	2	3	4
8	5	4.12877e+06	0	1	2	5	4
8	5	50	0	1	5	3	4
8	6	4608	0	1	2	1	0
8	6	11700	0	1	2	3	4
8	6	1.81043e+06	0	1	2	5	4
8	6	100	0	1	5	3	4
8	7	8128	0	1	2	1	0
8	7	18800	0	1	2	3	4
8	7	3.06381e+06	0	1	2	5	4
8	7	100	0	1	5	3	4
8	9	5184	0	1	2	1	0
8	9	19100	0	1	2	3	4
8	9	2.43302e+06	0	1	2	5	4
8	9	200	0	1	5	3	4
9	0	61248	0	1	2	1	0
9	0	143200	0	1	2	3	4
9	0	2.35315e+07	0	1	2	5	4
9	0	350	0	1	5	3	4
9	1	15616	0	1	2	1	0
9	1	32100	0	1	2	3	4
9	1	5.76307e+06	0	1	2	5	4
9	1	100	0	1	5	3	4
9	2	10752	0	1	2	1	0
9	2	24200	0	1	2	3	4
9	2	3.86253e+06	0	1	2	5	4
9	2	50	0	1	5	3	4
9	3	8256	0	1	2	1	0
9	3	17900	0	1	2	3	4
9	3	3.26042e+06	0	1	2	5	4
9	3	100	0	1	5	3	4
9	4	6400	0	1	2	1	0
9	4	14200	0	1	2	3	4
9	4	2.27738e+06	0	1	2	5	4
9	4	100	0	1	5	3	4
9	5	9344	0	1	2	1	0
9	5	23700	0	1	2	3	4
9	5	3.83795e+06	0	1	2	5	4
9	5	150	0	1	5	3	4
9	6	4032	0	1	2	1	0
9	6	11400	0	1	2	3	4
9	6	1.63021e+06	0	1	2	5	4
9	6	50	0	1	5	3	4
9	7	7616	0	1	2	1	0
9	7	19200	0	1	2	3	4
9	7	2.75251e+06	0	1	2	5	4
9	7	150	0	1	5	3	4
9	8	6464	0	1	2	1	0
9	8	14600	0	1	2	3	4
9	8	2.62963e+06	0	1	2	5	4
9	8	100	0	1	5	3	4
