100000	100000	100000	10000	1000	1000
0	1	256	0	1	2	1	0
0	1	400	0	1	2	3	4
0	1	98304	0	1	2	5	4
0	2	384	0	1	2	1	0
0	2	600	0	1	2	3	4
0	2	135168	0	1	2	5	4
0	3	64	0	1	2	1	0
0	3	1000	0	1	2	3	4
0	3	98304	0	1	2	5	4
0	4	128	0	1	2	1	0
0	4	900	0	1	2	3	4
0	4	135168	0	1	2	5	4
0	5	256	0	1	2	1	0
0	5	600	0	1	2	3	4
0	5	86016	0	1	2	5	4
0	6	320	0	1	2	1	0
0	6	800	0	1	2	3	4
0	6	102400	0	1	2	5	4
0	7	192	0	1	2	1	0
0	7	1100	0	1	2	3	4
0	7	102400	0	1	2	5	4
0	8	448	0	1	2	1	0
0	8	300	0	1	2	3	4
0	8	86016	0	1	2	5	4
0	9	128	0	1	2	1	0
0	9	900	0	1	2	3	4
0	9	135168	0	1	2	5	4
1	0	512	0	1	2	1	0
1	0	500	0	1	2	3	4
1	0	114688	0	1	2	5	4
1	2	192	0	1	2	1	0
1	2	500	0	1	2	3	4
1	2	86016	0	1	2	5	4
1	3	256	0	1	2	1	0
1	3	400	0	1	2	3	4
1	3	86016	0	1	2	5	4
1	4	704	0	1	2	1	0
1	4	1000	0	1	2	3	4
1	4	143360	0	1	2	5	4
1	5	64	0	1	2	1	0
1	5	500	0	1	2	3	4
1	5	102400	0	1	2	5	4
1	6	512	0	1	2	1	0
1	6	400	0	1	2	3	4
1	6	143360	0	1	2	5	4
1	7	128	0	1	2	1	0
1	7	900	0	1	2	3	4
1	7	98304	0	1	2	5	4
1	8	192	0	1	2	1	0
1	8	500	0	1	2	3	4
1	8	106496	0	1	2	5	4
1	9	192	0	1	2	1	0
1	9	1000	0	1	2	3	4
1	9	110592	0	1	2	5	4
2	0	192	0	1	2	1	0
2	0	500	0	1	2	3	4
2	0	126976	0	1	2	5	4
2	1	256	0	1	2	1	0
2	1	800	0	1	2	3	4
2	1	147456	0	1	2	5	4
2	3	256	0	1	2	1	0
2	3	1000	0	1	2	3	4
2	3	143360	0	1	2	5	4
2	4	256	0	1	2	1	0
2	4	400	0	1	2	3	4
2	4	114688	0	1	2	5	4
2	5	320	0	1	2	1	0
2	5	600	0	1	2	3	4
2	5	106496	0	1	2	5	4
2	6	320	0	1	2	1	0
2	6	900	0	1	2	3	4
2	6	110592	0	1	2	5	4
2	7	320	0	1	2	1	0
2	7	700	0	1	2	3	4
2	7	106496	0	1	2	5	4
2	8	448	0	1	2	1	0
2	8	600	0	1	2	3	4
2	8	73728	0	1	2	5	4
2	9	192	0	1	2	1	0
2	9	1100	0	1	2	3	4
2	9	106496	0	1	2	5	4
3	0	320	0	1	2	1	0
3	0	600	0	1	2	3	4
3	0	139264	0	1	2	5	4
3	0	50	0	1	5	3	4
3	1	256	0	1	2	1	0
3	1	1100	0	1	2	3	4
3	1	131072	0	1	2	5	4
3	2	192	0	1	2	1	0
3	2	700	0	1	2	3	4
3	2	102400	0	1	2	5	4
3	4	320	0	1	2	1	0
3	4	800	0	1	2	3	4
3	4	118784	0	1	2	5	4
3	4	50	0	1	5	3	4
3	5	128	0	1	2	1	0
3	5	700	0	1	2	3	4
3	5	135168	0	1	2	5	4
3	6	192	0	1	2	1	0
3	6	800	0	1	2	3	4
3	6	77824	0	1	2	5	4
3	7	256	0	1	2	1	0
3	7	400	0	1	2	3	4
3	7	98304	0	1	2	5	4
3	8	192	0	1	2	1	0
3	8	1000	0	1	2	3	4
3	8	114688	0	1	2	5	4
3	9	320	0	1	2	1	0
3	9	300	0	1	2	3	4
3	9	122880	0	1	2	5	4
4	0	320	0	1	2	1	0
4	0	500	0	1	2	3	4
4	0	126976	0	1	2	5	4
4	1	512	0	1	2	1	0
4	1	500	0	1	2	3	4
4	1	118784	0	1	2	5	4
4	2	192	0	1	2	1	0
4	2	900	0	1	2	3	4
4	2	114688	0	1	2	5	4
4	3	320	0	1	2	1	0
4	3	400	0	1	2	3	4
4	3	114688	0	1	2	5	4
4	5	320	0	1	2	1	0
4	5	600	0	1	2	3	4
4	5	94208	0	1	2	5	4
4	6	128	0	1	2	1	0
4	6	800	0	1	2	3	4
4	6	77824	0	1	2	5	4
4	7	256	0	1	2	1	0
4	7	800	0	1	2	3	4
4	7	122880	0	1	2	5	4
4	8	320	0	1	2	1	0
4	8	1100	0	1	2	3	4
4	8	98304	0	1	2	5	4
4	9	192	0	1	2	1	0
4	9	500	0	1	2	3	4
4	9	94208	0	1	2	5	4
5	0	320	0	1	2	1	0
5	0	300	0	1	2	3	4
5	0	131072	0	1	2	5	4
5	1	64	0	1	2	1	0
5	1	1000	0	1	2	3	4
5	1	106496	0	1	2	5	4
5	2	448	0	1	2	1	0
5	2	800	0	1	2	3	4
5	2	147456	0	1	2	5	4
5	3	320	0	1	2	1	0
5	3	400	0	1	2	3	4
5	3	122880	0	1	2	5	4
5	4	384	0	1	2	1	0
5	4	300	0	1	2	3	4
5	4	114688	0	1	2	5	4
5	6	128	0	1	2	1	0
5	6	700	0	1	2	3	4
5	6	86016	0	1	2	5	4
5	7	64	0	1	2	1	0
5	7	900	0	1	2	3	4
5	7	135168	0	1	2	5	4
5	8	128	0	1	2	1	0
5	8	900	0	1	2	3	4
5	8	98304	0	1	2	5	4
5	9	384	0	1	2	1	0
5	9	700	0	1	2	3	4
5	9	139264	0	1	2	5	4
6	0	128	0	1	2	1	0
6	0	600	0	1	2	3	4
6	0	94208	0	1	2	5	4
6	1	320	0	1	2	1	0
6	1	800	0	1	2	3	4
6	1	131072	0	1	2	5	4
6	2	192	0	1	2	1	0
6	2	700	0	1	2	3	4
6	2	106496	0	1	2	5	4
6	3	320	0	1	2	1	0
6	3	200	0	1	2	3	4
6	3	98304	0	1	2	5	4
6	3	50	0	1	5	3	4
6	4	704	0	1	2	1	0
6	4	1100	0	1	2	3	4
6	4	131072	0	1	2	5	4
6	5	256	0	1	2	1	0
6	5	900	0	1	2	3	4
6	5	90112	0	1	2	5	4
6	7	320	0	1	2	1	0
6	7	1100	0	1	2	3	4
6	7	114688	0	1	2	5	4
6	8	320	0	1	2	1	0
6	8	800	0	1	2	3	4
6	8	81920	0	1	2	5	4
6	9	320	0	1	2	1	0
6	9	600	0	1	2	3	4
6	9	135168	0	1	2	5	4
7	0	448	0	1	2	1	0
7	0	500	0	1	2	3	4
7	0	94208	0	1	2	5	4
7	1	192	0	1	2	1	0
7	1	500	0	1	2	3	4
7	1	110592	0	1	2	5	4
7	2	192	0	1	2	1	0
7	2	600	0	1	2	3	4
7	2	122880	0	1	2	5	4
7	3	256	0	1	2	1	0
7	3	600	0	1	2	3	4
7	3	69632	0	1	2	5	4
7	4	256	0	1	2	1	0
7	4	300	0	1	2	3	4
7	4	94208	0	1	2	5	4
7	5	256	0	1	2	1	0
7	5	500	0	1	2	3	4
7	5	118784	0	1	2	5	4
7	6	256	0	1	2	1	0
7	6	900	0	1	2	3	4
7	6	114688	0	1	2	5	4
7	8	384	0	1	2	1	0
7	8	1000	0	1	2	3	4
7	8	139264	0	1	2	5	4
7	9	128	0	1	2	1	0
7	9	700	0	1	2	3	4
7	9	114688	0	1	2	5	4
8	0	448	0	1	2	1	0
8	0	500	0	1	2	3	4
8	0	126976	0	1	2	5	4
8	1	320	0	1	2	1	0
8	1	500	0	1	2	3	4
8	1	131072	0	1	2	5	4
8	1	50	0	1	5	3	4
8	2	512	0	1	2	1	0
8	2	300	0	1	2	3	4
8	2	102400	0	1	2	5	4
8	3	384	0	1	2	1	0
8	3	900	0	1	2	3	4
8	3	102400	0	1	2	5	4
8	4	64	0	1	2	1	0
8	4	800	0	1	2	3	4
8	4	86016	0	1	2	5	4
8	5	448	0	1	2	1	0
8	5	400	0	1	2	3	4
8	5	118784	0	1	2	5	4
8	6	320	0	1	2	1	0
8	6	800	0	1	2	3	4
8	6	86016	0	1	2	5	4
8	7	384	0	1	2	1	0
8	7	500	0	1	2	3	4
8	7	114688	0	1	2	5	4
8	9	64	0	1	2	1	0
8	9	500	0	1	2	3	4
8	9	102400	0	1	2	5	4
9	0	192	0	1	2	1	0
9	0	600	0	1	2	3	4
9	0	106496	0	1	2	5	4
9	1	192	0	1	2	1	0
9	1	800	0	1	2	3	4
9	1	102400	0	1	2	5	4
9	2	384	0	1	2	1	0
9	2	900	0	1	2	3	4
9	2	110592	0	1	2	5	4
9	3	128	0	1	2	1	0
9	3	600	0	1	2	3	4
9	3	106496	0	1	2	5	4
9	4	192	0	1	2	1	0
9	4	600	0	1	2	3	4
9	4	114688	0	1	2	5	4
9	5	448	0	1	2	1	0
9	5	700	0	1	2	3	4
9	5	77824	0	1	2	5	4
9	6	256	0	1	2	1	0
9	6	700	0	1	2	3	4
9	6	90112	0	1	2	5	4
9	7	64	0	1	2	1	0
9	7	600	0	1	2	3	4
9	7	102400	0	1	2	5	4
9	8	900	0	1	2	3	4
9	8	81920	0	1	2	5	4
