10
0	2	1e+12
0	7	1e+12
0	8	1e+12
1	4	1e+12
2	0	1e+12
2	9	1e+12
3	4	1e+12
3	5	1e+12
3	6	1e+12
3	8	1e+12
3	9	1e+12
4	1	1e+12
4	3	1e+12
4	6	1e+12
4	7	1e+12
5	3	1e+12
5	6	1e+12
5	9	1e+12
6	3	1e+12
6	4	1e+12
6	5	1e+12
7	0	1e+12
7	4	1e+12
8	0	1e+12
8	3	1e+12
9	2	1e+12
9	3	1e+12
9	5	1e+12
