10
0	9	1e+12
1	3	1e+12
2	3	1e+12
2	5	1e+12
3	1	1e+12
3	2	1e+12
3	4	1e+12
4	3	1e+12
5	2	1e+12
5	6	1e+12
5	8	1e+12
5	9	1e+12
6	5	1e+12
6	9	1e+12
7	8	1e+12
8	5	1e+12
8	7	1e+12
9	0	1e+12
9	5	1e+12
9	6	1e+12
