100000	100000	100000	10000	1000	1000
0	1	14336	0	1	2	1	0
0	1	36600	0	1	2	3	4
0	1	5.61562e+06	0	1	2	5	4
0	1	100	0	1	5	3	4
0	2	12608	0	1	2	1	0
0	2	37000	0	1	2	3	4
0	2	5.14867e+06	0	1	2	5	4
0	2	50	0	1	5	3	4
0	3	14528	0	1	2	1	0
0	3	33600	0	1	2	3	4
0	3	5.50093e+06	0	1	2	5	4
0	3	300	0	1	5	3	4
0	4	14848	0	1	2	1	0
0	4	34200	0	1	2	3	4
0	4	5.41901e+06	0	1	2	5	4
0	4	100	0	1	5	3	4
0	5	14208	0	1	2	1	0
0	5	36400	0	1	2	3	4
0	5	5.68934e+06	0	1	2	5	4
0	5	50	0	1	5	3	4
0	6	14144	0	1	2	1	0
0	6	34800	0	1	2	3	4
0	6	5.43539e+06	0	1	2	5	4
0	6	150	0	1	5	3	4
0	7	16256	0	1	2	1	0
0	7	34000	0	1	2	3	4
0	7	5.50502e+06	0	1	2	5	4
0	7	50	0	1	5	3	4
0	8	13888	0	1	2	1	0
0	8	35600	0	1	2	3	4
0	8	5.57056e+06	0	1	2	5	4
0	8	300	0	1	5	3	4
0	9	14400	0	1	2	1	0
0	9	33400	0	1	2	3	4
0	9	5.28384e+06	0	1	2	5	4
0	9	150	0	1	5	3	4
0	10	14208	0	1	2	1	0
0	10	37000	0	1	2	3	4
0	10	5.48454e+06	0	1	2	5	4
0	10	150	0	1	5	3	4
0	11	15424	0	1	2	1	0
0	11	33900	0	1	2	3	4
0	11	5.68934e+06	0	1	2	5	4
0	11	100	0	1	5	3	4
0	12	13184	0	1	2	1	0
0	12	34400	0	1	2	3	4
0	12	5.29613e+06	0	1	2	5	4
0	12	50	0	1	5	3	4
0	13	13632	0	1	2	1	0
0	13	36900	0	1	2	3	4
0	13	5.33709e+06	0	1	2	5	4
0	13	50	0	1	5	3	4
1	0	15040	0	1	2	1	0
1	0	34800	0	1	2	3	4
1	0	5.16915e+06	0	1	2	5	4
1	0	150	0	1	5	3	4
1	2	13504	0	1	2	1	0
1	2	31200	0	1	2	3	4
1	2	5.34528e+06	0	1	2	5	4
1	2	100	0	1	5	3	4
1	3	14272	0	1	2	1	0
1	3	31900	0	1	2	3	4
1	3	5.44768e+06	0	1	2	5	4
1	3	50	0	1	5	3	4
1	4	13824	0	1	2	1	0
1	4	30500	0	1	2	3	4
1	4	5.25926e+06	0	1	2	5	4
1	4	100	0	1	5	3	4
1	5	13696	0	1	2	1	0
1	5	37400	0	1	2	3	4
1	5	5.25517e+06	0	1	2	5	4
1	5	100	0	1	5	3	4
1	6	15488	0	1	2	1	0
1	6	34600	0	1	2	3	4
1	6	5.5296e+06	0	1	2	5	4
1	6	250	0	1	5	3	4
1	7	14272	0	1	2	1	0
1	7	34100	0	1	2	3	4
1	7	5.47226e+06	0	1	2	5	4
1	7	200	0	1	5	3	4
1	8	15104	0	1	2	1	0
1	8	36500	0	1	2	3	4
1	8	5.52141e+06	0	1	2	5	4
1	8	150	0	1	5	3	4
1	9	14016	0	1	2	1	0
1	9	32100	0	1	2	3	4
1	9	5.48045e+06	0	1	2	5	4
1	9	100	0	1	5	3	4
1	10	15104	0	1	2	1	0
1	10	31100	0	1	2	3	4
1	10	5.05037e+06	0	1	2	5	4
1	10	200	0	1	5	3	4
1	11	11968	0	1	2	1	0
1	11	39300	0	1	2	3	4
1	11	5.40672e+06	0	1	2	5	4
1	11	50	0	1	5	3	4
1	12	15296	0	1	2	1	0
1	12	33600	0	1	2	3	4
1	12	5.30842e+06	0	1	2	5	4
1	12	250	0	1	5	3	4
1	13	14528	0	1	2	1	0
1	13	38100	0	1	2	3	4
1	13	5.5337e+06	0	1	2	5	4
1	13	150	0	1	5	3	4
2	0	12288	0	1	2	1	0
2	0	35300	0	1	2	3	4
2	0	5.45587e+06	0	1	2	5	4
2	0	100	0	1	5	3	4
2	1	13632	0	1	2	1	0
2	1	33400	0	1	2	3	4
2	1	5.29203e+06	0	1	2	5	4
2	1	250	0	1	5	3	4
2	3	15168	0	1	2	1	0
2	3	36200	0	1	2	3	4
2	3	5.61562e+06	0	1	2	5	4
2	3	50	0	1	5	3	4
2	4	14016	0	1	2	1	0
2	4	35800	0	1	2	3	4
2	4	5.64838e+06	0	1	2	5	4
2	4	50	0	1	5	3	4
2	5	16128	0	1	2	1	0
2	5	34100	0	1	2	3	4
2	5	5.72211e+06	0	1	2	5	4
2	6	16320	0	1	2	1	0
2	6	35600	0	1	2	3	4
2	6	5.5296e+06	0	1	2	5	4
2	6	200	0	1	5	3	4
2	7	14080	0	1	2	1	0
2	7	37400	0	1	2	3	4
2	7	5.43539e+06	0	1	2	5	4
2	7	50	0	1	5	3	4
2	8	15168	0	1	2	1	0
2	8	36900	0	1	2	3	4
2	8	5.59104e+06	0	1	2	5	4
2	8	200	0	1	5	3	4
2	9	13184	0	1	2	1	0
2	9	32100	0	1	2	3	4
2	9	5.53779e+06	0	1	2	5	4
2	9	100	0	1	5	3	4
2	10	11776	0	1	2	1	0
2	10	35200	0	1	2	3	4
2	10	5.60333e+06	0	1	2	5	4
2	10	50	0	1	5	3	4
2	11	12864	0	1	2	1	0
2	11	35700	0	1	2	3	4
2	11	5.48454e+06	0	1	2	5	4
2	11	150	0	1	5	3	4
2	12	13824	0	1	2	1	0
2	12	31600	0	1	2	3	4
2	12	5.23878e+06	0	1	2	5	4
2	12	300	0	1	5	3	4
2	13	12096	0	1	2	1	0
2	13	35700	0	1	2	3	4
2	13	5.34528e+06	0	1	2	5	4
2	13	250	0	1	5	3	4
3	0	14272	0	1	2	1	0
3	0	31200	0	1	2	3	4
3	0	5.27974e+06	0	1	2	5	4
3	0	250	0	1	5	3	4
3	1	16448	0	1	2	1	0
3	1	33900	0	1	2	3	4
3	1	5.4231e+06	0	1	2	5	4
3	1	150	0	1	5	3	4
3	2	13760	0	1	2	1	0
3	2	31900	0	1	2	3	4
3	2	5.50093e+06	0	1	2	5	4
3	2	150	0	1	5	3	4
3	4	14400	0	1	2	1	0
3	4	36000	0	1	2	3	4
3	4	5.4313e+06	0	1	2	5	4
3	4	50	0	1	5	3	4
3	5	14080	0	1	2	1	0
3	5	35600	0	1	2	3	4
3	5	5.5255e+06	0	1	2	5	4
3	5	200	0	1	5	3	4
3	6	14592	0	1	2	1	0
3	6	34100	0	1	2	3	4
3	6	5.44358e+06	0	1	2	5	4
3	6	250	0	1	5	3	4
3	7	14528	0	1	2	1	0
3	7	34600	0	1	2	3	4
3	7	5.5337e+06	0	1	2	5	4
3	7	100	0	1	5	3	4
3	8	15616	0	1	2	1	0
3	8	33000	0	1	2	3	4
3	8	5.632e+06	0	1	2	5	4
3	8	100	0	1	5	3	4
3	9	14080	0	1	2	1	0
3	9	35300	0	1	2	3	4
3	9	5.20192e+06	0	1	2	5	4
3	9	100	0	1	5	3	4
3	10	12800	0	1	2	1	0
3	10	37200	0	1	2	3	4
3	10	5.45178e+06	0	1	2	5	4
3	10	50	0	1	5	3	4
3	11	13696	0	1	2	1	0
3	11	36500	0	1	2	3	4
3	11	5.39853e+06	0	1	2	5	4
3	11	250	0	1	5	3	4
3	12	14080	0	1	2	1	0
3	12	34700	0	1	2	3	4
3	12	5.36986e+06	0	1	2	5	4
3	12	150	0	1	5	3	4
3	13	13120	0	1	2	1	0
3	13	37400	0	1	2	3	4
3	13	5.15686e+06	0	1	2	5	4
3	13	100	0	1	5	3	4
4	0	13888	0	1	2	1	0
4	0	36200	0	1	2	3	4
4	0	5.57466e+06	0	1	2	5	4
4	0	200	0	1	5	3	4
4	1	13312	0	1	2	1	0
4	1	32200	0	1	2	3	4
4	1	5.50912e+06	0	1	2	5	4
4	1	100	0	1	5	3	4
4	2	14784	0	1	2	1	0
4	2	36700	0	1	2	3	4
4	2	5.49274e+06	0	1	2	5	4
4	2	100	0	1	5	3	4
4	3	15424	0	1	2	1	0
4	3	32200	0	1	2	3	4
4	3	5.23878e+06	0	1	2	5	4
4	3	200	0	1	5	3	4
4	5	15424	0	1	2	1	0
4	5	34600	0	1	2	3	4
4	5	5.14048e+06	0	1	2	5	4
4	5	50	0	1	5	3	4
4	6	14592	0	1	2	1	0
4	6	38400	0	1	2	3	4
4	6	5.51731e+06	0	1	2	5	4
4	6	250	0	1	5	3	4
4	7	16000	0	1	2	1	0
4	7	34000	0	1	2	3	4
4	7	5.4231e+06	0	1	2	5	4
4	7	150	0	1	5	3	4
4	8	14976	0	1	2	1	0
4	8	34000	0	1	2	3	4
4	8	5.41491e+06	0	1	2	5	4
4	8	100	0	1	5	3	4
4	9	14784	0	1	2	1	0
4	9	34900	0	1	2	3	4
4	9	5.25107e+06	0	1	2	5	4
4	9	50	0	1	5	3	4
4	10	15680	0	1	2	1	0
4	10	36000	0	1	2	3	4
4	10	5.29203e+06	0	1	2	5	4
4	10	100	0	1	5	3	4
4	11	17664	0	1	2	1	0
4	11	34100	0	1	2	3	4
4	11	5.57466e+06	0	1	2	5	4
4	11	200	0	1	5	3	4
4	12	13248	0	1	2	1	0
4	12	34200	0	1	2	3	4
4	12	5.3248e+06	0	1	2	5	4
4	12	100	0	1	5	3	4
4	13	14016	0	1	2	1	0
4	13	33100	0	1	2	3	4
4	13	5.29613e+06	0	1	2	5	4
4	13	150	0	1	5	3	4
5	0	14592	0	1	2	1	0
5	0	35400	0	1	2	3	4
5	0	5.31251e+06	0	1	2	5	4
5	0	300	0	1	5	3	4
5	1	15296	0	1	2	1	0
5	1	36200	0	1	2	3	4
5	1	5.19782e+06	0	1	2	5	4
5	1	100	0	1	5	3	4
5	2	14464	0	1	2	1	0
5	2	34500	0	1	2	3	4
5	2	5.68934e+06	0	1	2	5	4
5	2	50	0	1	5	3	4
5	3	13824	0	1	2	1	0
5	3	35000	0	1	2	3	4
5	3	5.20192e+06	0	1	2	5	4
5	3	100	0	1	5	3	4
5	4	14912	0	1	2	1	0
5	4	33300	0	1	2	3	4
5	4	5.61971e+06	0	1	2	5	4
5	4	200	0	1	5	3	4
5	6	14720	0	1	2	1	0
5	6	32500	0	1	2	3	4
5	6	5.31661e+06	0	1	2	5	4
5	6	150	0	1	5	3	4
5	7	14464	0	1	2	1	0
5	7	32000	0	1	2	3	4
5	7	5.81222e+06	0	1	2	5	4
5	7	250	0	1	5	3	4
5	8	16384	0	1	2	1	0
5	8	33300	0	1	2	3	4
5	8	5.3207e+06	0	1	2	5	4
5	8	150	0	1	5	3	4
5	9	13696	0	1	2	1	0
5	9	35500	0	1	2	3	4
5	9	5.30432e+06	0	1	2	5	4
5	9	100	0	1	5	3	4
5	10	12928	0	1	2	1	0
5	10	36600	0	1	2	3	4
5	10	5.75898e+06	0	1	2	5	4
5	10	250	0	1	5	3	4
5	11	14144	0	1	2	1	0
5	11	35000	0	1	2	3	4
5	11	5.24288e+06	0	1	2	5	4
5	11	50	0	1	5	3	4
5	12	14592	0	1	2	1	0
5	12	33800	0	1	2	3	4
5	12	5.41901e+06	0	1	2	5	4
5	12	250	0	1	5	3	4
5	13	14336	0	1	2	1	0
5	13	35800	0	1	2	3	4
5	13	5.69754e+06	0	1	2	5	4
5	13	150	0	1	5	3	4
6	0	16640	0	1	2	1	0
6	0	35000	0	1	2	3	4
6	0	5.2183e+06	0	1	2	5	4
6	0	100	0	1	5	3	4
6	1	14272	0	1	2	1	0
6	1	37300	0	1	2	3	4
6	1	5.19373e+06	0	1	2	5	4
6	1	100	0	1	5	3	4
6	2	14208	0	1	2	1	0
6	2	32300	0	1	2	3	4
6	2	5.35347e+06	0	1	2	5	4
6	2	200	0	1	5	3	4
6	3	14912	0	1	2	1	0
6	3	38000	0	1	2	3	4
6	3	5.85318e+06	0	1	2	5	4
6	3	100	0	1	5	3	4
6	4	13632	0	1	2	1	0
6	4	40900	0	1	2	3	4
6	4	5.41491e+06	0	1	2	5	4
6	4	200	0	1	5	3	4
6	5	13184	0	1	2	1	0
6	5	33700	0	1	2	3	4
6	5	5.56237e+06	0	1	2	5	4
6	5	50	0	1	5	3	4
6	7	12480	0	1	2	1	0
6	7	35500	0	1	2	3	4
6	7	5.10771e+06	0	1	2	5	4
6	7	100	0	1	5	3	4
6	8	14784	0	1	2	1	0
6	8	36100	0	1	2	3	4
6	8	5.30842e+06	0	1	2	5	4
6	8	50	0	1	5	3	4
6	9	13888	0	1	2	1	0
6	9	33700	0	1	2	3	4
6	9	5.56646e+06	0	1	2	5	4
6	9	250	0	1	5	3	4
6	10	14208	0	1	2	1	0
6	10	37600	0	1	2	3	4
6	10	5.60742e+06	0	1	2	5	4
6	10	50	0	1	5	3	4
6	11	11456	0	1	2	1	0
6	11	34100	0	1	2	3	4
6	11	5.40672e+06	0	1	2	5	4
6	11	200	0	1	5	3	4
6	12	14848	0	1	2	1	0
6	12	33000	0	1	2	3	4
6	12	5.72211e+06	0	1	2	5	4
6	13	13376	0	1	2	1	0
6	13	36500	0	1	2	3	4
6	13	5.47226e+06	0	1	2	5	4
6	13	100	0	1	5	3	4
7	0	15168	0	1	2	1	0
7	0	35200	0	1	2	3	4
7	0	5.1241e+06	0	1	2	5	4
7	0	200	0	1	5	3	4
7	1	13888	0	1	2	1	0
7	1	35700	0	1	2	3	4
7	1	5.36576e+06	0	1	2	5	4
7	1	250	0	1	5	3	4
7	2	13632	0	1	2	1	0
7	2	36100	0	1	2	3	4
7	2	5.48864e+06	0	1	2	5	4
7	2	50	0	1	5	3	4
7	3	15936	0	1	2	1	0
7	3	33200	0	1	2	3	4
7	3	5.44768e+06	0	1	2	5	4
7	3	100	0	1	5	3	4
7	4	15232	0	1	2	1	0
7	4	35000	0	1	2	3	4
7	4	5.34938e+06	0	1	2	5	4
7	4	250	0	1	5	3	4
7	5	13952	0	1	2	1	0
7	5	35600	0	1	2	3	4
7	5	5.17734e+06	0	1	2	5	4
7	5	50	0	1	5	3	4
7	6	16256	0	1	2	1	0
7	6	35200	0	1	2	3	4
7	6	5.64838e+06	0	1	2	5	4
7	6	300	0	1	5	3	4
7	8	15296	0	1	2	1	0
7	8	34500	0	1	2	3	4
7	8	5.55827e+06	0	1	2	5	4
7	8	100	0	1	5	3	4
7	9	14272	0	1	2	1	0
7	9	34300	0	1	2	3	4
7	9	5.36986e+06	0	1	2	5	4
7	9	150	0	1	5	3	4
7	10	12992	0	1	2	1	0
7	10	36500	0	1	2	3	4
7	10	5.53779e+06	0	1	2	5	4
7	10	200	0	1	5	3	4
7	11	15104	0	1	2	1	0
7	11	33100	0	1	2	3	4
7	11	5.41491e+06	0	1	2	5	4
7	11	100	0	1	5	3	4
7	12	13504	0	1	2	1	0
7	12	34500	0	1	2	3	4
7	12	5.55008e+06	0	1	2	5	4
7	12	50	0	1	5	3	4
7	13	15168	0	1	2	1	0
7	13	36800	0	1	2	3	4
7	13	5.40262e+06	0	1	2	5	4
7	13	100	0	1	5	3	4
8	0	14336	0	1	2	1	0
8	0	32600	0	1	2	3	4
8	0	5.50502e+06	0	1	2	5	4
8	0	250	0	1	5	3	4
8	1	14592	0	1	2	1	0
8	1	36400	0	1	2	3	4
8	1	5.34118e+06	0	1	2	5	4
8	1	50	0	1	5	3	4
8	2	14592	0	1	2	1	0
8	2	34600	0	1	2	3	4
8	2	5.46406e+06	0	1	2	5	4
8	2	50	0	1	5	3	4
8	3	12992	0	1	2	1	0
8	3	35200	0	1	2	3	4
8	3	5.39853e+06	0	1	2	5	4
8	3	100	0	1	5	3	4
8	4	13952	0	1	2	1	0
8	4	33600	0	1	2	3	4
8	4	5.65248e+06	0	1	2	5	4
8	4	50	0	1	5	3	4
8	5	14528	0	1	2	1	0
8	5	31400	0	1	2	3	4
8	5	5.50093e+06	0	1	2	5	4
8	5	100	0	1	5	3	4
8	6	13120	0	1	2	1	0
8	6	34900	0	1	2	3	4
8	6	5.3248e+06	0	1	2	5	4
8	6	100	0	1	5	3	4
8	7	17152	0	1	2	1	0
8	7	34400	0	1	2	3	4
8	7	5.82861e+06	0	1	2	5	4
8	7	50	0	1	5	3	4
8	9	14016	0	1	2	1	0
8	9	33300	0	1	2	3	4
8	9	5.72211e+06	0	1	2	5	4
8	9	200	0	1	5	3	4
8	10	14784	0	1	2	1	0
8	10	32900	0	1	2	3	4
8	10	5.18963e+06	0	1	2	5	4
8	10	250	0	1	5	3	4
8	11	13120	0	1	2	1	0
8	11	36900	0	1	2	3	4
8	11	5.24698e+06	0	1	2	5	4
8	11	100	0	1	5	3	4
8	12	15104	0	1	2	1	0
8	12	33200	0	1	2	3	4
8	12	5.45587e+06	0	1	2	5	4
8	12	250	0	1	5	3	4
8	13	13760	0	1	2	1	0
8	13	31200	0	1	2	3	4
8	13	5.30842e+06	0	1	2	5	4
8	13	200	0	1	5	3	4
9	0	14784	0	1	2	1	0
9	0	36200	0	1	2	3	4
9	0	5.55418e+06	0	1	2	5	4
9	1	14080	0	1	2	1	0
9	1	33300	0	1	2	3	4
9	1	5.34118e+06	0	1	2	5	4
9	2	14656	0	1	2	1	0
9	2	32300	0	1	2	3	4
9	2	5.6361e+06	0	1	2	5	4
9	2	100	0	1	5	3	4
9	3	16000	0	1	2	1	0
9	3	37000	0	1	2	3	4
9	3	5.61971e+06	0	1	2	5	4
9	3	50	0	1	5	3	4
9	4	14144	0	1	2	1	0
9	4	37700	0	1	2	3	4
9	4	5.33709e+06	0	1	2	5	4
9	4	200	0	1	5	3	4
9	5	14336	0	1	2	1	0
9	5	36000	0	1	2	3	4
9	5	5.45587e+06	0	1	2	5	4
9	5	150	0	1	5	3	4
9	6	15104	0	1	2	1	0
9	6	35500	0	1	2	3	4
9	6	5.5255e+06	0	1	2	5	4
9	6	150	0	1	5	3	4
9	7	14464	0	1	2	1	0
9	7	33800	0	1	2	3	4
9	7	5.53779e+06	0	1	2	5	4
9	7	150	0	1	5	3	4
9	8	13376	0	1	2	1	0
9	8	37900	0	1	2	3	4
9	8	5.34118e+06	0	1	2	5	4
9	8	150	0	1	5	3	4
9	10	14592	0	1	2	1	0
9	10	30900	0	1	2	3	4
9	10	5.51731e+06	0	1	2	5	4
9	10	50	0	1	5	3	4
9	11	13632	0	1	2	1	0
9	11	35200	0	1	2	3	4
9	11	5.59514e+06	0	1	2	5	4
9	11	150	0	1	5	3	4
9	12	14912	0	1	2	1	0
9	12	35200	0	1	2	3	4
9	12	5.49274e+06	0	1	2	5	4
9	12	100	0	1	5	3	4
9	13	14080	0	1	2	1	0
9	13	34400	0	1	2	3	4
9	13	5.21011e+06	0	1	2	5	4
9	13	150	0	1	5	3	4
10	0	12672	0	1	2	1	0
10	0	39100	0	1	2	3	4
10	0	5.46406e+06	0	1	2	5	4
10	0	100	0	1	5	3	4
10	1	13632	0	1	2	1	0
10	1	36600	0	1	2	3	4
10	1	5.50912e+06	0	1	2	5	4
10	1	100	0	1	5	3	4
10	2	14144	0	1	2	1	0
10	2	35600	0	1	2	3	4
10	2	5.36986e+06	0	1	2	5	4
10	3	16192	0	1	2	1	0
10	3	36100	0	1	2	3	4
10	3	5.21011e+06	0	1	2	5	4
10	3	200	0	1	5	3	4
10	4	14848	0	1	2	1	0
10	4	35000	0	1	2	3	4
10	4	5.4231e+06	0	1	2	5	4
10	4	50	0	1	5	3	4
10	5	12544	0	1	2	1	0
10	5	35600	0	1	2	3	4
10	5	5.46816e+06	0	1	2	5	4
10	6	14080	0	1	2	1	0
10	6	35500	0	1	2	3	4
10	6	5.13638e+06	0	1	2	5	4
10	6	150	0	1	5	3	4
10	7	14720	0	1	2	1	0
10	7	33000	0	1	2	3	4
10	7	5.49683e+06	0	1	2	5	4
10	7	550	0	1	5	3	4
10	8	14528	0	1	2	1	0
10	8	32000	0	1	2	3	4
10	8	5.41082e+06	0	1	2	5	4
10	8	200	0	1	5	3	4
10	9	13504	0	1	2	1	0
10	9	35600	0	1	2	3	4
10	9	5.36576e+06	0	1	2	5	4
10	9	300	0	1	5	3	4
10	11	13888	0	1	2	1	0
10	11	36000	0	1	2	3	4
10	11	5.68525e+06	0	1	2	5	4
10	11	100	0	1	5	3	4
10	12	14016	0	1	2	1	0
10	12	36100	0	1	2	3	4
10	12	5.21011e+06	0	1	2	5	4
10	12	150	0	1	5	3	4
10	13	14912	0	1	2	1	0
10	13	35900	0	1	2	3	4
10	13	5.59104e+06	0	1	2	5	4
10	13	150	0	1	5	3	4
11	0	12736	0	1	2	1	0
11	0	34600	0	1	2	3	4
11	0	5.66886e+06	0	1	2	5	4
11	0	400	0	1	5	3	4
11	1	13056	0	1	2	1	0
11	1	34500	0	1	2	3	4
11	1	5.57466e+06	0	1	2	5	4
11	1	150	0	1	5	3	4
11	2	12800	0	1	2	1	0
11	2	33600	0	1	2	3	4
11	2	5.49683e+06	0	1	2	5	4
11	3	14208	0	1	2	1	0
11	3	32600	0	1	2	3	4
11	3	5.5296e+06	0	1	2	5	4
11	3	50	0	1	5	3	4
11	4	14528	0	1	2	1	0
11	4	32500	0	1	2	3	4
11	4	5.30432e+06	0	1	2	5	4
11	4	50	0	1	5	3	4
11	5	13888	0	1	2	1	0
11	5	33700	0	1	2	3	4
11	5	5.45587e+06	0	1	2	5	4
11	5	150	0	1	5	3	4
11	6	15424	0	1	2	1	0
11	6	38700	0	1	2	3	4
11	6	5.64019e+06	0	1	2	5	4
11	6	250	0	1	5	3	4
11	7	13120	0	1	2	1	0
11	7	33400	0	1	2	3	4
11	7	5.50912e+06	0	1	2	5	4
11	7	150	0	1	5	3	4
11	8	14656	0	1	2	1	0
11	8	34600	0	1	2	3	4
11	8	5.33709e+06	0	1	2	5	4
11	8	200	0	1	5	3	4
11	9	15360	0	1	2	1	0
11	9	34300	0	1	2	3	4
11	9	5.45997e+06	0	1	2	5	4
11	9	100	0	1	5	3	4
11	10	13952	0	1	2	1	0
11	10	35600	0	1	2	3	4
11	10	5.14458e+06	0	1	2	5	4
11	10	200	0	1	5	3	4
11	12	13760	0	1	2	1	0
11	12	35800	0	1	2	3	4
11	12	5.34938e+06	0	1	2	5	4
11	12	100	0	1	5	3	4
11	13	14336	0	1	2	1	0
11	13	37800	0	1	2	3	4
11	13	5.14458e+06	0	1	2	5	4
11	13	150	0	1	5	3	4
12	0	14976	0	1	2	1	0
12	0	35700	0	1	2	3	4
12	0	5.48454e+06	0	1	2	5	4
12	0	100	0	1	5	3	4
12	1	15680	0	1	2	1	0
12	1	33600	0	1	2	3	4
12	1	5.61971e+06	0	1	2	5	4
12	1	150	0	1	5	3	4
12	2	13184	0	1	2	1	0
12	2	37400	0	1	2	3	4
12	2	5.50093e+06	0	1	2	5	4
12	2	50	0	1	5	3	4
12	3	13952	0	1	2	1	0
12	3	34700	0	1	2	3	4
12	3	5.51322e+06	0	1	2	5	4
12	3	200	0	1	5	3	4
12	4	15488	0	1	2	1	0
12	4	33500	0	1	2	3	4
12	4	5.14458e+06	0	1	2	5	4
12	5	13440	0	1	2	1	0
12	5	34700	0	1	2	3	4
12	5	5.66477e+06	0	1	2	5	4
12	5	250	0	1	5	3	4
12	6	14464	0	1	2	1	0
12	6	34500	0	1	2	3	4
12	6	5.59514e+06	0	1	2	5	4
12	6	150	0	1	5	3	4
12	7	14784	0	1	2	1	0
12	7	33300	0	1	2	3	4
12	7	5.33299e+06	0	1	2	5	4
12	7	100	0	1	5	3	4
12	8	14912	0	1	2	1	0
12	8	35000	0	1	2	3	4
12	8	5.3289e+06	0	1	2	5	4
12	8	200	0	1	5	3	4
12	9	13952	0	1	2	1	0
12	9	33800	0	1	2	3	4
12	9	5.57056e+06	0	1	2	5	4
12	9	200	0	1	5	3	4
12	10	14208	0	1	2	1	0
12	10	32100	0	1	2	3	4
12	10	5.50093e+06	0	1	2	5	4
12	10	100	0	1	5	3	4
12	11	13824	0	1	2	1	0
12	11	33200	0	1	2	3	4
12	11	5.48454e+06	0	1	2	5	4
12	11	350	0	1	5	3	4
12	13	14208	0	1	2	1	0
12	13	33300	0	1	2	3	4
12	13	5.8327e+06	0	1	2	5	4
12	13	250	0	1	5	3	4
13	0	13568	0	1	2	1	0
13	0	33500	0	1	2	3	4
13	0	5.53779e+06	0	1	2	5	4
13	0	100	0	1	5	3	4
13	1	14272	0	1	2	1	0
13	1	35900	0	1	2	3	4
13	1	5.36576e+06	0	1	2	5	4
13	1	150	0	1	5	3	4
13	2	14016	0	1	2	1	0
13	2	31400	0	1	2	3	4
13	2	5.69344e+06	0	1	2	5	4
13	2	200	0	1	5	3	4
13	3	13696	0	1	2	1	0
13	3	32700	0	1	2	3	4
13	3	5.64838e+06	0	1	2	5	4
13	3	150	0	1	5	3	4
13	4	13440	0	1	2	1	0
13	4	32400	0	1	2	3	4
13	4	5.3289e+06	0	1	2	5	4
13	4	100	0	1	5	3	4
13	5	14208	0	1	2	1	0
13	5	34700	0	1	2	3	4
13	5	5.29203e+06	0	1	2	5	4
13	5	100	0	1	5	3	4
13	6	13760	0	1	2	1	0
13	6	33800	0	1	2	3	4
13	6	5.54598e+06	0	1	2	5	4
13	6	200	0	1	5	3	4
13	7	14464	0	1	2	1	0
13	7	36800	0	1	2	3	4
13	7	5.41901e+06	0	1	2	5	4
13	7	150	0	1	5	3	4
13	8	14144	0	1	2	1	0
13	8	32500	0	1	2	3	4
13	8	5.68525e+06	0	1	2	5	4
13	8	50	0	1	5	3	4
13	9	14976	0	1	2	1	0
13	9	37400	0	1	2	3	4
13	9	5.61971e+06	0	1	2	5	4
13	9	300	0	1	5	3	4
13	10	15040	0	1	2	1	0
13	10	35700	0	1	2	3	4
13	10	5.38624e+06	0	1	2	5	4
13	10	100	0	1	5	3	4
13	11	12736	0	1	2	1	0
13	11	37700	0	1	2	3	4
13	11	5.50093e+06	0	1	2	5	4
13	11	150	0	1	5	3	4
13	12	15040	0	1	2	1	0
13	12	37500	0	1	2	3	4
13	12	5.61562e+06	0	1	2	5	4
13	12	150	0	1	5	3	4
