10
0	2	1e+12
0	5	1e+12
0	7	1e+12
1	8	1e+12
2	0	1e+12
2	3	1e+12
3	2	1e+12
3	6	1e+12
3	9	1e+12
4	5	1e+12
4	6	1e+12
4	8	1e+12
4	9	1e+12
5	0	1e+12
5	4	1e+12
5	9	1e+12
6	3	1e+12
6	4	1e+12
7	0	1e+12
8	1	1e+12
8	4	1e+12
9	3	1e+12
9	4	1e+12
9	5	1e+12
