1000	1000	100000	10000	10000	1000
0	1	1.13539e+07	4	4	0	1	2
0	2	1.10435e+07	4	4	0	1	2
0	3	1.12901e+07	4	4	0	1	2
0	4	1.10325e+07	4	4	0	1	2
0	5	1.10699e+07	4	4	0	1	2
0	6	1.12702e+07	4	4	0	1	2
0	7	1.10897e+07	4	4	0	1	2
0	8	1.11712e+07	4	4	0	1	2
0	9	1.07948e+07	4	4	0	1	2
1	0	1.11426e+07	4	4	0	1	2
1	2	1.09841e+07	4	4	0	1	2
1	3	1.11624e+07	4	4	0	1	2
1	4	1.12945e+07	4	4	0	1	2
1	5	1.10215e+07	4	4	0	1	2
1	6	1.10677e+07	4	4	0	1	2
1	7	1.13671e+07	4	4	0	1	2
1	8	1.1158e+07	4	4	0	1	2
1	9	1.09379e+07	4	4	0	1	2
2	0	1.11712e+07	4	4	0	1	2
2	1	1.09819e+07	4	4	0	1	2
2	3	1.12394e+07	4	4	0	1	2
2	4	1.1136e+07	4	4	0	1	2
2	5	1.14221e+07	4	4	0	1	2
2	6	1.10391e+07	4	4	0	1	2
2	7	1.08256e+07	4	4	0	1	2
2	8	1.10457e+07	4	4	0	1	2
2	9	1.10941e+07	4	4	0	1	2
3	0	1.12218e+07	4	4	0	1	2
3	1	1.12262e+07	4	4	0	1	2
3	2	1.10743e+07	4	4	0	1	2
3	4	1.13297e+07	4	4	0	1	2
3	5	1.1169e+07	4	4	0	1	2
3	6	1.11492e+07	4	4	0	1	2
3	7	1.1114e+07	4	4	0	1	2
3	8	1.09004e+07	4	4	0	1	2
3	9	1.10061e+07	4	4	0	1	2
4	0	1.10655e+07	4	4	0	1	2
4	1	1.13759e+07	4	4	0	1	2
4	2	1.0918e+07	4	4	0	1	2
4	3	1.09577e+07	4	4	0	1	2
4	5	1.11888e+07	4	4	0	1	2
4	6	1.09048e+07	4	4	0	1	2
4	7	1.09379e+07	4	4	0	1	2
4	8	1.11822e+07	4	4	0	1	2
4	9	1.10523e+07	4	4	0	1	2
5	0	1.06957e+07	4	4	0	1	2
5	1	1.12724e+07	4	4	0	1	2
5	2	1.13077e+07	4	4	0	1	2
5	3	1.1191e+07	4	4	0	1	2
5	4	1.07199e+07	4	4	0	1	2
5	6	1.08476e+07	4	4	0	1	2
5	7	1.11426e+07	4	4	0	1	2
5	8	1.083e+07	4	4	0	1	2
5	9	1.09203e+07	4	4	0	1	2
6	0	1.10545e+07	4	4	0	1	2
6	1	1.12526e+07	4	4	0	1	2
6	2	1.09995e+07	4	4	0	1	2
6	3	1.11536e+07	4	4	0	1	2
6	4	1.15806e+07	4	4	0	1	2
6	5	1.11536e+07	4	4	0	1	2
6	7	1.09247e+07	4	4	0	1	2
6	8	1.11954e+07	4	4	0	1	2
6	9	1.08762e+07	4	4	0	1	2
7	0	1.11536e+07	4	4	0	1	2
7	1	1.07838e+07	4	4	0	1	2
7	2	1.13649e+07	4	4	0	1	2
7	3	1.11426e+07	4	4	0	1	2
7	4	1.13407e+07	4	4	0	1	2
7	5	1.13121e+07	4	4	0	1	2
7	6	1.11866e+07	4	4	0	1	2
7	8	1.1136e+07	4	4	0	1	2
7	9	1.12724e+07	4	4	0	1	2
8	0	1.10765e+07	4	4	0	1	2
8	1	1.1268e+07	4	4	0	1	2
8	2	1.12614e+07	4	4	0	1	2
8	3	1.11558e+07	4	4	0	1	2
8	4	1.09929e+07	4	4	0	1	2
8	5	1.12086e+07	4	4	0	1	2
8	6	1.10809e+07	4	4	0	1	2
8	7	1.10699e+07	4	4	0	1	2
8	9	1.12394e+07	4	4	0	1	2
9	0	1.10567e+07	4	4	0	1	2
9	1	1.10523e+07	4	4	0	1	2
9	2	1.11536e+07	4	4	0	1	2
9	3	1.11602e+07	4	4	0	1	2
9	4	1.12438e+07	4	4	0	1	2
9	5	1.09885e+07	4	4	0	1	2
9	6	1.11492e+07	4	4	0	1	2
9	7	1.09048e+07	4	4	0	1	2
9	8	1.1147e+07	4	4	0	1	2
