1000	1000	1000	10000	1000	1000
0	1	1.10555e+07	4	5	0	5	5
0	2	1.10218e+07	4	5	0	5	5
0	3	1.12852e+07	4	5	0	5	5
0	4	1.10463e+07	4	5	0	5	5
0	5	1.10381e+07	4	5	0	5	5
0	6	1.11259e+07	4	5	0	5	5
0	7	1.12434e+07	4	5	0	5	5
0	8	1.12362e+07	4	5	0	5	5
0	9	1.10932e+07	4	5	0	5	5
1	0	1.11637e+07	4	5	0	5	5
1	2	1.09932e+07	4	5	0	5	5
1	3	1.12015e+07	4	5	0	5	5
1	4	1.1131e+07	4	5	0	5	5
1	5	1.1129e+07	4	5	0	5	5
1	6	1.10371e+07	4	5	0	5	5
1	7	1.108e+07	4	5	0	5	5
1	8	1.09411e+07	4	5	0	5	5
1	9	1.10463e+07	4	5	0	5	5
2	0	1.11892e+07	4	5	0	5	5
2	1	1.10626e+07	4	5	0	5	5
2	3	1.08818e+07	4	5	0	5	5
2	4	1.12556e+07	4	5	0	5	5
2	5	1.1226e+07	4	5	0	5	5
2	6	1.11586e+07	4	5	0	5	5
2	7	1.11208e+07	4	5	0	5	5
2	8	1.10452e+07	4	5	0	5	5
2	9	1.09247e+07	4	5	0	5	5
3	0	1.11361e+07	4	5	0	5	5
3	1	1.09697e+07	4	5	0	5	5
3	2	1.10534e+07	4	5	0	5	5
3	4	1.10749e+07	4	5	0	5	5
3	5	1.10064e+07	4	5	0	5	5
3	6	1.12178e+07	4	5	0	5	5
3	7	1.13833e+07	4	5	0	5	5
3	8	1.10361e+07	4	5	0	5	5
3	9	1.11126e+07	4	5	0	5	5
4	0	1.12658e+07	4	5	0	5	5
4	1	1.10922e+07	4	5	0	5	5
4	2	1.11504e+07	4	5	0	5	5
4	3	1.12464e+07	4	5	0	5	5
4	5	1.10218e+07	4	5	0	5	5
4	6	1.12709e+07	4	5	0	5	5
4	7	1.13189e+07	4	5	0	5	5
4	8	1.11882e+07	4	5	0	5	5
4	9	1.10177e+07	4	5	0	5	5
5	0	1.12709e+07	4	5	0	5	5
5	1	1.09258e+07	4	5	0	5	5
5	2	1.12281e+07	4	5	0	5	5
5	3	1.11096e+07	4	5	0	5	5
5	4	1.11525e+07	4	5	0	5	5
5	6	1.11126e+07	4	5	0	5	5
5	7	1.10708e+07	4	5	0	5	5
5	8	1.12362e+07	4	5	0	5	5
5	9	1.10289e+07	4	5	0	5	5
6	0	1.1033e+07	4	5	0	5	5
6	1	1.11178e+07	4	5	0	5	5
6	2	1.11372e+07	4	5	0	5	5
6	3	1.09217e+07	4	5	0	5	5
6	4	1.1081e+07	4	5	0	5	5
6	5	1.09676e+07	4	5	0	5	5
6	7	1.10197e+07	4	5	0	5	5
6	8	1.10565e+07	4	5	0	5	5
6	9	1.11954e+07	4	5	0	5	5
7	0	1.13251e+07	4	5	0	5	5
7	1	1.12454e+07	4	5	0	5	5
7	2	1.12178e+07	4	5	0	5	5
7	3	1.08624e+07	4	5	0	5	5
7	4	1.10034e+07	4	5	0	5	5
7	5	1.1083e+07	4	5	0	5	5
7	6	1.11545e+07	4	5	0	5	5
7	8	1.10013e+07	4	5	0	5	5
7	9	1.10606e+07	4	5	0	5	5
8	0	1.11126e+07	4	5	0	5	5
8	1	1.10943e+07	4	5	0	5	5
8	2	1.12321e+07	4	5	0	5	5
8	3	1.12628e+07	4	5	0	5	5
8	4	1.09717e+07	4	5	0	5	5
8	5	1.11351e+07	4	5	0	5	5
8	6	1.12199e+07	4	5	0	5	5
8	7	1.10493e+07	4	5	0	5	5
8	9	1.12587e+07	4	5	0	5	5
9	0	1.10912e+07	4	5	0	5	5
9	1	1.10698e+07	4	5	0	5	5
9	2	1.10759e+07	4	5	0	5	5
9	3	1.10769e+07	4	5	0	5	5
9	4	1.1131e+07	4	5	0	5	5
9	5	1.0986e+07	4	5	0	5	5
9	6	1.10769e+07	4	5	0	5	5
9	7	1.11954e+07	4	5	0	5	5
9	8	1.10463e+07	4	5	0	5	5
