100000	100000	100000	10000	1000	1000
0	1	100	0	1	2	3	4
0	1	20480	0	1	2	5	4
0	2	100	0	1	2	3	4
0	2	12288	0	1	2	5	4
0	3	64	0	1	2	1	0
0	3	20480	0	1	2	5	4
0	4	64	0	1	2	1	0
0	4	200	0	1	2	3	4
0	4	12288	0	1	2	5	4
0	5	100	0	1	2	3	4
0	5	8192	0	1	2	5	4
0	6	100	0	1	2	3	4
0	6	4096	0	1	2	5	4
0	7	8192	0	1	2	5	4
0	8	64	0	1	2	1	0
0	8	100	0	1	2	3	4
0	8	20480	0	1	2	5	4
0	9	200	0	1	2	3	4
0	9	20480	0	1	2	5	4
1	0	12288	0	1	2	5	4
1	2	100	0	1	2	3	4
1	2	8192	0	1	2	5	4
1	3	128	0	1	2	1	0
1	4	64	0	1	2	1	0
1	4	12288	0	1	2	5	4
1	5	100	0	1	2	3	4
1	5	12288	0	1	2	5	4
1	6	300	0	1	2	3	4
1	6	4096	0	1	2	5	4
1	7	100	0	1	2	3	4
1	7	12288	0	1	2	5	4
1	8	64	0	1	2	1	0
1	8	100	0	1	2	3	4
1	9	12288	0	1	2	5	4
2	0	8192	0	1	2	5	4
2	1	20480	0	1	2	5	4
2	3	64	0	1	2	1	0
2	3	16384	0	1	2	5	4
2	4	64	0	1	2	1	0
2	4	12288	0	1	2	5	4
2	5	4096	0	1	2	5	4
2	6	64	0	1	2	1	0
2	6	20480	0	1	2	5	4
2	7	100	0	1	2	3	4
2	7	16384	0	1	2	5	4
2	8	4096	0	1	2	5	4
2	9	4096	0	1	2	5	4
3	0	64	0	1	2	1	0
3	0	100	0	1	2	3	4
3	0	8192	0	1	2	5	4
3	1	300	0	1	2	3	4
3	2	100	0	1	2	3	4
3	2	4096	0	1	2	5	4
3	4	64	0	1	2	1	0
3	4	24576	0	1	2	5	4
3	5	8192	0	1	2	5	4
3	6	200	0	1	2	3	4
3	6	8192	0	1	2	5	4
3	7	16384	0	1	2	5	4
3	8	200	0	1	2	3	4
3	8	8192	0	1	2	5	4
3	9	64	0	1	2	1	0
3	9	200	0	1	2	3	4
3	9	12288	0	1	2	5	4
4	0	128	0	1	2	1	0
4	0	100	0	1	2	3	4
4	0	8192	0	1	2	5	4
4	1	64	0	1	2	1	0
4	1	100	0	1	2	3	4
4	1	8192	0	1	2	5	4
4	2	16384	0	1	2	5	4
4	3	128	0	1	2	1	0
4	3	8192	0	1	2	5	4
4	5	64	0	1	2	1	0
4	5	100	0	1	2	3	4
4	5	20480	0	1	2	5	4
4	6	64	0	1	2	1	0
4	6	200	0	1	2	3	4
4	6	16384	0	1	2	5	4
4	7	100	0	1	2	3	4
4	7	12288	0	1	2	5	4
4	8	4096	0	1	2	5	4
4	9	128	0	1	2	1	0
4	9	100	0	1	2	3	4
4	9	12288	0	1	2	5	4
5	0	100	0	1	2	3	4
5	0	4096	0	1	2	5	4
5	1	12288	0	1	2	5	4
5	2	64	0	1	2	1	0
5	2	100	0	1	2	3	4
5	2	12288	0	1	2	5	4
5	3	100	0	1	2	3	4
5	3	8192	0	1	2	5	4
5	4	100	0	1	2	3	4
5	4	12288	0	1	2	5	4
5	6	100	0	1	2	3	4
5	6	8192	0	1	2	5	4
5	7	100	0	1	2	3	4
5	7	20480	0	1	2	5	4
5	8	100	0	1	2	3	4
5	9	100	0	1	2	3	4
5	9	12288	0	1	2	5	4
6	0	8192	0	1	2	5	4
6	1	100	0	1	2	3	4
6	1	8192	0	1	2	5	4
6	2	64	0	1	2	1	0
6	2	16384	0	1	2	5	4
6	3	64	0	1	2	1	0
6	3	100	0	1	2	3	4
6	3	20480	0	1	2	5	4
6	4	400	0	1	2	3	4
6	4	8192	0	1	2	5	4
6	5	100	0	1	2	3	4
6	5	12288	0	1	2	5	4
6	7	8192	0	1	2	5	4
6	8	8192	0	1	2	5	4
6	9	20480	0	1	2	5	4
7	0	100	0	1	2	3	4
7	0	8192	0	1	2	5	4
7	1	64	0	1	2	1	0
7	1	12288	0	1	2	5	4
7	2	100	0	1	2	3	4
7	2	8192	0	1	2	5	4
7	3	64	0	1	2	1	0
7	3	100	0	1	2	3	4
7	3	8192	0	1	2	5	4
7	4	64	0	1	2	1	0
7	4	12288	0	1	2	5	4
7	5	20480	0	1	2	5	4
7	6	4096	0	1	2	5	4
7	8	12288	0	1	2	5	4
7	9	64	0	1	2	1	0
7	9	100	0	1	2	3	4
7	9	4096	0	1	2	5	4
8	0	64	0	1	2	1	0
8	0	20480	0	1	2	5	4
8	1	20480	0	1	2	5	4
8	2	64	0	1	2	1	0
8	2	100	0	1	2	3	4
8	2	4096	0	1	2	5	4
8	3	100	0	1	2	3	4
8	3	12288	0	1	2	5	4
8	4	8192	0	1	2	5	4
8	5	64	0	1	2	1	0
8	5	200	0	1	2	3	4
8	5	8192	0	1	2	5	4
8	6	100	0	1	2	3	4
8	6	12288	0	1	2	5	4
8	7	20480	0	1	2	5	4
8	9	200	0	1	2	3	4
8	9	8192	0	1	2	5	4
9	0	8192	0	1	2	5	4
9	1	64	0	1	2	1	0
9	2	100	0	1	2	3	4
9	2	4096	0	1	2	5	4
9	3	8192	0	1	2	5	4
9	4	24576	0	1	2	5	4
9	5	12288	0	1	2	5	4
9	6	64	0	1	2	1	0
9	6	8192	0	1	2	5	4
9	7	8192	0	1	2	5	4
9	8	12288	0	1	2	5	4
