100000	100000	100000	10000	1000	1000
0	1	13184	0	1	2	1	0
0	1	28900	0	1	2	3	4
0	1	4.52198e+06	0	1	2	5	4
0	1	200	0	1	5	3	4
0	2	13056	0	1	2	1	0
0	2	29700	0	1	2	3	4
0	2	4.67354e+06	0	1	2	5	4
0	2	50	0	1	5	3	4
0	3	12480	0	1	2	1	0
0	3	28500	0	1	2	3	4
0	3	4.68582e+06	0	1	2	5	4
0	3	100	0	1	5	3	4
0	4	12416	0	1	2	1	0
0	4	30500	0	1	2	3	4
0	4	4.8128e+06	0	1	2	5	4
0	4	100	0	1	5	3	4
0	5	11392	0	1	2	1	0
0	5	28600	0	1	2	3	4
0	5	4.84966e+06	0	1	2	5	4
0	5	100	0	1	5	3	4
0	6	13632	0	1	2	1	0
0	6	29100	0	1	2	3	4
0	6	4.75955e+06	0	1	2	5	4
0	6	150	0	1	5	3	4
0	7	13440	0	1	2	1	0
0	7	29000	0	1	2	3	4
0	7	4.66125e+06	0	1	2	5	4
0	7	50	0	1	5	3	4
0	8	11904	0	1	2	1	0
0	8	32400	0	1	2	3	4
0	8	4.71859e+06	0	1	2	5	4
0	9	11968	0	1	2	1	0
0	9	29700	0	1	2	3	4
0	9	4.56294e+06	0	1	2	5	4
0	9	150	0	1	5	3	4
0	10	13632	0	1	2	1	0
0	10	31500	0	1	2	3	4
0	10	4.74317e+06	0	1	2	5	4
0	10	150	0	1	5	3	4
0	11	11712	0	1	2	1	0
0	11	28500	0	1	2	3	4
0	11	4.608e+06	0	1	2	5	4
0	11	150	0	1	5	3	4
0	12	11904	0	1	2	1	0
0	12	27500	0	1	2	3	4
0	12	4.5097e+06	0	1	2	5	4
0	12	50	0	1	5	3	4
0	13	12544	0	1	2	1	0
0	13	30200	0	1	2	3	4
0	13	4.9111e+06	0	1	2	5	4
0	14	12160	0	1	2	1	0
0	14	28800	0	1	2	3	4
0	14	4.57933e+06	0	1	2	5	4
0	14	250	0	1	5	3	4
1	0	12416	0	1	2	1	0
1	0	30500	0	1	2	3	4
1	0	4.7063e+06	0	1	2	5	4
1	0	100	0	1	5	3	4
1	2	12672	0	1	2	1	0
1	2	29200	0	1	2	3	4
1	2	4.64896e+06	0	1	2	5	4
1	2	250	0	1	5	3	4
1	3	13376	0	1	2	1	0
1	3	28000	0	1	2	3	4
1	3	4.5056e+06	0	1	2	5	4
1	3	200	0	1	5	3	4
1	4	14080	0	1	2	1	0
1	4	28200	0	1	2	3	4
1	4	4.72269e+06	0	1	2	5	4
1	4	200	0	1	5	3	4
1	5	12032	0	1	2	1	0
1	5	27800	0	1	2	3	4
1	5	4.68992e+06	0	1	2	5	4
1	5	300	0	1	5	3	4
1	6	11584	0	1	2	1	0
1	6	33100	0	1	2	3	4
1	6	4.84147e+06	0	1	2	5	4
1	6	200	0	1	5	3	4
1	7	12928	0	1	2	1	0
1	7	29900	0	1	2	3	4
1	7	4.58752e+06	0	1	2	5	4
1	8	13440	0	1	2	1	0
1	8	33100	0	1	2	3	4
1	8	4.8169e+06	0	1	2	5	4
1	8	150	0	1	5	3	4
1	9	12928	0	1	2	1	0
1	9	30700	0	1	2	3	4
1	9	4.90701e+06	0	1	2	5	4
1	9	100	0	1	5	3	4
1	10	12800	0	1	2	1	0
1	10	28800	0	1	2	3	4
1	10	4.87424e+06	0	1	2	5	4
1	11	12288	0	1	2	1	0
1	11	30500	0	1	2	3	4
1	11	4.63667e+06	0	1	2	5	4
1	11	150	0	1	5	3	4
1	12	12544	0	1	2	1	0
1	12	32500	0	1	2	3	4
1	12	4.56294e+06	0	1	2	5	4
1	12	300	0	1	5	3	4
1	13	12160	0	1	2	1	0
1	13	29300	0	1	2	3	4
1	13	4.82509e+06	0	1	2	5	4
1	13	250	0	1	5	3	4
1	14	13120	0	1	2	1	0
1	14	29200	0	1	2	3	4
1	14	4.7104e+06	0	1	2	5	4
1	14	100	0	1	5	3	4
2	0	11328	0	1	2	1	0
2	0	28900	0	1	2	3	4
2	0	4.53837e+06	0	1	2	5	4
2	0	100	0	1	5	3	4
2	1	11584	0	1	2	1	0
2	1	28300	0	1	2	3	4
2	1	4.67763e+06	0	1	2	5	4
2	1	200	0	1	5	3	4
2	3	11968	0	1	2	1	0
2	3	26900	0	1	2	3	4
2	3	4.55885e+06	0	1	2	5	4
2	3	150	0	1	5	3	4
2	4	14336	0	1	2	1	0
2	4	26700	0	1	2	3	4
2	4	4.7063e+06	0	1	2	5	4
2	4	100	0	1	5	3	4
2	5	12736	0	1	2	1	0
2	5	30000	0	1	2	3	4
2	5	4.8169e+06	0	1	2	5	4
2	5	50	0	1	5	3	4
2	6	11520	0	1	2	1	0
2	6	31200	0	1	2	3	4
2	6	4.65715e+06	0	1	2	5	4
2	6	50	0	1	5	3	4
2	7	10816	0	1	2	1	0
2	7	31300	0	1	2	3	4
2	7	4.83738e+06	0	1	2	5	4
2	7	150	0	1	5	3	4
2	8	13184	0	1	2	1	0
2	8	31800	0	1	2	3	4
2	8	4.64077e+06	0	1	2	5	4
2	8	100	0	1	5	3	4
2	9	13120	0	1	2	1	0
2	9	28100	0	1	2	3	4
2	9	4.76774e+06	0	1	2	5	4
2	9	100	0	1	5	3	4
2	10	13184	0	1	2	1	0
2	10	27900	0	1	2	3	4
2	10	4.83328e+06	0	1	2	5	4
2	10	100	0	1	5	3	4
2	11	12992	0	1	2	1	0
2	11	28800	0	1	2	3	4
2	11	4.68173e+06	0	1	2	5	4
2	11	100	0	1	5	3	4
2	12	12160	0	1	2	1	0
2	12	28700	0	1	2	3	4
2	12	4.9111e+06	0	1	2	5	4
2	13	12864	0	1	2	1	0
2	13	33300	0	1	2	3	4
2	13	4.73907e+06	0	1	2	5	4
2	13	100	0	1	5	3	4
2	14	13248	0	1	2	1	0
2	14	28600	0	1	2	3	4
2	14	5.06675e+06	0	1	2	5	4
2	14	150	0	1	5	3	4
3	0	13312	0	1	2	1	0
3	0	27800	0	1	2	3	4
3	0	4.90291e+06	0	1	2	5	4
3	0	150	0	1	5	3	4
3	1	13504	0	1	2	1	0
3	1	30100	0	1	2	3	4
3	1	4.96845e+06	0	1	2	5	4
3	1	50	0	1	5	3	4
3	2	13248	0	1	2	1	0
3	2	28200	0	1	2	3	4
3	2	4.88243e+06	0	1	2	5	4
3	2	100	0	1	5	3	4
3	4	13120	0	1	2	1	0
3	4	30000	0	1	2	3	4
3	4	4.90701e+06	0	1	2	5	4
3	4	250	0	1	5	3	4
3	5	13312	0	1	2	1	0
3	5	28200	0	1	2	3	4
3	5	4.97254e+06	0	1	2	5	4
3	5	250	0	1	5	3	4
3	6	11968	0	1	2	1	0
3	6	31100	0	1	2	3	4
3	6	4.67354e+06	0	1	2	5	4
3	6	200	0	1	5	3	4
3	7	11456	0	1	2	1	0
3	7	31400	0	1	2	3	4
3	7	4.64077e+06	0	1	2	5	4
3	8	12672	0	1	2	1	0
3	8	32700	0	1	2	3	4
3	8	4.68992e+06	0	1	2	5	4
3	8	100	0	1	5	3	4
3	9	12736	0	1	2	1	0
3	9	29100	0	1	2	3	4
3	9	4.95206e+06	0	1	2	5	4
3	9	150	0	1	5	3	4
3	10	11072	0	1	2	1	0
3	10	30000	0	1	2	3	4
3	10	4.89062e+06	0	1	2	5	4
3	10	50	0	1	5	3	4
3	11	13120	0	1	2	1	0
3	11	28500	0	1	2	3	4
3	11	4.73088e+06	0	1	2	5	4
3	11	100	0	1	5	3	4
3	12	13824	0	1	2	1	0
3	12	29400	0	1	2	3	4
3	12	4.84966e+06	0	1	2	5	4
3	12	200	0	1	5	3	4
3	13	13376	0	1	2	1	0
3	13	30900	0	1	2	3	4
3	13	4.78413e+06	0	1	2	5	4
3	13	200	0	1	5	3	4
3	14	12608	0	1	2	1	0
3	14	30400	0	1	2	3	4
3	14	4.84966e+06	0	1	2	5	4
3	14	300	0	1	5	3	4
4	0	13248	0	1	2	1	0
4	0	28900	0	1	2	3	4
4	0	4.72269e+06	0	1	2	5	4
4	0	100	0	1	5	3	4
4	1	10752	0	1	2	1	0
4	1	28900	0	1	2	3	4
4	1	4.65306e+06	0	1	2	5	4
4	2	12672	0	1	2	1	0
4	2	29100	0	1	2	3	4
4	2	4.56294e+06	0	1	2	5	4
4	2	150	0	1	5	3	4
4	3	11392	0	1	2	1	0
4	3	32700	0	1	2	3	4
4	3	4.72269e+06	0	1	2	5	4
4	3	100	0	1	5	3	4
4	5	11840	0	1	2	1	0
4	5	29000	0	1	2	3	4
4	5	4.65715e+06	0	1	2	5	4
4	5	150	0	1	5	3	4
4	6	12992	0	1	2	1	0
4	6	30400	0	1	2	3	4
4	6	4.51379e+06	0	1	2	5	4
4	6	150	0	1	5	3	4
4	7	13376	0	1	2	1	0
4	7	28000	0	1	2	3	4
4	7	4.72269e+06	0	1	2	5	4
4	7	200	0	1	5	3	4
4	8	12800	0	1	2	1	0
4	8	32000	0	1	2	3	4
4	8	4.59571e+06	0	1	2	5	4
4	9	12352	0	1	2	1	0
4	9	31100	0	1	2	3	4
4	9	4.82918e+06	0	1	2	5	4
4	9	150	0	1	5	3	4
4	10	13952	0	1	2	1	0
4	10	29300	0	1	2	3	4
4	10	4.70221e+06	0	1	2	5	4
4	10	150	0	1	5	3	4
4	11	13312	0	1	2	1	0
4	11	28100	0	1	2	3	4
4	11	4.56294e+06	0	1	2	5	4
4	12	13120	0	1	2	1	0
4	12	32800	0	1	2	3	4
4	12	4.64077e+06	0	1	2	5	4
4	12	150	0	1	5	3	4
4	13	12928	0	1	2	1	0
4	13	29700	0	1	2	3	4
4	13	4.63667e+06	0	1	2	5	4
4	13	100	0	1	5	3	4
4	14	12992	0	1	2	1	0
4	14	28400	0	1	2	3	4
4	14	4.68173e+06	0	1	2	5	4
4	14	200	0	1	5	3	4
5	0	11328	0	1	2	1	0
5	0	31500	0	1	2	3	4
5	0	4.83328e+06	0	1	2	5	4
5	0	100	0	1	5	3	4
5	1	13056	0	1	2	1	0
5	1	31000	0	1	2	3	4
5	1	4.6121e+06	0	1	2	5	4
5	1	200	0	1	5	3	4
5	2	12544	0	1	2	1	0
5	2	32200	0	1	2	3	4
5	2	4.70221e+06	0	1	2	5	4
5	2	250	0	1	5	3	4
5	3	13312	0	1	2	1	0
5	3	28200	0	1	2	3	4
5	3	4.70221e+06	0	1	2	5	4
5	4	12224	0	1	2	1	0
5	4	29500	0	1	2	3	4
5	4	4.87424e+06	0	1	2	5	4
5	4	150	0	1	5	3	4
5	6	12288	0	1	2	1	0
5	6	29700	0	1	2	3	4
5	6	4.56704e+06	0	1	2	5	4
5	6	100	0	1	5	3	4
5	7	11840	0	1	2	1	0
5	7	32200	0	1	2	3	4
5	7	4.69402e+06	0	1	2	5	4
5	7	50	0	1	5	3	4
5	8	13056	0	1	2	1	0
5	8	29300	0	1	2	3	4
5	8	4.3991e+06	0	1	2	5	4
5	8	200	0	1	5	3	4
5	9	13120	0	1	2	1	0
5	9	30200	0	1	2	3	4
5	9	4.88243e+06	0	1	2	5	4
5	9	100	0	1	5	3	4
5	10	12928	0	1	2	1	0
5	10	29700	0	1	2	3	4
5	10	4.75546e+06	0	1	2	5	4
5	10	150	0	1	5	3	4
5	11	11264	0	1	2	1	0
5	11	30700	0	1	2	3	4
5	11	4.80461e+06	0	1	2	5	4
5	11	50	0	1	5	3	4
5	12	12160	0	1	2	1	0
5	12	28700	0	1	2	3	4
5	12	4.53837e+06	0	1	2	5	4
5	12	50	0	1	5	3	4
5	13	11712	0	1	2	1	0
5	13	30100	0	1	2	3	4
5	13	4.85376e+06	0	1	2	5	4
5	13	200	0	1	5	3	4
5	14	14592	0	1	2	1	0
5	14	29500	0	1	2	3	4
5	14	4.63667e+06	0	1	2	5	4
5	14	50	0	1	5	3	4
6	0	13952	0	1	2	1	0
6	0	27100	0	1	2	3	4
6	0	4.89472e+06	0	1	2	5	4
6	0	100	0	1	5	3	4
6	1	12928	0	1	2	1	0
6	1	32100	0	1	2	3	4
6	1	4.48512e+06	0	1	2	5	4
6	1	50	0	1	5	3	4
6	2	11584	0	1	2	1	0
6	2	30000	0	1	2	3	4
6	2	4.89472e+06	0	1	2	5	4
6	2	150	0	1	5	3	4
6	3	13568	0	1	2	1	0
6	3	28200	0	1	2	3	4
6	3	4.7063e+06	0	1	2	5	4
6	3	200	0	1	5	3	4
6	4	11392	0	1	2	1	0
6	4	29600	0	1	2	3	4
6	4	4.75546e+06	0	1	2	5	4
6	4	50	0	1	5	3	4
6	5	11776	0	1	2	1	0
6	5	28900	0	1	2	3	4
6	5	4.83328e+06	0	1	2	5	4
6	5	200	0	1	5	3	4
6	7	11392	0	1	2	1	0
6	7	30600	0	1	2	3	4
6	7	4.84557e+06	0	1	2	5	4
6	7	50	0	1	5	3	4
6	8	12928	0	1	2	1	0
6	8	29100	0	1	2	3	4
6	8	4.62029e+06	0	1	2	5	4
6	8	100	0	1	5	3	4
6	9	11904	0	1	2	1	0
6	9	31100	0	1	2	3	4
6	9	4.69402e+06	0	1	2	5	4
6	9	100	0	1	5	3	4
6	10	12224	0	1	2	1	0
6	10	32000	0	1	2	3	4
6	10	4.45645e+06	0	1	2	5	4
6	10	150	0	1	5	3	4
6	11	14336	0	1	2	1	0
6	11	26600	0	1	2	3	4
6	11	4.69811e+06	0	1	2	5	4
6	11	200	0	1	5	3	4
6	12	12864	0	1	2	1	0
6	12	28700	0	1	2	3	4
6	12	4.87834e+06	0	1	2	5	4
6	12	100	0	1	5	3	4
6	13	11456	0	1	2	1	0
6	13	31500	0	1	2	3	4
6	13	4.608e+06	0	1	2	5	4
6	13	150	0	1	5	3	4
6	14	11136	0	1	2	1	0
6	14	30600	0	1	2	3	4
6	14	4.78413e+06	0	1	2	5	4
6	14	150	0	1	5	3	4
7	0	11648	0	1	2	1	0
7	0	31500	0	1	2	3	4
7	0	4.65306e+06	0	1	2	5	4
7	0	50	0	1	5	3	4
7	1	14720	0	1	2	1	0
7	1	29800	0	1	2	3	4
7	1	4.62029e+06	0	1	2	5	4
7	1	50	0	1	5	3	4
7	2	12992	0	1	2	1	0
7	2	33200	0	1	2	3	4
7	2	4.75955e+06	0	1	2	5	4
7	2	150	0	1	5	3	4
7	3	12288	0	1	2	1	0
7	3	30500	0	1	2	3	4
7	3	4.79642e+06	0	1	2	5	4
7	3	100	0	1	5	3	4
7	4	13760	0	1	2	1	0
7	4	27500	0	1	2	3	4
7	4	4.65715e+06	0	1	2	5	4
7	4	200	0	1	5	3	4
7	5	11520	0	1	2	1	0
7	5	31000	0	1	2	3	4
7	5	4.68582e+06	0	1	2	5	4
7	5	200	0	1	5	3	4
7	6	13696	0	1	2	1	0
7	6	29600	0	1	2	3	4
7	6	4.84557e+06	0	1	2	5	4
7	6	150	0	1	5	3	4
7	8	11648	0	1	2	1	0
7	8	29300	0	1	2	3	4
7	8	4.61619e+06	0	1	2	5	4
7	8	150	0	1	5	3	4
7	9	11840	0	1	2	1	0
7	9	27700	0	1	2	3	4
7	9	4.63258e+06	0	1	2	5	4
7	9	100	0	1	5	3	4
7	10	11520	0	1	2	1	0
7	10	31400	0	1	2	3	4
7	10	4.70221e+06	0	1	2	5	4
7	10	150	0	1	5	3	4
7	11	12288	0	1	2	1	0
7	11	30200	0	1	2	3	4
7	11	4.56704e+06	0	1	2	5	4
7	11	50	0	1	5	3	4
7	12	10560	0	1	2	1	0
7	12	27500	0	1	2	3	4
7	12	4.66944e+06	0	1	2	5	4
7	12	100	0	1	5	3	4
7	13	11712	0	1	2	1	0
7	13	30700	0	1	2	3	4
7	13	4.77184e+06	0	1	2	5	4
7	13	50	0	1	5	3	4
7	14	14272	0	1	2	1	0
7	14	31300	0	1	2	3	4
7	14	4.78822e+06	0	1	2	5	4
7	14	250	0	1	5	3	4
8	0	13184	0	1	2	1	0
8	0	25900	0	1	2	3	4
8	0	4.59571e+06	0	1	2	5	4
8	0	200	0	1	5	3	4
8	1	15488	0	1	2	1	0
8	1	29700	0	1	2	3	4
8	1	4.92749e+06	0	1	2	5	4
8	1	100	0	1	5	3	4
8	2	11648	0	1	2	1	0
8	2	29000	0	1	2	3	4
8	2	4.68173e+06	0	1	2	5	4
8	2	300	0	1	5	3	4
8	3	12864	0	1	2	1	0
8	3	29500	0	1	2	3	4
8	3	4.9193e+06	0	1	2	5	4
8	4	12480	0	1	2	1	0
8	4	34000	0	1	2	3	4
8	4	4.57523e+06	0	1	2	5	4
8	4	200	0	1	5	3	4
8	5	11456	0	1	2	1	0
8	5	27700	0	1	2	3	4
8	5	4.92339e+06	0	1	2	5	4
8	6	10240	0	1	2	1	0
8	6	28200	0	1	2	3	4
8	6	4.44006e+06	0	1	2	5	4
8	6	50	0	1	5	3	4
8	7	12672	0	1	2	1	0
8	7	28300	0	1	2	3	4
8	7	4.80461e+06	0	1	2	5	4
8	7	150	0	1	5	3	4
8	9	13952	0	1	2	1	0
8	9	29400	0	1	2	3	4
8	9	4.75136e+06	0	1	2	5	4
8	9	100	0	1	5	3	4
8	10	11456	0	1	2	1	0
8	10	30200	0	1	2	3	4
8	10	5.00122e+06	0	1	2	5	4
8	10	50	0	1	5	3	4
8	11	10752	0	1	2	1	0
8	11	29100	0	1	2	3	4
8	11	4.78822e+06	0	1	2	5	4
8	11	200	0	1	5	3	4
8	12	11136	0	1	2	1	0
8	12	31400	0	1	2	3	4
8	12	4.48102e+06	0	1	2	5	4
8	12	100	0	1	5	3	4
8	13	12096	0	1	2	1	0
8	13	30600	0	1	2	3	4
8	13	4.62438e+06	0	1	2	5	4
8	13	50	0	1	5	3	4
8	14	13504	0	1	2	1	0
8	14	31800	0	1	2	3	4
8	14	4.64486e+06	0	1	2	5	4
8	14	50	0	1	5	3	4
9	0	12608	0	1	2	1	0
9	0	29500	0	1	2	3	4
9	0	4.71859e+06	0	1	2	5	4
9	0	200	0	1	5	3	4
9	1	12928	0	1	2	1	0
9	1	28900	0	1	2	3	4
9	1	4.69811e+06	0	1	2	5	4
9	1	50	0	1	5	3	4
9	2	12288	0	1	2	1	0
9	2	29200	0	1	2	3	4
9	2	4.83328e+06	0	1	2	5	4
9	2	100	0	1	5	3	4
9	3	13568	0	1	2	1	0
9	3	30100	0	1	2	3	4
9	3	4.82918e+06	0	1	2	5	4
9	3	150	0	1	5	3	4
9	4	11456	0	1	2	1	0
9	4	27600	0	1	2	3	4
9	4	4.608e+06	0	1	2	5	4
9	4	50	0	1	5	3	4
9	5	11904	0	1	2	1	0
9	5	31100	0	1	2	3	4
9	5	4.8087e+06	0	1	2	5	4
9	5	200	0	1	5	3	4
9	6	14144	0	1	2	1	0
9	6	28200	0	1	2	3	4
9	6	4.64486e+06	0	1	2	5	4
9	6	100	0	1	5	3	4
9	7	13248	0	1	2	1	0
9	7	29200	0	1	2	3	4
9	7	5.00531e+06	0	1	2	5	4
9	7	150	0	1	5	3	4
9	8	12992	0	1	2	1	0
9	8	33000	0	1	2	3	4
9	8	4.73088e+06	0	1	2	5	4
9	8	50	0	1	5	3	4
9	10	12224	0	1	2	1	0
9	10	30900	0	1	2	3	4
9	10	4.74726e+06	0	1	2	5	4
9	10	100	0	1	5	3	4
9	11	12800	0	1	2	1	0
9	11	30200	0	1	2	3	4
9	11	4.75955e+06	0	1	2	5	4
9	12	13056	0	1	2	1	0
9	12	29600	0	1	2	3	4
9	12	4.64077e+06	0	1	2	5	4
9	12	200	0	1	5	3	4
9	13	13312	0	1	2	1	0
9	13	28800	0	1	2	3	4
9	13	4.93978e+06	0	1	2	5	4
9	14	13568	0	1	2	1	0
9	14	32700	0	1	2	3	4
9	14	4.72678e+06	0	1	2	5	4
10	0	11584	0	1	2	1	0
10	0	29900	0	1	2	3	4
10	0	4.74317e+06	0	1	2	5	4
10	0	50	0	1	5	3	4
10	1	12544	0	1	2	1	0
10	1	31700	0	1	2	3	4
10	1	4.65306e+06	0	1	2	5	4
10	1	150	0	1	5	3	4
10	2	12416	0	1	2	1	0
10	2	31900	0	1	2	3	4
10	2	4.56704e+06	0	1	2	5	4
10	2	50	0	1	5	3	4
10	3	11840	0	1	2	1	0
10	3	28700	0	1	2	3	4
10	3	4.42778e+06	0	1	2	5	4
10	3	150	0	1	5	3	4
10	4	12480	0	1	2	1	0
10	4	28600	0	1	2	3	4
10	4	4.55475e+06	0	1	2	5	4
10	4	250	0	1	5	3	4
10	5	12736	0	1	2	1	0
10	5	29800	0	1	2	3	4
10	5	4.88243e+06	0	1	2	5	4
10	5	150	0	1	5	3	4
10	6	11648	0	1	2	1	0
10	6	29900	0	1	2	3	4
10	6	4.67354e+06	0	1	2	5	4
10	6	50	0	1	5	3	4
10	7	11392	0	1	2	1	0
10	7	27800	0	1	2	3	4
10	7	4.99302e+06	0	1	2	5	4
10	7	100	0	1	5	3	4
10	8	14016	0	1	2	1	0
10	8	28700	0	1	2	3	4
10	8	4.84966e+06	0	1	2	5	4
10	8	250	0	1	5	3	4
10	9	12608	0	1	2	1	0
10	9	31700	0	1	2	3	4
10	9	4.66534e+06	0	1	2	5	4
10	9	50	0	1	5	3	4
10	11	11264	0	1	2	1	0
10	11	30900	0	1	2	3	4
10	11	4.56704e+06	0	1	2	5	4
10	11	50	0	1	5	3	4
10	12	11904	0	1	2	1	0
10	12	29200	0	1	2	3	4
10	12	4.9111e+06	0	1	2	5	4
10	12	50	0	1	5	3	4
10	13	13056	0	1	2	1	0
10	13	27300	0	1	2	3	4
10	13	4.75546e+06	0	1	2	5	4
10	13	50	0	1	5	3	4
10	14	11072	0	1	2	1	0
10	14	32000	0	1	2	3	4
10	14	4.59571e+06	0	1	2	5	4
10	14	250	0	1	5	3	4
11	0	12288	0	1	2	1	0
11	0	26700	0	1	2	3	4
11	0	4.49331e+06	0	1	2	5	4
11	1	11648	0	1	2	1	0
11	1	31800	0	1	2	3	4
11	1	4.59571e+06	0	1	2	5	4
11	1	150	0	1	5	3	4
11	2	13632	0	1	2	1	0
11	2	28400	0	1	2	3	4
11	2	4.68992e+06	0	1	2	5	4
11	2	150	0	1	5	3	4
11	3	13248	0	1	2	1	0
11	3	30400	0	1	2	3	4
11	3	4.2967e+06	0	1	2	5	4
11	3	150	0	1	5	3	4
11	4	12160	0	1	2	1	0
11	4	33800	0	1	2	3	4
11	4	4.59571e+06	0	1	2	5	4
11	4	200	0	1	5	3	4
11	5	12480	0	1	2	1	0
11	5	32900	0	1	2	3	4
11	5	4.67763e+06	0	1	2	5	4
11	6	11328	0	1	2	1	0
11	6	29300	0	1	2	3	4
11	6	4.73498e+06	0	1	2	5	4
11	6	200	0	1	5	3	4
11	7	10368	0	1	2	1	0
11	7	31800	0	1	2	3	4
11	7	4.78413e+06	0	1	2	5	4
11	7	100	0	1	5	3	4
11	8	11584	0	1	2	1	0
11	8	31500	0	1	2	3	4
11	8	4.7145e+06	0	1	2	5	4
11	8	100	0	1	5	3	4
11	9	13248	0	1	2	1	0
11	9	28500	0	1	2	3	4
11	9	4.85376e+06	0	1	2	5	4
11	9	200	0	1	5	3	4
11	10	11264	0	1	2	1	0
11	10	30700	0	1	2	3	4
11	10	4.49741e+06	0	1	2	5	4
11	10	100	0	1	5	3	4
11	12	12032	0	1	2	1	0
11	12	27800	0	1	2	3	4
11	12	4.57523e+06	0	1	2	5	4
11	12	150	0	1	5	3	4
11	13	12992	0	1	2	1	0
11	13	30400	0	1	2	3	4
11	13	4.68582e+06	0	1	2	5	4
11	13	50	0	1	5	3	4
11	14	12992	0	1	2	1	0
11	14	31900	0	1	2	3	4
11	14	4.67354e+06	0	1	2	5	4
11	14	50	0	1	5	3	4
12	0	13184	0	1	2	1	0
12	0	29200	0	1	2	3	4
12	0	4.68582e+06	0	1	2	5	4
12	0	150	0	1	5	3	4
12	1	12224	0	1	2	1	0
12	1	25800	0	1	2	3	4
12	1	4.68992e+06	0	1	2	5	4
12	1	300	0	1	5	3	4
12	2	11520	0	1	2	1	0
12	2	31000	0	1	2	3	4
12	2	4.59162e+06	0	1	2	5	4
12	2	200	0	1	5	3	4
12	3	11968	0	1	2	1	0
12	3	30000	0	1	2	3	4
12	3	4.5015e+06	0	1	2	5	4
12	4	13696	0	1	2	1	0
12	4	29300	0	1	2	3	4
12	4	4.7063e+06	0	1	2	5	4
12	4	150	0	1	5	3	4
12	5	13376	0	1	2	1	0
12	5	31200	0	1	2	3	4
12	5	5.08723e+06	0	1	2	5	4
12	5	50	0	1	5	3	4
12	6	11008	0	1	2	1	0
12	6	30800	0	1	2	3	4
12	6	4.74317e+06	0	1	2	5	4
12	6	250	0	1	5	3	4
12	7	13760	0	1	2	1	0
12	7	29600	0	1	2	3	4
12	7	4.93978e+06	0	1	2	5	4
12	7	150	0	1	5	3	4
12	8	12032	0	1	2	1	0
12	8	29300	0	1	2	3	4
12	8	4.59571e+06	0	1	2	5	4
12	8	300	0	1	5	3	4
12	9	13056	0	1	2	1	0
12	9	29300	0	1	2	3	4
12	9	4.75955e+06	0	1	2	5	4
12	9	100	0	1	5	3	4
12	10	11904	0	1	2	1	0
12	10	32000	0	1	2	3	4
12	10	4.85376e+06	0	1	2	5	4
12	10	50	0	1	5	3	4
12	11	13696	0	1	2	1	0
12	11	30500	0	1	2	3	4
12	11	4.69811e+06	0	1	2	5	4
12	11	150	0	1	5	3	4
12	13	13888	0	1	2	1	0
12	13	29500	0	1	2	3	4
12	13	4.52198e+06	0	1	2	5	4
12	13	100	0	1	5	3	4
12	14	11840	0	1	2	1	0
12	14	31900	0	1	2	3	4
12	14	4.48922e+06	0	1	2	5	4
12	14	50	0	1	5	3	4
13	0	13184	0	1	2	1	0
13	0	28600	0	1	2	3	4
13	0	4.73907e+06	0	1	2	5	4
13	0	150	0	1	5	3	4
13	1	12416	0	1	2	1	0
13	1	31100	0	1	2	3	4
13	1	4.69811e+06	0	1	2	5	4
13	1	200	0	1	5	3	4
13	2	12032	0	1	2	1	0
13	2	31800	0	1	2	3	4
13	2	4.7104e+06	0	1	2	5	4
13	2	50	0	1	5	3	4
13	3	11264	0	1	2	1	0
13	3	28000	0	1	2	3	4
13	3	4.47283e+06	0	1	2	5	4
13	3	150	0	1	5	3	4
13	4	13696	0	1	2	1	0
13	4	31100	0	1	2	3	4
13	4	4.608e+06	0	1	2	5	4
13	4	200	0	1	5	3	4
13	5	12928	0	1	2	1	0
13	5	30700	0	1	2	3	4
13	5	4.63667e+06	0	1	2	5	4
13	5	150	0	1	5	3	4
13	6	10944	0	1	2	1	0
13	6	30000	0	1	2	3	4
13	6	4.76774e+06	0	1	2	5	4
13	6	100	0	1	5	3	4
13	7	10496	0	1	2	1	0
13	7	30400	0	1	2	3	4
13	7	4.62029e+06	0	1	2	5	4
13	7	300	0	1	5	3	4
13	8	12736	0	1	2	1	0
13	8	30300	0	1	2	3	4
13	8	4.94797e+06	0	1	2	5	4
13	8	150	0	1	5	3	4
13	9	11008	0	1	2	1	0
13	9	28700	0	1	2	3	4
13	9	4.75136e+06	0	1	2	5	4
13	9	200	0	1	5	3	4
13	10	11136	0	1	2	1	0
13	10	33000	0	1	2	3	4
13	10	4.84557e+06	0	1	2	5	4
13	11	12224	0	1	2	1	0
13	11	31000	0	1	2	3	4
13	11	4.84966e+06	0	1	2	5	4
13	11	100	0	1	5	3	4
13	12	13184	0	1	2	1	0
13	12	30100	0	1	2	3	4
13	12	4.87014e+06	0	1	2	5	4
13	12	100	0	1	5	3	4
13	14	13248	0	1	2	1	0
13	14	33900	0	1	2	3	4
13	14	4.71859e+06	0	1	2	5	4
13	14	50	0	1	5	3	4
14	0	12800	0	1	2	1	0
14	0	29600	0	1	2	3	4
14	0	4.71859e+06	0	1	2	5	4
14	0	150	0	1	5	3	4
14	1	11904	0	1	2	1	0
14	1	29900	0	1	2	3	4
14	1	4.73088e+06	0	1	2	5	4
14	1	100	0	1	5	3	4
14	2	11968	0	1	2	1	0
14	2	28200	0	1	2	3	4
14	2	4.89472e+06	0	1	2	5	4
14	2	150	0	1	5	3	4
14	3	12800	0	1	2	1	0
14	3	29700	0	1	2	3	4
14	3	4.87014e+06	0	1	2	5	4
14	4	12416	0	1	2	1	0
14	4	29100	0	1	2	3	4
14	4	4.53427e+06	0	1	2	5	4
14	4	150	0	1	5	3	4
14	5	12544	0	1	2	1	0
14	5	31500	0	1	2	3	4
14	5	4.48922e+06	0	1	2	5	4
14	5	50	0	1	5	3	4
14	6	12224	0	1	2	1	0
14	6	29200	0	1	2	3	4
14	6	4.82099e+06	0	1	2	5	4
14	6	150	0	1	5	3	4
14	7	12288	0	1	2	1	0
14	7	30700	0	1	2	3	4
14	7	4.97664e+06	0	1	2	5	4
14	7	200	0	1	5	3	4
14	8	11776	0	1	2	1	0
14	8	28600	0	1	2	3	4
14	8	4.69402e+06	0	1	2	5	4
14	8	50	0	1	5	3	4
14	9	12160	0	1	2	1	0
14	9	27800	0	1	2	3	4
14	9	4.84966e+06	0	1	2	5	4
14	9	150	0	1	5	3	4
14	10	11328	0	1	2	1	0
14	10	28300	0	1	2	3	4
14	10	4.85376e+06	0	1	2	5	4
14	10	100	0	1	5	3	4
14	11	11712	0	1	2	1	0
14	11	30400	0	1	2	3	4
14	11	4.70221e+06	0	1	2	5	4
14	11	100	0	1	5	3	4
14	12	12544	0	1	2	1	0
14	12	27700	0	1	2	3	4
14	12	4.97664e+06	0	1	2	5	4
14	12	150	0	1	5	3	4
14	13	12416	0	1	2	1	0
14	13	30600	0	1	2	3	4
14	13	4.56704e+06	0	1	2	5	4
14	13	100	0	1	5	3	4
