100000	100000	100000	10000	1000	1000
0	1	28672	0	1	2	1	0
0	1	68900	0	1	2	3	4
0	1	1.10756e+07	0	1	2	5	4
0	1	150	0	1	5	3	4
0	2	30144	0	1	2	1	0
0	2	69900	0	1	2	3	4
0	2	1.06127e+07	0	1	2	5	4
0	2	450	0	1	5	3	4
0	3	27904	0	1	2	1	0
0	3	70400	0	1	2	3	4
0	3	1.07971e+07	0	1	2	5	4
0	3	400	0	1	5	3	4
0	4	28928	0	1	2	1	0
0	4	72400	0	1	2	3	4
0	4	1.06086e+07	0	1	2	5	4
0	4	150	0	1	5	3	4
0	5	30592	0	1	2	1	0
0	5	74800	0	1	2	3	4
0	5	1.14033e+07	0	1	2	5	4
0	5	250	0	1	5	3	4
0	6	28544	0	1	2	1	0
0	6	72000	0	1	2	3	4
0	6	1.07725e+07	0	1	2	5	4
0	6	200	0	1	5	3	4
0	7	27456	0	1	2	1	0
0	7	62500	0	1	2	3	4
0	7	1.08503e+07	0	1	2	5	4
0	7	250	0	1	5	3	4
0	8	31936	0	1	2	1	0
0	8	69700	0	1	2	3	4
0	8	1.10551e+07	0	1	2	5	4
0	8	400	0	1	5	3	4
0	9	28800	0	1	2	1	0
0	9	65900	0	1	2	3	4
0	9	1.12681e+07	0	1	2	5	4
0	9	350	0	1	5	3	4
1	0	28672	0	1	2	1	0
1	0	69300	0	1	2	3	4
1	0	1.09322e+07	0	1	2	5	4
1	0	100	0	1	5	3	4
1	2	27904	0	1	2	1	0
1	2	67100	0	1	2	3	4
1	2	1.11043e+07	0	1	2	5	4
1	2	450	0	1	5	3	4
1	3	30272	0	1	2	1	0
1	3	73100	0	1	2	3	4
1	3	1.10223e+07	0	1	2	5	4
1	3	250	0	1	5	3	4
1	4	28800	0	1	2	1	0
1	4	73500	0	1	2	3	4
1	4	1.12312e+07	0	1	2	5	4
1	4	150	0	1	5	3	4
1	5	29248	0	1	2	1	0
1	5	69100	0	1	2	3	4
1	5	1.09896e+07	0	1	2	5	4
1	5	450	0	1	5	3	4
1	6	29824	0	1	2	1	0
1	6	71100	0	1	2	3	4
1	6	1.10346e+07	0	1	2	5	4
1	6	250	0	1	5	3	4
1	7	28928	0	1	2	1	0
1	7	70300	0	1	2	3	4
1	7	1.12067e+07	0	1	2	5	4
1	7	200	0	1	5	3	4
1	8	26048	0	1	2	1	0
1	8	68800	0	1	2	3	4
1	8	1.0793e+07	0	1	2	5	4
1	8	250	0	1	5	3	4
1	9	27520	0	1	2	1	0
1	9	71200	0	1	2	3	4
1	9	1.05882e+07	0	1	2	5	4
1	9	200	0	1	5	3	4
2	0	27520	0	1	2	1	0
2	0	64900	0	1	2	3	4
2	0	1.09568e+07	0	1	2	5	4
2	0	200	0	1	5	3	4
2	1	31104	0	1	2	1	0
2	1	72800	0	1	2	3	4
2	1	1.11452e+07	0	1	2	5	4
2	1	300	0	1	5	3	4
2	3	25664	0	1	2	1	0
2	3	66300	0	1	2	3	4
2	3	1.10797e+07	0	1	2	5	4
2	3	150	0	1	5	3	4
2	4	29376	0	1	2	1	0
2	4	72700	0	1	2	3	4
2	4	1.08913e+07	0	1	2	5	4
2	4	400	0	1	5	3	4
2	5	29824	0	1	2	1	0
2	5	66100	0	1	2	3	4
2	5	1.09036e+07	0	1	2	5	4
2	5	50	0	1	5	3	4
2	6	29440	0	1	2	1	0
2	6	68600	0	1	2	3	4
2	6	1.08298e+07	0	1	2	5	4
2	6	250	0	1	5	3	4
2	7	30848	0	1	2	1	0
2	7	67400	0	1	2	3	4
2	7	1.12026e+07	0	1	2	5	4
2	7	350	0	1	5	3	4
2	8	29696	0	1	2	1	0
2	8	68500	0	1	2	3	4
2	8	1.08831e+07	0	1	2	5	4
2	8	150	0	1	5	3	4
2	9	31040	0	1	2	1	0
2	9	68700	0	1	2	3	4
2	9	1.10797e+07	0	1	2	5	4
2	9	400	0	1	5	3	4
3	0	28544	0	1	2	1	0
3	0	70700	0	1	2	3	4
3	0	1.11452e+07	0	1	2	5	4
3	0	300	0	1	5	3	4
3	1	26432	0	1	2	1	0
3	1	69000	0	1	2	3	4
3	1	1.09076e+07	0	1	2	5	4
3	1	400	0	1	5	3	4
3	2	29760	0	1	2	1	0
3	2	69800	0	1	2	3	4
3	2	1.10592e+07	0	1	2	5	4
3	2	300	0	1	5	3	4
3	4	28544	0	1	2	1	0
3	4	71800	0	1	2	3	4
3	4	1.12108e+07	0	1	2	5	4
3	4	200	0	1	5	3	4
3	5	29504	0	1	2	1	0
3	5	68200	0	1	2	3	4
3	5	1.09773e+07	0	1	2	5	4
3	5	400	0	1	5	3	4
3	6	28800	0	1	2	1	0
3	6	73500	0	1	2	3	4
3	6	1.08872e+07	0	1	2	5	4
3	6	500	0	1	5	3	4
3	7	32320	0	1	2	1	0
3	7	69600	0	1	2	3	4
3	7	1.12681e+07	0	1	2	5	4
3	7	450	0	1	5	3	4
3	8	32192	0	1	2	1	0
3	8	69700	0	1	2	3	4
3	8	1.07684e+07	0	1	2	5	4
3	8	100	0	1	5	3	4
3	9	27072	0	1	2	1	0
3	9	69900	0	1	2	3	4
3	9	1.08093e+07	0	1	2	5	4
3	9	350	0	1	5	3	4
4	0	28544	0	1	2	1	0
4	0	71300	0	1	2	3	4
4	0	1.11657e+07	0	1	2	5	4
4	0	400	0	1	5	3	4
4	1	28480	0	1	2	1	0
4	1	71100	0	1	2	3	4
4	1	1.06824e+07	0	1	2	5	4
4	1	400	0	1	5	3	4
4	2	28864	0	1	2	1	0
4	2	69900	0	1	2	3	4
4	2	1.08954e+07	0	1	2	5	4
4	2	200	0	1	5	3	4
4	3	28544	0	1	2	1	0
4	3	70100	0	1	2	3	4
4	3	1.13787e+07	0	1	2	5	4
4	3	200	0	1	5	3	4
4	5	28672	0	1	2	1	0
4	5	68900	0	1	2	3	4
4	5	1.08585e+07	0	1	2	5	4
4	5	300	0	1	5	3	4
4	6	29120	0	1	2	1	0
4	6	68900	0	1	2	3	4
4	6	1.11411e+07	0	1	2	5	4
4	6	450	0	1	5	3	4
4	7	29632	0	1	2	1	0
4	7	70100	0	1	2	3	4
4	7	1.06988e+07	0	1	2	5	4
4	7	300	0	1	5	3	4
4	8	29440	0	1	2	1	0
4	8	68500	0	1	2	3	4
4	8	1.09978e+07	0	1	2	5	4
4	8	50	0	1	5	3	4
4	9	28672	0	1	2	1	0
4	9	69800	0	1	2	3	4
4	9	1.11288e+07	0	1	2	5	4
4	9	150	0	1	5	3	4
5	0	28544	0	1	2	1	0
5	0	72500	0	1	2	3	4
5	0	1.09117e+07	0	1	2	5	4
5	0	200	0	1	5	3	4
5	1	28416	0	1	2	1	0
5	1	68700	0	1	2	3	4
5	1	1.11084e+07	0	1	2	5	4
5	1	450	0	1	5	3	4
5	2	27520	0	1	2	1	0
5	2	71500	0	1	2	3	4
5	2	1.06537e+07	0	1	2	5	4
5	2	350	0	1	5	3	4
5	3	31936	0	1	2	1	0
5	3	65700	0	1	2	3	4
5	3	1.08954e+07	0	1	2	5	4
5	3	400	0	1	5	3	4
5	4	29504	0	1	2	1	0
5	4	66500	0	1	2	3	4
5	4	1.11862e+07	0	1	2	5	4
5	4	450	0	1	5	3	4
5	6	28928	0	1	2	1	0
5	6	68500	0	1	2	3	4
5	6	1.09363e+07	0	1	2	5	4
5	6	250	0	1	5	3	4
5	7	29120	0	1	2	1	0
5	7	70600	0	1	2	3	4
5	7	1.11043e+07	0	1	2	5	4
5	7	350	0	1	5	3	4
5	8	28672	0	1	2	1	0
5	8	69800	0	1	2	3	4
5	8	1.10797e+07	0	1	2	5	4
5	8	400	0	1	5	3	4
5	9	28096	0	1	2	1	0
5	9	69600	0	1	2	3	4
5	9	1.10715e+07	0	1	2	5	4
5	9	300	0	1	5	3	4
6	0	28992	0	1	2	1	0
6	0	70200	0	1	2	3	4
6	0	1.11575e+07	0	1	2	5	4
6	0	250	0	1	5	3	4
6	1	27904	0	1	2	1	0
6	1	68400	0	1	2	3	4
6	1	1.10387e+07	0	1	2	5	4
6	1	300	0	1	5	3	4
6	2	28288	0	1	2	1	0
6	2	70700	0	1	2	3	4
6	2	1.07971e+07	0	1	2	5	4
6	2	400	0	1	5	3	4
6	3	29568	0	1	2	1	0
6	3	72300	0	1	2	3	4
6	3	1.10182e+07	0	1	2	5	4
6	3	300	0	1	5	3	4
6	4	28928	0	1	2	1	0
6	4	67000	0	1	2	3	4
6	4	1.09404e+07	0	1	2	5	4
6	4	150	0	1	5	3	4
6	5	28096	0	1	2	1	0
6	5	67000	0	1	2	3	4
6	5	1.09527e+07	0	1	2	5	4
6	5	400	0	1	5	3	4
6	7	28864	0	1	2	1	0
6	7	72700	0	1	2	3	4
6	7	1.0838e+07	0	1	2	5	4
6	7	200	0	1	5	3	4
6	8	29888	0	1	2	1	0
6	8	67200	0	1	2	3	4
6	8	1.14893e+07	0	1	2	5	4
6	8	500	0	1	5	3	4
6	9	28224	0	1	2	1	0
6	9	68500	0	1	2	3	4
6	9	1.11616e+07	0	1	2	5	4
6	9	300	0	1	5	3	4
7	0	29824	0	1	2	1	0
7	0	70500	0	1	2	3	4
7	0	1.12067e+07	0	1	2	5	4
7	0	200	0	1	5	3	4
7	1	29504	0	1	2	1	0
7	1	72400	0	1	2	3	4
7	1	1.0752e+07	0	1	2	5	4
7	1	200	0	1	5	3	4
7	2	30720	0	1	2	1	0
7	2	68200	0	1	2	3	4
7	2	1.09691e+07	0	1	2	5	4
7	2	50	0	1	5	3	4
7	3	28800	0	1	2	1	0
7	3	75200	0	1	2	3	4
7	3	1.11739e+07	0	1	2	5	4
7	3	300	0	1	5	3	4
7	4	29248	0	1	2	1	0
7	4	69500	0	1	2	3	4
7	4	1.13664e+07	0	1	2	5	4
7	4	250	0	1	5	3	4
7	5	27648	0	1	2	1	0
7	5	74300	0	1	2	3	4
7	5	1.11124e+07	0	1	2	5	4
7	5	400	0	1	5	3	4
7	6	28224	0	1	2	1	0
7	6	69700	0	1	2	3	4
7	6	1.10633e+07	0	1	2	5	4
7	6	250	0	1	5	3	4
7	8	29312	0	1	2	1	0
7	8	68800	0	1	2	3	4
7	8	1.13541e+07	0	1	2	5	4
7	8	350	0	1	5	3	4
7	9	28032	0	1	2	1	0
7	9	63300	0	1	2	3	4
7	9	1.10182e+07	0	1	2	5	4
7	9	250	0	1	5	3	4
8	0	28736	0	1	2	1	0
8	0	68100	0	1	2	3	4
8	0	1.12148e+07	0	1	2	5	4
8	0	400	0	1	5	3	4
8	1	27328	0	1	2	1	0
8	1	70600	0	1	2	3	4
8	1	1.08872e+07	0	1	2	5	4
8	1	450	0	1	5	3	4
8	2	29632	0	1	2	1	0
8	2	70800	0	1	2	3	4
8	2	1.12558e+07	0	1	2	5	4
8	2	200	0	1	5	3	4
8	3	31168	0	1	2	1	0
8	3	74300	0	1	2	3	4
8	3	1.11903e+07	0	1	2	5	4
8	3	250	0	1	5	3	4
8	4	27200	0	1	2	1	0
8	4	73800	0	1	2	3	4
8	4	1.11575e+07	0	1	2	5	4
8	4	500	0	1	5	3	4
8	5	28416	0	1	2	1	0
8	5	66200	0	1	2	3	4
8	5	1.05185e+07	0	1	2	5	4
8	5	600	0	1	5	3	4
8	6	29376	0	1	2	1	0
8	6	68200	0	1	2	3	4
8	6	1.12845e+07	0	1	2	5	4
8	6	150	0	1	5	3	4
8	7	28544	0	1	2	1	0
8	7	70700	0	1	2	3	4
8	7	1.05677e+07	0	1	2	5	4
8	7	350	0	1	5	3	4
8	9	28224	0	1	2	1	0
8	9	65800	0	1	2	3	4
8	9	1.12148e+07	0	1	2	5	4
8	9	500	0	1	5	3	4
9	0	31936	0	1	2	1	0
9	0	67100	0	1	2	3	4
9	0	1.10223e+07	0	1	2	5	4
9	0	200	0	1	5	3	4
9	1	27712	0	1	2	1	0
9	1	65400	0	1	2	3	4
9	1	1.09896e+07	0	1	2	5	4
9	1	450	0	1	5	3	4
9	2	30528	0	1	2	1	0
9	2	67300	0	1	2	3	4
9	2	1.11739e+07	0	1	2	5	4
9	2	200	0	1	5	3	4
9	3	30208	0	1	2	1	0
9	3	70900	0	1	2	3	4
9	3	1.08093e+07	0	1	2	5	4
9	3	100	0	1	5	3	4
9	4	29440	0	1	2	1	0
9	4	74500	0	1	2	3	4
9	4	1.10961e+07	0	1	2	5	4
9	4	300	0	1	5	3	4
9	5	28352	0	1	2	1	0
9	5	69900	0	1	2	3	4
9	5	1.05677e+07	0	1	2	5	4
9	5	500	0	1	5	3	4
9	6	28800	0	1	2	1	0
9	6	68100	0	1	2	3	4
9	6	1.11247e+07	0	1	2	5	4
9	6	250	0	1	5	3	4
9	7	30848	0	1	2	1	0
9	7	69100	0	1	2	3	4
9	7	1.09896e+07	0	1	2	5	4
9	7	50	0	1	5	3	4
9	8	28416	0	1	2	1	0
9	8	69700	0	1	2	3	4
9	8	1.13787e+07	0	1	2	5	4
9	8	200	0	1	5	3	4
