0	300000000
1	300000000
2	300000000
3	300000000
4	300000000
5	300000000
6	300000000
7	300000000
8	300000000
9	300000000
10	300000000
11	300000000
12	300000000
13	300000000
14	300000000
15	300000000
16	300000000
17	300000000
