16
0	1	1e+12
1	0	1e+12
1	4	1e+12
1	9	1e+12
2	6	1e+12
3	8	1e+12
3	12	1e+12
4	1	1e+12
5	9	1e+12
5	15	1e+12
6	2	1e+12
6	9	1e+12
6	12	1e+12
7	8	1e+12
8	3	1e+12
8	7	1e+12
8	9	1e+12
8	10	1e+12
8	14	1e+12
8	15	1e+12
9	1	1e+12
9	5	1e+12
9	6	1e+12
9	8	1e+12
9	12	1e+12
10	8	1e+12
10	12	1e+12
10	13	1e+12
11	12	1e+12
11	13	1e+12
12	3	1e+12
12	6	1e+12
12	9	1e+12
12	10	1e+12
12	11	1e+12
13	10	1e+12
13	11	1e+12
13	14	1e+12
14	8	1e+12
14	13	1e+12
14	15	1e+12
15	5	1e+12
15	8	1e+12
15	14	1e+12
