1000	100000	10000	10000	1000	1000	1000	10000	10000	100000	1000
0	1	1.12473e+07	1	5	9	0	7
0	2	1.12457e+07	1	5	9	0	7
0	3	1.10027e+07	1	5	9	0	7
0	4	1.0945e+07	1	5	9	0	7
0	5	1.09715e+07	1	5	9	0	7
0	6	1.10074e+07	1	5	9	0	7
0	7	1.128e+07	1	5	9	0	7
0	8	1.11538e+07	1	5	9	0	7
0	9	1.12208e+07	1	5	9	0	7
1	0	1.1146e+07	1	5	9	0	7
1	2	1.14124e+07	1	5	9	0	7
1	3	1.12161e+07	1	5	9	0	7
1	4	1.11818e+07	1	5	9	0	7
1	5	1.12395e+07	1	5	9	0	7
1	6	1.09887e+07	1	5	9	0	7
1	7	1.09404e+07	1	5	9	0	7
1	8	1.09684e+07	1	5	9	0	7
1	9	1.12239e+07	1	5	9	0	7
2	0	1.1093e+07	1	5	9	0	7
2	1	1.1118e+07	1	5	9	0	7
2	3	1.1051e+07	1	5	9	0	7
2	4	1.1012e+07	1	5	9	0	7
2	5	1.11943e+07	1	5	9	0	7
2	6	1.11102e+07	1	5	9	0	7
2	7	1.11694e+07	1	5	9	0	7
2	8	1.11507e+07	1	5	9	0	7
2	9	1.11351e+07	1	5	9	0	7
3	0	1.11226e+07	1	5	9	0	7
3	1	1.09466e+07	1	5	9	0	7
3	2	1.11413e+07	1	5	9	0	7
3	4	1.10821e+07	1	5	9	0	7
3	5	1.10697e+07	1	5	9	0	7
3	6	1.11585e+07	1	5	9	0	7
3	7	1.1012e+07	1	5	9	0	7
3	8	1.12971e+07	1	5	9	0	7
3	9	1.10214e+07	1	5	9	0	7
4	0	1.10837e+07	1	5	9	0	7
4	1	1.11834e+07	1	5	9	0	7
4	2	1.11725e+07	1	5	9	0	7
4	3	1.11413e+07	1	5	9	0	7
4	5	1.10665e+07	1	5	9	0	7
4	6	1.10074e+07	1	5	9	0	7
4	7	1.10588e+07	1	5	9	0	7
4	8	1.08921e+07	1	5	9	0	7
4	9	1.10728e+07	1	5	9	0	7
5	0	1.1079e+07	1	5	9	0	7
5	1	1.10525e+07	1	5	9	0	7
5	2	1.11694e+07	1	5	9	0	7
5	3	1.10899e+07	1	5	9	0	7
5	4	1.09809e+07	1	5	9	0	7
5	6	1.11242e+07	1	5	9	0	7
5	7	1.11086e+07	1	5	9	0	7
5	8	1.10681e+07	1	5	9	0	7
5	9	1.08438e+07	1	5	9	0	7
6	0	1.1118e+07	1	5	9	0	7
6	1	1.1146e+07	1	5	9	0	7
6	2	1.08905e+07	1	5	9	0	7
6	3	1.11335e+07	1	5	9	0	7
6	4	1.10151e+07	1	5	9	0	7
6	5	1.09513e+07	1	5	9	0	7
6	7	1.11491e+07	1	5	9	0	7
6	8	1.11008e+07	1	5	9	0	7
6	9	1.11522e+07	1	5	9	0	7
7	0	1.09497e+07	1	5	9	0	7
7	1	1.09809e+07	1	5	9	0	7
7	2	1.09778e+07	1	5	9	0	7
7	3	1.11071e+07	1	5	9	0	7
7	4	1.12317e+07	1	5	9	0	7
7	5	1.11647e+07	1	5	9	0	7
7	6	1.11725e+07	1	5	9	0	7
7	8	1.11958e+07	1	5	9	0	7
7	9	1.10946e+07	1	5	9	0	7
8	0	1.11476e+07	1	5	9	0	7
8	1	1.12005e+07	1	5	9	0	7
8	2	1.14576e+07	1	5	9	0	7
8	3	1.11507e+07	1	5	9	0	7
8	4	1.1118e+07	1	5	9	0	7
8	5	1.10977e+07	1	5	9	0	7
8	6	1.13267e+07	1	5	9	0	7
8	7	1.10105e+07	1	5	9	0	7
8	9	1.1132e+07	1	5	9	0	7
9	0	1.11429e+07	1	5	9	0	7
9	1	1.1213e+07	1	5	9	0	7
9	2	1.11818e+07	1	5	9	0	7
9	3	1.10852e+07	1	5	9	0	7
9	4	1.11055e+07	1	5	9	0	7
9	5	1.09232e+07	1	5	9	0	7
9	6	1.12036e+07	1	5	9	0	7
9	7	1.12784e+07	1	5	9	0	7
9	8	1.12239e+07	1	5	9	0	7
