10
0	3	1e+12
1	8	1e+12
2	6	1e+12
2	9	1e+12
3	0	1e+12
3	6	1e+12
3	8	1e+12
4	6	1e+12
5	6	1e+12
5	7	1e+12
6	2	1e+12
6	3	1e+12
6	4	1e+12
6	5	1e+12
7	5	1e+12
7	9	1e+12
8	1	1e+12
8	3	1e+12
8	9	1e+12
9	2	1e+12
9	7	1e+12
9	8	1e+12
