100000	100000	100000	10000	1000	1000
0	1	15552	0	1	2	1	0
0	1	31500	0	1	2	3	4
0	1	5.39853e+06	0	1	2	5	4
0	1	200	0	1	5	3	4
0	2	15744	0	1	2	1	0
0	2	35500	0	1	2	3	4
0	2	5.4231e+06	0	1	2	5	4
0	2	150	0	1	5	3	4
0	3	15296	0	1	2	1	0
0	3	32000	0	1	2	3	4
0	3	5.56646e+06	0	1	2	5	4
0	3	150	0	1	5	3	4
0	4	13312	0	1	2	1	0
0	4	36000	0	1	2	3	4
0	4	5.65248e+06	0	1	2	5	4
0	4	200	0	1	5	3	4
0	5	14592	0	1	2	1	0
0	5	34100	0	1	2	3	4
0	5	5.53779e+06	0	1	2	5	4
0	5	200	0	1	5	3	4
0	6	16192	0	1	2	1	0
0	6	31300	0	1	2	3	4
0	6	5.60333e+06	0	1	2	5	4
0	6	150	0	1	5	3	4
0	7	14208	0	1	2	1	0
0	7	33600	0	1	2	3	4
0	7	5.28384e+06	0	1	2	5	4
0	7	100	0	1	5	3	4
0	8	14976	0	1	2	1	0
0	8	34600	0	1	2	3	4
0	8	5.46406e+06	0	1	2	5	4
0	8	100	0	1	5	3	4
0	9	14208	0	1	2	1	0
0	9	37500	0	1	2	3	4
0	9	5.46406e+06	0	1	2	5	4
0	9	250	0	1	5	3	4
0	10	15232	0	1	2	1	0
0	10	31900	0	1	2	3	4
0	10	5.33299e+06	0	1	2	5	4
0	10	150	0	1	5	3	4
0	11	14528	0	1	2	1	0
0	11	31900	0	1	2	3	4
0	11	5.45997e+06	0	1	2	5	4
0	11	150	0	1	5	3	4
0	12	14464	0	1	2	1	0
0	12	32800	0	1	2	3	4
0	12	5.49274e+06	0	1	2	5	4
0	13	15360	0	1	2	1	0
0	13	35900	0	1	2	3	4
0	13	5.66886e+06	0	1	2	5	4
0	13	50	0	1	5	3	4
1	0	13824	0	1	2	1	0
1	0	36000	0	1	2	3	4
1	0	5.5255e+06	0	1	2	5	4
1	0	150	0	1	5	3	4
1	2	13696	0	1	2	1	0
1	2	34400	0	1	2	3	4
1	2	5.55008e+06	0	1	2	5	4
1	2	150	0	1	5	3	4
1	3	12544	0	1	2	1	0
1	3	33100	0	1	2	3	4
1	3	5.55827e+06	0	1	2	5	4
1	3	50	0	1	5	3	4
1	4	17088	0	1	2	1	0
1	4	35500	0	1	2	3	4
1	4	5.61562e+06	0	1	2	5	4
1	4	150	0	1	5	3	4
1	5	14400	0	1	2	1	0
1	5	35500	0	1	2	3	4
1	5	5.2183e+06	0	1	2	5	4
1	5	100	0	1	5	3	4
1	6	15616	0	1	2	1	0
1	6	34500	0	1	2	3	4
1	6	5.40262e+06	0	1	2	5	4
1	6	100	0	1	5	3	4
1	7	14656	0	1	2	1	0
1	7	35400	0	1	2	3	4
1	7	5.19373e+06	0	1	2	5	4
1	7	100	0	1	5	3	4
1	8	14336	0	1	2	1	0
1	8	36000	0	1	2	3	4
1	8	5.40262e+06	0	1	2	5	4
1	8	150	0	1	5	3	4
1	9	15232	0	1	2	1	0
1	9	34000	0	1	2	3	4
1	9	5.34118e+06	0	1	2	5	4
1	9	150	0	1	5	3	4
1	10	14528	0	1	2	1	0
1	10	35600	0	1	2	3	4
1	10	5.30432e+06	0	1	2	5	4
1	10	200	0	1	5	3	4
1	11	14336	0	1	2	1	0
1	11	33500	0	1	2	3	4
1	11	5.33709e+06	0	1	2	5	4
1	11	100	0	1	5	3	4
1	12	13120	0	1	2	1	0
1	12	35100	0	1	2	3	4
1	12	5.40262e+06	0	1	2	5	4
1	12	350	0	1	5	3	4
1	13	14272	0	1	2	1	0
1	13	34400	0	1	2	3	4
1	13	5.21011e+06	0	1	2	5	4
1	13	150	0	1	5	3	4
2	0	14464	0	1	2	1	0
2	0	31300	0	1	2	3	4
2	0	5.67706e+06	0	1	2	5	4
2	0	100	0	1	5	3	4
2	1	15104	0	1	2	1	0
2	1	34200	0	1	2	3	4
2	1	5.25107e+06	0	1	2	5	4
2	1	200	0	1	5	3	4
2	3	15040	0	1	2	1	0
2	3	30300	0	1	2	3	4
2	3	5.48045e+06	0	1	2	5	4
2	3	100	0	1	5	3	4
2	4	13824	0	1	2	1	0
2	4	30800	0	1	2	3	4
2	4	5.74259e+06	0	1	2	5	4
2	4	100	0	1	5	3	4
2	5	13952	0	1	2	1	0
2	5	35700	0	1	2	3	4
2	5	5.45997e+06	0	1	2	5	4
2	5	150	0	1	5	3	4
2	6	12928	0	1	2	1	0
2	6	33400	0	1	2	3	4
2	6	5.39853e+06	0	1	2	5	4
2	6	150	0	1	5	3	4
2	7	15360	0	1	2	1	0
2	7	35200	0	1	2	3	4
2	7	5.35757e+06	0	1	2	5	4
2	7	300	0	1	5	3	4
2	8	14016	0	1	2	1	0
2	8	32500	0	1	2	3	4
2	8	5.35757e+06	0	1	2	5	4
2	8	150	0	1	5	3	4
2	9	14400	0	1	2	1	0
2	9	31800	0	1	2	3	4
2	9	5.46406e+06	0	1	2	5	4
2	9	50	0	1	5	3	4
2	10	15104	0	1	2	1	0
2	10	33800	0	1	2	3	4
2	10	5.55418e+06	0	1	2	5	4
2	10	300	0	1	5	3	4
2	11	13696	0	1	2	1	0
2	11	34300	0	1	2	3	4
2	11	5.30842e+06	0	1	2	5	4
2	11	50	0	1	5	3	4
2	12	14464	0	1	2	1	0
2	12	32700	0	1	2	3	4
2	12	5.47226e+06	0	1	2	5	4
2	12	50	0	1	5	3	4
2	13	15040	0	1	2	1	0
2	13	36200	0	1	2	3	4
2	13	5.37395e+06	0	1	2	5	4
2	13	250	0	1	5	3	4
3	0	15040	0	1	2	1	0
3	0	36300	0	1	2	3	4
3	0	5.49683e+06	0	1	2	5	4
3	0	50	0	1	5	3	4
3	1	14912	0	1	2	1	0
3	1	34500	0	1	2	3	4
3	1	5.4313e+06	0	1	2	5	4
3	1	250	0	1	5	3	4
3	2	14464	0	1	2	1	0
3	2	35600	0	1	2	3	4
3	2	5.5296e+06	0	1	2	5	4
3	2	200	0	1	5	3	4
3	4	13760	0	1	2	1	0
3	4	32000	0	1	2	3	4
3	4	5.30842e+06	0	1	2	5	4
3	4	200	0	1	5	3	4
3	5	15040	0	1	2	1	0
3	5	39800	0	1	2	3	4
3	5	5.37805e+06	0	1	2	5	4
3	5	150	0	1	5	3	4
3	6	14208	0	1	2	1	0
3	6	35900	0	1	2	3	4
3	6	5.18144e+06	0	1	2	5	4
3	6	200	0	1	5	3	4
3	7	13824	0	1	2	1	0
3	7	34900	0	1	2	3	4
3	7	5.43539e+06	0	1	2	5	4
3	7	350	0	1	5	3	4
3	8	12096	0	1	2	1	0
3	8	34100	0	1	2	3	4
3	8	5.4231e+06	0	1	2	5	4
3	8	100	0	1	5	3	4
3	9	14976	0	1	2	1	0
3	9	33900	0	1	2	3	4
3	9	5.48864e+06	0	1	2	5	4
3	10	14912	0	1	2	1	0
3	10	34000	0	1	2	3	4
3	10	5.40262e+06	0	1	2	5	4
3	10	200	0	1	5	3	4
3	11	15424	0	1	2	1	0
3	11	32900	0	1	2	3	4
3	11	5.82451e+06	0	1	2	5	4
3	11	150	0	1	5	3	4
3	12	15424	0	1	2	1	0
3	12	37900	0	1	2	3	4
3	12	5.64429e+06	0	1	2	5	4
3	12	200	0	1	5	3	4
3	13	15360	0	1	2	1	0
3	13	32400	0	1	2	3	4
3	13	5.38214e+06	0	1	2	5	4
3	13	50	0	1	5	3	4
4	0	12672	0	1	2	1	0
4	0	37300	0	1	2	3	4
4	0	5.3289e+06	0	1	2	5	4
4	0	100	0	1	5	3	4
4	1	14144	0	1	2	1	0
4	1	33100	0	1	2	3	4
4	1	5.47635e+06	0	1	2	5	4
4	1	100	0	1	5	3	4
4	2	16384	0	1	2	1	0
4	2	33000	0	1	2	3	4
4	2	5.70163e+06	0	1	2	5	4
4	2	150	0	1	5	3	4
4	3	12544	0	1	2	1	0
4	3	30300	0	1	2	3	4
4	3	5.3207e+06	0	1	2	5	4
4	3	200	0	1	5	3	4
4	5	11904	0	1	2	1	0
4	5	31900	0	1	2	3	4
4	5	5.50912e+06	0	1	2	5	4
4	5	300	0	1	5	3	4
4	6	13760	0	1	2	1	0
4	6	34600	0	1	2	3	4
4	6	5.17734e+06	0	1	2	5	4
4	6	100	0	1	5	3	4
4	7	13568	0	1	2	1	0
4	7	37000	0	1	2	3	4
4	7	5.25926e+06	0	1	2	5	4
4	7	250	0	1	5	3	4
4	8	15040	0	1	2	1	0
4	8	32900	0	1	2	3	4
4	8	5.16096e+06	0	1	2	5	4
4	8	100	0	1	5	3	4
4	9	14016	0	1	2	1	0
4	9	40000	0	1	2	3	4
4	9	5.39034e+06	0	1	2	5	4
4	9	50	0	1	5	3	4
4	10	13696	0	1	2	1	0
4	10	36200	0	1	2	3	4
4	10	5.18963e+06	0	1	2	5	4
4	10	50	0	1	5	3	4
4	11	16448	0	1	2	1	0
4	11	35200	0	1	2	3	4
4	11	5.38214e+06	0	1	2	5	4
4	11	100	0	1	5	3	4
4	12	13760	0	1	2	1	0
4	12	33200	0	1	2	3	4
4	12	5.61971e+06	0	1	2	5	4
4	12	150	0	1	5	3	4
4	13	14272	0	1	2	1	0
4	13	38000	0	1	2	3	4
4	13	5.17325e+06	0	1	2	5	4
4	13	50	0	1	5	3	4
5	0	15104	0	1	2	1	0
5	0	37100	0	1	2	3	4
5	0	5.37805e+06	0	1	2	5	4
5	0	100	0	1	5	3	4
5	1	14720	0	1	2	1	0
5	1	37600	0	1	2	3	4
5	1	5.1241e+06	0	1	2	5	4
5	1	150	0	1	5	3	4
5	2	14016	0	1	2	1	0
5	2	35500	0	1	2	3	4
5	2	5.47226e+06	0	1	2	5	4
5	2	150	0	1	5	3	4
5	3	13760	0	1	2	1	0
5	3	36800	0	1	2	3	4
5	3	5.55008e+06	0	1	2	5	4
5	3	150	0	1	5	3	4
5	4	14912	0	1	2	1	0
5	4	34600	0	1	2	3	4
5	4	5.45587e+06	0	1	2	5	4
5	4	100	0	1	5	3	4
5	6	13568	0	1	2	1	0
5	6	33400	0	1	2	3	4
5	6	5.03808e+06	0	1	2	5	4
5	6	250	0	1	5	3	4
5	7	15232	0	1	2	1	0
5	7	36400	0	1	2	3	4
5	7	5.69344e+06	0	1	2	5	4
5	7	300	0	1	5	3	4
5	8	13888	0	1	2	1	0
5	8	35300	0	1	2	3	4
5	8	5.76717e+06	0	1	2	5	4
5	8	200	0	1	5	3	4
5	9	14528	0	1	2	1	0
5	9	34200	0	1	2	3	4
5	9	5.31251e+06	0	1	2	5	4
5	9	150	0	1	5	3	4
5	10	14912	0	1	2	1	0
5	10	31600	0	1	2	3	4
5	10	5.37395e+06	0	1	2	5	4
5	10	100	0	1	5	3	4
5	11	14464	0	1	2	1	0
5	11	32000	0	1	2	3	4
5	11	5.4231e+06	0	1	2	5	4
5	12	14592	0	1	2	1	0
5	12	35200	0	1	2	3	4
5	12	5.13229e+06	0	1	2	5	4
5	12	100	0	1	5	3	4
5	13	14592	0	1	2	1	0
5	13	35800	0	1	2	3	4
5	13	5.65248e+06	0	1	2	5	4
6	0	13888	0	1	2	1	0
6	0	38100	0	1	2	3	4
6	0	5.54598e+06	0	1	2	5	4
6	0	150	0	1	5	3	4
6	1	14528	0	1	2	1	0
6	1	34900	0	1	2	3	4
6	1	5.41491e+06	0	1	2	5	4
6	1	200	0	1	5	3	4
6	2	14784	0	1	2	1	0
6	2	35700	0	1	2	3	4
6	2	5.64838e+06	0	1	2	5	4
6	2	200	0	1	5	3	4
6	3	15616	0	1	2	1	0
6	3	34600	0	1	2	3	4
6	3	5.67296e+06	0	1	2	5	4
6	3	100	0	1	5	3	4
6	4	14272	0	1	2	1	0
6	4	32100	0	1	2	3	4
6	4	5.28384e+06	0	1	2	5	4
6	4	50	0	1	5	3	4
6	5	16192	0	1	2	1	0
6	5	35400	0	1	2	3	4
6	5	5.44768e+06	0	1	2	5	4
6	5	50	0	1	5	3	4
6	7	15616	0	1	2	1	0
6	7	35100	0	1	2	3	4
6	7	5.18963e+06	0	1	2	5	4
6	7	150	0	1	5	3	4
6	8	13888	0	1	2	1	0
6	8	36600	0	1	2	3	4
6	8	5.36986e+06	0	1	2	5	4
6	8	200	0	1	5	3	4
6	9	15040	0	1	2	1	0
6	9	37200	0	1	2	3	4
6	9	5.62381e+06	0	1	2	5	4
6	9	150	0	1	5	3	4
6	10	13376	0	1	2	1	0
6	10	34200	0	1	2	3	4
6	10	5.39443e+06	0	1	2	5	4
6	10	100	0	1	5	3	4
6	11	16000	0	1	2	1	0
6	11	31400	0	1	2	3	4
6	11	5.4313e+06	0	1	2	5	4
6	11	100	0	1	5	3	4
6	12	13952	0	1	2	1	0
6	12	32800	0	1	2	3	4
6	12	5.39853e+06	0	1	2	5	4
6	12	100	0	1	5	3	4
6	13	13888	0	1	2	1	0
6	13	32800	0	1	2	3	4
6	13	5.632e+06	0	1	2	5	4
6	13	250	0	1	5	3	4
7	0	16064	0	1	2	1	0
7	0	35600	0	1	2	3	4
7	0	5.19782e+06	0	1	2	5	4
7	0	150	0	1	5	3	4
7	1	13312	0	1	2	1	0
7	1	31900	0	1	2	3	4
7	1	5.48045e+06	0	1	2	5	4
7	1	200	0	1	5	3	4
7	2	15808	0	1	2	1	0
7	2	36300	0	1	2	3	4
7	2	5.61562e+06	0	1	2	5	4
7	2	200	0	1	5	3	4
7	3	13888	0	1	2	1	0
7	3	36700	0	1	2	3	4
7	3	5.26746e+06	0	1	2	5	4
7	3	200	0	1	5	3	4
7	4	15168	0	1	2	1	0
7	4	36700	0	1	2	3	4
7	4	5.45178e+06	0	1	2	5	4
7	4	150	0	1	5	3	4
7	5	14272	0	1	2	1	0
7	5	35600	0	1	2	3	4
7	5	5.33299e+06	0	1	2	5	4
7	5	100	0	1	5	3	4
7	6	15296	0	1	2	1	0
7	6	30900	0	1	2	3	4
7	6	5.36166e+06	0	1	2	5	4
7	6	200	0	1	5	3	4
7	8	14592	0	1	2	1	0
7	8	36400	0	1	2	3	4
7	8	5.47226e+06	0	1	2	5	4
7	8	200	0	1	5	3	4
7	9	14080	0	1	2	1	0
7	9	33800	0	1	2	3	4
7	9	5.28794e+06	0	1	2	5	4
7	9	100	0	1	5	3	4
7	10	14784	0	1	2	1	0
7	10	31900	0	1	2	3	4
7	10	5.57875e+06	0	1	2	5	4
7	10	50	0	1	5	3	4
7	11	13312	0	1	2	1	0
7	11	33700	0	1	2	3	4
7	11	5.38624e+06	0	1	2	5	4
7	11	100	0	1	5	3	4
7	12	12608	0	1	2	1	0
7	12	32900	0	1	2	3	4
7	12	5.16915e+06	0	1	2	5	4
7	12	200	0	1	5	3	4
7	13	14720	0	1	2	1	0
7	13	39000	0	1	2	3	4
7	13	5.4313e+06	0	1	2	5	4
7	13	50	0	1	5	3	4
8	0	14848	0	1	2	1	0
8	0	34500	0	1	2	3	4
8	0	5.23469e+06	0	1	2	5	4
8	0	300	0	1	5	3	4
8	1	14016	0	1	2	1	0
8	1	38300	0	1	2	3	4
8	1	5.4231e+06	0	1	2	5	4
8	1	200	0	1	5	3	4
8	2	14016	0	1	2	1	0
8	2	35700	0	1	2	3	4
8	2	5.30432e+06	0	1	2	5	4
8	2	50	0	1	5	3	4
8	3	15296	0	1	2	1	0
8	3	38500	0	1	2	3	4
8	3	5.56237e+06	0	1	2	5	4
8	3	100	0	1	5	3	4
8	4	15552	0	1	2	1	0
8	4	36400	0	1	2	3	4
8	4	5.3289e+06	0	1	2	5	4
8	4	100	0	1	5	3	4
8	5	13120	0	1	2	1	0
8	5	34200	0	1	2	3	4
8	5	5.57056e+06	0	1	2	5	4
8	5	100	0	1	5	3	4
8	6	13952	0	1	2	1	0
8	6	31200	0	1	2	3	4
8	6	5.53779e+06	0	1	2	5	4
8	6	100	0	1	5	3	4
8	7	15232	0	1	2	1	0
8	7	35700	0	1	2	3	4
8	7	5.31251e+06	0	1	2	5	4
8	7	200	0	1	5	3	4
8	9	12288	0	1	2	1	0
8	9	34000	0	1	2	3	4
8	9	5.46406e+06	0	1	2	5	4
8	9	50	0	1	5	3	4
8	10	13824	0	1	2	1	0
8	10	33300	0	1	2	3	4
8	10	5.56646e+06	0	1	2	5	4
8	10	50	0	1	5	3	4
8	11	13696	0	1	2	1	0
8	11	35300	0	1	2	3	4
8	11	5.46406e+06	0	1	2	5	4
8	11	150	0	1	5	3	4
8	12	13376	0	1	2	1	0
8	12	34800	0	1	2	3	4
8	12	5.24698e+06	0	1	2	5	4
8	12	300	0	1	5	3	4
8	13	16128	0	1	2	1	0
8	13	35900	0	1	2	3	4
8	13	5.80403e+06	0	1	2	5	4
8	13	150	0	1	5	3	4
9	0	13696	0	1	2	1	0
9	0	34300	0	1	2	3	4
9	0	5.59514e+06	0	1	2	5	4
9	0	100	0	1	5	3	4
9	1	15296	0	1	2	1	0
9	1	35600	0	1	2	3	4
9	1	5.71802e+06	0	1	2	5	4
9	2	14208	0	1	2	1	0
9	2	32700	0	1	2	3	4
9	2	5.36576e+06	0	1	2	5	4
9	2	50	0	1	5	3	4
9	3	13696	0	1	2	1	0
9	3	32000	0	1	2	3	4
9	3	5.36166e+06	0	1	2	5	4
9	3	100	0	1	5	3	4
9	4	15552	0	1	2	1	0
9	4	32000	0	1	2	3	4
9	4	5.66067e+06	0	1	2	5	4
9	4	200	0	1	5	3	4
9	5	14208	0	1	2	1	0
9	5	36500	0	1	2	3	4
9	5	5.50093e+06	0	1	2	5	4
9	5	150	0	1	5	3	4
9	6	14464	0	1	2	1	0
9	6	32900	0	1	2	3	4
9	6	5.41901e+06	0	1	2	5	4
9	6	200	0	1	5	3	4
9	7	14976	0	1	2	1	0
9	7	35200	0	1	2	3	4
9	7	5.46816e+06	0	1	2	5	4
9	7	50	0	1	5	3	4
9	8	14528	0	1	2	1	0
9	8	32900	0	1	2	3	4
9	8	5.61971e+06	0	1	2	5	4
9	8	50	0	1	5	3	4
9	10	14080	0	1	2	1	0
9	10	32800	0	1	2	3	4
9	10	5.57875e+06	0	1	2	5	4
9	10	150	0	1	5	3	4
9	11	14592	0	1	2	1	0
9	11	36000	0	1	2	3	4
9	11	5.49274e+06	0	1	2	5	4
9	11	200	0	1	5	3	4
9	12	12672	0	1	2	1	0
9	12	33000	0	1	2	3	4
9	12	5.61562e+06	0	1	2	5	4
9	12	150	0	1	5	3	4
9	13	14208	0	1	2	1	0
9	13	35200	0	1	2	3	4
9	13	5.43949e+06	0	1	2	5	4
9	13	100	0	1	5	3	4
10	0	13952	0	1	2	1	0
10	0	33700	0	1	2	3	4
10	0	5.4313e+06	0	1	2	5	4
10	0	200	0	1	5	3	4
10	1	16384	0	1	2	1	0
10	1	37100	0	1	2	3	4
10	1	5.47635e+06	0	1	2	5	4
10	1	200	0	1	5	3	4
10	2	13184	0	1	2	1	0
10	2	38200	0	1	2	3	4
10	2	5.48864e+06	0	1	2	5	4
10	2	50	0	1	5	3	4
10	3	15552	0	1	2	1	0
10	3	35500	0	1	2	3	4
10	3	5.48864e+06	0	1	2	5	4
10	3	200	0	1	5	3	4
10	4	12928	0	1	2	1	0
10	4	35400	0	1	2	3	4
10	4	5.41491e+06	0	1	2	5	4
10	4	100	0	1	5	3	4
10	5	13184	0	1	2	1	0
10	5	37800	0	1	2	3	4
10	5	5.58285e+06	0	1	2	5	4
10	5	200	0	1	5	3	4
10	6	14016	0	1	2	1	0
10	6	35400	0	1	2	3	4
10	6	5.38214e+06	0	1	2	5	4
10	6	100	0	1	5	3	4
10	7	15680	0	1	2	1	0
10	7	34000	0	1	2	3	4
10	7	5.43539e+06	0	1	2	5	4
10	7	300	0	1	5	3	4
10	8	13120	0	1	2	1	0
10	8	34600	0	1	2	3	4
10	8	5.66886e+06	0	1	2	5	4
10	8	150	0	1	5	3	4
10	9	16128	0	1	2	1	0
10	9	34900	0	1	2	3	4
10	9	5.55418e+06	0	1	2	5	4
10	11	12416	0	1	2	1	0
10	11	34100	0	1	2	3	4
10	11	5.56646e+06	0	1	2	5	4
10	11	50	0	1	5	3	4
10	12	14912	0	1	2	1	0
10	12	34800	0	1	2	3	4
10	12	5.41491e+06	0	1	2	5	4
10	12	200	0	1	5	3	4
10	13	16192	0	1	2	1	0
10	13	32400	0	1	2	3	4
10	13	5.57056e+06	0	1	2	5	4
10	13	150	0	1	5	3	4
11	0	15488	0	1	2	1	0
11	0	38200	0	1	2	3	4
11	0	5.3248e+06	0	1	2	5	4
11	0	300	0	1	5	3	4
11	1	15680	0	1	2	1	0
11	1	34900	0	1	2	3	4
11	1	5.59104e+06	0	1	2	5	4
11	1	100	0	1	5	3	4
11	2	14976	0	1	2	1	0
11	2	31700	0	1	2	3	4
11	2	5.41901e+06	0	1	2	5	4
11	2	50	0	1	5	3	4
11	3	13312	0	1	2	1	0
11	3	35200	0	1	2	3	4
11	3	5.43949e+06	0	1	2	5	4
11	3	150	0	1	5	3	4
11	4	15296	0	1	2	1	0
11	4	34900	0	1	2	3	4
11	4	5.5296e+06	0	1	2	5	4
11	4	50	0	1	5	3	4
11	5	15424	0	1	2	1	0
11	5	33400	0	1	2	3	4
11	5	5.26746e+06	0	1	2	5	4
11	5	200	0	1	5	3	4
11	6	14208	0	1	2	1	0
11	6	30500	0	1	2	3	4
11	6	5.39443e+06	0	1	2	5	4
11	6	200	0	1	5	3	4
11	7	12992	0	1	2	1	0
11	7	33100	0	1	2	3	4
11	7	5.24288e+06	0	1	2	5	4
11	7	200	0	1	5	3	4
11	8	15488	0	1	2	1	0
11	8	35700	0	1	2	3	4
11	8	5.1159e+06	0	1	2	5	4
11	9	13376	0	1	2	1	0
11	9	32800	0	1	2	3	4
11	9	5.33299e+06	0	1	2	5	4
11	9	200	0	1	5	3	4
11	10	15552	0	1	2	1	0
11	10	34200	0	1	2	3	4
11	10	5.57056e+06	0	1	2	5	4
11	10	250	0	1	5	3	4
11	12	15168	0	1	2	1	0
11	12	35200	0	1	2	3	4
11	12	5.53779e+06	0	1	2	5	4
11	12	50	0	1	5	3	4
11	13	13376	0	1	2	1	0
11	13	34200	0	1	2	3	4
11	13	5.23059e+06	0	1	2	5	4
11	13	100	0	1	5	3	4
12	0	12992	0	1	2	1	0
12	0	32400	0	1	2	3	4
12	0	5.48454e+06	0	1	2	5	4
12	0	100	0	1	5	3	4
12	1	11840	0	1	2	1	0
12	1	32400	0	1	2	3	4
12	1	5.34528e+06	0	1	2	5	4
12	1	150	0	1	5	3	4
12	2	15232	0	1	2	1	0
12	2	34900	0	1	2	3	4
12	2	5.59923e+06	0	1	2	5	4
12	2	200	0	1	5	3	4
12	3	14784	0	1	2	1	0
12	3	32300	0	1	2	3	4
12	3	5.41491e+06	0	1	2	5	4
12	3	150	0	1	5	3	4
12	4	14656	0	1	2	1	0
12	4	33400	0	1	2	3	4
12	4	5.27155e+06	0	1	2	5	4
12	4	100	0	1	5	3	4
12	5	13760	0	1	2	1	0
12	5	30400	0	1	2	3	4
12	5	5.71802e+06	0	1	2	5	4
12	5	150	0	1	5	3	4
12	6	14528	0	1	2	1	0
12	6	35400	0	1	2	3	4
12	6	5.61152e+06	0	1	2	5	4
12	6	150	0	1	5	3	4
12	7	15424	0	1	2	1	0
12	7	33900	0	1	2	3	4
12	7	5.60333e+06	0	1	2	5	4
12	7	250	0	1	5	3	4
12	8	15040	0	1	2	1	0
12	8	36900	0	1	2	3	4
12	8	5.35347e+06	0	1	2	5	4
12	8	150	0	1	5	3	4
12	9	15616	0	1	2	1	0
12	9	32300	0	1	2	3	4
12	9	5.64019e+06	0	1	2	5	4
12	9	150	0	1	5	3	4
12	10	15040	0	1	2	1	0
12	10	37200	0	1	2	3	4
12	10	5.59104e+06	0	1	2	5	4
12	10	100	0	1	5	3	4
12	11	15552	0	1	2	1	0
12	11	37500	0	1	2	3	4
12	11	5.8368e+06	0	1	2	5	4
12	11	50	0	1	5	3	4
12	13	14656	0	1	2	1	0
12	13	35000	0	1	2	3	4
12	13	5.632e+06	0	1	2	5	4
12	13	100	0	1	5	3	4
13	0	15552	0	1	2	1	0
13	0	33700	0	1	2	3	4
13	0	5.31251e+06	0	1	2	5	4
13	0	150	0	1	5	3	4
13	1	13056	0	1	2	1	0
13	1	35400	0	1	2	3	4
13	1	5.48045e+06	0	1	2	5	4
13	1	50	0	1	5	3	4
13	2	15040	0	1	2	1	0
13	2	34200	0	1	2	3	4
13	2	5.18554e+06	0	1	2	5	4
13	2	200	0	1	5	3	4
13	3	15808	0	1	2	1	0
13	3	37800	0	1	2	3	4
13	3	5.54189e+06	0	1	2	5	4
13	3	150	0	1	5	3	4
13	4	15552	0	1	2	1	0
13	4	38100	0	1	2	3	4
13	4	5.77126e+06	0	1	2	5	4
13	4	100	0	1	5	3	4
13	5	15552	0	1	2	1	0
13	5	32500	0	1	2	3	4
13	5	5.44358e+06	0	1	2	5	4
13	5	150	0	1	5	3	4
13	6	14080	0	1	2	1	0
13	6	32300	0	1	2	3	4
13	6	5.54598e+06	0	1	2	5	4
13	6	200	0	1	5	3	4
13	7	14720	0	1	2	1	0
13	7	33100	0	1	2	3	4
13	7	5.35347e+06	0	1	2	5	4
13	7	50	0	1	5	3	4
13	8	12416	0	1	2	1	0
13	8	35500	0	1	2	3	4
13	8	5.46406e+06	0	1	2	5	4
13	8	200	0	1	5	3	4
13	9	14272	0	1	2	1	0
13	9	36600	0	1	2	3	4
13	9	5.45587e+06	0	1	2	5	4
13	9	150	0	1	5	3	4
13	10	15296	0	1	2	1	0
13	10	30200	0	1	2	3	4
13	10	5.47635e+06	0	1	2	5	4
13	10	50	0	1	5	3	4
13	11	14208	0	1	2	1	0
13	11	31300	0	1	2	3	4
13	11	5.12819e+06	0	1	2	5	4
13	11	200	0	1	5	3	4
13	12	14592	0	1	2	1	0
13	12	30800	0	1	2	3	4
13	12	5.29203e+06	0	1	2	5	4
13	12	150	0	1	5	3	4
