100000	100000	100000	10000	1000	1000
0	1	1.05862e+06	0	1	2	1	0
0	1	2.5086e+06	0	1	2	3	4
0	1	3.93642e+08	0	1	2	5	4
0	1	10350	0	1	5	3	4
0	2	213760	0	1	2	1	0
0	2	487500	0	1	2	3	4
0	2	7.84384e+07	0	1	2	5	4
0	2	2300	0	1	5	3	4
0	3	24448	0	1	2	1	0
0	3	49800	0	1	2	3	4
0	3	8.26982e+06	0	1	2	5	4
0	3	100	0	1	5	3	4
0	4	13184	0	1	2	1	0
0	4	32500	0	1	2	3	4
0	4	5.1159e+06	0	1	2	5	4
0	4	200	0	1	5	3	4
0	5	6592	0	1	2	1	0
0	5	14500	0	1	2	3	4
0	5	2.62554e+06	0	1	2	5	4
0	5	50	0	1	5	3	4
0	6	1856	0	1	2	1	0
0	6	6100	0	1	2	3	4
0	6	974848	0	1	2	5	4
0	7	1152	0	1	2	1	0
0	7	4000	0	1	2	3	4
0	7	520192	0	1	2	5	4
0	8	2368	0	1	2	1	0
0	8	6200	0	1	2	3	4
0	8	942080	0	1	2	5	4
0	9	832	0	1	2	1	0
0	9	2000	0	1	2	3	4
0	9	360448	0	1	2	5	4
1	0	1.03475e+06	0	1	2	1	0
1	0	2.4925e+06	0	1	2	3	4
1	0	3.94203e+08	0	1	2	5	4
1	0	10350	0	1	5	3	4
1	2	5120	0	1	2	1	0
1	2	17400	0	1	2	3	4
1	2	2.47808e+06	0	1	2	5	4
1	2	150	0	1	5	3	4
1	3	2304	0	1	2	1	0
1	3	4600	0	1	2	3	4
1	3	741376	0	1	2	5	4
1	4	1728	0	1	2	1	0
1	4	4400	0	1	2	3	4
1	4	638976	0	1	2	5	4
1	4	50	0	1	5	3	4
1	5	1216	0	1	2	1	0
1	5	1700	0	1	2	3	4
1	5	319488	0	1	2	5	4
1	6	64	0	1	2	1	0
1	6	200	0	1	2	3	4
1	6	36864	0	1	2	5	4
1	7	64	0	1	2	1	0
1	7	400	0	1	2	3	4
1	7	45056	0	1	2	5	4
1	8	128	0	1	2	1	0
1	8	100	0	1	2	3	4
1	8	28672	0	1	2	5	4
1	9	100	0	1	2	3	4
1	9	24576	0	1	2	5	4
2	0	202368	0	1	2	1	0
2	0	494000	0	1	2	3	4
2	0	7.83606e+07	0	1	2	5	4
2	0	1950	0	1	5	3	4
2	1	5376	0	1	2	1	0
2	1	17400	0	1	2	3	4
2	1	2.34701e+06	0	1	2	5	4
2	1	50	0	1	5	3	4
2	3	128	0	1	2	1	0
2	3	1200	0	1	2	3	4
2	3	212992	0	1	2	5	4
2	4	320	0	1	2	1	0
2	4	600	0	1	2	3	4
2	4	143360	0	1	2	5	4
2	5	100	0	1	2	3	4
2	5	16384	0	1	2	5	4
2	6	100	0	1	2	3	4
2	6	8192	0	1	2	5	4
2	7	4096	0	1	2	5	4
2	8	12288	0	1	2	5	4
2	9	20480	0	1	2	5	4
3	0	22400	0	1	2	1	0
3	0	53300	0	1	2	3	4
3	0	8.00768e+06	0	1	2	5	4
3	0	250	0	1	5	3	4
3	1	1920	0	1	2	1	0
3	1	5100	0	1	2	3	4
3	1	811008	0	1	2	5	4
3	2	384	0	1	2	1	0
3	2	1500	0	1	2	3	4
3	2	122880	0	1	2	5	4
3	4	64	0	1	2	1	0
3	4	45056	0	1	2	5	4
3	5	8192	0	1	2	5	4
3	7	128	0	1	2	1	0
3	7	8192	0	1	2	5	4
3	8	8192	0	1	2	5	4
3	9	4096	0	1	2	5	4
4	0	13184	0	1	2	1	0
4	0	31000	0	1	2	3	4
4	0	4.96435e+06	0	1	2	5	4
4	0	50	0	1	5	3	4
4	1	2496	0	1	2	1	0
4	1	3700	0	1	2	3	4
4	1	614400	0	1	2	5	4
4	2	576	0	1	2	1	0
4	2	600	0	1	2	3	4
4	2	176128	0	1	2	5	4
4	2	50	0	1	5	3	4
4	3	64	0	1	2	1	0
4	3	600	0	1	2	3	4
4	3	28672	0	1	2	5	4
4	5	8192	0	1	2	5	4
4	8	4096	0	1	2	5	4
5	0	5312	0	1	2	1	0
5	0	15300	0	1	2	3	4
5	0	2.30605e+06	0	1	2	5	4
5	0	150	0	1	5	3	4
5	1	960	0	1	2	1	0
5	1	1900	0	1	2	3	4
5	1	339968	0	1	2	5	4
5	2	64	0	1	2	1	0
5	2	16384	0	1	2	5	4
5	3	100	0	1	2	3	4
5	3	4096	0	1	2	5	4
5	4	100	0	1	2	3	4
5	4	4096	0	1	2	5	4
6	0	2816	0	1	2	1	0
6	0	6400	0	1	2	3	4
6	0	901120	0	1	2	5	4
6	0	50	0	1	5	3	4
6	1	192	0	1	2	1	0
6	1	100	0	1	2	3	4
6	1	65536	0	1	2	5	4
6	2	64	0	1	2	1	0
6	2	100	0	1	2	3	4
6	2	24576	0	1	2	5	4
6	3	64	0	1	2	1	0
6	3	16384	0	1	2	5	4
6	4	8192	0	1	2	5	4
7	0	1152	0	1	2	1	0
7	0	4100	0	1	2	3	4
7	0	520192	0	1	2	5	4
7	1	128	0	1	2	1	0
7	1	500	0	1	2	3	4
7	1	36864	0	1	2	5	4
7	2	100	0	1	2	3	4
7	2	8192	0	1	2	5	4
7	4	4096	0	1	2	5	4
7	5	8192	0	1	2	5	4
8	0	2432	0	1	2	1	0
8	0	6500	0	1	2	3	4
8	0	1.05267e+06	0	1	2	5	4
8	1	64	0	1	2	1	0
8	1	200	0	1	2	3	4
8	1	32768	0	1	2	5	4
8	2	200	0	1	2	3	4
8	2	28672	0	1	2	5	4
8	3	4096	0	1	2	5	4
9	0	640	0	1	2	1	0
9	0	1700	0	1	2	3	4
9	0	303104	0	1	2	5	4
9	1	100	0	1	2	3	4
9	1	24576	0	1	2	5	4
9	2	100	0	1	2	3	4
9	2	12288	0	1	2	5	4
