1000	100000	100000	1000	100000	1000	1000	1000	100000	1000	1000	10000	100000	1000	1000	10000	1000	100000	100000	1000	100000	1000	10000	100000	1000	10000
0	1	1.16048e+07	23	13	13	12	6
0	2	1.08854e+07	23	13	13	12	6
0	3	1.10925e+07	23	13	13	12	6
0	4	1.14958e+07	23	13	13	12	6
0	5	1.08999e+07	23	13	13	12	6
0	6	1.08454e+07	23	13	13	12	6
0	7	1.11034e+07	23	13	13	12	6
0	8	1.11288e+07	23	13	13	12	6
0	9	1.1474e+07	23	13	13	12	6
1	0	1.14449e+07	23	13	13	12	6
1	2	1.12887e+07	23	13	13	12	6
1	3	1.08236e+07	23	13	13	12	6
1	4	1.06892e+07	23	13	13	12	6
1	5	1.10125e+07	23	13	13	12	6
1	6	1.08018e+07	23	13	13	12	6
1	7	1.11361e+07	23	13	13	12	6
1	8	1.1176e+07	23	13	13	12	6
1	9	1.12124e+07	23	13	13	12	6
2	0	1.1176e+07	23	13	13	12	6
2	1	1.10089e+07	23	13	13	12	6
2	3	1.09508e+07	23	13	13	12	6
2	4	1.10888e+07	23	13	13	12	6
2	5	1.09362e+07	23	13	13	12	6
2	6	1.12451e+07	23	13	13	12	6
2	7	1.1365e+07	23	13	13	12	6
2	8	1.1216e+07	23	13	13	12	6
2	9	1.10888e+07	23	13	13	12	6
3	0	1.11869e+07	23	13	13	12	6
3	1	1.1325e+07	23	13	13	12	6
3	2	1.12959e+07	23	13	13	12	6
3	4	1.13323e+07	23	13	13	12	6
3	5	1.11615e+07	23	13	13	12	6
3	6	1.14413e+07	23	13	13	12	6
3	7	1.0998e+07	23	13	13	12	6
3	8	1.10343e+07	23	13	13	12	6
3	9	1.08381e+07	23	13	13	12	6
4	0	1.13141e+07	23	13	13	12	6
4	1	1.11215e+07	23	13	13	12	6
4	2	1.12923e+07	23	13	13	12	6
4	3	1.12051e+07	23	13	13	12	6
4	5	1.04712e+07	23	13	13	12	6
4	6	1.1285e+07	23	13	13	12	6
4	7	1.12814e+07	23	13	13	12	6
4	8	1.08854e+07	23	13	13	12	6
4	9	1.14667e+07	23	13	13	12	6
5	0	1.09326e+07	23	13	13	12	6
5	1	1.10452e+07	23	13	13	12	6
5	2	1.074e+07	23	13	13	12	6
5	3	1.09181e+07	23	13	13	12	6
5	4	1.08054e+07	23	13	13	12	6
5	6	1.13904e+07	23	13	13	12	6
5	7	1.05257e+07	23	13	13	12	6
5	8	1.12124e+07	23	13	13	12	6
5	9	1.09653e+07	23	13	13	12	6
6	0	1.11579e+07	23	13	13	12	6
6	1	1.10343e+07	23	13	13	12	6
6	2	1.13686e+07	23	13	13	12	6
6	3	1.08381e+07	23	13	13	12	6
6	4	1.08236e+07	23	13	13	12	6
6	5	1.10925e+07	23	13	13	12	6
6	7	1.09762e+07	23	13	13	12	6
6	8	1.12632e+07	23	13	13	12	6
6	9	1.12378e+07	23	13	13	12	6
7	0	1.14921e+07	23	13	13	12	6
7	1	1.11869e+07	23	13	13	12	6
7	2	1.12269e+07	23	13	13	12	6
7	3	1.12233e+07	23	13	13	12	6
7	4	1.12596e+07	23	13	13	12	6
7	5	1.08454e+07	23	13	13	12	6
7	6	1.07836e+07	23	13	13	12	6
7	8	1.11724e+07	23	13	13	12	6
7	9	1.11252e+07	23	13	13	12	6
8	0	1.13686e+07	23	13	13	12	6
8	1	1.09144e+07	23	13	13	12	6
8	2	1.10925e+07	23	13	13	12	6
8	3	1.1256e+07	23	13	13	12	6
8	4	1.1216e+07	23	13	13	12	6
8	5	1.09944e+07	23	13	13	12	6
8	6	1.13686e+07	23	13	13	12	6
8	7	1.11179e+07	23	13	13	12	6
8	9	1.08672e+07	23	13	13	12	6
9	0	1.10162e+07	23	13	13	12	6
9	1	1.10961e+07	23	13	13	12	6
9	2	1.12523e+07	23	13	13	12	6
9	3	1.11978e+07	23	13	13	12	6
9	4	1.11288e+07	23	13	13	12	6
9	5	1.09253e+07	23	13	13	12	6
9	6	1.11179e+07	23	13	13	12	6
9	7	1.09399e+07	23	13	13	12	6
9	8	1.13613e+07	23	13	13	12	6
