100000	100000	100000	10000	1000	1000
0	1	114496	0	1	2	1	0
0	1	266500	0	1	2	3	4
0	1	4.17464e+07	0	1	2	5	4
0	1	900	0	1	5	3	4
0	2	218944	0	1	2	1	0
0	2	519600	0	1	2	3	4
0	2	8.34314e+07	0	1	2	5	4
0	2	1600	0	1	5	3	4
0	3	83648	0	1	2	1	0
0	3	202700	0	1	2	3	4
0	3	3.17645e+07	0	1	2	5	4
0	3	900	0	1	5	3	4
0	4	46464	0	1	2	1	0
0	4	107800	0	1	2	3	4
0	4	1.70025e+07	0	1	2	5	4
0	4	450	0	1	5	3	4
0	5	36992	0	1	2	1	0
0	5	89600	0	1	2	3	4
0	5	1.43196e+07	0	1	2	5	4
0	5	550	0	1	5	3	4
0	6	93504	0	1	2	1	0
0	6	231800	0	1	2	3	4
0	6	3.60653e+07	0	1	2	5	4
0	6	900	0	1	5	3	4
0	7	82624	0	1	2	1	0
0	7	203700	0	1	2	3	4
0	7	3.09248e+07	0	1	2	5	4
0	7	800	0	1	5	3	4
0	8	37952	0	1	2	1	0
0	8	88400	0	1	2	3	4
0	8	1.41312e+07	0	1	2	5	4
0	8	450	0	1	5	3	4
0	9	33280	0	1	2	1	0
0	9	74300	0	1	2	3	4
0	9	1.2714e+07	0	1	2	5	4
0	9	450	0	1	5	3	4
1	0	114432	0	1	2	1	0
1	0	260900	0	1	2	3	4
1	0	4.26967e+07	0	1	2	5	4
1	0	1400	0	1	5	3	4
1	2	29056	0	1	2	1	0
1	2	67300	0	1	2	3	4
1	2	1.04366e+07	0	1	2	5	4
1	2	200	0	1	5	3	4
1	3	28800	0	1	2	1	0
1	3	67900	0	1	2	3	4
1	3	1.06414e+07	0	1	2	5	4
1	3	250	0	1	5	3	4
1	4	62272	0	1	2	1	0
1	4	169100	0	1	2	3	4
1	4	2.57556e+07	0	1	2	5	4
1	4	700	0	1	5	3	4
1	5	53824	0	1	2	1	0
1	5	130600	0	1	2	3	4
1	5	2.10084e+07	0	1	2	5	4
1	5	1200	0	1	5	3	4
1	6	11392	0	1	2	1	0
1	6	27400	0	1	2	3	4
1	6	4.64077e+06	0	1	2	5	4
1	6	250	0	1	5	3	4
1	7	20288	0	1	2	1	0
1	7	48100	0	1	2	3	4
1	7	7.84794e+06	0	1	2	5	4
1	7	250	0	1	5	3	4
1	8	19072	0	1	2	1	0
1	8	45800	0	1	2	3	4
1	8	6.79117e+06	0	1	2	5	4
1	8	50	0	1	5	3	4
1	9	32320	0	1	2	1	0
1	9	80700	0	1	2	3	4
1	9	1.27017e+07	0	1	2	5	4
1	9	650	0	1	5	3	4
2	0	223360	0	1	2	1	0
2	0	529100	0	1	2	3	4
2	0	8.48773e+07	0	1	2	5	4
2	0	2050	0	1	5	3	4
2	1	28032	0	1	2	1	0
2	1	66400	0	1	2	3	4
2	1	1.07725e+07	0	1	2	5	4
2	1	600	0	1	5	3	4
2	3	54336	0	1	2	1	0
2	3	133500	0	1	2	3	4
2	3	2.11804e+07	0	1	2	5	4
2	3	500	0	1	5	3	4
2	4	11136	0	1	2	1	0
2	4	23500	0	1	2	3	4
2	4	4.28442e+06	0	1	2	5	4
2	4	50	0	1	5	3	4
2	5	10176	0	1	2	1	0
2	5	23100	0	1	2	3	4
2	5	3.48979e+06	0	1	2	5	4
2	5	50	0	1	5	3	4
2	6	16256	0	1	2	1	0
2	6	41200	0	1	2	3	4
2	6	6.26278e+06	0	1	2	5	4
2	6	100	0	1	5	3	4
2	7	14080	0	1	2	1	0
2	7	35300	0	1	2	3	4
2	7	5.34938e+06	0	1	2	5	4
2	7	50	0	1	5	3	4
2	8	8256	0	1	2	1	0
2	8	21800	0	1	2	3	4
2	8	3.08838e+06	0	1	2	5	4
2	8	50	0	1	5	3	4
2	9	7104	0	1	2	1	0
2	9	17900	0	1	2	3	4
2	9	2.80576e+06	0	1	2	5	4
2	9	50	0	1	5	3	4
3	0	84032	0	1	2	1	0
3	0	198900	0	1	2	3	4
3	0	3.21618e+07	0	1	2	5	4
3	0	850	0	1	5	3	4
3	1	27712	0	1	2	1	0
3	1	67800	0	1	2	3	4
3	1	1.03096e+07	0	1	2	5	4
3	1	250	0	1	5	3	4
3	2	57216	0	1	2	1	0
3	2	136200	0	1	2	3	4
3	2	2.12746e+07	0	1	2	5	4
3	2	550	0	1	5	3	4
3	4	11456	0	1	2	1	0
3	4	28500	0	1	2	3	4
3	4	4.07962e+06	0	1	2	5	4
3	4	200	0	1	5	3	4
3	5	10816	0	1	2	1	0
3	5	24600	0	1	2	3	4
3	5	3.40378e+06	0	1	2	5	4
3	5	150	0	1	5	3	4
3	6	8000	0	1	2	1	0
3	6	20300	0	1	2	3	4
3	6	2.90816e+06	0	1	2	5	4
3	7	20608	0	1	2	1	0
3	7	55600	0	1	2	3	4
3	7	7.90938e+06	0	1	2	5	4
3	7	250	0	1	5	3	4
3	8	9344	0	1	2	1	0
3	8	24400	0	1	2	3	4
3	8	3.71917e+06	0	1	2	5	4
3	8	200	0	1	5	3	4
3	9	9344	0	1	2	1	0
3	9	20000	0	1	2	3	4
3	9	2.99827e+06	0	1	2	5	4
3	9	100	0	1	5	3	4
4	0	45696	0	1	2	1	0
4	0	110800	0	1	2	3	4
4	0	1.69206e+07	0	1	2	5	4
4	0	450	0	1	5	3	4
4	1	64960	0	1	2	1	0
4	1	157700	0	1	2	3	4
4	1	2.54525e+07	0	1	2	5	4
4	1	750	0	1	5	3	4
4	2	13312	0	1	2	1	0
4	2	25700	0	1	2	3	4
4	2	4.14106e+06	0	1	2	5	4
4	2	100	0	1	5	3	4
4	3	10560	0	1	2	1	0
4	3	25500	0	1	2	3	4
4	3	4.3991e+06	0	1	2	5	4
4	3	100	0	1	5	3	4
4	5	9984	0	1	2	1	0
4	5	26900	0	1	2	3	4
4	5	4.29261e+06	0	1	2	5	4
4	5	150	0	1	5	3	4
4	6	4608	0	1	2	1	0
4	6	11900	0	1	2	3	4
4	6	1.7449e+06	0	1	2	5	4
4	7	7872	0	1	2	1	0
4	7	19300	0	1	2	3	4
4	7	3.15802e+06	0	1	2	5	4
4	7	50	0	1	5	3	4
4	8	16768	0	1	2	1	0
4	8	36400	0	1	2	3	4
4	8	5.74259e+06	0	1	2	5	4
4	8	150	0	1	5	3	4
4	9	5952	0	1	2	1	0
4	9	16400	0	1	2	3	4
4	9	2.56819e+06	0	1	2	5	4
4	9	100	0	1	5	3	4
5	0	37184	0	1	2	1	0
5	0	83400	0	1	2	3	4
5	0	1.39919e+07	0	1	2	5	4
5	0	350	0	1	5	3	4
5	1	54720	0	1	2	1	0
5	1	135500	0	1	2	3	4
5	1	2.04145e+07	0	1	2	5	4
5	1	500	0	1	5	3	4
5	2	8320	0	1	2	1	0
5	2	22200	0	1	2	3	4
5	2	3.46522e+06	0	1	2	5	4
5	2	150	0	1	5	3	4
5	3	9600	0	1	2	1	0
5	3	24400	0	1	2	3	4
5	3	3.75603e+06	0	1	2	5	4
5	3	100	0	1	5	3	4
5	4	10880	0	1	2	1	0
5	4	25700	0	1	2	3	4
5	4	4.13696e+06	0	1	2	5	4
5	4	150	0	1	5	3	4
5	6	4160	0	1	2	1	0
5	6	10500	0	1	2	3	4
5	6	1.56877e+06	0	1	2	5	4
5	6	50	0	1	5	3	4
5	7	6208	0	1	2	1	0
5	7	14500	0	1	2	3	4
5	7	2.79757e+06	0	1	2	5	4
5	7	200	0	1	5	3	4
5	8	4224	0	1	2	1	0
5	8	11200	0	1	2	3	4
5	8	1.49094e+06	0	1	2	5	4
5	9	11456	0	1	2	1	0
5	9	27900	0	1	2	3	4
5	9	4.13696e+06	0	1	2	5	4
5	9	50	0	1	5	3	4
6	0	95360	0	1	2	1	0
6	0	235400	0	1	2	3	4
6	0	3.618e+07	0	1	2	5	4
6	0	850	0	1	5	3	4
6	1	12416	0	1	2	1	0
6	1	26400	0	1	2	3	4
6	1	4.45235e+06	0	1	2	5	4
6	1	100	0	1	5	3	4
6	2	16896	0	1	2	1	0
6	2	36200	0	1	2	3	4
6	2	5.94739e+06	0	1	2	5	4
6	2	200	0	1	5	3	4
6	3	8128	0	1	2	1	0
6	3	17800	0	1	2	3	4
6	3	3.02694e+06	0	1	2	5	4
6	3	100	0	1	5	3	4
6	4	5120	0	1	2	1	0
6	4	12900	0	1	2	3	4
6	4	1.90464e+06	0	1	2	5	4
6	5	4544	0	1	2	1	0
6	5	8200	0	1	2	3	4
6	5	1.49914e+06	0	1	2	5	4
6	7	5440	0	1	2	1	0
6	7	15300	0	1	2	3	4
6	7	2.16678e+06	0	1	2	5	4
6	7	50	0	1	5	3	4
6	8	3136	0	1	2	1	0
6	8	8800	0	1	2	3	4
6	8	1.49094e+06	0	1	2	5	4
6	8	50	0	1	5	3	4
6	9	2816	0	1	2	1	0
6	9	7200	0	1	2	3	4
6	9	1.31482e+06	0	1	2	5	4
7	0	85184	0	1	2	1	0
7	0	201300	0	1	2	3	4
7	0	3.19816e+07	0	1	2	5	4
7	0	750	0	1	5	3	4
7	1	21184	0	1	2	1	0
7	1	50900	0	1	2	3	4
7	1	8.13056e+06	0	1	2	5	4
7	1	250	0	1	5	3	4
7	2	12480	0	1	2	1	0
7	2	34300	0	1	2	3	4
7	2	5.3207e+06	0	1	2	5	4
7	2	200	0	1	5	3	4
7	3	21952	0	1	2	1	0
7	3	51000	0	1	2	3	4
7	3	7.94214e+06	0	1	2	5	4
7	3	250	0	1	5	3	4
7	4	8256	0	1	2	1	0
7	4	18700	0	1	2	3	4
7	4	3.08429e+06	0	1	2	5	4
7	4	100	0	1	5	3	4
7	5	6848	0	1	2	1	0
7	5	16100	0	1	2	3	4
7	5	2.61734e+06	0	1	2	5	4
7	5	50	0	1	5	3	4
7	6	6080	0	1	2	1	0
7	6	13900	0	1	2	3	4
7	6	2.42483e+06	0	1	2	5	4
7	6	50	0	1	5	3	4
7	8	9088	0	1	2	1	0
7	8	22900	0	1	2	3	4
7	8	3.60038e+06	0	1	2	5	4
7	8	100	0	1	5	3	4
7	9	7872	0	1	2	1	0
7	9	18800	0	1	2	3	4
7	9	3.15392e+06	0	1	2	5	4
7	9	200	0	1	5	3	4
8	0	39616	0	1	2	1	0
8	0	90700	0	1	2	3	4
8	0	1.39756e+07	0	1	2	5	4
8	0	300	0	1	5	3	4
8	1	17984	0	1	2	1	0
8	1	38900	0	1	2	3	4
8	1	7.07379e+06	0	1	2	5	4
8	1	150	0	1	5	3	4
8	2	8704	0	1	2	1	0
8	2	20000	0	1	2	3	4
8	2	3.19488e+06	0	1	2	5	4
8	2	100	0	1	5	3	4
8	3	8576	0	1	2	1	0
8	3	24400	0	1	2	3	4
8	3	3.3751e+06	0	1	2	5	4
8	3	50	0	1	5	3	4
8	4	13952	0	1	2	1	0
8	4	33300	0	1	2	3	4
8	4	5.74259e+06	0	1	2	5	4
8	4	350	0	1	5	3	4
8	5	4032	0	1	2	1	0
8	5	10700	0	1	2	3	4
8	5	1.54829e+06	0	1	2	5	4
8	5	50	0	1	5	3	4
8	6	3520	0	1	2	1	0
8	6	9300	0	1	2	3	4
8	6	1.41722e+06	0	1	2	5	4
8	7	9600	0	1	2	1	0
8	7	24100	0	1	2	3	4
8	7	3.49798e+06	0	1	2	5	4
8	7	50	0	1	5	3	4
8	9	2752	0	1	2	1	0
8	9	9500	0	1	2	3	4
8	9	1.41722e+06	0	1	2	5	4
8	9	50	0	1	5	3	4
9	0	30080	0	1	2	1	0
9	0	82700	0	1	2	3	4
9	0	1.26648e+07	0	1	2	5	4
9	0	250	0	1	5	3	4
9	1	34176	0	1	2	1	0
9	1	79300	0	1	2	3	4
9	1	1.28492e+07	0	1	2	5	4
9	1	250	0	1	5	3	4
9	2	7104	0	1	2	1	0
9	2	17300	0	1	2	3	4
9	2	2.63373e+06	0	1	2	5	4
9	3	7296	0	1	2	1	0
9	3	20800	0	1	2	3	4
9	3	3.0761e+06	0	1	2	5	4
9	3	200	0	1	5	3	4
9	4	6336	0	1	2	1	0
9	4	18400	0	1	2	3	4
9	4	2.48218e+06	0	1	2	5	4
9	4	50	0	1	5	3	4
9	5	10560	0	1	2	1	0
9	5	26000	0	1	2	3	4
9	5	4.44416e+06	0	1	2	5	4
9	5	50	0	1	5	3	4
9	6	3840	0	1	2	1	0
9	6	8800	0	1	2	3	4
9	6	1.20832e+06	0	1	2	5	4
9	6	100	0	1	5	3	4
9	7	7424	0	1	2	1	0
9	7	18200	0	1	2	3	4
9	7	3.15802e+06	0	1	2	5	4
9	7	50	0	1	5	3	4
9	8	3328	0	1	2	1	0
9	8	9700	0	1	2	3	4
9	8	1.42131e+06	0	1	2	5	4
9	8	50	0	1	5	3	4
