1000	10000	1000
0	1	1.13075e+07	0	2	1	2	1
0	2	1.09919e+07	0	2	1	2	1
0	3	1.1131e+07	0	2	1	2	1
0	4	1.12244e+07	0	2	1	2	1
0	5	1.11019e+07	0	2	1	2	1
0	6	1.10708e+07	0	2	1	2	1
0	7	1.11476e+07	0	2	1	2	1
0	8	1.11912e+07	0	2	1	2	1
0	9	1.10874e+07	0	2	1	2	1
1	0	1.08881e+07	0	2	1	2	1
1	2	1.09193e+07	0	2	1	2	1
1	3	1.0913e+07	0	2	1	2	1
1	4	1.10168e+07	0	2	1	2	1
1	5	1.12846e+07	0	2	1	2	1
1	6	1.11767e+07	0	2	1	2	1
1	7	1.11248e+07	0	2	1	2	1
1	8	1.10459e+07	0	2	1	2	1
1	9	1.11331e+07	0	2	1	2	1
2	0	1.11289e+07	0	2	1	2	1
2	1	1.10355e+07	0	2	1	2	1
2	3	1.10065e+07	0	2	1	2	1
2	4	1.12992e+07	0	2	1	2	1
2	5	1.12265e+07	0	2	1	2	1
2	6	1.09629e+07	0	2	1	2	1
2	7	1.11974e+07	0	2	1	2	1
2	8	1.11393e+07	0	2	1	2	1
2	9	1.12929e+07	0	2	1	2	1
3	0	1.09546e+07	0	2	1	2	1
3	1	1.12099e+07	0	2	1	2	1
3	2	1.11435e+07	0	2	1	2	1
3	4	1.12971e+07	0	2	1	2	1
3	5	1.08674e+07	0	2	1	2	1
3	6	1.1158e+07	0	2	1	2	1
3	7	1.12929e+07	0	2	1	2	1
3	8	1.10812e+07	0	2	1	2	1
3	9	1.11601e+07	0	2	1	2	1
4	0	1.09213e+07	0	2	1	2	1
4	1	1.11746e+07	0	2	1	2	1
4	2	1.13137e+07	0	2	1	2	1
4	3	1.08944e+07	0	2	1	2	1
4	5	1.10501e+07	0	2	1	2	1
4	6	1.11725e+07	0	2	1	2	1
4	7	1.09629e+07	0	2	1	2	1
4	8	1.12327e+07	0	2	1	2	1
4	9	1.12057e+07	0	2	1	2	1
5	0	1.12037e+07	0	2	1	2	1
5	1	1.10334e+07	0	2	1	2	1
5	2	1.11019e+07	0	2	1	2	1
5	3	1.1131e+07	0	2	1	2	1
5	4	1.10667e+07	0	2	1	2	1
5	6	1.10044e+07	0	2	1	2	1
5	7	1.0994e+07	0	2	1	2	1
5	8	1.12182e+07	0	2	1	2	1
5	9	1.10604e+07	0	2	1	2	1
6	0	1.09525e+07	0	2	1	2	1
6	1	1.10272e+07	0	2	1	2	1
6	2	1.08798e+07	0	2	1	2	1
6	3	1.10065e+07	0	2	1	2	1
6	4	1.09027e+07	0	2	1	2	1
6	5	1.11788e+07	0	2	1	2	1
6	7	1.11538e+07	0	2	1	2	1
6	8	1.09691e+07	0	2	1	2	1
6	9	1.13988e+07	0	2	1	2	1
7	0	1.1349e+07	0	2	1	2	1
7	1	1.12078e+07	0	2	1	2	1
7	2	1.10687e+07	0	2	1	2	1
7	3	1.12286e+07	0	2	1	2	1
7	4	1.094e+07	0	2	1	2	1
7	5	1.11622e+07	0	2	1	2	1
7	6	1.08757e+07	0	2	1	2	1
7	8	1.13573e+07	0	2	1	2	1
7	9	1.14196e+07	0	2	1	2	1
8	0	1.13116e+07	0	2	1	2	1
8	1	1.12327e+07	0	2	1	2	1
8	2	1.09608e+07	0	2	1	2	1
8	3	1.10065e+07	0	2	1	2	1
8	4	1.08549e+07	0	2	1	2	1
8	5	1.10687e+07	0	2	1	2	1
8	6	1.10563e+07	0	2	1	2	1
8	7	1.12182e+07	0	2	1	2	1
8	9	1.11725e+07	0	2	1	2	1
9	0	1.10417e+07	0	2	1	2	1
9	1	1.14424e+07	0	2	1	2	1
9	2	1.10438e+07	0	2	1	2	1
9	3	1.11206e+07	0	2	1	2	1
9	4	1.07947e+07	0	2	1	2	1
9	5	1.11663e+07	0	2	1	2	1
9	6	1.11622e+07	0	2	1	2	1
9	7	1.12701e+07	0	2	1	2	1
9	8	1.1048e+07	0	2	1	2	1
