100000	100000	100000	10000	1000	1000
0	1	10176	0	1	2	1	0
0	1	27200	0	1	2	3	4
0	1	4.0919e+06	0	1	2	5	4
0	1	50	0	1	5	3	4
0	2	9920	0	1	2	1	0
0	2	25400	0	1	2	3	4
0	2	4.16154e+06	0	1	2	5	4
0	2	100	0	1	5	3	4
0	3	10496	0	1	2	1	0
0	3	27600	0	1	2	3	4
0	3	4.01408e+06	0	1	2	5	4
0	3	50	0	1	5	3	4
0	4	11904	0	1	2	1	0
0	4	29400	0	1	2	3	4
0	4	4.03456e+06	0	1	2	5	4
0	4	150	0	1	5	3	4
0	5	11712	0	1	2	1	0
0	5	26400	0	1	2	3	4
0	5	4.20659e+06	0	1	2	5	4
0	5	100	0	1	5	3	4
0	6	10560	0	1	2	1	0
0	6	27700	0	1	2	3	4
0	6	4.17382e+06	0	1	2	5	4
0	7	9792	0	1	2	1	0
0	7	26700	0	1	2	3	4
0	7	4.01408e+06	0	1	2	5	4
0	7	200	0	1	5	3	4
0	8	10304	0	1	2	1	0
0	8	23500	0	1	2	3	4
0	8	4.096e+06	0	1	2	5	4
0	8	200	0	1	5	3	4
0	9	9472	0	1	2	1	0
0	9	24100	0	1	2	3	4
0	9	4.1943e+06	0	1	2	5	4
0	9	200	0	1	5	3	4
0	10	10880	0	1	2	1	0
0	10	26700	0	1	2	3	4
0	10	4.23936e+06	0	1	2	5	4
0	10	250	0	1	5	3	4
0	11	10432	0	1	2	1	0
0	11	27800	0	1	2	3	4
0	11	4.24755e+06	0	1	2	5	4
0	11	100	0	1	5	3	4
0	12	10496	0	1	2	1	0
0	12	26000	0	1	2	3	4
0	12	4.28032e+06	0	1	2	5	4
0	12	100	0	1	5	3	4
0	13	10432	0	1	2	1	0
0	13	28400	0	1	2	3	4
0	13	4.42368e+06	0	1	2	5	4
0	13	100	0	1	5	3	4
0	14	11264	0	1	2	1	0
0	14	23700	0	1	2	3	4
0	14	3.9977e+06	0	1	2	5	4
0	14	50	0	1	5	3	4
0	15	10112	0	1	2	1	0
0	15	25000	0	1	2	3	4
0	15	4.03866e+06	0	1	2	5	4
0	15	200	0	1	5	3	4
1	0	11392	0	1	2	1	0
1	0	26100	0	1	2	3	4
1	0	4.25574e+06	0	1	2	5	4
1	0	100	0	1	5	3	4
1	2	11584	0	1	2	1	0
1	2	25600	0	1	2	3	4
1	2	4.12058e+06	0	1	2	5	4
1	2	100	0	1	5	3	4
1	3	10624	0	1	2	1	0
1	3	27100	0	1	2	3	4
1	3	4.16154e+06	0	1	2	5	4
1	3	200	0	1	5	3	4
1	4	11648	0	1	2	1	0
1	4	25200	0	1	2	3	4
1	4	4.096e+06	0	1	2	5	4
1	4	200	0	1	5	3	4
1	5	12224	0	1	2	1	0
1	5	26200	0	1	2	3	4
1	5	4.24755e+06	0	1	2	5	4
1	5	150	0	1	5	3	4
1	6	12544	0	1	2	1	0
1	6	25600	0	1	2	3	4
1	6	4.16563e+06	0	1	2	5	4
1	6	50	0	1	5	3	4
1	7	10048	0	1	2	1	0
1	7	28400	0	1	2	3	4
1	7	4.16563e+06	0	1	2	5	4
1	7	300	0	1	5	3	4
1	8	11648	0	1	2	1	0
1	8	26100	0	1	2	3	4
1	8	4.0919e+06	0	1	2	5	4
1	8	200	0	1	5	3	4
1	9	9536	0	1	2	1	0
1	9	28300	0	1	2	3	4
1	9	4.23526e+06	0	1	2	5	4
1	9	50	0	1	5	3	4
1	10	12480	0	1	2	1	0
1	10	27500	0	1	2	3	4
1	10	3.94854e+06	0	1	2	5	4
1	11	11840	0	1	2	1	0
1	11	22300	0	1	2	3	4
1	11	3.87072e+06	0	1	2	5	4
1	12	11136	0	1	2	1	0
1	12	28100	0	1	2	3	4
1	12	4.14925e+06	0	1	2	5	4
1	12	100	0	1	5	3	4
1	13	10944	0	1	2	1	0
1	13	24900	0	1	2	3	4
1	13	3.7888e+06	0	1	2	5	4
1	13	150	0	1	5	3	4
1	14	11456	0	1	2	1	0
1	14	24700	0	1	2	3	4
1	14	4.25984e+06	0	1	2	5	4
1	14	150	0	1	5	3	4
1	15	11264	0	1	2	1	0
1	15	27400	0	1	2	3	4
1	15	3.92397e+06	0	1	2	5	4
1	15	100	0	1	5	3	4
2	0	11328	0	1	2	1	0
2	0	25200	0	1	2	3	4
2	0	4.21069e+06	0	1	2	5	4
2	0	150	0	1	5	3	4
2	1	11904	0	1	2	1	0
2	1	29300	0	1	2	3	4
2	1	4.16154e+06	0	1	2	5	4
2	1	150	0	1	5	3	4
2	3	9728	0	1	2	1	0
2	3	26700	0	1	2	3	4
2	3	4.23117e+06	0	1	2	5	4
2	3	50	0	1	5	3	4
2	4	11264	0	1	2	1	0
2	4	26800	0	1	2	3	4
2	4	4.20659e+06	0	1	2	5	4
2	4	150	0	1	5	3	4
2	5	10752	0	1	2	1	0
2	5	29400	0	1	2	3	4
2	5	4.03866e+06	0	1	2	5	4
2	5	200	0	1	5	3	4
2	6	10624	0	1	2	1	0
2	6	24300	0	1	2	3	4
2	6	4.20659e+06	0	1	2	5	4
2	6	150	0	1	5	3	4
2	7	11520	0	1	2	1	0
2	7	28700	0	1	2	3	4
2	7	4.13286e+06	0	1	2	5	4
2	7	100	0	1	5	3	4
2	8	10112	0	1	2	1	0
2	8	27500	0	1	2	3	4
2	8	4.06733e+06	0	1	2	5	4
2	8	100	0	1	5	3	4
2	9	10944	0	1	2	1	0
2	9	30300	0	1	2	3	4
2	9	4.28442e+06	0	1	2	5	4
2	9	100	0	1	5	3	4
2	10	10624	0	1	2	1	0
2	10	25200	0	1	2	3	4
2	10	4.08781e+06	0	1	2	5	4
2	10	200	0	1	5	3	4
2	11	11328	0	1	2	1	0
2	11	26800	0	1	2	3	4
2	11	4.06733e+06	0	1	2	5	4
2	11	100	0	1	5	3	4
2	12	10112	0	1	2	1	0
2	12	23800	0	1	2	3	4
2	12	4.34176e+06	0	1	2	5	4
2	12	150	0	1	5	3	4
2	13	8960	0	1	2	1	0
2	13	26400	0	1	2	3	4
2	13	4.18611e+06	0	1	2	5	4
2	13	50	0	1	5	3	4
2	14	11008	0	1	2	1	0
2	14	24500	0	1	2	3	4
2	14	4.16563e+06	0	1	2	5	4
2	14	150	0	1	5	3	4
2	15	11392	0	1	2	1	0
2	15	25600	0	1	2	3	4
2	15	4.31309e+06	0	1	2	5	4
2	15	50	0	1	5	3	4
3	0	10752	0	1	2	1	0
3	0	27100	0	1	2	3	4
3	0	4.2025e+06	0	1	2	5	4
3	0	150	0	1	5	3	4
3	1	10944	0	1	2	1	0
3	1	25300	0	1	2	3	4
3	1	4.18611e+06	0	1	2	5	4
3	1	250	0	1	5	3	4
3	2	11264	0	1	2	1	0
3	2	27200	0	1	2	3	4
3	2	4.1001e+06	0	1	2	5	4
3	4	10240	0	1	2	1	0
3	4	28900	0	1	2	3	4
3	4	4.08371e+06	0	1	2	5	4
3	5	11392	0	1	2	1	0
3	5	25000	0	1	2	3	4
3	5	4.22298e+06	0	1	2	5	4
3	5	50	0	1	5	3	4
3	6	10496	0	1	2	1	0
3	6	28100	0	1	2	3	4
3	6	4.53837e+06	0	1	2	5	4
3	6	50	0	1	5	3	4
3	7	10112	0	1	2	1	0
3	7	29400	0	1	2	3	4
3	7	4.25574e+06	0	1	2	5	4
3	8	10432	0	1	2	1	0
3	8	22100	0	1	2	3	4
3	8	4.23936e+06	0	1	2	5	4
3	8	100	0	1	5	3	4
3	9	9920	0	1	2	1	0
3	9	25300	0	1	2	3	4
3	9	4.00589e+06	0	1	2	5	4
3	9	50	0	1	5	3	4
3	10	10752	0	1	2	1	0
3	10	24900	0	1	2	3	4
3	10	3.9936e+06	0	1	2	5	4
3	10	100	0	1	5	3	4
3	11	11392	0	1	2	1	0
3	11	26600	0	1	2	3	4
3	11	4.21888e+06	0	1	2	5	4
3	11	50	0	1	5	3	4
3	12	10624	0	1	2	1	0
3	12	26400	0	1	2	3	4
3	12	4.05504e+06	0	1	2	5	4
3	13	11520	0	1	2	1	0
3	13	25000	0	1	2	3	4
3	13	4.06323e+06	0	1	2	5	4
3	14	11328	0	1	2	1	0
3	14	27000	0	1	2	3	4
3	14	4.25574e+06	0	1	2	5	4
3	14	150	0	1	5	3	4
3	15	11136	0	1	2	1	0
3	15	25900	0	1	2	3	4
3	15	4.03046e+06	0	1	2	5	4
3	15	50	0	1	5	3	4
4	0	10048	0	1	2	1	0
4	0	25700	0	1	2	3	4
4	0	4.12467e+06	0	1	2	5	4
4	0	100	0	1	5	3	4
4	1	10176	0	1	2	1	0
4	1	27400	0	1	2	3	4
4	1	4.13696e+06	0	1	2	5	4
4	2	10944	0	1	2	1	0
4	2	24600	0	1	2	3	4
4	2	4.32947e+06	0	1	2	5	4
4	2	100	0	1	5	3	4
4	3	10496	0	1	2	1	0
4	3	24000	0	1	2	3	4
4	3	4.12877e+06	0	1	2	5	4
4	3	100	0	1	5	3	4
4	5	10240	0	1	2	1	0
4	5	29400	0	1	2	3	4
4	5	4.25165e+06	0	1	2	5	4
4	5	50	0	1	5	3	4
4	6	10624	0	1	2	1	0
4	6	24900	0	1	2	3	4
4	6	4.07962e+06	0	1	2	5	4
4	6	100	0	1	5	3	4
4	7	10944	0	1	2	1	0
4	7	27200	0	1	2	3	4
4	7	4.36224e+06	0	1	2	5	4
4	7	100	0	1	5	3	4
4	8	11968	0	1	2	1	0
4	8	25900	0	1	2	3	4
4	8	4.00998e+06	0	1	2	5	4
4	8	50	0	1	5	3	4
4	9	10176	0	1	2	1	0
4	9	23800	0	1	2	3	4
4	9	3.90758e+06	0	1	2	5	4
4	9	50	0	1	5	3	4
4	10	12032	0	1	2	1	0
4	10	26300	0	1	2	3	4
4	10	4.01818e+06	0	1	2	5	4
4	10	150	0	1	5	3	4
4	11	10560	0	1	2	1	0
4	11	26500	0	1	2	3	4
4	11	4.1984e+06	0	1	2	5	4
4	11	150	0	1	5	3	4
4	12	11200	0	1	2	1	0
4	12	30900	0	1	2	3	4
4	12	4.07552e+06	0	1	2	5	4
4	12	50	0	1	5	3	4
4	13	11712	0	1	2	1	0
4	13	27700	0	1	2	3	4
4	13	4.35814e+06	0	1	2	5	4
4	14	10368	0	1	2	1	0
4	14	25800	0	1	2	3	4
4	14	4.3008e+06	0	1	2	5	4
4	14	200	0	1	5	3	4
4	15	10432	0	1	2	1	0
4	15	28800	0	1	2	3	4
4	15	3.97312e+06	0	1	2	5	4
4	15	150	0	1	5	3	4
5	0	11008	0	1	2	1	0
5	0	28300	0	1	2	3	4
5	0	4.096e+06	0	1	2	5	4
5	0	100	0	1	5	3	4
5	1	10176	0	1	2	1	0
5	1	25400	0	1	2	3	4
5	1	4.12467e+06	0	1	2	5	4
5	1	150	0	1	5	3	4
5	2	11072	0	1	2	1	0
5	2	23300	0	1	2	3	4
5	2	4.00589e+06	0	1	2	5	4
5	2	100	0	1	5	3	4
5	3	10176	0	1	2	1	0
5	3	26100	0	1	2	3	4
5	3	4.21478e+06	0	1	2	5	4
5	3	100	0	1	5	3	4
5	4	9920	0	1	2	1	0
5	4	27200	0	1	2	3	4
5	4	4.23526e+06	0	1	2	5	4
5	4	50	0	1	5	3	4
5	6	11136	0	1	2	1	0
5	6	24400	0	1	2	3	4
5	6	4.18611e+06	0	1	2	5	4
5	6	50	0	1	5	3	4
5	7	9536	0	1	2	1	0
5	7	25400	0	1	2	3	4
5	7	4.16973e+06	0	1	2	5	4
5	7	100	0	1	5	3	4
5	8	11008	0	1	2	1	0
5	8	26000	0	1	2	3	4
5	8	4.18611e+06	0	1	2	5	4
5	8	200	0	1	5	3	4
5	9	11520	0	1	2	1	0
5	9	25800	0	1	2	3	4
5	9	4.18202e+06	0	1	2	5	4
5	10	10944	0	1	2	1	0
5	10	28200	0	1	2	3	4
5	10	4.17792e+06	0	1	2	5	4
5	10	100	0	1	5	3	4
5	11	11392	0	1	2	1	0
5	11	25100	0	1	2	3	4
5	11	4.00179e+06	0	1	2	5	4
5	11	150	0	1	5	3	4
5	12	9792	0	1	2	1	0
5	12	28300	0	1	2	3	4
5	12	4.21069e+06	0	1	2	5	4
5	12	200	0	1	5	3	4
5	13	9536	0	1	2	1	0
5	13	26400	0	1	2	3	4
5	13	4.22298e+06	0	1	2	5	4
5	13	150	0	1	5	3	4
5	14	10496	0	1	2	1	0
5	14	26000	0	1	2	3	4
5	14	4.25984e+06	0	1	2	5	4
5	14	150	0	1	5	3	4
5	15	11264	0	1	2	1	0
5	15	26900	0	1	2	3	4
5	15	4.02227e+06	0	1	2	5	4
5	15	150	0	1	5	3	4
6	0	11840	0	1	2	1	0
6	0	26100	0	1	2	3	4
6	0	4.21888e+06	0	1	2	5	4
6	0	100	0	1	5	3	4
6	1	11648	0	1	2	1	0
6	1	24800	0	1	2	3	4
6	1	4.03046e+06	0	1	2	5	4
6	1	200	0	1	5	3	4
6	2	12480	0	1	2	1	0
6	2	25700	0	1	2	3	4
6	2	4.07142e+06	0	1	2	5	4
6	2	150	0	1	5	3	4
6	3	11904	0	1	2	1	0
6	3	24700	0	1	2	3	4
6	3	4.10829e+06	0	1	2	5	4
6	3	50	0	1	5	3	4
6	4	11392	0	1	2	1	0
6	4	26200	0	1	2	3	4
6	4	4.28442e+06	0	1	2	5	4
6	5	10752	0	1	2	1	0
6	5	27500	0	1	2	3	4
6	5	4.21069e+06	0	1	2	5	4
6	5	100	0	1	5	3	4
6	7	12352	0	1	2	1	0
6	7	23800	0	1	2	3	4
6	7	4.05914e+06	0	1	2	5	4
6	7	100	0	1	5	3	4
6	8	8832	0	1	2	1	0
6	8	24300	0	1	2	3	4
6	8	4.24346e+06	0	1	2	5	4
6	8	200	0	1	5	3	4
6	9	11456	0	1	2	1	0
6	9	26400	0	1	2	3	4
6	9	4.08371e+06	0	1	2	5	4
6	9	50	0	1	5	3	4
6	10	10944	0	1	2	1	0
6	10	26800	0	1	2	3	4
6	10	4.37043e+06	0	1	2	5	4
6	10	50	0	1	5	3	4
6	11	11712	0	1	2	1	0
6	11	24800	0	1	2	3	4
6	11	4.39501e+06	0	1	2	5	4
6	11	250	0	1	5	3	4
6	12	9920	0	1	2	1	0
6	12	25700	0	1	2	3	4
6	12	4.27622e+06	0	1	2	5	4
6	12	150	0	1	5	3	4
6	13	11328	0	1	2	1	0
6	13	24400	0	1	2	3	4
6	13	4.16973e+06	0	1	2	5	4
6	14	10560	0	1	2	1	0
6	14	25200	0	1	2	3	4
6	14	4.05094e+06	0	1	2	5	4
6	14	100	0	1	5	3	4
6	15	12224	0	1	2	1	0
6	15	25300	0	1	2	3	4
6	15	4.17382e+06	0	1	2	5	4
6	15	150	0	1	5	3	4
7	0	10624	0	1	2	1	0
7	0	26700	0	1	2	3	4
7	0	3.92397e+06	0	1	2	5	4
7	0	150	0	1	5	3	4
7	1	11072	0	1	2	1	0
7	1	25600	0	1	2	3	4
7	1	3.91168e+06	0	1	2	5	4
7	1	200	0	1	5	3	4
7	2	11392	0	1	2	1	0
7	2	25000	0	1	2	3	4
7	2	4.17792e+06	0	1	2	5	4
7	2	100	0	1	5	3	4
7	3	12416	0	1	2	1	0
7	3	24900	0	1	2	3	4
7	3	4.01818e+06	0	1	2	5	4
7	3	50	0	1	5	3	4
7	4	11008	0	1	2	1	0
7	4	28800	0	1	2	3	4
7	4	4.07962e+06	0	1	2	5	4
7	4	150	0	1	5	3	4
7	5	10496	0	1	2	1	0
7	5	23900	0	1	2	3	4
7	5	3.98541e+06	0	1	2	5	4
7	5	50	0	1	5	3	4
7	6	10368	0	1	2	1	0
7	6	25300	0	1	2	3	4
7	6	4.28032e+06	0	1	2	5	4
7	8	11392	0	1	2	1	0
7	8	26800	0	1	2	3	4
7	8	4.28851e+06	0	1	2	5	4
7	8	50	0	1	5	3	4
7	9	10304	0	1	2	1	0
7	9	25300	0	1	2	3	4
7	9	4.20659e+06	0	1	2	5	4
7	9	50	0	1	5	3	4
7	10	11968	0	1	2	1	0
7	10	27900	0	1	2	3	4
7	10	3.96902e+06	0	1	2	5	4
7	10	150	0	1	5	3	4
7	11	9664	0	1	2	1	0
7	11	27300	0	1	2	3	4
7	11	4.13286e+06	0	1	2	5	4
7	11	250	0	1	5	3	4
7	12	9664	0	1	2	1	0
7	12	29400	0	1	2	3	4
7	12	4.14925e+06	0	1	2	5	4
7	12	150	0	1	5	3	4
7	13	11328	0	1	2	1	0
7	13	28200	0	1	2	3	4
7	13	3.83386e+06	0	1	2	5	4
7	13	50	0	1	5	3	4
7	14	11200	0	1	2	1	0
7	14	25400	0	1	2	3	4
7	14	4.06323e+06	0	1	2	5	4
7	14	150	0	1	5	3	4
7	15	11264	0	1	2	1	0
7	15	28300	0	1	2	3	4
7	15	4.16973e+06	0	1	2	5	4
7	15	100	0	1	5	3	4
8	0	10624	0	1	2	1	0
8	0	27400	0	1	2	3	4
8	0	4.12877e+06	0	1	2	5	4
8	0	100	0	1	5	3	4
8	1	11456	0	1	2	1	0
8	1	25200	0	1	2	3	4
8	1	4.01408e+06	0	1	2	5	4
8	1	100	0	1	5	3	4
8	2	10368	0	1	2	1	0
8	2	23600	0	1	2	3	4
8	2	4.15334e+06	0	1	2	5	4
8	2	50	0	1	5	3	4
8	3	11392	0	1	2	1	0
8	3	26900	0	1	2	3	4
8	3	4.14106e+06	0	1	2	5	4
8	3	200	0	1	5	3	4
8	4	9024	0	1	2	1	0
8	4	24000	0	1	2	3	4
8	4	4.12058e+06	0	1	2	5	4
8	4	100	0	1	5	3	4
8	5	10112	0	1	2	1	0
8	5	25200	0	1	2	3	4
8	5	4.17792e+06	0	1	2	5	4
8	5	150	0	1	5	3	4
8	6	9920	0	1	2	1	0
8	6	25700	0	1	2	3	4
8	6	4.00998e+06	0	1	2	5	4
8	6	200	0	1	5	3	4
8	7	11456	0	1	2	1	0
8	7	25600	0	1	2	3	4
8	7	4.38272e+06	0	1	2	5	4
8	7	50	0	1	5	3	4
8	9	11136	0	1	2	1	0
8	9	26600	0	1	2	3	4
8	9	4.32128e+06	0	1	2	5	4
8	10	11072	0	1	2	1	0
8	10	25200	0	1	2	3	4
8	10	4.07552e+06	0	1	2	5	4
8	11	12928	0	1	2	1	0
8	11	25500	0	1	2	3	4
8	11	3.96493e+06	0	1	2	5	4
8	11	100	0	1	5	3	4
8	12	9280	0	1	2	1	0
8	12	24200	0	1	2	3	4
8	12	4.36224e+06	0	1	2	5	4
8	12	150	0	1	5	3	4
8	13	10240	0	1	2	1	0
8	13	27300	0	1	2	3	4
8	13	4.02637e+06	0	1	2	5	4
8	14	10048	0	1	2	1	0
8	14	27400	0	1	2	3	4
8	14	4.05094e+06	0	1	2	5	4
8	15	11776	0	1	2	1	0
8	15	26200	0	1	2	3	4
8	15	4.05914e+06	0	1	2	5	4
8	15	200	0	1	5	3	4
9	0	9664	0	1	2	1	0
9	0	28800	0	1	2	3	4
9	0	3.8871e+06	0	1	2	5	4
9	0	100	0	1	5	3	4
9	1	10240	0	1	2	1	0
9	1	28000	0	1	2	3	4
9	1	4.10829e+06	0	1	2	5	4
9	1	100	0	1	5	3	4
9	2	11392	0	1	2	1	0
9	2	24300	0	1	2	3	4
9	2	4.23117e+06	0	1	2	5	4
9	2	50	0	1	5	3	4
9	3	11328	0	1	2	1	0
9	3	24500	0	1	2	3	4
9	3	4.21478e+06	0	1	2	5	4
9	3	50	0	1	5	3	4
9	4	8896	0	1	2	1	0
9	4	27800	0	1	2	3	4
9	4	4.25574e+06	0	1	2	5	4
9	4	150	0	1	5	3	4
9	5	11264	0	1	2	1	0
9	5	29600	0	1	2	3	4
9	5	4.10829e+06	0	1	2	5	4
9	5	100	0	1	5	3	4
9	6	10496	0	1	2	1	0
9	6	29100	0	1	2	3	4
9	6	4.27622e+06	0	1	2	5	4
9	7	10752	0	1	2	1	0
9	7	22900	0	1	2	3	4
9	7	4.26394e+06	0	1	2	5	4
9	7	200	0	1	5	3	4
9	8	11904	0	1	2	1	0
9	8	25200	0	1	2	3	4
9	8	3.9977e+06	0	1	2	5	4
9	8	100	0	1	5	3	4
9	10	10304	0	1	2	1	0
9	10	25700	0	1	2	3	4
9	10	4.21478e+06	0	1	2	5	4
9	10	100	0	1	5	3	4
9	11	11584	0	1	2	1	0
9	11	25500	0	1	2	3	4
9	11	4.26394e+06	0	1	2	5	4
9	11	100	0	1	5	3	4
9	12	11008	0	1	2	1	0
9	12	27500	0	1	2	3	4
9	12	3.94445e+06	0	1	2	5	4
9	12	300	0	1	5	3	4
9	13	11264	0	1	2	1	0
9	13	27000	0	1	2	3	4
9	13	4.36634e+06	0	1	2	5	4
9	13	50	0	1	5	3	4
9	14	11136	0	1	2	1	0
9	14	29200	0	1	2	3	4
9	14	4.01818e+06	0	1	2	5	4
9	14	100	0	1	5	3	4
9	15	11904	0	1	2	1	0
9	15	24600	0	1	2	3	4
9	15	4.12877e+06	0	1	2	5	4
9	15	100	0	1	5	3	4
10	0	9472	0	1	2	1	0
10	0	28200	0	1	2	3	4
10	0	3.9895e+06	0	1	2	5	4
10	0	50	0	1	5	3	4
10	1	12160	0	1	2	1	0
10	1	25800	0	1	2	3	4
10	1	4.25165e+06	0	1	2	5	4
10	2	11136	0	1	2	1	0
10	2	27800	0	1	2	3	4
10	2	4.18611e+06	0	1	2	5	4
10	2	200	0	1	5	3	4
10	3	10688	0	1	2	1	0
10	3	25200	0	1	2	3	4
10	3	4.16973e+06	0	1	2	5	4
10	4	10432	0	1	2	1	0
10	4	27400	0	1	2	3	4
10	4	4.21888e+06	0	1	2	5	4
10	4	100	0	1	5	3	4
10	5	11392	0	1	2	1	0
10	5	25100	0	1	2	3	4
10	5	4.2025e+06	0	1	2	5	4
10	5	50	0	1	5	3	4
10	6	11520	0	1	2	1	0
10	6	28400	0	1	2	3	4
10	6	4.15334e+06	0	1	2	5	4
10	6	150	0	1	5	3	4
10	7	10432	0	1	2	1	0
10	7	25300	0	1	2	3	4
10	7	4.10419e+06	0	1	2	5	4
10	7	250	0	1	5	3	4
10	8	10368	0	1	2	1	0
10	8	25600	0	1	2	3	4
10	8	4.18202e+06	0	1	2	5	4
10	8	50	0	1	5	3	4
10	9	8832	0	1	2	1	0
10	9	24800	0	1	2	3	4
10	9	3.96902e+06	0	1	2	5	4
10	9	150	0	1	5	3	4
10	11	11584	0	1	2	1	0
10	11	28700	0	1	2	3	4
10	11	4.01818e+06	0	1	2	5	4
10	11	50	0	1	5	3	4
10	12	9920	0	1	2	1	0
10	12	27300	0	1	2	3	4
10	12	4.37453e+06	0	1	2	5	4
10	12	250	0	1	5	3	4
10	13	10496	0	1	2	1	0
10	13	28700	0	1	2	3	4
10	13	3.98131e+06	0	1	2	5	4
10	13	100	0	1	5	3	4
10	14	11136	0	1	2	1	0
10	14	25000	0	1	2	3	4
10	14	3.92397e+06	0	1	2	5	4
10	14	150	0	1	5	3	4
10	15	11712	0	1	2	1	0
10	15	26900	0	1	2	3	4
10	15	4.08371e+06	0	1	2	5	4
10	15	50	0	1	5	3	4
11	0	12800	0	1	2	1	0
11	0	26000	0	1	2	3	4
11	0	4.1001e+06	0	1	2	5	4
11	0	150	0	1	5	3	4
11	1	9600	0	1	2	1	0
11	1	26100	0	1	2	3	4
11	1	4.20659e+06	0	1	2	5	4
11	1	50	0	1	5	3	4
11	2	9920	0	1	2	1	0
11	2	26900	0	1	2	3	4
11	2	4.3008e+06	0	1	2	5	4
11	2	100	0	1	5	3	4
11	3	10304	0	1	2	1	0
11	3	24800	0	1	2	3	4
11	3	3.9895e+06	0	1	2	5	4
11	3	300	0	1	5	3	4
11	4	12288	0	1	2	1	0
11	4	24000	0	1	2	3	4
11	4	4.096e+06	0	1	2	5	4
11	4	100	0	1	5	3	4
11	5	10880	0	1	2	1	0
11	5	24900	0	1	2	3	4
11	5	4.16154e+06	0	1	2	5	4
11	5	200	0	1	5	3	4
11	6	11008	0	1	2	1	0
11	6	25600	0	1	2	3	4
11	6	4.10829e+06	0	1	2	5	4
11	6	100	0	1	5	3	4
11	7	9856	0	1	2	1	0
11	7	24600	0	1	2	3	4
11	7	4.04275e+06	0	1	2	5	4
11	7	100	0	1	5	3	4
11	8	10240	0	1	2	1	0
11	8	24900	0	1	2	3	4
11	8	4.24346e+06	0	1	2	5	4
11	8	50	0	1	5	3	4
11	9	11200	0	1	2	1	0
11	9	26300	0	1	2	3	4
11	9	4.13696e+06	0	1	2	5	4
11	9	50	0	1	5	3	4
11	10	10752	0	1	2	1	0
11	10	26600	0	1	2	3	4
11	10	4.15334e+06	0	1	2	5	4
11	10	150	0	1	5	3	4
11	12	9664	0	1	2	1	0
11	12	25100	0	1	2	3	4
11	12	3.94035e+06	0	1	2	5	4
11	12	150	0	1	5	3	4
11	13	10176	0	1	2	1	0
11	13	28900	0	1	2	3	4
11	13	4.05094e+06	0	1	2	5	4
11	13	200	0	1	5	3	4
11	14	10176	0	1	2	1	0
11	14	27600	0	1	2	3	4
11	14	4.25984e+06	0	1	2	5	4
11	14	200	0	1	5	3	4
11	15	11840	0	1	2	1	0
11	15	29500	0	1	2	3	4
11	15	4.0919e+06	0	1	2	5	4
11	15	300	0	1	5	3	4
12	0	12032	0	1	2	1	0
12	0	26700	0	1	2	3	4
12	0	4.03046e+06	0	1	2	5	4
12	0	100	0	1	5	3	4
12	1	11648	0	1	2	1	0
12	1	27900	0	1	2	3	4
12	1	3.86253e+06	0	1	2	5	4
12	1	50	0	1	5	3	4
12	2	10240	0	1	2	1	0
12	2	25600	0	1	2	3	4
12	2	4.21888e+06	0	1	2	5	4
12	2	150	0	1	5	3	4
12	3	10112	0	1	2	1	0
12	3	31100	0	1	2	3	4
12	3	4.01818e+06	0	1	2	5	4
12	3	50	0	1	5	3	4
12	4	10752	0	1	2	1	0
12	4	28200	0	1	2	3	4
12	4	4.1943e+06	0	1	2	5	4
12	4	200	0	1	5	3	4
12	5	11776	0	1	2	1	0
12	5	28900	0	1	2	3	4
12	5	3.90758e+06	0	1	2	5	4
12	5	50	0	1	5	3	4
12	6	12096	0	1	2	1	0
12	6	25200	0	1	2	3	4
12	6	4.02637e+06	0	1	2	5	4
12	6	100	0	1	5	3	4
12	7	11712	0	1	2	1	0
12	7	25200	0	1	2	3	4
12	7	4.16563e+06	0	1	2	5	4
12	7	200	0	1	5	3	4
12	8	11328	0	1	2	1	0
12	8	25000	0	1	2	3	4
12	8	3.78061e+06	0	1	2	5	4
12	8	50	0	1	5	3	4
12	9	10624	0	1	2	1	0
12	9	24800	0	1	2	3	4
12	9	4.01408e+06	0	1	2	5	4
12	9	50	0	1	5	3	4
12	10	10944	0	1	2	1	0
12	10	25600	0	1	2	3	4
12	10	3.97722e+06	0	1	2	5	4
12	10	100	0	1	5	3	4
12	11	11328	0	1	2	1	0
12	11	24300	0	1	2	3	4
12	11	4.39091e+06	0	1	2	5	4
12	11	100	0	1	5	3	4
12	13	11072	0	1	2	1	0
12	13	25900	0	1	2	3	4
12	13	4.02637e+06	0	1	2	5	4
12	13	200	0	1	5	3	4
12	14	10176	0	1	2	1	0
12	14	26800	0	1	2	3	4
12	14	4.15334e+06	0	1	2	5	4
12	14	50	0	1	5	3	4
12	15	11648	0	1	2	1	0
12	15	28200	0	1	2	3	4
12	15	4.0919e+06	0	1	2	5	4
12	15	150	0	1	5	3	4
13	0	10496	0	1	2	1	0
13	0	25600	0	1	2	3	4
13	0	4.03866e+06	0	1	2	5	4
13	0	50	0	1	5	3	4
13	1	11264	0	1	2	1	0
13	1	24300	0	1	2	3	4
13	1	4.06323e+06	0	1	2	5	4
13	1	200	0	1	5	3	4
13	2	11328	0	1	2	1	0
13	2	26600	0	1	2	3	4
13	2	4.01408e+06	0	1	2	5	4
13	2	50	0	1	5	3	4
13	3	12096	0	1	2	1	0
13	3	24100	0	1	2	3	4
13	3	4.13286e+06	0	1	2	5	4
13	3	100	0	1	5	3	4
13	4	10688	0	1	2	1	0
13	4	26900	0	1	2	3	4
13	4	4.07962e+06	0	1	2	5	4
13	4	100	0	1	5	3	4
13	5	11136	0	1	2	1	0
13	5	25000	0	1	2	3	4
13	5	3.9977e+06	0	1	2	5	4
13	5	50	0	1	5	3	4
13	6	10304	0	1	2	1	0
13	6	27200	0	1	2	3	4
13	6	4.03456e+06	0	1	2	5	4
13	6	100	0	1	5	3	4
13	7	11904	0	1	2	1	0
13	7	25900	0	1	2	3	4
13	7	4.07142e+06	0	1	2	5	4
13	7	150	0	1	5	3	4
13	8	11584	0	1	2	1	0
13	8	29500	0	1	2	3	4
13	8	4.53837e+06	0	1	2	5	4
13	8	100	0	1	5	3	4
13	9	11072	0	1	2	1	0
13	9	26500	0	1	2	3	4
13	9	4.12467e+06	0	1	2	5	4
13	10	11264	0	1	2	1	0
13	10	27200	0	1	2	3	4
13	10	3.9977e+06	0	1	2	5	4
13	10	100	0	1	5	3	4
13	11	12480	0	1	2	1	0
13	11	25900	0	1	2	3	4
13	11	4.12058e+06	0	1	2	5	4
13	11	50	0	1	5	3	4
13	12	10432	0	1	2	1	0
13	12	25900	0	1	2	3	4
13	12	4.25165e+06	0	1	2	5	4
13	12	100	0	1	5	3	4
13	14	10304	0	1	2	1	0
13	14	27400	0	1	2	3	4
13	14	4.28442e+06	0	1	2	5	4
13	14	50	0	1	5	3	4
13	15	9984	0	1	2	1	0
13	15	25900	0	1	2	3	4
13	15	4.15334e+06	0	1	2	5	4
14	0	10880	0	1	2	1	0
14	0	24500	0	1	2	3	4
14	0	3.87072e+06	0	1	2	5	4
14	0	50	0	1	5	3	4
14	1	8832	0	1	2	1	0
14	1	24100	0	1	2	3	4
14	1	4.1943e+06	0	1	2	5	4
14	1	150	0	1	5	3	4
14	2	12224	0	1	2	1	0
14	2	23600	0	1	2	3	4
14	2	4.27213e+06	0	1	2	5	4
14	3	9280	0	1	2	1	0
14	3	26800	0	1	2	3	4
14	3	3.97722e+06	0	1	2	5	4
14	3	250	0	1	5	3	4
14	4	12096	0	1	2	1	0
14	4	24800	0	1	2	3	4
14	4	4.14925e+06	0	1	2	5	4
14	5	10816	0	1	2	1	0
14	5	26200	0	1	2	3	4
14	5	4.1001e+06	0	1	2	5	4
14	5	50	0	1	5	3	4
14	6	10240	0	1	2	1	0
14	6	27200	0	1	2	3	4
14	6	4.05504e+06	0	1	2	5	4
14	6	150	0	1	5	3	4
14	7	10688	0	1	2	1	0
14	7	27400	0	1	2	3	4
14	7	4.16973e+06	0	1	2	5	4
14	7	50	0	1	5	3	4
14	8	10880	0	1	2	1	0
14	8	28600	0	1	2	3	4
14	8	4.21478e+06	0	1	2	5	4
14	8	50	0	1	5	3	4
14	9	11200	0	1	2	1	0
14	9	24400	0	1	2	3	4
14	9	3.87072e+06	0	1	2	5	4
14	9	100	0	1	5	3	4
14	10	11328	0	1	2	1	0
14	10	27700	0	1	2	3	4
14	10	4.16973e+06	0	1	2	5	4
14	10	150	0	1	5	3	4
14	11	11200	0	1	2	1	0
14	11	26700	0	1	2	3	4
14	11	4.30899e+06	0	1	2	5	4
14	11	100	0	1	5	3	4
14	12	10048	0	1	2	1	0
14	12	26200	0	1	2	3	4
14	12	4.14515e+06	0	1	2	5	4
14	12	200	0	1	5	3	4
14	13	11776	0	1	2	1	0
14	13	25800	0	1	2	3	4
14	13	3.92806e+06	0	1	2	5	4
14	13	100	0	1	5	3	4
14	15	10048	0	1	2	1	0
14	15	28300	0	1	2	3	4
14	15	4.18611e+06	0	1	2	5	4
14	15	100	0	1	5	3	4
15	0	10880	0	1	2	1	0
15	0	24700	0	1	2	3	4
15	0	4.31309e+06	0	1	2	5	4
15	0	100	0	1	5	3	4
15	1	11712	0	1	2	1	0
15	1	26300	0	1	2	3	4
15	1	4.02637e+06	0	1	2	5	4
15	1	200	0	1	5	3	4
15	2	11520	0	1	2	1	0
15	2	26900	0	1	2	3	4
15	2	4.12058e+06	0	1	2	5	4
15	2	100	0	1	5	3	4
15	3	11136	0	1	2	1	0
15	3	26500	0	1	2	3	4
15	3	4.00179e+06	0	1	2	5	4
15	4	11392	0	1	2	1	0
15	4	26500	0	1	2	3	4
15	4	4.05914e+06	0	1	2	5	4
15	4	150	0	1	5	3	4
15	5	11712	0	1	2	1	0
15	5	26300	0	1	2	3	4
15	5	4.06733e+06	0	1	2	5	4
15	6	10304	0	1	2	1	0
15	6	23400	0	1	2	3	4
15	6	4.08371e+06	0	1	2	5	4
15	6	150	0	1	5	3	4
15	7	10304	0	1	2	1	0
15	7	26800	0	1	2	3	4
15	7	4.10419e+06	0	1	2	5	4
15	7	100	0	1	5	3	4
15	8	10368	0	1	2	1	0
15	8	27100	0	1	2	3	4
15	8	4.11648e+06	0	1	2	5	4
15	8	50	0	1	5	3	4
15	9	11328	0	1	2	1	0
15	9	27000	0	1	2	3	4
15	9	4.22707e+06	0	1	2	5	4
15	9	100	0	1	5	3	4
15	10	10368	0	1	2	1	0
15	10	25700	0	1	2	3	4
15	10	3.98541e+06	0	1	2	5	4
15	10	50	0	1	5	3	4
15	11	9664	0	1	2	1	0
15	11	25200	0	1	2	3	4
15	11	4.04275e+06	0	1	2	5	4
15	11	200	0	1	5	3	4
15	12	11200	0	1	2	1	0
15	12	27400	0	1	2	3	4
15	12	4.12877e+06	0	1	2	5	4
15	12	100	0	1	5	3	4
15	13	10368	0	1	2	1	0
15	13	27600	0	1	2	3	4
15	13	4.13696e+06	0	1	2	5	4
15	13	100	0	1	5	3	4
15	14	11392	0	1	2	1	0
15	14	26900	0	1	2	3	4
15	14	3.96902e+06	0	1	2	5	4
15	14	150	0	1	5	3	4
