14
0	2	1e+12
0	7	1e+12
0	8	1e+12
0	13	1e+12
1	6	1e+12
1	7	1e+12
1	9	1e+12
1	10	1e+12
2	0	1e+12
3	4	1e+12
3	5	1e+12
3	10	1e+12
4	3	1e+12
4	5	1e+12
4	7	1e+12
4	13	1e+12
5	3	1e+12
5	4	1e+12
5	11	1e+12
6	1	1e+12
6	8	1e+12
6	9	1e+12
6	10	1e+12
6	11	1e+12
6	13	1e+12
7	0	1e+12
7	1	1e+12
7	4	1e+12
7	12	1e+12
8	0	1e+12
8	6	1e+12
9	1	1e+12
9	6	1e+12
9	13	1e+12
10	1	1e+12
10	3	1e+12
10	6	1e+12
11	5	1e+12
11	6	1e+12
11	13	1e+12
12	7	1e+12
12	13	1e+12
13	0	1e+12
13	4	1e+12
13	6	1e+12
13	9	1e+12
13	11	1e+12
13	12	1e+12
