100000	100000	100000	10000	1000	1000
0	1	400	0	1	2	3	4
0	1	12288	0	1	2	5	4
0	2	64	0	1	2	1	0
0	2	24576	0	1	2	5	4
0	3	64	0	1	2	1	0
0	3	200	0	1	2	3	4
0	3	16384	0	1	2	5	4
0	4	64	0	1	2	1	0
0	4	8192	0	1	2	5	4
0	5	100	0	1	2	3	4
0	5	12288	0	1	2	5	4
0	6	200	0	1	2	3	4
0	6	16384	0	1	2	5	4
0	7	20480	0	1	2	5	4
0	8	100	0	1	2	3	4
0	8	12288	0	1	2	5	4
0	9	100	0	1	2	3	4
0	9	8192	0	1	2	5	4
1	0	100	0	1	2	3	4
1	2	100	0	1	2	3	4
1	2	4096	0	1	2	5	4
1	3	64	0	1	2	1	0
1	3	100	0	1	2	3	4
1	3	8192	0	1	2	5	4
1	4	64	0	1	2	1	0
1	4	16384	0	1	2	5	4
1	5	64	0	1	2	1	0
1	5	100	0	1	2	3	4
1	5	24576	0	1	2	5	4
1	6	100	0	1	2	3	4
1	6	12288	0	1	2	5	4
1	7	8192	0	1	2	5	4
1	8	128	0	1	2	1	0
1	8	8192	0	1	2	5	4
1	9	100	0	1	2	3	4
1	9	8192	0	1	2	5	4
2	0	100	0	1	2	3	4
2	0	8192	0	1	2	5	4
2	1	100	0	1	2	3	4
2	1	4096	0	1	2	5	4
2	3	100	0	1	2	3	4
2	3	4096	0	1	2	5	4
2	4	64	0	1	2	1	0
2	4	200	0	1	2	3	4
2	4	16384	0	1	2	5	4
2	5	4096	0	1	2	5	4
2	6	200	0	1	2	3	4
2	6	8192	0	1	2	5	4
2	7	64	0	1	2	1	0
2	7	4096	0	1	2	5	4
2	7	50	0	1	5	3	4
2	8	16384	0	1	2	5	4
2	9	64	0	1	2	1	0
2	9	100	0	1	2	3	4
2	9	8192	0	1	2	5	4
3	0	100	0	1	2	3	4
3	0	16384	0	1	2	5	4
3	1	64	0	1	2	1	0
3	1	4096	0	1	2	5	4
3	2	64	0	1	2	1	0
3	2	4096	0	1	2	5	4
3	4	64	0	1	2	1	0
3	4	100	0	1	2	3	4
3	4	20480	0	1	2	5	4
3	5	8192	0	1	2	5	4
3	6	64	0	1	2	1	0
3	6	12288	0	1	2	5	4
3	7	16384	0	1	2	5	4
3	8	8192	0	1	2	5	4
3	9	200	0	1	2	3	4
3	9	12288	0	1	2	5	4
4	0	100	0	1	2	3	4
4	0	8192	0	1	2	5	4
4	1	64	0	1	2	1	0
4	1	8192	0	1	2	5	4
4	2	64	0	1	2	1	0
4	2	8192	0	1	2	5	4
4	3	128	0	1	2	1	0
4	3	12288	0	1	2	5	4
4	5	16384	0	1	2	5	4
4	6	64	0	1	2	1	0
4	6	12288	0	1	2	5	4
4	7	64	0	1	2	1	0
4	7	12288	0	1	2	5	4
4	8	128	0	1	2	1	0
4	8	12288	0	1	2	5	4
4	9	100	0	1	2	3	4
4	9	12288	0	1	2	5	4
5	0	100	0	1	2	3	4
5	0	4096	0	1	2	5	4
5	1	100	0	1	2	3	4
5	1	4096	0	1	2	5	4
5	2	100	0	1	2	3	4
5	2	8192	0	1	2	5	4
5	3	100	0	1	2	3	4
5	3	12288	0	1	2	5	4
5	3	50	0	1	5	3	4
5	4	200	0	1	2	3	4
5	6	32768	0	1	2	5	4
5	7	100	0	1	2	3	4
5	7	20480	0	1	2	5	4
5	8	100	0	1	2	3	4
5	8	12288	0	1	2	5	4
5	9	100	0	1	2	3	4
6	0	20480	0	1	2	5	4
6	1	64	0	1	2	1	0
6	1	100	0	1	2	3	4
6	1	8192	0	1	2	5	4
6	2	100	0	1	2	3	4
6	2	12288	0	1	2	5	4
6	3	100	0	1	2	3	4
6	3	12288	0	1	2	5	4
6	4	100	0	1	2	3	4
6	4	8192	0	1	2	5	4
6	5	8192	0	1	2	5	4
6	7	100	0	1	2	3	4
6	7	12288	0	1	2	5	4
6	8	64	0	1	2	1	0
6	8	20480	0	1	2	5	4
6	9	100	0	1	2	3	4
7	0	300	0	1	2	3	4
7	1	4096	0	1	2	5	4
7	3	20480	0	1	2	5	4
7	4	200	0	1	2	3	4
7	4	4096	0	1	2	5	4
7	6	8192	0	1	2	5	4
7	6	50	0	1	5	3	4
7	8	16384	0	1	2	5	4
7	9	400	0	1	2	3	4
7	9	4096	0	1	2	5	4
8	0	64	0	1	2	1	0
8	0	100	0	1	2	3	4
8	0	16384	0	1	2	5	4
8	1	100	0	1	2	3	4
8	1	8192	0	1	2	5	4
8	2	64	0	1	2	1	0
8	2	36864	0	1	2	5	4
8	3	64	0	1	2	1	0
8	3	16384	0	1	2	5	4
8	4	64	0	1	2	1	0
8	4	100	0	1	2	3	4
8	4	20480	0	1	2	5	4
8	5	12288	0	1	2	5	4
8	6	100	0	1	2	3	4
8	6	8192	0	1	2	5	4
8	7	16384	0	1	2	5	4
8	9	100	0	1	2	3	4
9	0	12288	0	1	2	5	4
9	1	64	0	1	2	1	0
9	1	200	0	1	2	3	4
9	1	20480	0	1	2	5	4
9	2	64	0	1	2	1	0
9	2	100	0	1	2	3	4
9	2	12288	0	1	2	5	4
9	3	100	0	1	2	3	4
9	3	12288	0	1	2	5	4
9	4	64	0	1	2	1	0
9	4	200	0	1	2	3	4
9	4	12288	0	1	2	5	4
9	6	128	0	1	2	1	0
9	6	4096	0	1	2	5	4
9	7	64	0	1	2	1	0
9	7	12288	0	1	2	5	4
9	8	64	0	1	2	1	0
9	8	100	0	1	2	3	4
9	8	16384	0	1	2	5	4
