100000	100000	100000	10000	1000	1000
0	1	30528	0	1	2	1	0
0	1	70900	0	1	2	3	4
0	1	1.12435e+07	0	1	2	5	4
0	1	400	0	1	5	3	4
0	2	28800	0	1	2	1	0
0	2	68800	0	1	2	3	4
0	2	1.12968e+07	0	1	2	5	4
0	2	150	0	1	5	3	4
0	3	30592	0	1	2	1	0
0	3	71200	0	1	2	3	4
0	3	1.11985e+07	0	1	2	5	4
0	3	350	0	1	5	3	4
0	4	31936	0	1	2	1	0
0	4	70200	0	1	2	3	4
0	4	1.14565e+07	0	1	2	5	4
0	4	450	0	1	5	3	4
0	5	27648	0	1	2	1	0
0	5	66700	0	1	2	3	4
0	5	1.09199e+07	0	1	2	5	4
0	5	200	0	1	5	3	4
0	6	28288	0	1	2	1	0
0	6	65900	0	1	2	3	4
0	6	1.0838e+07	0	1	2	5	4
0	6	150	0	1	5	3	4
0	7	30080	0	1	2	1	0
0	7	70000	0	1	2	3	4
0	7	1.09281e+07	0	1	2	5	4
0	7	350	0	1	5	3	4
0	8	29632	0	1	2	1	0
0	8	68900	0	1	2	3	4
0	8	1.11903e+07	0	1	2	5	4
0	8	450	0	1	5	3	4
0	9	32064	0	1	2	1	0
0	9	67200	0	1	2	3	4
0	9	1.1137e+07	0	1	2	5	4
0	9	250	0	1	5	3	4
1	0	29824	0	1	2	1	0
1	0	67100	0	1	2	3	4
1	0	1.10756e+07	0	1	2	5	4
1	0	300	0	1	5	3	4
1	2	29696	0	1	2	1	0
1	2	68800	0	1	2	3	4
1	2	1.10019e+07	0	1	2	5	4
1	2	400	0	1	5	3	4
1	3	29312	0	1	2	1	0
1	3	72300	0	1	2	3	4
1	3	1.08093e+07	0	1	2	5	4
1	3	400	0	1	5	3	4
1	4	26624	0	1	2	1	0
1	4	68400	0	1	2	3	4
1	4	1.11903e+07	0	1	2	5	4
1	4	300	0	1	5	3	4
1	5	30720	0	1	2	1	0
1	5	67500	0	1	2	3	4
1	5	1.11165e+07	0	1	2	5	4
1	5	400	0	1	5	3	4
1	6	28800	0	1	2	1	0
1	6	73400	0	1	2	3	4
1	6	1.09158e+07	0	1	2	5	4
1	6	300	0	1	5	3	4
1	7	27840	0	1	2	1	0
1	7	72200	0	1	2	3	4
1	7	1.09363e+07	0	1	2	5	4
1	7	300	0	1	5	3	4
1	8	31744	0	1	2	1	0
1	8	69000	0	1	2	3	4
1	8	1.08995e+07	0	1	2	5	4
1	8	300	0	1	5	3	4
1	9	28160	0	1	2	1	0
1	9	68400	0	1	2	3	4
1	9	1.13418e+07	0	1	2	5	4
1	9	300	0	1	5	3	4
2	0	29248	0	1	2	1	0
2	0	70400	0	1	2	3	4
2	0	1.06004e+07	0	1	2	5	4
2	0	250	0	1	5	3	4
2	1	27456	0	1	2	1	0
2	1	67400	0	1	2	3	4
2	1	1.08257e+07	0	1	2	5	4
2	1	250	0	1	5	3	4
2	3	28032	0	1	2	1	0
2	3	68400	0	1	2	3	4
2	3	1.13377e+07	0	1	2	5	4
2	3	300	0	1	5	3	4
2	4	27072	0	1	2	1	0
2	4	68400	0	1	2	3	4
2	4	1.08667e+07	0	1	2	5	4
2	4	600	0	1	5	3	4
2	5	33536	0	1	2	1	0
2	5	70100	0	1	2	3	4
2	5	1.10141e+07	0	1	2	5	4
2	5	100	0	1	5	3	4
2	6	31616	0	1	2	1	0
2	6	72400	0	1	2	3	4
2	6	1.10264e+07	0	1	2	5	4
2	6	200	0	1	5	3	4
2	7	27776	0	1	2	1	0
2	7	71600	0	1	2	3	4
2	7	1.11452e+07	0	1	2	5	4
2	7	250	0	1	5	3	4
2	8	30080	0	1	2	1	0
2	8	69300	0	1	2	3	4
2	8	1.11493e+07	0	1	2	5	4
2	8	400	0	1	5	3	4
2	9	27072	0	1	2	1	0
2	9	71900	0	1	2	3	4
2	9	1.09281e+07	0	1	2	5	4
2	9	250	0	1	5	3	4
3	0	30144	0	1	2	1	0
3	0	74600	0	1	2	3	4
3	0	1.11206e+07	0	1	2	5	4
3	0	250	0	1	5	3	4
3	1	27584	0	1	2	1	0
3	1	66100	0	1	2	3	4
3	1	1.10674e+07	0	1	2	5	4
3	1	400	0	1	5	3	4
3	2	29056	0	1	2	1	0
3	2	74700	0	1	2	3	4
3	2	1.09363e+07	0	1	2	5	4
3	2	550	0	1	5	3	4
3	4	30336	0	1	2	1	0
3	4	72700	0	1	2	3	4
3	4	1.07479e+07	0	1	2	5	4
3	4	350	0	1	5	3	4
3	5	28224	0	1	2	1	0
3	5	65200	0	1	2	3	4
3	5	1.11288e+07	0	1	2	5	4
3	5	250	0	1	5	3	4
3	6	33024	0	1	2	1	0
3	6	71700	0	1	2	3	4
3	6	1.10387e+07	0	1	2	5	4
3	6	350	0	1	5	3	4
3	7	28352	0	1	2	1	0
3	7	75800	0	1	2	3	4
3	7	1.12845e+07	0	1	2	5	4
3	7	300	0	1	5	3	4
3	8	28992	0	1	2	1	0
3	8	69400	0	1	2	3	4
3	8	1.09978e+07	0	1	2	5	4
3	8	250	0	1	5	3	4
3	9	28992	0	1	2	1	0
3	9	71700	0	1	2	3	4
3	9	1.08175e+07	0	1	2	5	4
3	9	200	0	1	5	3	4
4	0	25984	0	1	2	1	0
4	0	69700	0	1	2	3	4
4	0	1.1051e+07	0	1	2	5	4
4	0	300	0	1	5	3	4
4	1	29440	0	1	2	1	0
4	1	71300	0	1	2	3	4
4	1	1.13787e+07	0	1	2	5	4
4	1	450	0	1	5	3	4
4	2	28864	0	1	2	1	0
4	2	71200	0	1	2	3	4
4	2	1.07192e+07	0	1	2	5	4
4	2	100	0	1	5	3	4
4	3	29120	0	1	2	1	0
4	3	72700	0	1	2	3	4
4	3	1.08708e+07	0	1	2	5	4
4	3	200	0	1	5	3	4
4	5	27392	0	1	2	1	0
4	5	64200	0	1	2	3	4
4	5	1.12435e+07	0	1	2	5	4
4	5	400	0	1	5	3	4
4	6	27456	0	1	2	1	0
4	6	72500	0	1	2	3	4
4	6	1.08012e+07	0	1	2	5	4
4	6	700	0	1	5	3	4
4	7	28736	0	1	2	1	0
4	7	69600	0	1	2	3	4
4	7	1.11206e+07	0	1	2	5	4
4	7	300	0	1	5	3	4
4	8	27520	0	1	2	1	0
4	8	71000	0	1	2	3	4
4	8	1.1137e+07	0	1	2	5	4
4	8	450	0	1	5	3	4
4	9	29568	0	1	2	1	0
4	9	72600	0	1	2	3	4
4	9	1.05841e+07	0	1	2	5	4
4	9	350	0	1	5	3	4
5	0	27648	0	1	2	1	0
5	0	69600	0	1	2	3	4
5	0	1.09281e+07	0	1	2	5	4
5	0	400	0	1	5	3	4
5	1	30656	0	1	2	1	0
5	1	65200	0	1	2	3	4
5	1	1.08954e+07	0	1	2	5	4
5	1	300	0	1	5	3	4
5	2	28608	0	1	2	1	0
5	2	70100	0	1	2	3	4
5	2	1.11124e+07	0	1	2	5	4
5	2	200	0	1	5	3	4
5	3	30976	0	1	2	1	0
5	3	69100	0	1	2	3	4
5	3	1.09117e+07	0	1	2	5	4
5	3	250	0	1	5	3	4
5	4	29824	0	1	2	1	0
5	4	72300	0	1	2	3	4
5	4	1.08954e+07	0	1	2	5	4
5	4	450	0	1	5	3	4
5	6	29440	0	1	2	1	0
5	6	76100	0	1	2	3	4
5	6	1.04653e+07	0	1	2	5	4
5	6	150	0	1	5	3	4
5	7	30528	0	1	2	1	0
5	7	68700	0	1	2	3	4
5	7	1.12886e+07	0	1	2	5	4
5	7	250	0	1	5	3	4
5	8	28992	0	1	2	1	0
5	8	71000	0	1	2	3	4
5	8	1.08012e+07	0	1	2	5	4
5	8	300	0	1	5	3	4
5	9	31360	0	1	2	1	0
5	9	70600	0	1	2	3	4
5	9	1.08257e+07	0	1	2	5	4
5	9	200	0	1	5	3	4
6	0	28864	0	1	2	1	0
6	0	70700	0	1	2	3	4
6	0	1.11944e+07	0	1	2	5	4
6	0	350	0	1	5	3	4
6	1	30208	0	1	2	1	0
6	1	74600	0	1	2	3	4
6	1	1.1178e+07	0	1	2	5	4
6	1	200	0	1	5	3	4
6	2	28096	0	1	2	1	0
6	2	67700	0	1	2	3	4
6	2	1.08585e+07	0	1	2	5	4
6	2	450	0	1	5	3	4
6	3	28800	0	1	2	1	0
6	3	69900	0	1	2	3	4
6	3	1.09773e+07	0	1	2	5	4
6	3	250	0	1	5	3	4
6	4	29376	0	1	2	1	0
6	4	67900	0	1	2	3	4
6	4	1.09609e+07	0	1	2	5	4
6	4	250	0	1	5	3	4
6	5	26048	0	1	2	1	0
6	5	68300	0	1	2	3	4
6	5	1.0625e+07	0	1	2	5	4
6	5	500	0	1	5	3	4
6	7	28480	0	1	2	1	0
6	7	69000	0	1	2	3	4
6	7	1.08585e+07	0	1	2	5	4
6	7	300	0	1	5	3	4
6	8	26688	0	1	2	1	0
6	8	65600	0	1	2	3	4
6	8	1.10223e+07	0	1	2	5	4
6	8	100	0	1	5	3	4
6	9	31808	0	1	2	1	0
6	9	70500	0	1	2	3	4
6	9	1.09445e+07	0	1	2	5	4
6	9	100	0	1	5	3	4
7	0	31040	0	1	2	1	0
7	0	68100	0	1	2	3	4
7	0	1.11165e+07	0	1	2	5	4
7	0	250	0	1	5	3	4
7	1	29056	0	1	2	1	0
7	1	73000	0	1	2	3	4
7	1	1.09076e+07	0	1	2	5	4
7	1	350	0	1	5	3	4
7	2	28800	0	1	2	1	0
7	2	71400	0	1	2	3	4
7	2	1.10305e+07	0	1	2	5	4
7	2	500	0	1	5	3	4
7	3	29120	0	1	2	1	0
7	3	68700	0	1	2	3	4
7	3	1.12804e+07	0	1	2	5	4
7	3	300	0	1	5	3	4
7	4	30848	0	1	2	1	0
7	4	72400	0	1	2	3	4
7	4	1.10551e+07	0	1	2	5	4
7	4	350	0	1	5	3	4
7	5	31872	0	1	2	1	0
7	5	72200	0	1	2	3	4
7	5	1.09281e+07	0	1	2	5	4
7	5	450	0	1	5	3	4
7	6	28608	0	1	2	1	0
7	6	70400	0	1	2	3	4
7	6	1.12394e+07	0	1	2	5	4
7	6	400	0	1	5	3	4
7	8	26688	0	1	2	1	0
7	8	64400	0	1	2	3	4
7	8	1.11329e+07	0	1	2	5	4
7	8	350	0	1	5	3	4
7	9	28928	0	1	2	1	0
7	9	69900	0	1	2	3	4
7	9	1.07766e+07	0	1	2	5	4
7	9	100	0	1	5	3	4
8	0	29504	0	1	2	1	0
8	0	70200	0	1	2	3	4
8	0	1.09445e+07	0	1	2	5	4
8	0	450	0	1	5	3	4
8	1	28928	0	1	2	1	0
8	1	67700	0	1	2	3	4
8	1	1.10346e+07	0	1	2	5	4
8	1	350	0	1	5	3	4
8	2	30080	0	1	2	1	0
8	2	69600	0	1	2	3	4
8	2	1.12189e+07	0	1	2	5	4
8	2	250	0	1	5	3	4
8	3	28864	0	1	2	1	0
8	3	68700	0	1	2	3	4
8	3	1.05841e+07	0	1	2	5	4
8	3	250	0	1	5	3	4
8	4	26240	0	1	2	1	0
8	4	69200	0	1	2	3	4
8	4	1.13418e+07	0	1	2	5	4
8	4	200	0	1	5	3	4
8	5	27904	0	1	2	1	0
8	5	69500	0	1	2	3	4
8	5	1.10797e+07	0	1	2	5	4
8	5	450	0	1	5	3	4
8	6	30400	0	1	2	1	0
8	6	68600	0	1	2	3	4
8	6	1.11821e+07	0	1	2	5	4
8	6	200	0	1	5	3	4
8	7	28608	0	1	2	1	0
8	7	69700	0	1	2	3	4
8	7	1.03137e+07	0	1	2	5	4
8	7	150	0	1	5	3	4
8	9	28544	0	1	2	1	0
8	9	66500	0	1	2	3	4
8	9	1.10551e+07	0	1	2	5	4
8	9	400	0	1	5	3	4
9	0	28672	0	1	2	1	0
9	0	66900	0	1	2	3	4
9	0	1.14442e+07	0	1	2	5	4
9	0	300	0	1	5	3	4
9	1	30272	0	1	2	1	0
9	1	70100	0	1	2	3	4
9	1	1.10592e+07	0	1	2	5	4
9	1	250	0	1	5	3	4
9	2	26624	0	1	2	1	0
9	2	67400	0	1	2	3	4
9	2	1.09322e+07	0	1	2	5	4
9	2	550	0	1	5	3	4
9	3	27072	0	1	2	1	0
9	3	67400	0	1	2	3	4
9	3	1.10428e+07	0	1	2	5	4
9	3	150	0	1	5	3	4
9	4	28544	0	1	2	1	0
9	4	67800	0	1	2	3	4
9	4	1.12968e+07	0	1	2	5	4
9	4	350	0	1	5	3	4
9	5	31360	0	1	2	1	0
9	5	72200	0	1	2	3	4
9	5	1.12067e+07	0	1	2	5	4
9	5	200	0	1	5	3	4
9	6	32384	0	1	2	1	0
9	6	73400	0	1	2	3	4
9	6	1.1137e+07	0	1	2	5	4
9	6	350	0	1	5	3	4
9	7	28160	0	1	2	1	0
9	7	70000	0	1	2	3	4
9	7	1.07479e+07	0	1	2	5	4
9	7	250	0	1	5	3	4
9	8	30976	0	1	2	1	0
9	8	72000	0	1	2	3	4
9	8	1.0793e+07	0	1	2	5	4
9	8	450	0	1	5	3	4
