20
0	5	1e+12
0	7	1e+12
0	11	1e+12
1	3	1e+12
1	13	1e+12
1	16	1e+12
1	19	1e+12
2	12	1e+12
2	14	1e+12
3	1	1e+12
4	12	1e+12
4	15	1e+12
4	17	1e+12
5	0	1e+12
5	13	1e+12
6	7	1e+12
6	9	1e+12
6	14	1e+12
6	17	1e+12
7	0	1e+12
7	6	1e+12
7	8	1e+12
7	9	1e+12
8	7	1e+12
8	9	1e+12
8	11	1e+12
8	16	1e+12
9	6	1e+12
9	7	1e+12
9	8	1e+12
9	10	1e+12
10	9	1e+12
10	13	1e+12
10	15	1e+12
10	17	1e+12
11	0	1e+12
11	8	1e+12
11	19	1e+12
12	2	1e+12
12	4	1e+12
12	17	1e+12
12	18	1e+12
12	19	1e+12
13	1	1e+12
13	5	1e+12
13	10	1e+12
14	2	1e+12
14	6	1e+12
14	15	1e+12
14	19	1e+12
15	4	1e+12
15	10	1e+12
15	14	1e+12
15	17	1e+12
16	1	1e+12
16	8	1e+12
16	17	1e+12
17	4	1e+12
17	6	1e+12
17	10	1e+12
17	12	1e+12
17	15	1e+12
17	16	1e+12
18	12	1e+12
19	1	1e+12
19	11	1e+12
19	12	1e+12
19	14	1e+12
