10
0	1	1e+12
0	2	1e+12
1	0	1e+12
1	5	1e+12
1	6	1e+12
1	7	1e+12
1	8	1e+12
2	0	1e+12
2	4	1e+12
2	8	1e+12
3	4	1e+12
3	6	1e+12
3	7	1e+12
3	8	1e+12
3	9	1e+12
4	2	1e+12
4	3	1e+12
4	5	1e+12
5	1	1e+12
5	4	1e+12
5	9	1e+12
6	1	1e+12
6	3	1e+12
6	7	1e+12
6	9	1e+12
7	1	1e+12
7	3	1e+12
7	6	1e+12
8	1	1e+12
8	2	1e+12
8	3	1e+12
9	3	1e+12
9	5	1e+12
9	6	1e+12
