10
0	6	1e+12
0	7	1e+12
1	6	1e+12
1	7	1e+12
1	9	1e+12
2	7	1e+12
2	8	1e+12
3	5	1e+12
3	6	1e+12
3	7	1e+12
3	8	1e+12
4	9	1e+12
5	3	1e+12
5	9	1e+12
6	0	1e+12
6	1	1e+12
6	3	1e+12
7	0	1e+12
7	1	1e+12
7	2	1e+12
7	3	1e+12
8	2	1e+12
8	3	1e+12
9	1	1e+12
9	4	1e+12
9	5	1e+12
