100000	100000	100000	10000	1000	1000
0	1	310400	0	1	2	1	0
0	1	721500	0	1	2	3	4
0	1	1.14815e+08	0	1	2	5	4
0	1	3200	0	1	5	3	4
0	2	223424	0	1	2	1	0
0	2	547600	0	1	2	3	4
0	2	8.48568e+07	0	1	2	5	4
0	2	1750	0	1	5	3	4
0	3	94464	0	1	2	1	0
0	3	223600	0	1	2	3	4
0	3	3.61308e+07	0	1	2	5	4
0	3	1100	0	1	5	3	4
0	4	48512	0	1	2	1	0
0	4	114500	0	1	2	3	4
0	4	1.80716e+07	0	1	2	5	4
0	4	600	0	1	5	3	4
0	5	84800	0	1	2	1	0
0	5	194600	0	1	2	3	4
0	5	3.19201e+07	0	1	2	5	4
0	5	1150	0	1	5	3	4
0	6	59008	0	1	2	1	0
0	6	147600	0	1	2	3	4
0	6	2.37814e+07	0	1	2	5	4
0	6	1050	0	1	5	3	4
0	7	24512	0	1	2	1	0
0	7	55700	0	1	2	3	4
0	7	8.79411e+06	0	1	2	5	4
0	7	100	0	1	5	3	4
0	8	24832	0	1	2	1	0
0	8	60500	0	1	2	3	4
0	8	9.37165e+06	0	1	2	5	4
0	8	300	0	1	5	3	4
0	9	61120	0	1	2	1	0
0	9	144800	0	1	2	3	4
0	9	2.29868e+07	0	1	2	5	4
0	9	600	0	1	5	3	4
1	0	300928	0	1	2	1	0
1	0	733400	0	1	2	3	4
1	0	1.14434e+08	0	1	2	5	4
1	0	3600	0	1	5	3	4
1	2	86464	0	1	2	1	0
1	2	195100	0	1	2	3	4
1	2	3.15884e+07	0	1	2	5	4
1	2	750	0	1	5	3	4
1	3	92928	0	1	2	1	0
1	3	228700	0	1	2	3	4
1	3	3.58277e+07	0	1	2	5	4
1	3	1050	0	1	5	3	4
1	4	30784	0	1	2	1	0
1	4	74200	0	1	2	3	4
1	4	1.19112e+07	0	1	2	5	4
1	4	350	0	1	5	3	4
1	5	14400	0	1	2	1	0
1	5	35000	0	1	2	3	4
1	5	5.31661e+06	0	1	2	5	4
1	5	50	0	1	5	3	4
1	6	7488	0	1	2	1	0
1	6	20000	0	1	2	3	4
1	6	2.89587e+06	0	1	2	5	4
1	7	3776	0	1	2	1	0
1	7	11400	0	1	2	3	4
1	7	1.8432e+06	0	1	2	5	4
1	7	100	0	1	5	3	4
1	8	5760	0	1	2	1	0
1	8	11700	0	1	2	3	4
1	8	1.80634e+06	0	1	2	5	4
1	8	100	0	1	5	3	4
1	9	4736	0	1	2	1	0
1	9	8300	0	1	2	3	4
1	9	1.45818e+06	0	1	2	5	4
1	9	50	0	1	5	3	4
2	0	230336	0	1	2	1	0
2	0	538800	0	1	2	3	4
2	0	8.50248e+07	0	1	2	5	4
2	0	2800	0	1	5	3	4
2	1	83968	0	1	2	1	0
2	1	199900	0	1	2	3	4
2	1	3.13917e+07	0	1	2	5	4
2	1	700	0	1	5	3	4
2	3	42944	0	1	2	1	0
2	3	98700	0	1	2	3	4
2	3	1.62447e+07	0	1	2	5	4
2	3	550	0	1	5	3	4
2	4	13568	0	1	2	1	0
2	4	34100	0	1	2	3	4
2	4	5.14048e+06	0	1	2	5	4
2	4	150	0	1	5	3	4
2	5	18816	0	1	2	1	0
2	5	44700	0	1	2	3	4
2	5	7.19258e+06	0	1	2	5	4
2	5	150	0	1	5	3	4
2	6	6976	0	1	2	1	0
2	6	18200	0	1	2	3	4
2	6	2.65421e+06	0	1	2	5	4
2	6	50	0	1	5	3	4
2	7	4160	0	1	2	1	0
2	7	8400	0	1	2	3	4
2	7	1.36806e+06	0	1	2	5	4
2	7	150	0	1	5	3	4
2	8	4224	0	1	2	1	0
2	8	10000	0	1	2	3	4
2	8	1.51142e+06	0	1	2	5	4
2	8	50	0	1	5	3	4
2	9	3264	0	1	2	1	0
2	9	6600	0	1	2	3	4
2	9	1.2329e+06	0	1	2	5	4
2	9	100	0	1	5	3	4
3	0	97344	0	1	2	1	0
3	0	226100	0	1	2	3	4
3	0	3.60079e+07	0	1	2	5	4
3	0	850	0	1	5	3	4
3	1	97472	0	1	2	1	0
3	1	224000	0	1	2	3	4
3	1	3.63151e+07	0	1	2	5	4
3	1	850	0	1	5	3	4
3	2	40576	0	1	2	1	0
3	2	98700	0	1	2	3	4
3	2	1.62161e+07	0	1	2	5	4
3	2	400	0	1	5	3	4
3	4	15104	0	1	2	1	0
3	4	37200	0	1	2	3	4
3	4	5.82861e+06	0	1	2	5	4
3	4	250	0	1	5	3	4
3	5	5120	0	1	2	1	0
3	5	13000	0	1	2	3	4
3	5	2.1545e+06	0	1	2	5	4
3	6	2240	0	1	2	1	0
3	6	6000	0	1	2	3	4
3	6	1.024e+06	0	1	2	5	4
3	7	960	0	1	2	1	0
3	7	4300	0	1	2	3	4
3	7	585728	0	1	2	5	4
3	8	1856	0	1	2	1	0
3	8	4800	0	1	2	3	4
3	8	540672	0	1	2	5	4
3	9	1408	0	1	2	1	0
3	9	3800	0	1	2	3	4
3	9	491520	0	1	2	5	4
4	0	49088	0	1	2	1	0
4	0	110200	0	1	2	3	4
4	0	1.84156e+07	0	1	2	5	4
4	0	200	0	1	5	3	4
4	1	27520	0	1	2	1	0
4	1	69400	0	1	2	3	4
4	1	1.12845e+07	0	1	2	5	4
4	1	250	0	1	5	3	4
4	2	12352	0	1	2	1	0
4	2	31100	0	1	2	3	4
4	2	5.09952e+06	0	1	2	5	4
4	3	14336	0	1	2	1	0
4	3	36900	0	1	2	3	4
4	3	5.72621e+06	0	1	2	5	4
4	3	100	0	1	5	3	4
4	5	3200	0	1	2	1	0
4	5	5700	0	1	2	3	4
4	5	876544	0	1	2	5	4
4	5	50	0	1	5	3	4
4	6	1344	0	1	2	1	0
4	6	2500	0	1	2	3	4
4	6	446464	0	1	2	5	4
4	6	50	0	1	5	3	4
4	7	384	0	1	2	1	0
4	7	2600	0	1	2	3	4
4	7	241664	0	1	2	5	4
4	8	768	0	1	2	1	0
4	8	2300	0	1	2	3	4
4	8	258048	0	1	2	5	4
4	9	448	0	1	2	1	0
4	9	1200	0	1	2	3	4
4	9	229376	0	1	2	5	4
5	0	84096	0	1	2	1	0
5	0	209400	0	1	2	3	4
5	0	3.17727e+07	0	1	2	5	4
5	0	750	0	1	5	3	4
5	1	12736	0	1	2	1	0
5	1	35600	0	1	2	3	4
5	1	5.39853e+06	0	1	2	5	4
5	1	100	0	1	5	3	4
5	2	17600	0	1	2	1	0
5	2	45500	0	1	2	3	4
5	2	7.20896e+06	0	1	2	5	4
5	2	300	0	1	5	3	4
5	3	4480	0	1	2	1	0
5	3	11300	0	1	2	3	4
5	3	1.90464e+06	0	1	2	5	4
5	3	50	0	1	5	3	4
5	4	2432	0	1	2	1	0
5	4	6000	0	1	2	3	4
5	4	864256	0	1	2	5	4
5	6	3072	0	1	2	1	0
5	6	9200	0	1	2	3	4
5	6	1.29843e+06	0	1	2	5	4
5	7	1600	0	1	2	1	0
5	7	2500	0	1	2	3	4
5	7	483328	0	1	2	5	4
5	8	1856	0	1	2	1	0
5	8	4200	0	1	2	3	4
5	8	737280	0	1	2	5	4
5	9	1152	0	1	2	1	0
5	9	3400	0	1	2	3	4
5	9	679936	0	1	2	5	4
6	0	62272	0	1	2	1	0
6	0	153700	0	1	2	3	4
6	0	2.35643e+07	0	1	2	5	4
6	0	500	0	1	5	3	4
6	1	8064	0	1	2	1	0
6	1	18500	0	1	2	3	4
6	1	2.94502e+06	0	1	2	5	4
6	1	50	0	1	5	3	4
6	2	7552	0	1	2	1	0
6	2	15200	0	1	2	3	4
6	2	2.44941e+06	0	1	2	5	4
6	2	100	0	1	5	3	4
6	3	2688	0	1	2	1	0
6	3	5900	0	1	2	3	4
6	3	913408	0	1	2	5	4
6	4	1088	0	1	2	1	0
6	4	3500	0	1	2	3	4
6	4	360448	0	1	2	5	4
6	4	50	0	1	5	3	4
6	5	2688	0	1	2	1	0
6	5	9400	0	1	2	3	4
6	5	1.29434e+06	0	1	2	5	4
6	7	1024	0	1	2	1	0
6	7	1000	0	1	2	3	4
6	7	258048	0	1	2	5	4
6	8	768	0	1	2	1	0
6	8	1600	0	1	2	3	4
6	8	286720	0	1	2	5	4
6	9	1216	0	1	2	1	0
6	9	3000	0	1	2	3	4
6	9	536576	0	1	2	5	4
7	0	23040	0	1	2	1	0
7	0	53800	0	1	2	3	4
7	0	8.82688e+06	0	1	2	5	4
7	0	200	0	1	5	3	4
7	1	3520	0	1	2	1	0
7	1	9400	0	1	2	3	4
7	1	1.72442e+06	0	1	2	5	4
7	2	3392	0	1	2	1	0
7	2	9200	0	1	2	3	4
7	2	1.34758e+06	0	1	2	5	4
7	3	832	0	1	2	1	0
7	3	4300	0	1	2	3	4
7	3	585728	0	1	2	5	4
7	3	50	0	1	5	3	4
7	4	960	0	1	2	1	0
7	4	1600	0	1	2	3	4
7	4	290816	0	1	2	5	4
7	5	1280	0	1	2	1	0
7	5	3100	0	1	2	3	4
7	5	516096	0	1	2	5	4
7	5	50	0	1	5	3	4
7	6	448	0	1	2	1	0
7	6	1100	0	1	2	3	4
7	6	204800	0	1	2	5	4
7	8	1216	0	1	2	1	0
7	8	4300	0	1	2	3	4
7	8	487424	0	1	2	5	4
7	9	384	0	1	2	1	0
7	9	500	0	1	2	3	4
7	9	139264	0	1	2	5	4
8	0	23232	0	1	2	1	0
8	0	57900	0	1	2	3	4
8	0	9.45357e+06	0	1	2	5	4
8	1	3968	0	1	2	1	0
8	1	10800	0	1	2	3	4
8	1	1.63021e+06	0	1	2	5	4
8	1	150	0	1	5	3	4
8	2	5184	0	1	2	1	0
8	2	9400	0	1	2	3	4
8	2	1.69984e+06	0	1	2	5	4
8	3	1856	0	1	2	1	0
8	3	4500	0	1	2	3	4
8	3	622592	0	1	2	5	4
8	3	100	0	1	5	3	4
8	4	512	0	1	2	1	0
8	4	900	0	1	2	3	4
8	4	278528	0	1	2	5	4
8	5	2240	0	1	2	1	0
8	5	4400	0	1	2	3	4
8	5	737280	0	1	2	5	4
8	6	832	0	1	2	1	0
8	6	1900	0	1	2	3	4
8	6	233472	0	1	2	5	4
8	7	1600	0	1	2	1	0
8	7	2800	0	1	2	3	4
8	7	385024	0	1	2	5	4
8	9	320	0	1	2	1	0
8	9	1100	0	1	2	3	4
8	9	163840	0	1	2	5	4
9	0	59200	0	1	2	1	0
9	0	141600	0	1	2	3	4
9	0	2.27901e+07	0	1	2	5	4
9	0	700	0	1	5	3	4
9	1	3456	0	1	2	1	0
9	1	9800	0	1	2	3	4
9	1	1.41312e+06	0	1	2	5	4
9	1	50	0	1	5	3	4
9	2	3456	0	1	2	1	0
9	2	8200	0	1	2	3	4
9	2	1.31482e+06	0	1	2	5	4
9	3	1088	0	1	2	1	0
9	3	2900	0	1	2	3	4
9	3	425984	0	1	2	5	4
9	4	512	0	1	2	1	0
9	4	2300	0	1	2	3	4
9	4	258048	0	1	2	5	4
9	5	1856	0	1	2	1	0
9	5	3700	0	1	2	3	4
9	5	569344	0	1	2	5	4
9	6	1024	0	1	2	1	0
9	6	3100	0	1	2	3	4
9	6	442368	0	1	2	5	4
9	7	192	0	1	2	1	0
9	7	1400	0	1	2	3	4
9	7	139264	0	1	2	5	4
9	8	640	0	1	2	1	0
9	8	900	0	1	2	3	4
9	8	143360	0	1	2	5	4
