1000	1000	10000
0	1	1.12854e+07	2	1	1	2	0
0	2	1.1232e+07	2	1	1	2	0
0	3	1.1102e+07	2	1	1	2	0
0	4	1.11305e+07	2	1	1	2	0
0	5	1.11074e+07	2	1	1	2	0
0	6	1.10754e+07	2	1	1	2	0
0	7	1.09241e+07	2	1	1	2	0
0	8	1.11554e+07	2	1	1	2	0
0	9	1.1127e+07	2	1	1	2	0
1	0	1.10789e+07	2	1	1	2	0
1	2	1.10273e+07	2	1	1	2	0
1	3	1.10967e+07	2	1	1	2	0
1	4	1.09365e+07	2	1	1	2	0
1	5	1.13103e+07	2	1	1	2	0
1	6	1.10789e+07	2	1	1	2	0
1	7	1.13227e+07	2	1	1	2	0
1	8	1.11697e+07	2	1	1	2	0
1	9	1.09063e+07	2	1	1	2	0
2	0	1.12213e+07	2	1	1	2	0
2	1	1.11732e+07	2	1	1	2	0
2	3	1.11857e+07	2	1	1	2	0
2	4	1.08297e+07	2	1	1	2	0
2	5	1.08974e+07	2	1	1	2	0
2	6	1.10611e+07	2	1	1	2	0
2	7	1.09899e+07	2	1	1	2	0
2	8	1.0981e+07	2	1	1	2	0
2	9	1.10932e+07	2	1	1	2	0
3	0	1.13815e+07	2	1	1	2	0
3	1	1.13921e+07	2	1	1	2	0
3	2	1.1216e+07	2	1	1	2	0
3	4	1.1038e+07	2	1	1	2	0
3	5	1.12071e+07	2	1	1	2	0
3	6	1.11715e+07	2	1	1	2	0
3	7	1.11394e+07	2	1	1	2	0
3	8	1.10131e+07	2	1	1	2	0
3	9	1.12693e+07	2	1	1	2	0
4	0	1.128e+07	2	1	1	2	0
4	1	1.10451e+07	2	1	1	2	0
4	2	1.0892e+07	2	1	1	2	0
4	3	1.11483e+07	2	1	1	2	0
4	5	1.11768e+07	2	1	1	2	0
4	6	1.11626e+07	2	1	1	2	0
4	7	1.11732e+07	2	1	1	2	0
4	8	1.09401e+07	2	1	1	2	0
4	9	1.10024e+07	2	1	1	2	0
5	0	1.10344e+07	2	1	1	2	0
5	1	1.10807e+07	2	1	1	2	0
5	2	1.10291e+07	2	1	1	2	0
5	3	1.09597e+07	2	1	1	2	0
5	4	1.10433e+07	2	1	1	2	0
5	6	1.12782e+07	2	1	1	2	0
5	7	1.10006e+07	2	1	1	2	0
5	8	1.10789e+07	2	1	1	2	0
5	9	1.08475e+07	2	1	1	2	0
6	0	1.10077e+07	2	1	1	2	0
6	1	1.09846e+07	2	1	1	2	0
6	2	1.11608e+07	2	1	1	2	0
6	3	1.10131e+07	2	1	1	2	0
6	4	1.11145e+07	2	1	1	2	0
6	5	1.10326e+07	2	1	1	2	0
6	7	1.11928e+07	2	1	1	2	0
6	8	1.12195e+07	2	1	1	2	0
6	9	1.09419e+07	2	1	1	2	0
7	0	1.14438e+07	2	1	1	2	0
7	1	1.09223e+07	2	1	1	2	0
7	2	1.10736e+07	2	1	1	2	0
7	3	1.10415e+07	2	1	1	2	0
7	4	1.12676e+07	2	1	1	2	0
7	5	1.09881e+07	2	1	1	2	0
7	6	1.08778e+07	2	1	1	2	0
7	8	1.12818e+07	2	1	1	2	0
7	9	1.12409e+07	2	1	1	2	0
8	0	1.12142e+07	2	1	1	2	0
8	1	1.10006e+07	2	1	1	2	0
8	2	1.11287e+07	2	1	1	2	0
8	3	1.13832e+07	2	1	1	2	0
8	4	1.10042e+07	2	1	1	2	0
8	5	1.09632e+07	2	1	1	2	0
8	6	1.12088e+07	2	1	1	2	0
8	7	1.10291e+07	2	1	1	2	0
8	9	1.1038e+07	2	1	1	2	0
9	0	1.09454e+07	2	1	1	2	0
9	1	1.10647e+07	2	1	1	2	0
9	2	1.13174e+07	2	1	1	2	0
9	3	1.13583e+07	2	1	1	2	0
9	4	1.1022e+07	2	1	1	2	0
9	5	1.12106e+07	2	1	1	2	0
9	6	1.12106e+07	2	1	1	2	0
9	7	1.15559e+07	2	1	1	2	0
9	8	1.10415e+07	2	1	1	2	0
