1000	1000	1000	1000	100000	10000
0	1	1.13187e+07	2	1	0	2	4	3
0	2	1.09521e+07	2	1	0	2	4	3
0	3	1.10046e+07	2	1	0	2	4	3
0	4	1.11893e+07	2	1	0	2	4	3
0	5	1.10774e+07	2	1	0	2	4	3
0	6	1.10585e+07	2	1	0	2	4	3
0	7	1.13227e+07	2	1	0	2	4	3
0	8	1.11772e+07	2	1	0	2	4	3
0	9	1.12607e+07	2	1	0	2	4	3
1	0	1.1223e+07	2	1	0	2	4	3
1	2	1.13578e+07	2	1	0	2	4	3
1	3	1.10949e+07	2	1	0	2	4	3
1	4	1.12904e+07	2	1	0	2	4	3
1	5	1.09076e+07	2	1	0	2	4	3
1	6	1.10437e+07	2	1	0	2	4	3
1	7	1.12203e+07	2	1	0	2	4	3
1	8	1.11893e+07	2	1	0	2	4	3
1	9	1.12567e+07	2	1	0	2	4	3
2	0	1.0855e+07	2	1	0	2	4	3
2	1	1.12809e+07	2	1	0	2	4	3
2	3	1.12499e+07	2	1	0	2	4	3
2	4	1.11731e+07	2	1	0	2	4	3
2	5	1.13362e+07	2	1	0	2	4	3
2	6	1.12836e+07	2	1	0	2	4	3
2	7	1.1192e+07	2	1	0	2	4	3
2	8	1.09682e+07	2	1	0	2	4	3
2	9	1.11839e+07	2	1	0	2	4	3
3	0	1.10181e+07	2	1	0	2	4	3
3	1	1.11785e+07	2	1	0	2	4	3
3	2	1.10531e+07	2	1	0	2	4	3
3	4	1.12297e+07	2	1	0	2	4	3
3	5	1.11259e+07	2	1	0	2	4	3
3	6	1.1072e+07	2	1	0	2	4	3
3	7	1.11071e+07	2	1	0	2	4	3
3	8	1.10976e+07	2	1	0	2	4	3
3	9	1.10451e+07	2	1	0	2	4	3
4	0	1.10639e+07	2	1	0	2	4	3
4	1	1.10316e+07	2	1	0	2	4	3
4	2	1.12243e+07	2	1	0	2	4	3
4	3	1.11664e+07	2	1	0	2	4	3
4	5	1.09965e+07	2	1	0	2	4	3
4	6	1.11044e+07	2	1	0	2	4	3
4	7	1.1068e+07	2	1	0	2	4	3
4	8	1.1103e+07	2	1	0	2	4	3
4	9	1.10275e+07	2	1	0	2	4	3
5	0	1.09817e+07	2	1	0	2	4	3
5	1	1.11017e+07	2	1	0	2	4	3
5	2	1.10302e+07	2	1	0	2	4	3
5	3	1.11583e+07	2	1	0	2	4	3
5	4	1.10478e+07	2	1	0	2	4	3
5	6	1.12405e+07	2	1	0	2	4	3
5	7	1.09979e+07	2	1	0	2	4	3
5	8	1.09817e+07	2	1	0	2	4	3
5	9	1.11758e+07	2	1	0	2	4	3
6	0	1.13025e+07	2	1	0	2	4	3
6	1	1.13146e+07	2	1	0	2	4	3
6	2	1.1161e+07	2	1	0	2	4	3
6	3	1.09992e+07	2	1	0	2	4	3
6	4	1.11825e+07	2	1	0	2	4	3
6	5	1.09938e+07	2	1	0	2	4	3
6	7	1.1037e+07	2	1	0	2	4	3
6	8	1.10774e+07	2	1	0	2	4	3
6	9	1.11057e+07	2	1	0	2	4	3
7	0	1.09831e+07	2	1	0	2	4	3
7	1	1.11839e+07	2	1	0	2	4	3
7	2	1.1103e+07	2	1	0	2	4	3
7	3	1.12082e+07	2	1	0	2	4	3
7	4	1.08954e+07	2	1	0	2	4	3
7	5	1.10289e+07	2	1	0	2	4	3
7	6	1.08766e+07	2	1	0	2	4	3
7	8	1.09291e+07	2	1	0	2	4	3
7	9	1.10585e+07	2	1	0	2	4	3
8	0	1.09965e+07	2	1	0	2	4	3
8	1	1.10208e+07	2	1	0	2	4	3
8	2	1.11354e+07	2	1	0	2	4	3
8	3	1.1285e+07	2	1	0	2	4	3
8	4	1.10841e+07	2	1	0	2	4	3
8	5	1.09143e+07	2	1	0	2	4	3
8	6	1.13308e+07	2	1	0	2	4	3
8	7	1.09628e+07	2	1	0	2	4	3
8	9	1.10033e+07	2	1	0	2	4	3
9	0	1.11489e+07	2	1	0	2	4	3
9	1	1.08766e+07	2	1	0	2	4	3
9	2	1.12001e+07	2	1	0	2	4	3
9	3	1.12122e+07	2	1	0	2	4	3
9	4	1.113e+07	2	1	0	2	4	3
9	5	1.12041e+07	2	1	0	2	4	3
9	6	1.11799e+07	2	1	0	2	4	3
9	7	1.10558e+07	2	1	0	2	4	3
9	8	1.09237e+07	2	1	0	2	4	3
