100000	100000	100000	1000	1000	100000	100000	1000	100000	100000	10000	10000	100000	1000	10000	100000	100000	100000	10000	100000	1000	1000	100000	100000	1000	1000
0	1	1.1255e+07	8	12	23	3	18
0	2	1.12313e+07	8	12	23	3	18
0	3	1.09154e+07	8	12	23	3	18
0	4	1.12129e+07	8	12	23	3	18
0	5	1.12023e+07	8	12	23	3	18
0	6	1.1455e+07	8	12	23	3	18
0	7	1.14208e+07	8	12	23	3	18
0	8	1.12444e+07	8	12	23	3	18
0	9	1.09918e+07	8	12	23	3	18
1	0	1.12155e+07	8	12	23	3	18
1	2	1.12708e+07	8	12	23	3	18
1	3	1.1026e+07	8	12	23	3	18
1	4	1.1097e+07	8	12	23	3	18
1	5	1.05785e+07	8	12	23	3	18
1	6	1.09839e+07	8	12	23	3	18
1	7	1.12102e+07	8	12	23	3	18
1	8	1.1026e+07	8	12	23	3	18
1	9	1.13445e+07	8	12	23	3	18
2	0	1.13918e+07	8	12	23	3	18
2	1	1.10339e+07	8	12	23	3	18
2	3	1.12787e+07	8	12	23	3	18
2	4	1.1126e+07	8	12	23	3	18
2	5	1.1126e+07	8	12	23	3	18
2	6	1.1097e+07	8	12	23	3	18
2	7	1.11549e+07	8	12	23	3	18
2	8	1.09707e+07	8	12	23	3	18
2	9	1.11997e+07	8	12	23	3	18
3	0	1.08707e+07	8	12	23	3	18
3	1	1.09996e+07	8	12	23	3	18
3	2	1.1047e+07	8	12	23	3	18
3	4	1.11839e+07	8	12	23	3	18
3	5	1.09812e+07	8	12	23	3	18
3	6	1.08259e+07	8	12	23	3	18
3	7	1.10154e+07	8	12	23	3	18
3	8	1.10102e+07	8	12	23	3	18
3	9	1.08101e+07	8	12	23	3	18
4	0	1.10102e+07	8	12	23	3	18
4	1	1.09944e+07	8	12	23	3	18
4	2	1.1076e+07	8	12	23	3	18
4	3	1.12418e+07	8	12	23	3	18
4	5	1.12471e+07	8	12	23	3	18
4	6	1.10918e+07	8	12	23	3	18
4	7	1.07628e+07	8	12	23	3	18
4	8	1.12629e+07	8	12	23	3	18
4	9	1.10312e+07	8	12	23	3	18
5	0	1.08838e+07	8	12	23	3	18
5	1	1.10681e+07	8	12	23	3	18
5	2	1.10891e+07	8	12	23	3	18
5	3	1.09628e+07	8	12	23	3	18
5	4	1.09944e+07	8	12	23	3	18
5	6	1.1047e+07	8	12	23	3	18
5	7	1.12418e+07	8	12	23	3	18
5	8	1.10207e+07	8	12	23	3	18
5	9	1.12497e+07	8	12	23	3	18
6	0	1.12602e+07	8	12	23	3	18
6	1	1.10997e+07	8	12	23	3	18
6	2	1.1226e+07	8	12	23	3	18
6	3	1.12286e+07	8	12	23	3	18
6	4	1.13339e+07	8	12	23	3	18
6	5	1.10207e+07	8	12	23	3	18
6	7	1.08786e+07	8	12	23	3	18
6	8	1.12234e+07	8	12	23	3	18
6	9	1.09681e+07	8	12	23	3	18
7	0	1.09733e+07	8	12	23	3	18
7	1	1.1026e+07	8	12	23	3	18
7	2	1.09102e+07	8	12	23	3	18
7	3	1.13023e+07	8	12	23	3	18
7	4	1.11944e+07	8	12	23	3	18
7	5	1.13708e+07	8	12	23	3	18
7	6	1.1076e+07	8	12	23	3	18
7	8	1.08996e+07	8	12	23	3	18
7	9	1.13524e+07	8	12	23	3	18
8	0	1.13629e+07	8	12	23	3	18
8	1	1.12181e+07	8	12	23	3	18
8	2	1.12155e+07	8	12	23	3	18
8	3	1.09338e+07	8	12	23	3	18
8	4	1.0997e+07	8	12	23	3	18
8	5	1.10786e+07	8	12	23	3	18
8	6	1.11102e+07	8	12	23	3	18
8	7	1.1097e+07	8	12	23	3	18
8	9	1.09365e+07	8	12	23	3	18
9	0	1.10023e+07	8	12	23	3	18
9	1	1.0976e+07	8	12	23	3	18
9	2	1.10786e+07	8	12	23	3	18
9	3	1.1126e+07	8	12	23	3	18
9	4	1.11023e+07	8	12	23	3	18
9	5	1.12339e+07	8	12	23	3	18
9	6	1.11576e+07	8	12	23	3	18
9	7	1.13524e+07	8	12	23	3	18
9	8	1.15998e+07	8	12	23	3	18
