10
0	2	1e+12
0	5	1e+12
0	8	1e+12
0	9	1e+12
1	8	1e+12
2	0	1e+12
2	4	1e+12
3	4	1e+12
3	5	1e+12
4	2	1e+12
4	3	1e+12
4	7	1e+12
5	0	1e+12
5	3	1e+12
5	8	1e+12
5	9	1e+12
6	7	1e+12
7	4	1e+12
7	6	1e+12
7	8	1e+12
7	9	1e+12
8	0	1e+12
8	1	1e+12
8	5	1e+12
8	7	1e+12
8	9	1e+12
9	0	1e+12
9	5	1e+12
9	7	1e+12
9	8	1e+12
