1000	10000	100000	10000	10000	100000
0	1	1.11773e+07	2	2	1	1	0	3	0	0	3
0	2	1.09327e+07	2	2	1	1	0	3	0	0	3
0	3	1.11957e+07	2	2	1	1	0	3	0	0	3
0	4	1.09765e+07	2	2	1	1	0	3	0	0	3
0	5	1.11542e+07	2	2	1	1	0	3	0	0	3
0	6	1.11588e+07	2	2	1	1	0	3	0	0	3
0	7	1.12419e+07	2	2	1	1	0	3	0	0	3
0	8	1.0935e+07	2	2	1	1	0	3	0	0	3
0	9	1.13088e+07	2	2	1	1	0	3	0	0	3
1	0	1.11034e+07	2	2	1	1	0	3	0	0	3
1	2	1.09604e+07	2	2	1	1	0	3	0	0	3
1	3	1.12211e+07	2	2	1	1	0	3	0	0	3
1	4	1.09811e+07	2	2	1	1	0	3	0	0	3
1	5	1.10457e+07	2	2	1	1	0	3	0	0	3
1	6	1.11426e+07	2	2	1	1	0	3	0	0	3
1	7	1.08888e+07	2	2	1	1	0	3	0	0	3
1	8	1.12119e+07	2	2	1	1	0	3	0	0	3
1	9	1.12926e+07	2	2	1	1	0	3	0	0	3
2	0	1.12003e+07	2	2	1	1	0	3	0	0	3
2	1	1.08796e+07	2	2	1	1	0	3	0	0	3
2	3	1.06858e+07	2	2	1	1	0	3	0	0	3
2	4	1.11888e+07	2	2	1	1	0	3	0	0	3
2	5	1.08819e+07	2	2	1	1	0	3	0	0	3
2	6	1.08934e+07	2	2	1	1	0	3	0	0	3
2	7	1.10988e+07	2	2	1	1	0	3	0	0	3
2	8	1.08727e+07	2	2	1	1	0	3	0	0	3
2	9	1.10157e+07	2	2	1	1	0	3	0	0	3
3	0	1.1318e+07	2	2	1	1	0	3	0	0	3
3	1	1.15603e+07	2	2	1	1	0	3	0	0	3
3	2	1.12165e+07	2	2	1	1	0	3	0	0	3
3	4	1.11657e+07	2	2	1	1	0	3	0	0	3
3	5	1.1378e+07	2	2	1	1	0	3	0	0	3
3	6	1.10711e+07	2	2	1	1	0	3	0	0	3
3	7	1.11749e+07	2	2	1	1	0	3	0	0	3
3	8	1.1078e+07	2	2	1	1	0	3	0	0	3
3	9	1.10157e+07	2	2	1	1	0	3	0	0	3
4	0	1.10203e+07	2	2	1	1	0	3	0	0	3
4	1	1.1168e+07	2	2	1	1	0	3	0	0	3
4	2	1.09673e+07	2	2	1	1	0	3	0	0	3
4	3	1.11611e+07	2	2	1	1	0	3	0	0	3
4	5	1.08104e+07	2	2	1	1	0	3	0	0	3
4	6	1.11819e+07	2	2	1	1	0	3	0	0	3
4	7	1.0988e+07	2	2	1	1	0	3	0	0	3
4	8	1.10573e+07	2	2	1	1	0	3	0	0	3
4	9	1.16964e+07	2	2	1	1	0	3	0	0	3
5	0	1.10203e+07	2	2	1	1	0	3	0	0	3
5	1	1.0905e+07	2	2	1	1	0	3	0	0	3
5	2	1.11842e+07	2	2	1	1	0	3	0	0	3
5	3	1.1318e+07	2	2	1	1	0	3	0	0	3
5	4	1.12372e+07	2	2	1	1	0	3	0	0	3
5	6	1.12419e+07	2	2	1	1	0	3	0	0	3
5	7	1.11865e+07	2	2	1	1	0	3	0	0	3
5	8	1.0905e+07	2	2	1	1	0	3	0	0	3
5	9	1.1085e+07	2	2	1	1	0	3	0	0	3
6	0	1.12488e+07	2	2	1	1	0	3	0	0	3
6	1	1.09419e+07	2	2	1	1	0	3	0	0	3
6	2	1.09465e+07	2	2	1	1	0	3	0	0	3
6	3	1.12603e+07	2	2	1	1	0	3	0	0	3
6	4	1.07227e+07	2	2	1	1	0	3	0	0	3
6	5	1.1108e+07	2	2	1	1	0	3	0	0	3
6	7	1.11057e+07	2	2	1	1	0	3	0	0	3
6	8	1.09257e+07	2	2	1	1	0	3	0	0	3
6	9	1.09557e+07	2	2	1	1	0	3	0	0	3
7	0	1.1018e+07	2	2	1	1	0	3	0	0	3
7	1	1.10457e+07	2	2	1	1	0	3	0	0	3
7	2	1.13457e+07	2	2	1	1	0	3	0	0	3
7	3	1.1055e+07	2	2	1	1	0	3	0	0	3
7	4	1.11449e+07	2	2	1	1	0	3	0	0	3
7	5	1.1115e+07	2	2	1	1	0	3	0	0	3
7	6	1.12419e+07	2	2	1	1	0	3	0	0	3
7	8	1.09857e+07	2	2	1	1	0	3	0	0	3
7	9	1.12857e+07	2	2	1	1	0	3	0	0	3
8	0	1.11357e+07	2	2	1	1	0	3	0	0	3
8	1	1.1085e+07	2	2	1	1	0	3	0	0	3
8	2	1.10596e+07	2	2	1	1	0	3	0	0	3
8	3	1.11796e+07	2	2	1	1	0	3	0	0	3
8	4	1.10527e+07	2	2	1	1	0	3	0	0	3
8	5	1.14726e+07	2	2	1	1	0	3	0	0	3
8	6	1.12372e+07	2	2	1	1	0	3	0	0	3
8	7	1.12003e+07	2	2	1	1	0	3	0	0	3
8	9	1.12972e+07	2	2	1	1	0	3	0	0	3
9	0	1.14426e+07	2	2	1	1	0	3	0	0	3
9	1	1.1258e+07	2	2	1	1	0	3	0	0	3
9	2	1.12072e+07	2	2	1	1	0	3	0	0	3
9	3	1.13088e+07	2	2	1	1	0	3	0	0	3
9	4	1.12834e+07	2	2	1	1	0	3	0	0	3
9	5	1.08311e+07	2	2	1	1	0	3	0	0	3
9	6	1.08842e+07	2	2	1	1	0	3	0	0	3
9	7	1.0928e+07	2	2	1	1	0	3	0	0	3
9	8	1.0928e+07	2	2	1	1	0	3	0	0	3
