10000	10000	100000	1000	100000	1000
0	1	1.10504e+07	3	4	0	1	2
0	2	1.09103e+07	3	4	0	1	2
0	3	1.08919e+07	3	4	0	1	2
0	4	1.08256e+07	3	4	0	1	2
0	5	1.04901e+07	3	4	0	1	2
0	6	1.13821e+07	3	4	0	1	2
0	7	1.13305e+07	3	4	0	1	2
0	8	1.10762e+07	3	4	0	1	2
0	9	1.09472e+07	3	4	0	1	2
1	0	1.10467e+07	3	4	0	1	2
1	2	1.10283e+07	3	4	0	1	2
1	3	1.0855e+07	3	4	0	1	2
1	4	1.10135e+07	3	4	0	1	2
1	5	1.09066e+07	3	4	0	1	2
1	6	1.11462e+07	3	4	0	1	2
1	7	1.07002e+07	3	4	0	1	2
1	8	1.09877e+07	3	4	0	1	2
1	9	1.10357e+07	3	4	0	1	2
2	0	1.10135e+07	3	4	0	1	2
2	1	1.1161e+07	3	4	0	1	2
2	3	1.1032e+07	3	4	0	1	2
2	4	1.09951e+07	3	4	0	1	2
2	5	1.11167e+07	3	4	0	1	2
2	6	1.14743e+07	3	4	0	1	2
2	7	1.13121e+07	3	4	0	1	2
2	8	1.14448e+07	3	4	0	1	2
2	9	1.15627e+07	3	4	0	1	2
3	0	1.11905e+07	3	4	0	1	2
3	1	1.14264e+07	3	4	0	1	2
3	2	1.10357e+07	3	4	0	1	2
3	4	1.08993e+07	3	4	0	1	2
3	5	1.12716e+07	3	4	0	1	2
3	6	1.0844e+07	3	4	0	1	2
3	7	1.12421e+07	3	4	0	1	2
3	8	1.06744e+07	3	4	0	1	2
3	9	1.11905e+07	3	4	0	1	2
4	0	1.10909e+07	3	4	0	1	2
4	1	1.09361e+07	3	4	0	1	2
4	2	1.11315e+07	3	4	0	1	2
4	3	1.11241e+07	3	4	0	1	2
4	5	1.12789e+07	3	4	0	1	2
4	6	1.11499e+07	3	4	0	1	2
4	7	1.10578e+07	3	4	0	1	2
4	8	1.09472e+07	3	4	0	1	2
4	9	1.10909e+07	3	4	0	1	2
5	0	1.10504e+07	3	4	0	1	2
5	1	1.11757e+07	3	4	0	1	2
5	2	1.13195e+07	3	4	0	1	2
5	3	1.10357e+07	3	4	0	1	2
5	4	1.07703e+07	3	4	0	1	2
5	6	1.12531e+07	3	4	0	1	2
5	7	1.11757e+07	3	4	0	1	2
5	8	1.10541e+07	3	4	0	1	2
5	9	1.08034e+07	3	4	0	1	2
6	0	1.0914e+07	3	4	0	1	2
6	1	1.11978e+07	3	4	0	1	2
6	2	1.12752e+07	3	4	0	1	2
6	3	1.13305e+07	3	4	0	1	2
6	4	1.11978e+07	3	4	0	1	2
6	5	1.12089e+07	3	4	0	1	2
6	7	1.11831e+07	3	4	0	1	2
6	8	1.12384e+07	3	4	0	1	2
6	9	1.12679e+07	3	4	0	1	2
7	0	1.15038e+07	3	4	0	1	2
7	1	1.07998e+07	3	4	0	1	2
7	2	1.10762e+07	3	4	0	1	2
7	3	1.09841e+07	3	4	0	1	2
7	4	1.10909e+07	3	4	0	1	2
7	5	1.14411e+07	3	4	0	1	2
7	6	1.11499e+07	3	4	0	1	2
7	8	1.11131e+07	3	4	0	1	2
7	9	1.07408e+07	3	4	0	1	2
8	0	1.10062e+07	3	4	0	1	2
8	1	1.13748e+07	3	4	0	1	2
8	2	1.11794e+07	3	4	0	1	2
8	3	1.11352e+07	3	4	0	1	2
8	4	1.08919e+07	3	4	0	1	2
8	5	1.12531e+07	3	4	0	1	2
8	6	1.07592e+07	3	4	0	1	2
8	7	1.11499e+07	3	4	0	1	2
8	9	1.14558e+07	3	4	0	1	2
9	0	1.11204e+07	3	4	0	1	2
9	1	1.09288e+07	3	4	0	1	2
9	2	1.12126e+07	3	4	0	1	2
9	3	1.12826e+07	3	4	0	1	2
9	4	1.14522e+07	3	4	0	1	2
9	5	1.14632e+07	3	4	0	1	2
9	6	1.11241e+07	3	4	0	1	2
9	7	1.12199e+07	3	4	0	1	2
9	8	1.13232e+07	3	4	0	1	2
