10
0	4	1e+12
0	9	1e+12
1	2	1e+12
1	3	1e+12
1	7	1e+12
2	1	1e+12
2	3	1e+12
2	5	1e+12
2	7	1e+12
2	8	1e+12
3	1	1e+12
3	2	1e+12
3	4	1e+12
3	6	1e+12
4	0	1e+12
4	3	1e+12
4	6	1e+12
5	2	1e+12
5	6	1e+12
5	7	1e+12
5	8	1e+12
5	9	1e+12
6	3	1e+12
6	4	1e+12
6	5	1e+12
6	9	1e+12
7	1	1e+12
7	2	1e+12
7	5	1e+12
7	8	1e+12
7	9	1e+12
8	2	1e+12
8	5	1e+12
8	7	1e+12
9	0	1e+12
9	5	1e+12
9	6	1e+12
9	7	1e+12
