100000	1000	10000	100000	10000	100000
0	1	1.11513e+07	2	0	2	0	4
0	2	1.1031e+07	2	0	2	0	4
0	3	1.11512e+07	2	0	2	0	4
0	4	1.11116e+07	2	0	2	0	4
0	5	1.11651e+07	2	0	2	0	4
0	6	1.11203e+07	2	0	2	0	4
0	7	1.10656e+07	2	0	2	0	4
0	8	1.11717e+07	2	0	2	0	4
0	9	1.11285e+07	2	0	2	0	4
1	0	1.10646e+07	2	0	2	0	4
1	2	1.11276e+07	2	0	2	0	4
1	3	1.11054e+07	2	0	2	0	4
1	4	1.11215e+07	2	0	2	0	4
1	5	1.10844e+07	2	0	2	0	4
1	6	1.11531e+07	2	0	2	0	4
1	7	1.11564e+07	2	0	2	0	4
1	8	1.11317e+07	2	0	2	0	4
1	9	1.11318e+07	2	0	2	0	4
2	0	1.11615e+07	2	0	2	0	4
2	1	1.10562e+07	2	0	2	0	4
2	3	1.11385e+07	2	0	2	0	4
2	4	1.10834e+07	2	0	2	0	4
2	5	1.10759e+07	2	0	2	0	4
2	6	1.10636e+07	2	0	2	0	4
2	7	1.10854e+07	2	0	2	0	4
2	8	1.11062e+07	2	0	2	0	4
2	9	1.10782e+07	2	0	2	0	4
3	0	1.11e+07	2	0	2	0	4
3	1	1.11198e+07	2	0	2	0	4
3	2	1.10513e+07	2	0	2	0	4
3	4	1.11407e+07	2	0	2	0	4
3	5	1.10993e+07	2	0	2	0	4
3	6	1.10852e+07	2	0	2	0	4
3	7	1.10802e+07	2	0	2	0	4
3	8	1.10662e+07	2	0	2	0	4
3	9	1.10756e+07	2	0	2	0	4
4	0	1.1082e+07	2	0	2	0	4
4	1	1.11823e+07	2	0	2	0	4
4	2	1.10843e+07	2	0	2	0	4
4	3	1.11328e+07	2	0	2	0	4
4	5	1.11082e+07	2	0	2	0	4
4	6	1.1092e+07	2	0	2	0	4
4	7	1.11362e+07	2	0	2	0	4
4	8	1.11256e+07	2	0	2	0	4
4	9	1.11343e+07	2	0	2	0	4
5	0	1.11369e+07	2	0	2	0	4
5	1	1.10336e+07	2	0	2	0	4
5	2	1.1161e+07	2	0	2	0	4
5	3	1.10911e+07	2	0	2	0	4
5	4	1.11754e+07	2	0	2	0	4
5	6	1.11954e+07	2	0	2	0	4
5	7	1.10552e+07	2	0	2	0	4
5	8	1.11169e+07	2	0	2	0	4
5	9	1.10447e+07	2	0	2	0	4
6	0	1.11285e+07	2	0	2	0	4
6	1	1.11763e+07	2	0	2	0	4
6	2	1.10774e+07	2	0	2	0	4
6	3	1.1099e+07	2	0	2	0	4
6	4	1.112e+07	2	0	2	0	4
6	5	1.11003e+07	2	0	2	0	4
6	7	1.11484e+07	2	0	2	0	4
6	8	1.11661e+07	2	0	2	0	4
6	9	1.10838e+07	2	0	2	0	4
7	0	1.10734e+07	2	0	2	0	4
7	1	1.10952e+07	2	0	2	0	4
7	2	1.10744e+07	2	0	2	0	4
7	3	1.1161e+07	2	0	2	0	4
7	4	1.11554e+07	2	0	2	0	4
7	5	1.11259e+07	2	0	2	0	4
7	6	1.11902e+07	2	0	2	0	4
7	8	1.10998e+07	2	0	2	0	4
7	9	1.10605e+07	2	0	2	0	4
8	0	1.1128e+07	2	0	2	0	4
8	1	1.11056e+07	2	0	2	0	4
8	2	1.10977e+07	2	0	2	0	4
8	3	1.11169e+07	2	0	2	0	4
8	4	1.10418e+07	2	0	2	0	4
8	5	1.10859e+07	2	0	2	0	4
8	6	1.1059e+07	2	0	2	0	4
8	7	1.11576e+07	2	0	2	0	4
8	9	1.11171e+07	2	0	2	0	4
9	0	1.10428e+07	2	0	2	0	4
9	1	1.11499e+07	2	0	2	0	4
9	2	1.10795e+07	2	0	2	0	4
9	3	1.1183e+07	2	0	2	0	4
9	4	1.11072e+07	2	0	2	0	4
9	5	1.10939e+07	2	0	2	0	4
9	6	1.10854e+07	2	0	2	0	4
9	7	1.11881e+07	2	0	2	0	4
9	8	1.10969e+07	2	0	2	0	4
