100000	100000	100000	10000	1000	1000
0	1	31360	0	1	2	1	0
0	1	68500	0	1	2	3	4
0	1	1.11944e+07	0	1	2	5	4
0	1	350	0	1	5	3	4
0	2	31808	0	1	2	1	0
0	2	72500	0	1	2	3	4
0	2	1.11124e+07	0	1	2	5	4
0	2	400	0	1	5	3	4
0	3	29888	0	1	2	1	0
0	3	70200	0	1	2	3	4
0	3	1.07479e+07	0	1	2	5	4
0	3	200	0	1	5	3	4
0	4	29120	0	1	2	1	0
0	4	73000	0	1	2	3	4
0	4	1.09404e+07	0	1	2	5	4
0	4	200	0	1	5	3	4
0	5	29632	0	1	2	1	0
0	5	69100	0	1	2	3	4
0	5	1.10387e+07	0	1	2	5	4
0	5	250	0	1	5	3	4
0	6	27904	0	1	2	1	0
0	6	69900	0	1	2	3	4
0	6	1.12968e+07	0	1	2	5	4
0	6	300	0	1	5	3	4
0	7	28544	0	1	2	1	0
0	7	68600	0	1	2	3	4
0	7	1.06455e+07	0	1	2	5	4
0	7	300	0	1	5	3	4
0	8	28736	0	1	2	1	0
0	8	68300	0	1	2	3	4
0	8	1.11657e+07	0	1	2	5	4
0	8	200	0	1	5	3	4
0	9	26880	0	1	2	1	0
0	9	71100	0	1	2	3	4
0	9	1.10961e+07	0	1	2	5	4
0	9	300	0	1	5	3	4
1	0	27776	0	1	2	1	0
1	0	69000	0	1	2	3	4
1	0	1.11288e+07	0	1	2	5	4
1	0	450	0	1	5	3	4
1	2	30400	0	1	2	1	0
1	2	67300	0	1	2	3	4
1	2	1.07192e+07	0	1	2	5	4
1	2	200	0	1	5	3	4
1	3	27776	0	1	2	1	0
1	3	71500	0	1	2	3	4
1	3	1.09322e+07	0	1	2	5	4
1	3	200	0	1	5	3	4
1	4	27968	0	1	2	1	0
1	4	69900	0	1	2	3	4
1	4	1.07315e+07	0	1	2	5	4
1	4	200	0	1	5	3	4
1	5	30208	0	1	2	1	0
1	5	67800	0	1	2	3	4
1	5	1.11698e+07	0	1	2	5	4
1	5	350	0	1	5	3	4
1	6	29248	0	1	2	1	0
1	6	68900	0	1	2	3	4
1	6	1.08995e+07	0	1	2	5	4
1	6	300	0	1	5	3	4
1	7	29376	0	1	2	1	0
1	7	74400	0	1	2	3	4
1	7	1.101e+07	0	1	2	5	4
1	7	350	0	1	5	3	4
1	8	28800	0	1	2	1	0
1	8	66600	0	1	2	3	4
1	8	1.14237e+07	0	1	2	5	4
1	8	250	0	1	5	3	4
1	9	28608	0	1	2	1	0
1	9	66900	0	1	2	3	4
1	9	1.06947e+07	0	1	2	5	4
1	9	250	0	1	5	3	4
2	0	30272	0	1	2	1	0
2	0	69200	0	1	2	3	4
2	0	1.1137e+07	0	1	2	5	4
2	0	200	0	1	5	3	4
2	1	30720	0	1	2	1	0
2	1	67800	0	1	2	3	4
2	1	1.11165e+07	0	1	2	5	4
2	1	150	0	1	5	3	4
2	3	27648	0	1	2	1	0
2	3	71300	0	1	2	3	4
2	3	1.11206e+07	0	1	2	5	4
2	3	250	0	1	5	3	4
2	4	30016	0	1	2	1	0
2	4	65300	0	1	2	3	4
2	4	1.06742e+07	0	1	2	5	4
2	4	300	0	1	5	3	4
2	5	27584	0	1	2	1	0
2	5	68500	0	1	2	3	4
2	5	1.09036e+07	0	1	2	5	4
2	5	350	0	1	5	3	4
2	6	28544	0	1	2	1	0
2	6	69700	0	1	2	3	4
2	6	1.08544e+07	0	1	2	5	4
2	6	100	0	1	5	3	4
2	7	27008	0	1	2	1	0
2	7	67200	0	1	2	3	4
2	7	1.10141e+07	0	1	2	5	4
2	7	250	0	1	5	3	4
2	8	26624	0	1	2	1	0
2	8	65500	0	1	2	3	4
2	8	1.10141e+07	0	1	2	5	4
2	8	300	0	1	5	3	4
2	9	29504	0	1	2	1	0
2	9	67400	0	1	2	3	4
2	9	1.11165e+07	0	1	2	5	4
2	9	250	0	1	5	3	4
3	0	32000	0	1	2	1	0
3	0	70800	0	1	2	3	4
3	0	1.13091e+07	0	1	2	5	4
3	0	350	0	1	5	3	4
3	1	31552	0	1	2	1	0
3	1	74300	0	1	2	3	4
3	1	1.13009e+07	0	1	2	5	4
3	1	450	0	1	5	3	4
3	2	28608	0	1	2	1	0
3	2	67200	0	1	2	3	4
3	2	1.13254e+07	0	1	2	5	4
3	2	500	0	1	5	3	4
3	4	28416	0	1	2	1	0
3	4	71000	0	1	2	3	4
3	4	1.08544e+07	0	1	2	5	4
3	4	300	0	1	5	3	4
3	5	28544	0	1	2	1	0
3	5	72200	0	1	2	3	4
3	5	1.09527e+07	0	1	2	5	4
3	5	150	0	1	5	3	4
3	6	29248	0	1	2	1	0
3	6	68400	0	1	2	3	4
3	6	1.12722e+07	0	1	2	5	4
3	6	300	0	1	5	3	4
3	7	29504	0	1	2	1	0
3	7	70000	0	1	2	3	4
3	7	1.10141e+07	0	1	2	5	4
3	7	200	0	1	5	3	4
3	8	28736	0	1	2	1	0
3	8	66600	0	1	2	3	4
3	8	1.09609e+07	0	1	2	5	4
3	8	350	0	1	5	3	4
3	9	29760	0	1	2	1	0
3	9	72400	0	1	2	3	4
3	9	1.07602e+07	0	1	2	5	4
3	9	100	0	1	5	3	4
4	0	28608	0	1	2	1	0
4	0	70600	0	1	2	3	4
4	0	1.13172e+07	0	1	2	5	4
4	0	400	0	1	5	3	4
4	1	29632	0	1	2	1	0
4	1	65900	0	1	2	3	4
4	1	1.08544e+07	0	1	2	5	4
4	1	200	0	1	5	3	4
4	2	27648	0	1	2	1	0
4	2	67900	0	1	2	3	4
4	2	1.09076e+07	0	1	2	5	4
4	2	350	0	1	5	3	4
4	3	27520	0	1	2	1	0
4	3	72900	0	1	2	3	4
4	3	1.07725e+07	0	1	2	5	4
4	3	100	0	1	5	3	4
4	5	27328	0	1	2	1	0
4	5	71200	0	1	2	3	4
4	5	1.11698e+07	0	1	2	5	4
4	5	200	0	1	5	3	4
4	6	26944	0	1	2	1	0
4	6	71800	0	1	2	3	4
4	6	1.10838e+07	0	1	2	5	4
4	6	250	0	1	5	3	4
4	7	29952	0	1	2	1	0
4	7	66900	0	1	2	3	4
4	7	1.09855e+07	0	1	2	5	4
4	7	200	0	1	5	3	4
4	8	26880	0	1	2	1	0
4	8	69000	0	1	2	3	4
4	8	1.07397e+07	0	1	2	5	4
4	8	150	0	1	5	3	4
4	9	29376	0	1	2	1	0
4	9	69500	0	1	2	3	4
4	9	1.0924e+07	0	1	2	5	4
4	9	300	0	1	5	3	4
5	0	28352	0	1	2	1	0
5	0	64600	0	1	2	3	4
5	0	1.09978e+07	0	1	2	5	4
5	0	300	0	1	5	3	4
5	1	29888	0	1	2	1	0
5	1	67200	0	1	2	3	4
5	1	1.10223e+07	0	1	2	5	4
5	1	250	0	1	5	3	4
5	2	29824	0	1	2	1	0
5	2	69700	0	1	2	3	4
5	2	1.09076e+07	0	1	2	5	4
5	2	200	0	1	5	3	4
5	3	26432	0	1	2	1	0
5	3	68000	0	1	2	3	4
5	3	1.08052e+07	0	1	2	5	4
5	3	350	0	1	5	3	4
5	4	30336	0	1	2	1	0
5	4	64400	0	1	2	3	4
5	4	1.10838e+07	0	1	2	5	4
5	4	200	0	1	5	3	4
5	6	28480	0	1	2	1	0
5	6	72600	0	1	2	3	4
5	6	1.12599e+07	0	1	2	5	4
5	6	300	0	1	5	3	4
5	7	29632	0	1	2	1	0
5	7	70300	0	1	2	3	4
5	7	1.09363e+07	0	1	2	5	4
5	7	350	0	1	5	3	4
5	8	31040	0	1	2	1	0
5	8	71300	0	1	2	3	4
5	8	1.09363e+07	0	1	2	5	4
5	8	200	0	1	5	3	4
5	9	30720	0	1	2	1	0
5	9	65400	0	1	2	3	4
5	9	1.07151e+07	0	1	2	5	4
5	9	350	0	1	5	3	4
6	0	29760	0	1	2	1	0
6	0	70500	0	1	2	3	4
6	0	1.09076e+07	0	1	2	5	4
6	0	100	0	1	5	3	4
6	1	27456	0	1	2	1	0
6	1	71600	0	1	2	3	4
6	1	1.12108e+07	0	1	2	5	4
6	1	250	0	1	5	3	4
6	2	30720	0	1	2	1	0
6	2	68500	0	1	2	3	4
6	2	1.10961e+07	0	1	2	5	4
6	2	200	0	1	5	3	4
6	3	29376	0	1	2	1	0
6	3	70800	0	1	2	3	4
6	3	1.09568e+07	0	1	2	5	4
6	3	250	0	1	5	3	4
6	4	30336	0	1	2	1	0
6	4	73200	0	1	2	3	4
6	4	1.10551e+07	0	1	2	5	4
6	4	300	0	1	5	3	4
6	5	29120	0	1	2	1	0
6	5	72000	0	1	2	3	4
6	5	1.08749e+07	0	1	2	5	4
6	5	300	0	1	5	3	4
6	7	30336	0	1	2	1	0
6	7	71500	0	1	2	3	4
6	7	1.08872e+07	0	1	2	5	4
6	7	250	0	1	5	3	4
6	8	29632	0	1	2	1	0
6	8	71600	0	1	2	3	4
6	8	1.09281e+07	0	1	2	5	4
6	8	200	0	1	5	3	4
6	9	31616	0	1	2	1	0
6	9	67400	0	1	2	3	4
6	9	1.08872e+07	0	1	2	5	4
6	9	400	0	1	5	3	4
7	0	30464	0	1	2	1	0
7	0	73400	0	1	2	3	4
7	0	1.13091e+07	0	1	2	5	4
7	0	200	0	1	5	3	4
7	1	28544	0	1	2	1	0
7	1	68500	0	1	2	3	4
7	1	1.0752e+07	0	1	2	5	4
7	1	150	0	1	5	3	4
7	2	28736	0	1	2	1	0
7	2	70700	0	1	2	3	4
7	2	1.08093e+07	0	1	2	5	4
7	2	150	0	1	5	3	4
7	3	26688	0	1	2	1	0
7	3	72900	0	1	2	3	4
7	3	1.12312e+07	0	1	2	5	4
7	3	350	0	1	5	3	4
7	4	27712	0	1	2	1	0
7	4	73000	0	1	2	3	4
7	4	1.13951e+07	0	1	2	5	4
7	4	200	0	1	5	3	4
7	5	28992	0	1	2	1	0
7	5	67900	0	1	2	3	4
7	5	1.07151e+07	0	1	2	5	4
7	5	300	0	1	5	3	4
7	6	29184	0	1	2	1	0
7	6	68000	0	1	2	3	4
7	6	1.07848e+07	0	1	2	5	4
7	6	150	0	1	5	3	4
7	8	30656	0	1	2	1	0
7	8	70100	0	1	2	3	4
7	8	1.09855e+07	0	1	2	5	4
7	8	250	0	1	5	3	4
7	9	28928	0	1	2	1	0
7	9	71700	0	1	2	3	4
7	9	1.11124e+07	0	1	2	5	4
7	9	450	0	1	5	3	4
8	0	27840	0	1	2	1	0
8	0	72900	0	1	2	3	4
8	0	1.09978e+07	0	1	2	5	4
8	0	400	0	1	5	3	4
8	1	28928	0	1	2	1	0
8	1	67400	0	1	2	3	4
8	1	1.09978e+07	0	1	2	5	4
8	1	250	0	1	5	3	4
8	2	26816	0	1	2	1	0
8	2	74700	0	1	2	3	4
8	2	1.07233e+07	0	1	2	5	4
8	2	450	0	1	5	3	4
8	3	28800	0	1	2	1	0
8	3	71800	0	1	2	3	4
8	3	1.11002e+07	0	1	2	5	4
8	3	350	0	1	5	3	4
8	4	27712	0	1	2	1	0
8	4	68700	0	1	2	3	4
8	4	1.11084e+07	0	1	2	5	4
8	4	150	0	1	5	3	4
8	5	26560	0	1	2	1	0
8	5	68700	0	1	2	3	4
8	5	1.06742e+07	0	1	2	5	4
8	5	550	0	1	5	3	4
8	6	27520	0	1	2	1	0
8	6	67600	0	1	2	3	4
8	6	1.12968e+07	0	1	2	5	4
8	6	300	0	1	5	3	4
8	7	27520	0	1	2	1	0
8	7	69200	0	1	2	3	4
8	7	1.0666e+07	0	1	2	5	4
8	7	400	0	1	5	3	4
8	9	27328	0	1	2	1	0
8	9	67600	0	1	2	3	4
8	9	1.14156e+07	0	1	2	5	4
8	9	100	0	1	5	3	4
9	0	27904	0	1	2	1	0
9	0	68700	0	1	2	3	4
9	0	1.09158e+07	0	1	2	5	4
9	0	250	0	1	5	3	4
9	1	29632	0	1	2	1	0
9	1	66400	0	1	2	3	4
9	1	1.08708e+07	0	1	2	5	4
9	1	250	0	1	5	3	4
9	2	30272	0	1	2	1	0
9	2	69200	0	1	2	3	4
9	2	1.11247e+07	0	1	2	5	4
9	2	250	0	1	5	3	4
9	3	30272	0	1	2	1	0
9	3	74000	0	1	2	3	4
9	3	1.12067e+07	0	1	2	5	4
9	3	350	0	1	5	3	4
9	4	28608	0	1	2	1	0
9	4	69400	0	1	2	3	4
9	4	1.0924e+07	0	1	2	5	4
9	4	350	0	1	5	3	4
9	5	29184	0	1	2	1	0
9	5	70500	0	1	2	3	4
9	5	1.12517e+07	0	1	2	5	4
9	5	150	0	1	5	3	4
9	6	28032	0	1	2	1	0
9	6	72800	0	1	2	3	4
9	6	1.10961e+07	0	1	2	5	4
9	6	500	0	1	5	3	4
9	7	31872	0	1	2	1	0
9	7	68100	0	1	2	3	4
9	7	1.16982e+07	0	1	2	5	4
9	7	400	0	1	5	3	4
9	8	28736	0	1	2	1	0
9	8	66400	0	1	2	3	4
9	8	1.10715e+07	0	1	2	5	4
9	8	250	0	1	5	3	4
