100000	100000	100000	10000	1000	1000
0	1	7296	0	1	2	1	0
0	1	14600	0	1	2	3	4
0	1	2.58458e+06	0	1	2	5	4
0	2	7040	0	1	2	1	0
0	2	16900	0	1	2	3	4
0	2	2.56819e+06	0	1	2	5	4
0	2	50	0	1	5	3	4
0	3	6848	0	1	2	1	0
0	3	15900	0	1	2	3	4
0	3	2.46989e+06	0	1	2	5	4
0	4	7104	0	1	2	1	0
0	4	18100	0	1	2	3	4
0	4	2.51904e+06	0	1	2	5	4
0	4	100	0	1	5	3	4
0	5	7296	0	1	2	1	0
0	5	15800	0	1	2	3	4
0	5	2.65421e+06	0	1	2	5	4
0	6	7360	0	1	2	1	0
0	6	15800	0	1	2	3	4
0	6	2.63782e+06	0	1	2	5	4
0	6	100	0	1	5	3	4
0	7	6592	0	1	2	1	0
0	7	15100	0	1	2	3	4
0	7	2.60915e+06	0	1	2	5	4
0	7	150	0	1	5	3	4
0	8	6848	0	1	2	1	0
0	8	17400	0	1	2	3	4
0	8	2.80166e+06	0	1	2	5	4
0	9	6400	0	1	2	1	0
0	9	16400	0	1	2	3	4
0	9	2.59277e+06	0	1	2	5	4
0	9	50	0	1	5	3	4
0	10	7104	0	1	2	1	0
0	10	17100	0	1	2	3	4
0	10	2.60506e+06	0	1	2	5	4
0	11	6720	0	1	2	1	0
0	11	16400	0	1	2	3	4
0	11	2.67469e+06	0	1	2	5	4
0	12	7232	0	1	2	1	0
0	12	16700	0	1	2	3	4
0	12	2.77299e+06	0	1	2	5	4
0	12	50	0	1	5	3	4
0	13	7104	0	1	2	1	0
0	13	15700	0	1	2	3	4
0	13	2.58458e+06	0	1	2	5	4
0	13	50	0	1	5	3	4
0	14	6848	0	1	2	1	0
0	14	17400	0	1	2	3	4
0	14	2.64602e+06	0	1	2	5	4
0	14	50	0	1	5	3	4
0	15	6848	0	1	2	1	0
0	15	17000	0	1	2	3	4
0	15	2.27328e+06	0	1	2	5	4
0	15	100	0	1	5	3	4
0	16	7296	0	1	2	1	0
0	16	16400	0	1	2	3	4
0	16	2.4617e+06	0	1	2	5	4
0	16	100	0	1	5	3	4
0	17	7168	0	1	2	1	0
0	17	17200	0	1	2	3	4
0	17	2.62963e+06	0	1	2	5	4
0	17	50	0	1	5	3	4
0	18	7360	0	1	2	1	0
0	18	15200	0	1	2	3	4
0	18	2.63373e+06	0	1	2	5	4
0	18	50	0	1	5	3	4
0	19	6528	0	1	2	1	0
0	19	15400	0	1	2	3	4
0	19	2.40845e+06	0	1	2	5	4
1	0	6592	0	1	2	1	0
1	0	17400	0	1	2	3	4
1	0	2.40435e+06	0	1	2	5	4
1	2	6528	0	1	2	1	0
1	2	16000	0	1	2	3	4
1	2	2.69107e+06	0	1	2	5	4
1	2	100	0	1	5	3	4
1	3	7616	0	1	2	1	0
1	3	14200	0	1	2	3	4
1	3	2.62554e+06	0	1	2	5	4
1	3	100	0	1	5	3	4
1	4	7232	0	1	2	1	0
1	4	18100	0	1	2	3	4
1	4	2.92864e+06	0	1	2	5	4
1	5	6912	0	1	2	1	0
1	5	18600	0	1	2	3	4
1	5	2.85901e+06	0	1	2	5	4
1	5	50	0	1	5	3	4
1	6	6720	0	1	2	1	0
1	6	15900	0	1	2	3	4
1	6	2.72384e+06	0	1	2	5	4
1	7	6400	0	1	2	1	0
1	7	15300	0	1	2	3	4
1	7	2.60096e+06	0	1	2	5	4
1	8	7488	0	1	2	1	0
1	8	18900	0	1	2	3	4
1	8	2.6583e+06	0	1	2	5	4
1	8	100	0	1	5	3	4
1	9	6400	0	1	2	1	0
1	9	17800	0	1	2	3	4
1	9	2.74022e+06	0	1	2	5	4
1	9	50	0	1	5	3	4
1	10	7040	0	1	2	1	0
1	10	14500	0	1	2	3	4
1	10	2.6583e+06	0	1	2	5	4
1	11	7232	0	1	2	1	0
1	11	18300	0	1	2	3	4
1	11	2.62554e+06	0	1	2	5	4
1	12	7936	0	1	2	1	0
1	12	13700	0	1	2	3	4
1	12	2.71974e+06	0	1	2	5	4
1	12	50	0	1	5	3	4
1	13	6016	0	1	2	1	0
1	13	17500	0	1	2	3	4
1	13	2.62554e+06	0	1	2	5	4
1	13	50	0	1	5	3	4
1	14	7808	0	1	2	1	0
1	14	17700	0	1	2	3	4
1	14	2.72794e+06	0	1	2	5	4
1	14	50	0	1	5	3	4
1	15	6336	0	1	2	1	0
1	15	17100	0	1	2	3	4
1	15	2.57229e+06	0	1	2	5	4
1	15	100	0	1	5	3	4
1	16	6592	0	1	2	1	0
1	16	16100	0	1	2	3	4
1	16	2.53952e+06	0	1	2	5	4
1	16	100	0	1	5	3	4
1	17	6848	0	1	2	1	0
1	17	18800	0	1	2	3	4
1	17	2.44122e+06	0	1	2	5	4
1	17	50	0	1	5	3	4
1	18	5888	0	1	2	1	0
1	18	16500	0	1	2	3	4
1	18	2.74432e+06	0	1	2	5	4
1	19	6144	0	1	2	1	0
1	19	15800	0	1	2	3	4
1	19	2.6624e+06	0	1	2	5	4
1	19	100	0	1	5	3	4
2	0	6656	0	1	2	1	0
2	0	15200	0	1	2	3	4
2	0	2.50266e+06	0	1	2	5	4
2	1	7424	0	1	2	1	0
2	1	15800	0	1	2	3	4
2	1	2.59686e+06	0	1	2	5	4
2	3	6784	0	1	2	1	0
2	3	16100	0	1	2	3	4
2	3	2.49856e+06	0	1	2	5	4
2	4	6912	0	1	2	1	0
2	4	18000	0	1	2	3	4
2	4	2.80986e+06	0	1	2	5	4
2	4	50	0	1	5	3	4
2	5	6720	0	1	2	1	0
2	5	14400	0	1	2	3	4
2	5	2.5641e+06	0	1	2	5	4
2	5	50	0	1	5	3	4
2	6	5696	0	1	2	1	0
2	6	16600	0	1	2	3	4
2	6	2.52723e+06	0	1	2	5	4
2	7	7104	0	1	2	1	0
2	7	14400	0	1	2	3	4
2	7	2.46989e+06	0	1	2	5	4
2	7	50	0	1	5	3	4
2	8	6464	0	1	2	1	0
2	8	16200	0	1	2	3	4
2	8	2.56e+06	0	1	2	5	4
2	8	50	0	1	5	3	4
2	9	6976	0	1	2	1	0
2	9	14700	0	1	2	3	4
2	9	2.83034e+06	0	1	2	5	4
2	9	100	0	1	5	3	4
2	10	6208	0	1	2	1	0
2	10	17300	0	1	2	3	4
2	10	2.46989e+06	0	1	2	5	4
2	11	6016	0	1	2	1	0
2	11	14800	0	1	2	3	4
2	11	2.58867e+06	0	1	2	5	4
2	11	150	0	1	5	3	4
2	12	6080	0	1	2	1	0
2	12	18300	0	1	2	3	4
2	12	2.48218e+06	0	1	2	5	4
2	12	50	0	1	5	3	4
2	13	6080	0	1	2	1	0
2	13	16700	0	1	2	3	4
2	13	2.61325e+06	0	1	2	5	4
2	13	150	0	1	5	3	4
2	14	6592	0	1	2	1	0
2	14	16800	0	1	2	3	4
2	14	2.36339e+06	0	1	2	5	4
2	14	100	0	1	5	3	4
2	15	8256	0	1	2	1	0
2	15	16600	0	1	2	3	4
2	15	2.5559e+06	0	1	2	5	4
2	15	100	0	1	5	3	4
2	16	6144	0	1	2	1	0
2	16	16800	0	1	2	3	4
2	16	2.44531e+06	0	1	2	5	4
2	16	150	0	1	5	3	4
2	17	6400	0	1	2	1	0
2	17	15200	0	1	2	3	4
2	17	2.60915e+06	0	1	2	5	4
2	17	150	0	1	5	3	4
2	18	7936	0	1	2	1	0
2	18	16100	0	1	2	3	4
2	18	2.53133e+06	0	1	2	5	4
2	18	100	0	1	5	3	4
2	19	8768	0	1	2	1	0
2	19	18300	0	1	2	3	4
2	19	2.69517e+06	0	1	2	5	4
2	19	100	0	1	5	3	4
3	0	8320	0	1	2	1	0
3	0	15500	0	1	2	3	4
3	0	2.48627e+06	0	1	2	5	4
3	0	100	0	1	5	3	4
3	1	6656	0	1	2	1	0
3	1	16200	0	1	2	3	4
3	1	2.74842e+06	0	1	2	5	4
3	1	50	0	1	5	3	4
3	2	7168	0	1	2	1	0
3	2	17600	0	1	2	3	4
3	2	2.62963e+06	0	1	2	5	4
3	2	100	0	1	5	3	4
3	4	6144	0	1	2	1	0
3	4	15200	0	1	2	3	4
3	4	2.4535e+06	0	1	2	5	4
3	4	200	0	1	5	3	4
3	5	7936	0	1	2	1	0
3	5	16800	0	1	2	3	4
3	5	2.4535e+06	0	1	2	5	4
3	6	7744	0	1	2	1	0
3	6	16300	0	1	2	3	4
3	6	2.56819e+06	0	1	2	5	4
3	6	100	0	1	5	3	4
3	7	7872	0	1	2	1	0
3	7	15200	0	1	2	3	4
3	7	2.59686e+06	0	1	2	5	4
3	7	50	0	1	5	3	4
3	8	7104	0	1	2	1	0
3	8	18000	0	1	2	3	4
3	8	2.71974e+06	0	1	2	5	4
3	8	100	0	1	5	3	4
3	9	6720	0	1	2	1	0
3	9	15000	0	1	2	3	4
3	9	2.75661e+06	0	1	2	5	4
3	9	100	0	1	5	3	4
3	10	6336	0	1	2	1	0
3	10	16300	0	1	2	3	4
3	10	2.56819e+06	0	1	2	5	4
3	10	50	0	1	5	3	4
3	11	7360	0	1	2	1	0
3	11	16800	0	1	2	3	4
3	11	2.52314e+06	0	1	2	5	4
3	11	50	0	1	5	3	4
3	12	7680	0	1	2	1	0
3	12	14400	0	1	2	3	4
3	12	2.57638e+06	0	1	2	5	4
3	12	50	0	1	5	3	4
3	13	5824	0	1	2	1	0
3	13	15400	0	1	2	3	4
3	13	2.68288e+06	0	1	2	5	4
3	14	6016	0	1	2	1	0
3	14	15400	0	1	2	3	4
3	14	2.60096e+06	0	1	2	5	4
3	14	150	0	1	5	3	4
3	15	7104	0	1	2	1	0
3	15	16400	0	1	2	3	4
3	15	2.48218e+06	0	1	2	5	4
3	15	100	0	1	5	3	4
3	16	6208	0	1	2	1	0
3	16	16700	0	1	2	3	4
3	16	2.63782e+06	0	1	2	5	4
3	16	50	0	1	5	3	4
3	17	6912	0	1	2	1	0
3	17	16600	0	1	2	3	4
3	17	2.4535e+06	0	1	2	5	4
3	18	4992	0	1	2	1	0
3	18	15400	0	1	2	3	4
3	18	2.79347e+06	0	1	2	5	4
3	18	100	0	1	5	3	4
3	19	6720	0	1	2	1	0
3	19	17000	0	1	2	3	4
3	19	2.65421e+06	0	1	2	5	4
4	0	7872	0	1	2	1	0
4	0	16300	0	1	2	3	4
4	0	2.60506e+06	0	1	2	5	4
4	1	7104	0	1	2	1	0
4	1	18900	0	1	2	3	4
4	1	2.73203e+06	0	1	2	5	4
4	2	7296	0	1	2	1	0
4	2	17900	0	1	2	3	4
4	2	2.67878e+06	0	1	2	5	4
4	2	200	0	1	5	3	4
4	3	6720	0	1	2	1	0
4	3	15700	0	1	2	3	4
4	3	2.62963e+06	0	1	2	5	4
4	3	50	0	1	5	3	4
4	5	7744	0	1	2	1	0
4	5	16200	0	1	2	3	4
4	5	2.79757e+06	0	1	2	5	4
4	6	6784	0	1	2	1	0
4	6	16000	0	1	2	3	4
4	6	2.46989e+06	0	1	2	5	4
4	6	50	0	1	5	3	4
4	7	6720	0	1	2	1	0
4	7	16300	0	1	2	3	4
4	7	2.61734e+06	0	1	2	5	4
4	8	6784	0	1	2	1	0
4	8	16600	0	1	2	3	4
4	8	2.47808e+06	0	1	2	5	4
4	9	7232	0	1	2	1	0
4	9	16200	0	1	2	3	4
4	9	2.61325e+06	0	1	2	5	4
4	9	50	0	1	5	3	4
4	10	7296	0	1	2	1	0
4	10	14900	0	1	2	3	4
4	10	2.70746e+06	0	1	2	5	4
4	10	50	0	1	5	3	4
4	11	7552	0	1	2	1	0
4	11	14700	0	1	2	3	4
4	11	2.58048e+06	0	1	2	5	4
4	11	50	0	1	5	3	4
4	12	7488	0	1	2	1	0
4	12	18400	0	1	2	3	4
4	12	2.71974e+06	0	1	2	5	4
4	12	150	0	1	5	3	4
4	13	6592	0	1	2	1	0
4	13	14500	0	1	2	3	4
4	13	2.62963e+06	0	1	2	5	4
4	14	7232	0	1	2	1	0
4	14	15000	0	1	2	3	4
4	14	2.30605e+06	0	1	2	5	4
4	14	100	0	1	5	3	4
4	15	6720	0	1	2	1	0
4	15	17400	0	1	2	3	4
4	15	2.55181e+06	0	1	2	5	4
4	15	200	0	1	5	3	4
4	16	5760	0	1	2	1	0
4	16	17200	0	1	2	3	4
4	16	2.67469e+06	0	1	2	5	4
4	16	50	0	1	5	3	4
4	17	6336	0	1	2	1	0
4	17	16900	0	1	2	3	4
4	17	2.48218e+06	0	1	2	5	4
4	18	6656	0	1	2	1	0
4	18	16500	0	1	2	3	4
4	18	2.69926e+06	0	1	2	5	4
4	18	50	0	1	5	3	4
4	19	7424	0	1	2	1	0
4	19	15700	0	1	2	3	4
4	19	2.61734e+06	0	1	2	5	4
5	0	6784	0	1	2	1	0
5	0	18000	0	1	2	3	4
5	0	2.59277e+06	0	1	2	5	4
5	1	7680	0	1	2	1	0
5	1	16100	0	1	2	3	4
5	1	2.50266e+06	0	1	2	5	4
5	1	100	0	1	5	3	4
5	2	6464	0	1	2	1	0
5	2	15200	0	1	2	3	4
5	2	2.69107e+06	0	1	2	5	4
5	3	8384	0	1	2	1	0
5	3	16300	0	1	2	3	4
5	3	2.48218e+06	0	1	2	5	4
5	3	100	0	1	5	3	4
5	4	6784	0	1	2	1	0
5	4	15200	0	1	2	3	4
5	4	2.75661e+06	0	1	2	5	4
5	4	100	0	1	5	3	4
5	6	6976	0	1	2	1	0
5	6	15100	0	1	2	3	4
5	6	2.55181e+06	0	1	2	5	4
5	6	50	0	1	5	3	4
5	7	7168	0	1	2	1	0
5	7	16500	0	1	2	3	4
5	7	2.65011e+06	0	1	2	5	4
5	8	6784	0	1	2	1	0
5	8	15500	0	1	2	3	4
5	8	2.47398e+06	0	1	2	5	4
5	8	50	0	1	5	3	4
5	9	7680	0	1	2	1	0
5	9	16300	0	1	2	3	4
5	9	2.71974e+06	0	1	2	5	4
5	9	50	0	1	5	3	4
5	10	7360	0	1	2	1	0
5	10	16500	0	1	2	3	4
5	10	2.53133e+06	0	1	2	5	4
5	11	6464	0	1	2	1	0
5	11	17700	0	1	2	3	4
5	11	2.59686e+06	0	1	2	5	4
5	11	250	0	1	5	3	4
5	12	6848	0	1	2	1	0
5	12	18600	0	1	2	3	4
5	12	2.54771e+06	0	1	2	5	4
5	12	100	0	1	5	3	4
5	13	7488	0	1	2	1	0
5	13	15600	0	1	2	3	4
5	13	2.49446e+06	0	1	2	5	4
5	13	50	0	1	5	3	4
5	14	7040	0	1	2	1	0
5	14	17000	0	1	2	3	4
5	14	2.72384e+06	0	1	2	5	4
5	14	150	0	1	5	3	4
5	15	7040	0	1	2	1	0
5	15	18200	0	1	2	3	4
5	15	2.78938e+06	0	1	2	5	4
5	15	50	0	1	5	3	4
5	16	6784	0	1	2	1	0
5	16	17000	0	1	2	3	4
5	16	2.49037e+06	0	1	2	5	4
5	16	100	0	1	5	3	4
5	17	6912	0	1	2	1	0
5	17	16200	0	1	2	3	4
5	17	2.48627e+06	0	1	2	5	4
5	17	50	0	1	5	3	4
5	18	6656	0	1	2	1	0
5	18	16900	0	1	2	3	4
5	18	2.56e+06	0	1	2	5	4
5	19	5952	0	1	2	1	0
5	19	16200	0	1	2	3	4
5	19	2.51085e+06	0	1	2	5	4
5	19	50	0	1	5	3	4
6	0	7360	0	1	2	1	0
6	0	18200	0	1	2	3	4
6	0	2.67469e+06	0	1	2	5	4
6	0	100	0	1	5	3	4
6	1	6272	0	1	2	1	0
6	1	16200	0	1	2	3	4
6	1	2.37158e+06	0	1	2	5	4
6	1	50	0	1	5	3	4
6	2	6144	0	1	2	1	0
6	2	16400	0	1	2	3	4
6	2	2.63782e+06	0	1	2	5	4
6	3	6912	0	1	2	1	0
6	3	16000	0	1	2	3	4
6	3	2.59277e+06	0	1	2	5	4
6	4	6592	0	1	2	1	0
6	4	16000	0	1	2	3	4
6	4	2.52314e+06	0	1	2	5	4
6	4	50	0	1	5	3	4
6	5	7360	0	1	2	1	0
6	5	15900	0	1	2	3	4
6	5	2.58048e+06	0	1	2	5	4
6	7	5824	0	1	2	1	0
6	7	15500	0	1	2	3	4
6	7	2.44531e+06	0	1	2	5	4
6	7	100	0	1	5	3	4
6	8	7488	0	1	2	1	0
6	8	16000	0	1	2	3	4
6	8	2.4576e+06	0	1	2	5	4
6	9	6400	0	1	2	1	0
6	9	17600	0	1	2	3	4
6	9	2.46989e+06	0	1	2	5	4
6	9	250	0	1	5	3	4
6	10	6720	0	1	2	1	0
6	10	14300	0	1	2	3	4
6	10	2.64602e+06	0	1	2	5	4
6	10	50	0	1	5	3	4
6	11	7424	0	1	2	1	0
6	11	15800	0	1	2	3	4
6	11	2.82214e+06	0	1	2	5	4
6	12	7680	0	1	2	1	0
6	12	15000	0	1	2	3	4
6	12	2.60506e+06	0	1	2	5	4
6	13	7552	0	1	2	1	0
6	13	15600	0	1	2	3	4
6	13	2.77709e+06	0	1	2	5	4
6	13	50	0	1	5	3	4
6	14	7296	0	1	2	1	0
6	14	15500	0	1	2	3	4
6	14	2.70746e+06	0	1	2	5	4
6	14	50	0	1	5	3	4
6	15	5760	0	1	2	1	0
6	15	15100	0	1	2	3	4
6	15	2.67059e+06	0	1	2	5	4
6	15	50	0	1	5	3	4
6	16	7616	0	1	2	1	0
6	16	17600	0	1	2	3	4
6	16	2.50675e+06	0	1	2	5	4
6	16	100	0	1	5	3	4
6	17	6208	0	1	2	1	0
6	17	16700	0	1	2	3	4
6	17	2.62144e+06	0	1	2	5	4
6	17	50	0	1	5	3	4
6	18	6336	0	1	2	1	0
6	18	18100	0	1	2	3	4
6	18	2.77299e+06	0	1	2	5	4
6	18	50	0	1	5	3	4
6	19	6976	0	1	2	1	0
6	19	17200	0	1	2	3	4
6	19	2.53952e+06	0	1	2	5	4
6	19	50	0	1	5	3	4
7	0	6272	0	1	2	1	0
7	0	16800	0	1	2	3	4
7	0	2.80986e+06	0	1	2	5	4
7	1	6592	0	1	2	1	0
7	1	15300	0	1	2	3	4
7	1	2.64602e+06	0	1	2	5	4
7	1	200	0	1	5	3	4
7	2	6848	0	1	2	1	0
7	2	16300	0	1	2	3	4
7	2	2.62963e+06	0	1	2	5	4
7	2	50	0	1	5	3	4
7	3	5568	0	1	2	1	0
7	3	18600	0	1	2	3	4
7	3	2.68288e+06	0	1	2	5	4
7	4	6208	0	1	2	1	0
7	4	17300	0	1	2	3	4
7	4	2.61325e+06	0	1	2	5	4
7	4	150	0	1	5	3	4
7	5	6784	0	1	2	1	0
7	5	14800	0	1	2	3	4
7	5	2.51904e+06	0	1	2	5	4
7	5	100	0	1	5	3	4
7	6	6400	0	1	2	1	0
7	6	18500	0	1	2	3	4
7	6	2.60096e+06	0	1	2	5	4
7	8	6208	0	1	2	1	0
7	8	17300	0	1	2	3	4
7	8	2.65011e+06	0	1	2	5	4
7	8	50	0	1	5	3	4
7	9	7104	0	1	2	1	0
7	9	16800	0	1	2	3	4
7	9	2.54771e+06	0	1	2	5	4
7	9	50	0	1	5	3	4
7	10	7488	0	1	2	1	0
7	10	14500	0	1	2	3	4
7	10	2.54362e+06	0	1	2	5	4
7	10	150	0	1	5	3	4
7	11	7424	0	1	2	1	0
7	11	19000	0	1	2	3	4
7	11	2.55181e+06	0	1	2	5	4
7	11	50	0	1	5	3	4
7	12	7168	0	1	2	1	0
7	12	15900	0	1	2	3	4
7	12	2.60096e+06	0	1	2	5	4
7	12	100	0	1	5	3	4
7	13	6592	0	1	2	1	0
7	13	16900	0	1	2	3	4
7	13	2.94912e+06	0	1	2	5	4
7	14	6464	0	1	2	1	0
7	14	17000	0	1	2	3	4
7	14	2.64192e+06	0	1	2	5	4
7	14	50	0	1	5	3	4
7	15	6784	0	1	2	1	0
7	15	15800	0	1	2	3	4
7	15	2.62554e+06	0	1	2	5	4
7	15	50	0	1	5	3	4
7	16	6336	0	1	2	1	0
7	16	15400	0	1	2	3	4
7	16	2.58867e+06	0	1	2	5	4
7	16	50	0	1	5	3	4
7	17	6912	0	1	2	1	0
7	17	15700	0	1	2	3	4
7	17	2.67469e+06	0	1	2	5	4
7	17	50	0	1	5	3	4
7	18	6080	0	1	2	1	0
7	18	19000	0	1	2	3	4
7	18	2.69517e+06	0	1	2	5	4
7	18	50	0	1	5	3	4
7	19	7424	0	1	2	1	0
7	19	18800	0	1	2	3	4
7	19	2.73203e+06	0	1	2	5	4
7	19	50	0	1	5	3	4
8	0	6656	0	1	2	1	0
8	0	16100	0	1	2	3	4
8	0	2.47398e+06	0	1	2	5	4
8	0	50	0	1	5	3	4
8	1	7168	0	1	2	1	0
8	1	16900	0	1	2	3	4
8	1	2.38387e+06	0	1	2	5	4
8	1	100	0	1	5	3	4
8	2	7040	0	1	2	1	0
8	2	17700	0	1	2	3	4
8	2	2.73613e+06	0	1	2	5	4
8	3	7744	0	1	2	1	0
8	3	17300	0	1	2	3	4
8	3	2.70336e+06	0	1	2	5	4
8	3	100	0	1	5	3	4
8	4	6592	0	1	2	1	0
8	4	14400	0	1	2	3	4
8	4	2.62963e+06	0	1	2	5	4
8	5	6272	0	1	2	1	0
8	5	14900	0	1	2	3	4
8	5	2.59277e+06	0	1	2	5	4
8	5	50	0	1	5	3	4
8	6	8000	0	1	2	1	0
8	6	16100	0	1	2	3	4
8	6	2.58458e+06	0	1	2	5	4
8	7	7616	0	1	2	1	0
8	7	16700	0	1	2	3	4
8	7	2.74022e+06	0	1	2	5	4
8	9	7232	0	1	2	1	0
8	9	19700	0	1	2	3	4
8	9	2.5641e+06	0	1	2	5	4
8	9	50	0	1	5	3	4
8	10	6656	0	1	2	1	0
8	10	17400	0	1	2	3	4
8	10	2.55181e+06	0	1	2	5	4
8	10	100	0	1	5	3	4
8	11	7232	0	1	2	1	0
8	11	18000	0	1	2	3	4
8	11	2.60915e+06	0	1	2	5	4
8	11	50	0	1	5	3	4
8	12	7360	0	1	2	1	0
8	12	16400	0	1	2	3	4
8	12	2.4576e+06	0	1	2	5	4
8	12	150	0	1	5	3	4
8	13	6848	0	1	2	1	0
8	13	17800	0	1	2	3	4
8	13	2.65011e+06	0	1	2	5	4
8	13	50	0	1	5	3	4
8	14	6592	0	1	2	1	0
8	14	16000	0	1	2	3	4
8	14	2.56819e+06	0	1	2	5	4
8	15	6336	0	1	2	1	0
8	15	17400	0	1	2	3	4
8	15	2.74022e+06	0	1	2	5	4
8	15	150	0	1	5	3	4
8	16	6720	0	1	2	1	0
8	16	17500	0	1	2	3	4
8	16	2.64602e+06	0	1	2	5	4
8	16	200	0	1	5	3	4
8	17	6656	0	1	2	1	0
8	17	16400	0	1	2	3	4
8	17	2.7689e+06	0	1	2	5	4
8	18	6464	0	1	2	1	0
8	18	15300	0	1	2	3	4
8	18	2.78528e+06	0	1	2	5	4
8	19	7104	0	1	2	1	0
8	19	17100	0	1	2	3	4
8	19	2.49446e+06	0	1	2	5	4
8	19	50	0	1	5	3	4
9	0	7424	0	1	2	1	0
9	0	17900	0	1	2	3	4
9	0	2.49037e+06	0	1	2	5	4
9	0	200	0	1	5	3	4
9	1	7296	0	1	2	1	0
9	1	15600	0	1	2	3	4
9	1	2.55181e+06	0	1	2	5	4
9	1	50	0	1	5	3	4
9	2	5824	0	1	2	1	0
9	2	16700	0	1	2	3	4
9	2	2.75661e+06	0	1	2	5	4
9	2	100	0	1	5	3	4
9	3	5824	0	1	2	1	0
9	3	16300	0	1	2	3	4
9	3	2.56e+06	0	1	2	5	4
9	3	100	0	1	5	3	4
9	4	6144	0	1	2	1	0
9	4	14400	0	1	2	3	4
9	4	2.49446e+06	0	1	2	5	4
9	4	150	0	1	5	3	4
9	5	7104	0	1	2	1	0
9	5	18500	0	1	2	3	4
9	5	2.72794e+06	0	1	2	5	4
9	6	7808	0	1	2	1	0
9	6	14300	0	1	2	3	4
9	6	2.42074e+06	0	1	2	5	4
9	7	6848	0	1	2	1	0
9	7	17300	0	1	2	3	4
9	7	2.49037e+06	0	1	2	5	4
9	8	7168	0	1	2	1	0
9	8	15800	0	1	2	3	4
9	8	2.4617e+06	0	1	2	5	4
9	8	100	0	1	5	3	4
9	10	6656	0	1	2	1	0
9	10	17900	0	1	2	3	4
9	10	2.67878e+06	0	1	2	5	4
9	10	50	0	1	5	3	4
9	11	7296	0	1	2	1	0
9	11	18100	0	1	2	3	4
9	11	2.51085e+06	0	1	2	5	4
9	12	6336	0	1	2	1	0
9	12	14700	0	1	2	3	4
9	12	2.85491e+06	0	1	2	5	4
9	13	6848	0	1	2	1	0
9	13	14800	0	1	2	3	4
9	13	2.60506e+06	0	1	2	5	4
9	14	6336	0	1	2	1	0
9	14	17300	0	1	2	3	4
9	14	2.49037e+06	0	1	2	5	4
9	14	100	0	1	5	3	4
9	15	7744	0	1	2	1	0
9	15	16900	0	1	2	3	4
9	15	2.62963e+06	0	1	2	5	4
9	15	50	0	1	5	3	4
9	16	7360	0	1	2	1	0
9	16	14700	0	1	2	3	4
9	16	2.59277e+06	0	1	2	5	4
9	16	50	0	1	5	3	4
9	17	6720	0	1	2	1	0
9	17	17100	0	1	2	3	4
9	17	2.59686e+06	0	1	2	5	4
9	17	50	0	1	5	3	4
9	18	6528	0	1	2	1	0
9	18	17800	0	1	2	3	4
9	18	2.31834e+06	0	1	2	5	4
9	19	6080	0	1	2	1	0
9	19	16200	0	1	2	3	4
9	19	2.64602e+06	0	1	2	5	4
9	19	150	0	1	5	3	4
10	0	6208	0	1	2	1	0
10	0	16800	0	1	2	3	4
10	0	2.61325e+06	0	1	2	5	4
10	1	5952	0	1	2	1	0
10	1	17200	0	1	2	3	4
10	1	2.48627e+06	0	1	2	5	4
10	2	7040	0	1	2	1	0
10	2	17500	0	1	2	3	4
10	2	2.44531e+06	0	1	2	5	4
10	2	50	0	1	5	3	4
10	3	4928	0	1	2	1	0
10	3	17500	0	1	2	3	4
10	3	2.5641e+06	0	1	2	5	4
10	3	50	0	1	5	3	4
10	4	8000	0	1	2	1	0
10	4	14200	0	1	2	3	4
10	4	2.63373e+06	0	1	2	5	4
10	5	6528	0	1	2	1	0
10	5	19700	0	1	2	3	4
10	5	2.53542e+06	0	1	2	5	4
10	5	50	0	1	5	3	4
10	6	6720	0	1	2	1	0
10	6	16800	0	1	2	3	4
10	6	2.72794e+06	0	1	2	5	4
10	7	6080	0	1	2	1	0
10	7	16400	0	1	2	3	4
10	7	2.46989e+06	0	1	2	5	4
10	7	150	0	1	5	3	4
10	8	6848	0	1	2	1	0
10	8	16700	0	1	2	3	4
10	8	2.71565e+06	0	1	2	5	4
10	8	100	0	1	5	3	4
10	9	7488	0	1	2	1	0
10	9	15500	0	1	2	3	4
10	9	2.53542e+06	0	1	2	5	4
10	9	100	0	1	5	3	4
10	11	7424	0	1	2	1	0
10	11	15500	0	1	2	3	4
10	11	2.59277e+06	0	1	2	5	4
10	11	50	0	1	5	3	4
10	12	7296	0	1	2	1	0
10	12	18500	0	1	2	3	4
10	12	2.53133e+06	0	1	2	5	4
10	12	50	0	1	5	3	4
10	13	7744	0	1	2	1	0
10	13	16500	0	1	2	3	4
10	13	2.6583e+06	0	1	2	5	4
10	13	100	0	1	5	3	4
10	14	6592	0	1	2	1	0
10	14	17700	0	1	2	3	4
10	14	2.44941e+06	0	1	2	5	4
10	15	6976	0	1	2	1	0
10	15	16700	0	1	2	3	4
10	15	2.58867e+06	0	1	2	5	4
10	16	6976	0	1	2	1	0
10	16	17000	0	1	2	3	4
10	16	2.69107e+06	0	1	2	5	4
10	17	7744	0	1	2	1	0
10	17	13600	0	1	2	3	4
10	17	2.6583e+06	0	1	2	5	4
10	17	50	0	1	5	3	4
10	18	6912	0	1	2	1	0
10	18	14200	0	1	2	3	4
10	18	2.6583e+06	0	1	2	5	4
10	18	50	0	1	5	3	4
10	19	6336	0	1	2	1	0
10	19	17300	0	1	2	3	4
10	19	2.71974e+06	0	1	2	5	4
10	19	50	0	1	5	3	4
11	0	8512	0	1	2	1	0
11	0	17400	0	1	2	3	4
11	0	2.60915e+06	0	1	2	5	4
11	0	100	0	1	5	3	4
11	1	6784	0	1	2	1	0
11	1	14400	0	1	2	3	4
11	1	2.68288e+06	0	1	2	5	4
11	1	150	0	1	5	3	4
11	2	6528	0	1	2	1	0
11	2	17800	0	1	2	3	4
11	2	2.58458e+06	0	1	2	5	4
11	2	100	0	1	5	3	4
11	3	6656	0	1	2	1	0
11	3	16400	0	1	2	3	4
11	3	2.75661e+06	0	1	2	5	4
11	3	50	0	1	5	3	4
11	4	6784	0	1	2	1	0
11	4	16100	0	1	2	3	4
11	4	2.65421e+06	0	1	2	5	4
11	5	6464	0	1	2	1	0
11	5	17600	0	1	2	3	4
11	5	2.54771e+06	0	1	2	5	4
11	6	6144	0	1	2	1	0
11	6	16000	0	1	2	3	4
11	6	2.68698e+06	0	1	2	5	4
11	6	50	0	1	5	3	4
11	7	6720	0	1	2	1	0
11	7	15800	0	1	2	3	4
11	7	2.64192e+06	0	1	2	5	4
11	7	50	0	1	5	3	4
11	8	6080	0	1	2	1	0
11	8	15500	0	1	2	3	4
11	8	2.46989e+06	0	1	2	5	4
11	8	50	0	1	5	3	4
11	9	7808	0	1	2	1	0
11	9	18400	0	1	2	3	4
11	9	2.63782e+06	0	1	2	5	4
11	10	6464	0	1	2	1	0
11	10	15200	0	1	2	3	4
11	10	2.6624e+06	0	1	2	5	4
11	10	100	0	1	5	3	4
11	12	6208	0	1	2	1	0
11	12	17000	0	1	2	3	4
11	12	2.72794e+06	0	1	2	5	4
11	12	150	0	1	5	3	4
11	13	6528	0	1	2	1	0
11	13	17300	0	1	2	3	4
11	13	2.58458e+06	0	1	2	5	4
11	13	50	0	1	5	3	4
11	14	6784	0	1	2	1	0
11	14	16800	0	1	2	3	4
11	14	2.51904e+06	0	1	2	5	4
11	15	7680	0	1	2	1	0
11	15	16700	0	1	2	3	4
11	15	2.74432e+06	0	1	2	5	4
11	15	50	0	1	5	3	4
11	16	7232	0	1	2	1	0
11	16	16700	0	1	2	3	4
11	16	2.71155e+06	0	1	2	5	4
11	16	50	0	1	5	3	4
11	17	7168	0	1	2	1	0
11	17	16700	0	1	2	3	4
11	17	2.62554e+06	0	1	2	5	4
11	17	50	0	1	5	3	4
11	18	5504	0	1	2	1	0
11	18	18600	0	1	2	3	4
11	18	2.72384e+06	0	1	2	5	4
11	18	50	0	1	5	3	4
11	19	6272	0	1	2	1	0
11	19	16000	0	1	2	3	4
11	19	2.69926e+06	0	1	2	5	4
11	19	200	0	1	5	3	4
12	0	6912	0	1	2	1	0
12	0	15900	0	1	2	3	4
12	0	2.71565e+06	0	1	2	5	4
12	0	200	0	1	5	3	4
12	1	7360	0	1	2	1	0
12	1	16200	0	1	2	3	4
12	1	2.59277e+06	0	1	2	5	4
12	1	100	0	1	5	3	4
12	2	6976	0	1	2	1	0
12	2	14500	0	1	2	3	4
12	2	2.6624e+06	0	1	2	5	4
12	2	100	0	1	5	3	4
12	3	8640	0	1	2	1	0
12	3	16000	0	1	2	3	4
12	3	2.69107e+06	0	1	2	5	4
12	3	50	0	1	5	3	4
12	4	6272	0	1	2	1	0
12	4	17000	0	1	2	3	4
12	4	2.55181e+06	0	1	2	5	4
12	4	100	0	1	5	3	4
12	5	7744	0	1	2	1	0
12	5	17500	0	1	2	3	4
12	5	2.58048e+06	0	1	2	5	4
12	6	6080	0	1	2	1	0
12	6	15900	0	1	2	3	4
12	6	2.53133e+06	0	1	2	5	4
12	6	50	0	1	5	3	4
12	7	5440	0	1	2	1	0
12	7	15400	0	1	2	3	4
12	7	2.55181e+06	0	1	2	5	4
12	7	100	0	1	5	3	4
12	8	5760	0	1	2	1	0
12	8	15900	0	1	2	3	4
12	8	2.52723e+06	0	1	2	5	4
12	8	100	0	1	5	3	4
12	9	6208	0	1	2	1	0
12	9	15900	0	1	2	3	4
12	9	2.42893e+06	0	1	2	5	4
12	9	150	0	1	5	3	4
12	10	7360	0	1	2	1	0
12	10	16700	0	1	2	3	4
12	10	2.61734e+06	0	1	2	5	4
12	10	200	0	1	5	3	4
12	11	6848	0	1	2	1	0
12	11	15200	0	1	2	3	4
12	11	2.73613e+06	0	1	2	5	4
12	11	50	0	1	5	3	4
12	13	6976	0	1	2	1	0
12	13	16400	0	1	2	3	4
12	13	2.69107e+06	0	1	2	5	4
12	13	50	0	1	5	3	4
12	14	6336	0	1	2	1	0
12	14	15200	0	1	2	3	4
12	14	2.63782e+06	0	1	2	5	4
12	14	150	0	1	5	3	4
12	15	6656	0	1	2	1	0
12	15	17200	0	1	2	3	4
12	15	2.59686e+06	0	1	2	5	4
12	15	200	0	1	5	3	4
12	16	7424	0	1	2	1	0
12	16	14700	0	1	2	3	4
12	16	2.61325e+06	0	1	2	5	4
12	16	100	0	1	5	3	4
12	17	5632	0	1	2	1	0
12	17	17700	0	1	2	3	4
12	17	2.62144e+06	0	1	2	5	4
12	17	200	0	1	5	3	4
12	18	6720	0	1	2	1	0
12	18	15000	0	1	2	3	4
12	18	2.67059e+06	0	1	2	5	4
12	19	7040	0	1	2	1	0
12	19	16800	0	1	2	3	4
12	19	2.67469e+06	0	1	2	5	4
12	19	100	0	1	5	3	4
13	0	7232	0	1	2	1	0
13	0	17400	0	1	2	3	4
13	0	2.7648e+06	0	1	2	5	4
13	0	100	0	1	5	3	4
13	1	8128	0	1	2	1	0
13	1	18000	0	1	2	3	4
13	1	2.7648e+06	0	1	2	5	4
13	1	100	0	1	5	3	4
13	2	7680	0	1	2	1	0
13	2	17300	0	1	2	3	4
13	2	2.84262e+06	0	1	2	5	4
13	3	6720	0	1	2	1	0
13	3	16800	0	1	2	3	4
13	3	2.67059e+06	0	1	2	5	4
13	3	150	0	1	5	3	4
13	4	6208	0	1	2	1	0
13	4	15000	0	1	2	3	4
13	4	2.69926e+06	0	1	2	5	4
13	4	50	0	1	5	3	4
13	5	6208	0	1	2	1	0
13	5	16300	0	1	2	3	4
13	5	2.58048e+06	0	1	2	5	4
13	5	100	0	1	5	3	4
13	6	7296	0	1	2	1	0
13	6	19700	0	1	2	3	4
13	6	2.7607e+06	0	1	2	5	4
13	6	50	0	1	5	3	4
13	7	7552	0	1	2	1	0
13	7	16400	0	1	2	3	4
13	7	2.58048e+06	0	1	2	5	4
13	7	100	0	1	5	3	4
13	8	5760	0	1	2	1	0
13	8	15600	0	1	2	3	4
13	8	2.67469e+06	0	1	2	5	4
13	8	100	0	1	5	3	4
13	9	6912	0	1	2	1	0
13	9	14300	0	1	2	3	4
13	9	2.60915e+06	0	1	2	5	4
13	10	6464	0	1	2	1	0
13	10	15500	0	1	2	3	4
13	10	2.56e+06	0	1	2	5	4
13	10	50	0	1	5	3	4
13	11	6656	0	1	2	1	0
13	11	17600	0	1	2	3	4
13	11	2.63782e+06	0	1	2	5	4
13	11	150	0	1	5	3	4
13	12	7040	0	1	2	1	0
13	12	16500	0	1	2	3	4
13	12	2.60915e+06	0	1	2	5	4
13	12	100	0	1	5	3	4
13	14	8000	0	1	2	1	0
13	14	14500	0	1	2	3	4
13	14	2.57229e+06	0	1	2	5	4
13	14	250	0	1	5	3	4
13	15	7488	0	1	2	1	0
13	15	17500	0	1	2	3	4
13	15	2.59686e+06	0	1	2	5	4
13	15	100	0	1	5	3	4
13	16	6784	0	1	2	1	0
13	16	16000	0	1	2	3	4
13	16	2.63373e+06	0	1	2	5	4
13	16	150	0	1	5	3	4
13	17	7168	0	1	2	1	0
13	17	16500	0	1	2	3	4
13	17	2.68288e+06	0	1	2	5	4
13	18	7296	0	1	2	1	0
13	18	16600	0	1	2	3	4
13	18	2.54362e+06	0	1	2	5	4
13	18	50	0	1	5	3	4
13	19	7104	0	1	2	1	0
13	19	15000	0	1	2	3	4
13	19	2.73203e+06	0	1	2	5	4
13	19	150	0	1	5	3	4
14	0	6464	0	1	2	1	0
14	0	16600	0	1	2	3	4
14	0	2.65421e+06	0	1	2	5	4
14	1	8704	0	1	2	1	0
14	1	15500	0	1	2	3	4
14	1	2.53133e+06	0	1	2	5	4
14	1	50	0	1	5	3	4
14	2	6656	0	1	2	1	0
14	2	14800	0	1	2	3	4
14	2	2.60915e+06	0	1	2	5	4
14	2	150	0	1	5	3	4
14	3	6336	0	1	2	1	0
14	3	14000	0	1	2	3	4
14	3	2.62144e+06	0	1	2	5	4
14	3	50	0	1	5	3	4
14	4	6528	0	1	2	1	0
14	4	17500	0	1	2	3	4
14	4	2.59277e+06	0	1	2	5	4
14	5	6400	0	1	2	1	0
14	5	16600	0	1	2	3	4
14	5	2.68288e+06	0	1	2	5	4
14	5	50	0	1	5	3	4
14	6	6976	0	1	2	1	0
14	6	17600	0	1	2	3	4
14	6	2.50266e+06	0	1	2	5	4
14	6	50	0	1	5	3	4
14	7	7232	0	1	2	1	0
14	7	16500	0	1	2	3	4
14	7	2.52314e+06	0	1	2	5	4
14	7	200	0	1	5	3	4
14	8	6528	0	1	2	1	0
14	8	16700	0	1	2	3	4
14	8	2.72384e+06	0	1	2	5	4
14	8	50	0	1	5	3	4
14	9	6400	0	1	2	1	0
14	9	17900	0	1	2	3	4
14	9	2.56e+06	0	1	2	5	4
14	10	7616	0	1	2	1	0
14	10	15700	0	1	2	3	4
14	10	2.47808e+06	0	1	2	5	4
14	10	50	0	1	5	3	4
14	11	6528	0	1	2	1	0
14	11	17000	0	1	2	3	4
14	11	2.62554e+06	0	1	2	5	4
14	12	7232	0	1	2	1	0
14	12	14700	0	1	2	3	4
14	12	2.53952e+06	0	1	2	5	4
14	12	50	0	1	5	3	4
14	13	7680	0	1	2	1	0
14	13	16500	0	1	2	3	4
14	13	2.54362e+06	0	1	2	5	4
14	13	50	0	1	5	3	4
14	15	7872	0	1	2	1	0
14	15	15800	0	1	2	3	4
14	15	2.64602e+06	0	1	2	5	4
14	15	50	0	1	5	3	4
14	16	6592	0	1	2	1	0
14	16	16200	0	1	2	3	4
14	16	2.64192e+06	0	1	2	5	4
14	16	150	0	1	5	3	4
14	17	6848	0	1	2	1	0
14	17	15300	0	1	2	3	4
14	17	2.59686e+06	0	1	2	5	4
14	18	5696	0	1	2	1	0
14	18	17200	0	1	2	3	4
14	18	2.80166e+06	0	1	2	5	4
14	18	100	0	1	5	3	4
14	19	6592	0	1	2	1	0
14	19	17000	0	1	2	3	4
14	19	2.50675e+06	0	1	2	5	4
14	19	50	0	1	5	3	4
15	0	6720	0	1	2	1	0
15	0	15400	0	1	2	3	4
15	0	2.67059e+06	0	1	2	5	4
15	0	100	0	1	5	3	4
15	1	5952	0	1	2	1	0
15	1	17200	0	1	2	3	4
15	1	2.36749e+06	0	1	2	5	4
15	1	50	0	1	5	3	4
15	2	5760	0	1	2	1	0
15	2	14000	0	1	2	3	4
15	2	2.73613e+06	0	1	2	5	4
15	2	150	0	1	5	3	4
15	3	6336	0	1	2	1	0
15	3	13800	0	1	2	3	4
15	3	2.73613e+06	0	1	2	5	4
15	3	50	0	1	5	3	4
15	4	7488	0	1	2	1	0
15	4	16800	0	1	2	3	4
15	4	2.49856e+06	0	1	2	5	4
15	4	50	0	1	5	3	4
15	5	7296	0	1	2	1	0
15	5	15800	0	1	2	3	4
15	5	2.72794e+06	0	1	2	5	4
15	5	50	0	1	5	3	4
15	6	6656	0	1	2	1	0
15	6	16200	0	1	2	3	4
15	6	2.4576e+06	0	1	2	5	4
15	7	6976	0	1	2	1	0
15	7	16400	0	1	2	3	4
15	7	2.48218e+06	0	1	2	5	4
15	7	50	0	1	5	3	4
15	8	6976	0	1	2	1	0
15	8	17700	0	1	2	3	4
15	8	2.44531e+06	0	1	2	5	4
15	8	150	0	1	5	3	4
15	9	6848	0	1	2	1	0
15	9	16300	0	1	2	3	4
15	9	2.83034e+06	0	1	2	5	4
15	10	6976	0	1	2	1	0
15	10	16400	0	1	2	3	4
15	10	2.53133e+06	0	1	2	5	4
15	11	6976	0	1	2	1	0
15	11	16900	0	1	2	3	4
15	11	2.75251e+06	0	1	2	5	4
15	11	50	0	1	5	3	4
15	12	7424	0	1	2	1	0
15	12	17200	0	1	2	3	4
15	12	2.4576e+06	0	1	2	5	4
15	13	8064	0	1	2	1	0
15	13	17200	0	1	2	3	4
15	13	2.6583e+06	0	1	2	5	4
15	13	200	0	1	5	3	4
15	14	6592	0	1	2	1	0
15	14	17500	0	1	2	3	4
15	14	2.83034e+06	0	1	2	5	4
15	14	100	0	1	5	3	4
15	16	7232	0	1	2	1	0
15	16	17000	0	1	2	3	4
15	16	2.56e+06	0	1	2	5	4
15	16	50	0	1	5	3	4
15	17	6144	0	1	2	1	0
15	17	19300	0	1	2	3	4
15	17	2.58048e+06	0	1	2	5	4
15	18	7040	0	1	2	1	0
15	18	15500	0	1	2	3	4
15	18	2.65421e+06	0	1	2	5	4
15	18	200	0	1	5	3	4
15	19	6848	0	1	2	1	0
15	19	19200	0	1	2	3	4
15	19	2.80986e+06	0	1	2	5	4
15	19	100	0	1	5	3	4
16	0	6080	0	1	2	1	0
16	0	14400	0	1	2	3	4
16	0	2.74842e+06	0	1	2	5	4
16	0	50	0	1	5	3	4
16	1	6976	0	1	2	1	0
16	1	16700	0	1	2	3	4
16	1	2.51494e+06	0	1	2	5	4
16	1	150	0	1	5	3	4
16	2	8000	0	1	2	1	0
16	2	16200	0	1	2	3	4
16	2	2.69107e+06	0	1	2	5	4
16	2	50	0	1	5	3	4
16	3	6400	0	1	2	1	0
16	3	16100	0	1	2	3	4
16	3	2.50675e+06	0	1	2	5	4
16	3	50	0	1	5	3	4
16	4	6720	0	1	2	1	0
16	4	14900	0	1	2	3	4
16	4	2.55181e+06	0	1	2	5	4
16	5	6912	0	1	2	1	0
16	5	15900	0	1	2	3	4
16	5	2.71565e+06	0	1	2	5	4
16	5	100	0	1	5	3	4
16	6	7424	0	1	2	1	0
16	6	16000	0	1	2	3	4
16	6	2.65011e+06	0	1	2	5	4
16	7	8192	0	1	2	1	0
16	7	18100	0	1	2	3	4
16	7	2.83853e+06	0	1	2	5	4
16	7	50	0	1	5	3	4
16	8	5824	0	1	2	1	0
16	8	13900	0	1	2	3	4
16	8	2.46579e+06	0	1	2	5	4
16	8	50	0	1	5	3	4
16	9	5440	0	1	2	1	0
16	9	15800	0	1	2	3	4
16	9	2.59686e+06	0	1	2	5	4
16	10	6976	0	1	2	1	0
16	10	14700	0	1	2	3	4
16	10	2.46989e+06	0	1	2	5	4
16	10	50	0	1	5	3	4
16	11	7168	0	1	2	1	0
16	11	16700	0	1	2	3	4
16	11	2.7607e+06	0	1	2	5	4
16	11	100	0	1	5	3	4
16	12	8256	0	1	2	1	0
16	12	15100	0	1	2	3	4
16	12	2.57229e+06	0	1	2	5	4
16	12	100	0	1	5	3	4
16	13	7232	0	1	2	1	0
16	13	15000	0	1	2	3	4
16	13	2.77299e+06	0	1	2	5	4
16	13	50	0	1	5	3	4
16	14	6528	0	1	2	1	0
16	14	16600	0	1	2	3	4
16	14	2.7689e+06	0	1	2	5	4
16	14	50	0	1	5	3	4
16	15	6464	0	1	2	1	0
16	15	15000	0	1	2	3	4
16	15	2.46989e+06	0	1	2	5	4
16	15	250	0	1	5	3	4
16	17	7232	0	1	2	1	0
16	17	16800	0	1	2	3	4
16	17	2.51494e+06	0	1	2	5	4
16	17	150	0	1	5	3	4
16	18	7040	0	1	2	1	0
16	18	16100	0	1	2	3	4
16	18	2.40845e+06	0	1	2	5	4
16	18	50	0	1	5	3	4
16	19	6656	0	1	2	1	0
16	19	17300	0	1	2	3	4
16	19	2.54362e+06	0	1	2	5	4
17	0	6016	0	1	2	1	0
17	0	13600	0	1	2	3	4
17	0	2.69517e+06	0	1	2	5	4
17	1	7232	0	1	2	1	0
17	1	16400	0	1	2	3	4
17	1	2.72794e+06	0	1	2	5	4
17	2	7936	0	1	2	1	0
17	2	16900	0	1	2	3	4
17	2	2.64192e+06	0	1	2	5	4
17	2	50	0	1	5	3	4
17	3	5760	0	1	2	1	0
17	3	16700	0	1	2	3	4
17	3	2.62144e+06	0	1	2	5	4
17	3	50	0	1	5	3	4
17	4	7104	0	1	2	1	0
17	4	17000	0	1	2	3	4
17	4	2.64602e+06	0	1	2	5	4
17	5	7296	0	1	2	1	0
17	5	17800	0	1	2	3	4
17	5	2.68288e+06	0	1	2	5	4
17	5	50	0	1	5	3	4
17	6	7040	0	1	2	1	0
17	6	16700	0	1	2	3	4
17	6	2.55181e+06	0	1	2	5	4
17	6	50	0	1	5	3	4
17	7	6848	0	1	2	1	0
17	7	18300	0	1	2	3	4
17	7	2.63373e+06	0	1	2	5	4
17	7	150	0	1	5	3	4
17	8	6080	0	1	2	1	0
17	8	14700	0	1	2	3	4
17	8	2.58458e+06	0	1	2	5	4
17	8	50	0	1	5	3	4
17	9	5504	0	1	2	1	0
17	9	16300	0	1	2	3	4
17	9	2.65011e+06	0	1	2	5	4
17	9	50	0	1	5	3	4
17	10	6400	0	1	2	1	0
17	10	17900	0	1	2	3	4
17	10	2.37568e+06	0	1	2	5	4
17	10	50	0	1	5	3	4
17	11	6720	0	1	2	1	0
17	11	17800	0	1	2	3	4
17	11	2.40845e+06	0	1	2	5	4
17	12	7296	0	1	2	1	0
17	12	17600	0	1	2	3	4
17	12	2.50675e+06	0	1	2	5	4
17	13	6016	0	1	2	1	0
17	13	17300	0	1	2	3	4
17	13	2.60506e+06	0	1	2	5	4
17	14	6720	0	1	2	1	0
17	14	16400	0	1	2	3	4
17	14	2.49037e+06	0	1	2	5	4
17	14	50	0	1	5	3	4
17	15	6336	0	1	2	1	0
17	15	19600	0	1	2	3	4
17	15	2.50266e+06	0	1	2	5	4
17	16	6592	0	1	2	1	0
17	16	15400	0	1	2	3	4
17	16	2.58048e+06	0	1	2	5	4
17	16	50	0	1	5	3	4
17	18	7808	0	1	2	1	0
17	18	16800	0	1	2	3	4
17	18	2.52723e+06	0	1	2	5	4
17	18	100	0	1	5	3	4
17	19	6784	0	1	2	1	0
17	19	15800	0	1	2	3	4
17	19	2.61734e+06	0	1	2	5	4
17	19	200	0	1	5	3	4
18	0	6592	0	1	2	1	0
18	0	13300	0	1	2	3	4
18	0	2.63373e+06	0	1	2	5	4
18	0	100	0	1	5	3	4
18	1	6784	0	1	2	1	0
18	1	13400	0	1	2	3	4
18	1	2.52723e+06	0	1	2	5	4
18	1	50	0	1	5	3	4
18	2	7488	0	1	2	1	0
18	2	15100	0	1	2	3	4
18	2	2.69107e+06	0	1	2	5	4
18	2	50	0	1	5	3	4
18	3	6912	0	1	2	1	0
18	3	15400	0	1	2	3	4
18	3	2.65011e+06	0	1	2	5	4
18	3	50	0	1	5	3	4
18	4	7040	0	1	2	1	0
18	4	16900	0	1	2	3	4
18	4	2.62144e+06	0	1	2	5	4
18	4	50	0	1	5	3	4
18	5	6528	0	1	2	1	0
18	5	16500	0	1	2	3	4
18	5	2.58458e+06	0	1	2	5	4
18	5	50	0	1	5	3	4
18	6	7424	0	1	2	1	0
18	6	17800	0	1	2	3	4
18	6	2.67059e+06	0	1	2	5	4
18	6	100	0	1	5	3	4
18	7	5760	0	1	2	1	0
18	7	16000	0	1	2	3	4
18	7	2.43302e+06	0	1	2	5	4
18	7	100	0	1	5	3	4
18	8	6592	0	1	2	1	0
18	8	15600	0	1	2	3	4
18	8	2.46579e+06	0	1	2	5	4
18	8	100	0	1	5	3	4
18	9	7040	0	1	2	1	0
18	9	17400	0	1	2	3	4
18	9	2.77709e+06	0	1	2	5	4
18	9	50	0	1	5	3	4
18	10	5760	0	1	2	1	0
18	10	17900	0	1	2	3	4
18	10	2.53133e+06	0	1	2	5	4
18	10	150	0	1	5	3	4
18	11	6848	0	1	2	1	0
18	11	15100	0	1	2	3	4
18	11	2.42483e+06	0	1	2	5	4
18	11	100	0	1	5	3	4
18	12	6080	0	1	2	1	0
18	12	14700	0	1	2	3	4
18	12	2.56819e+06	0	1	2	5	4
18	13	6592	0	1	2	1	0
18	13	15500	0	1	2	3	4
18	13	2.79757e+06	0	1	2	5	4
18	13	100	0	1	5	3	4
18	14	7744	0	1	2	1	0
18	14	15100	0	1	2	3	4
18	14	2.63373e+06	0	1	2	5	4
18	14	50	0	1	5	3	4
18	15	7680	0	1	2	1	0
18	15	16900	0	1	2	3	4
18	15	2.53952e+06	0	1	2	5	4
18	15	50	0	1	5	3	4
18	16	6336	0	1	2	1	0
18	16	16200	0	1	2	3	4
18	16	2.7607e+06	0	1	2	5	4
18	16	100	0	1	5	3	4
18	17	6400	0	1	2	1	0
18	17	17000	0	1	2	3	4
18	17	2.80166e+06	0	1	2	5	4
18	17	150	0	1	5	3	4
18	19	5824	0	1	2	1	0
18	19	17300	0	1	2	3	4
18	19	2.4576e+06	0	1	2	5	4
18	19	50	0	1	5	3	4
19	0	6912	0	1	2	1	0
19	0	16100	0	1	2	3	4
19	0	2.5559e+06	0	1	2	5	4
19	1	7104	0	1	2	1	0
19	1	14900	0	1	2	3	4
19	1	2.57638e+06	0	1	2	5	4
19	1	150	0	1	5	3	4
19	2	7744	0	1	2	1	0
19	2	16100	0	1	2	3	4
19	2	2.58458e+06	0	1	2	5	4
19	3	7232	0	1	2	1	0
19	3	16100	0	1	2	3	4
19	3	2.67878e+06	0	1	2	5	4
19	4	6080	0	1	2	1	0
19	4	17700	0	1	2	3	4
19	4	2.74432e+06	0	1	2	5	4
19	4	50	0	1	5	3	4
19	5	8640	0	1	2	1	0
19	5	18000	0	1	2	3	4
19	5	2.71155e+06	0	1	2	5	4
19	5	200	0	1	5	3	4
19	6	5568	0	1	2	1	0
19	6	14400	0	1	2	3	4
19	6	2.4535e+06	0	1	2	5	4
19	6	100	0	1	5	3	4
19	7	6400	0	1	2	1	0
19	7	16700	0	1	2	3	4
19	7	2.61325e+06	0	1	2	5	4
19	7	50	0	1	5	3	4
19	8	7488	0	1	2	1	0
19	8	17200	0	1	2	3	4
19	8	2.50266e+06	0	1	2	5	4
19	8	50	0	1	5	3	4
19	9	7360	0	1	2	1	0
19	9	16000	0	1	2	3	4
19	9	2.70336e+06	0	1	2	5	4
19	9	50	0	1	5	3	4
19	10	7040	0	1	2	1	0
19	10	16200	0	1	2	3	4
19	10	2.56e+06	0	1	2	5	4
19	10	50	0	1	5	3	4
19	11	7744	0	1	2	1	0
19	11	15700	0	1	2	3	4
19	11	2.57229e+06	0	1	2	5	4
19	11	100	0	1	5	3	4
19	12	6272	0	1	2	1	0
19	12	15600	0	1	2	3	4
19	12	2.53542e+06	0	1	2	5	4
19	12	50	0	1	5	3	4
19	13	6464	0	1	2	1	0
19	13	16300	0	1	2	3	4
19	13	2.51494e+06	0	1	2	5	4
19	13	150	0	1	5	3	4
19	14	6848	0	1	2	1	0
19	14	16900	0	1	2	3	4
19	14	2.30605e+06	0	1	2	5	4
19	14	250	0	1	5	3	4
19	15	7424	0	1	2	1	0
19	15	18600	0	1	2	3	4
19	15	2.6624e+06	0	1	2	5	4
19	15	100	0	1	5	3	4
19	16	7232	0	1	2	1	0
19	16	15300	0	1	2	3	4
19	16	2.71155e+06	0	1	2	5	4
19	16	50	0	1	5	3	4
19	17	5952	0	1	2	1	0
19	17	16700	0	1	2	3	4
19	17	2.6665e+06	0	1	2	5	4
19	17	100	0	1	5	3	4
19	18	5888	0	1	2	1	0
19	18	18600	0	1	2	3	4
19	18	2.57229e+06	0	1	2	5	4
19	18	150	0	1	5	3	4
