100000	100000	100000	1000	1000	100000	100000	1000	10000	100000	10000
0	1	1.12909e+07	7	6	6	9	2
0	2	1.09594e+07	7	6	6	9	2
0	3	1.11616e+07	7	6	6	9	2
0	4	1.12505e+07	7	6	6	9	2
0	5	1.07492e+07	7	6	6	9	2
0	6	1.15901e+07	7	6	6	9	2
0	7	1.07492e+07	7	6	6	9	2
0	8	1.11494e+07	7	6	6	9	2
0	9	1.12545e+07	7	6	6	9	2
1	0	1.11494e+07	7	6	6	9	2
1	2	1.11211e+07	7	6	6	9	2
1	3	1.09877e+07	7	6	6	9	2
1	4	1.07977e+07	7	6	6	9	2
1	5	1.11696e+07	7	6	6	9	2
1	6	1.06724e+07	7	6	6	9	2
1	7	1.08058e+07	7	6	6	9	2
1	8	1.11252e+07	7	6	6	9	2
1	9	1.09918e+07	7	6	6	9	2
2	0	1.09069e+07	7	6	6	9	2
2	1	1.1012e+07	7	6	6	9	2
2	3	1.09513e+07	7	6	6	9	2
2	4	1.10726e+07	7	6	6	9	2
2	5	1.12828e+07	7	6	6	9	2
2	6	1.11656e+07	7	6	6	9	2
2	7	1.10079e+07	7	6	6	9	2
2	8	1.09918e+07	7	6	6	9	2
2	9	1.14405e+07	7	6	6	9	2
3	0	1.15537e+07	7	6	6	9	2
3	1	1.16345e+07	7	6	6	9	2
3	2	1.08907e+07	7	6	6	9	2
3	4	1.07452e+07	7	6	6	9	2
3	5	1.10686e+07	7	6	6	9	2
3	6	1.12424e+07	7	6	6	9	2
3	7	1.13839e+07	7	6	6	9	2
3	8	1.13031e+07	7	6	6	9	2
3	9	1.15294e+07	7	6	6	9	2
4	0	1.12586e+07	7	6	6	9	2
4	1	1.11333e+07	7	6	6	9	2
4	2	1.10403e+07	7	6	6	9	2
4	3	1.11899e+07	7	6	6	9	2
4	5	1.11494e+07	7	6	6	9	2
4	6	1.1105e+07	7	6	6	9	2
4	7	1.14607e+07	7	6	6	9	2
4	8	1.09069e+07	7	6	6	9	2
4	9	1.08786e+07	7	6	6	9	2
5	0	1.11333e+07	7	6	6	9	2
5	1	1.11696e+07	7	6	6	9	2
5	2	1.12182e+07	7	6	6	9	2
5	3	1.11818e+07	7	6	6	9	2
5	4	1.10322e+07	7	6	6	9	2
5	6	1.10686e+07	7	6	6	9	2
5	7	1.14931e+07	7	6	6	9	2
5	8	1.13192e+07	7	6	6	9	2
5	9	1.10645e+07	7	6	6	9	2
6	0	1.14284e+07	7	6	6	9	2
6	1	1.07613e+07	7	6	6	9	2
6	2	1.10928e+07	7	6	6	9	2
6	3	1.10443e+07	7	6	6	9	2
6	4	1.09796e+07	7	6	6	9	2
6	5	1.06967e+07	7	6	6	9	2
6	7	1.11009e+07	7	6	6	9	2
6	8	1.07613e+07	7	6	6	9	2
6	9	1.12141e+07	7	6	6	9	2
7	0	1.1299e+07	7	6	6	9	2
7	1	1.12626e+07	7	6	6	9	2
7	2	1.08503e+07	7	6	6	9	2
7	3	1.09635e+07	7	6	6	9	2
7	4	1.09109e+07	7	6	6	9	2
7	5	1.14567e+07	7	6	6	9	2
7	6	1.08745e+07	7	6	6	9	2
7	8	1.10605e+07	7	6	6	9	2
7	9	1.10848e+07	7	6	6	9	2
8	0	1.12262e+07	7	6	6	9	2
8	1	1.10605e+07	7	6	6	9	2
8	2	1.09675e+07	7	6	6	9	2
8	3	1.08826e+07	7	6	6	9	2
8	4	1.12545e+07	7	6	6	9	2
8	5	1.11656e+07	7	6	6	9	2
8	6	1.13192e+07	7	6	6	9	2
8	7	1.08988e+07	7	6	6	9	2
8	9	1.08179e+07	7	6	6	9	2
9	0	1.10807e+07	7	6	6	9	2
9	1	1.11616e+07	7	6	6	9	2
9	2	1.11333e+07	7	6	6	9	2
9	3	1.11292e+07	7	6	6	9	2
9	4	1.11696e+07	7	6	6	9	2
9	5	1.12424e+07	7	6	6	9	2
9	6	1.12667e+07	7	6	6	9	2
9	7	1.09109e+07	7	6	6	9	2
9	8	1.15092e+07	7	6	6	9	2
