100000	100000	100000	10000	1000	1000
0	1	14912	0	1	2	1	0
0	1	36100	0	1	2	3	4
0	1	5.66886e+06	0	1	2	5	4
0	1	200	0	1	5	3	4
0	2	14656	0	1	2	1	0
0	2	39200	0	1	2	3	4
0	2	5.36576e+06	0	1	2	5	4
0	2	200	0	1	5	3	4
0	3	13056	0	1	2	1	0
0	3	35000	0	1	2	3	4
0	3	5.38214e+06	0	1	2	5	4
0	3	50	0	1	5	3	4
0	4	13312	0	1	2	1	0
0	4	37800	0	1	2	3	4
0	4	5.53779e+06	0	1	2	5	4
0	4	100	0	1	5	3	4
0	5	15552	0	1	2	1	0
0	5	36000	0	1	2	3	4
0	5	5.64429e+06	0	1	2	5	4
0	5	50	0	1	5	3	4
0	6	14592	0	1	2	1	0
0	6	32300	0	1	2	3	4
0	6	5.44768e+06	0	1	2	5	4
0	6	150	0	1	5	3	4
0	7	13504	0	1	2	1	0
0	7	33700	0	1	2	3	4
0	7	5.3248e+06	0	1	2	5	4
0	7	150	0	1	5	3	4
0	8	14528	0	1	2	1	0
0	8	32400	0	1	2	3	4
0	8	5.69344e+06	0	1	2	5	4
0	9	15296	0	1	2	1	0
0	9	32800	0	1	2	3	4
0	9	5.59923e+06	0	1	2	5	4
0	9	200	0	1	5	3	4
0	10	13632	0	1	2	1	0
0	10	36000	0	1	2	3	4
0	10	5.67706e+06	0	1	2	5	4
0	10	250	0	1	5	3	4
0	11	15232	0	1	2	1	0
0	11	35300	0	1	2	3	4
0	11	5.17325e+06	0	1	2	5	4
0	11	200	0	1	5	3	4
0	12	14208	0	1	2	1	0
0	12	33300	0	1	2	3	4
0	12	5.48045e+06	0	1	2	5	4
0	12	150	0	1	5	3	4
0	13	12800	0	1	2	1	0
0	13	31100	0	1	2	3	4
0	13	5.23469e+06	0	1	2	5	4
0	13	150	0	1	5	3	4
1	0	14336	0	1	2	1	0
1	0	30900	0	1	2	3	4
1	0	5.50912e+06	0	1	2	5	4
1	0	200	0	1	5	3	4
1	2	13760	0	1	2	1	0
1	2	33100	0	1	2	3	4
1	2	5.39443e+06	0	1	2	5	4
1	2	100	0	1	5	3	4
1	3	15552	0	1	2	1	0
1	3	37000	0	1	2	3	4
1	3	5.37805e+06	0	1	2	5	4
1	3	300	0	1	5	3	4
1	4	14528	0	1	2	1	0
1	4	32800	0	1	2	3	4
1	4	5.49274e+06	0	1	2	5	4
1	4	50	0	1	5	3	4
1	5	13760	0	1	2	1	0
1	5	33900	0	1	2	3	4
1	5	5.30022e+06	0	1	2	5	4
1	5	150	0	1	5	3	4
1	6	15552	0	1	2	1	0
1	6	34200	0	1	2	3	4
1	6	5.61562e+06	0	1	2	5	4
1	6	100	0	1	5	3	4
1	7	13952	0	1	2	1	0
1	7	32600	0	1	2	3	4
1	7	5.44358e+06	0	1	2	5	4
1	7	50	0	1	5	3	4
1	8	15744	0	1	2	1	0
1	8	32800	0	1	2	3	4
1	8	5.55827e+06	0	1	2	5	4
1	8	100	0	1	5	3	4
1	9	13504	0	1	2	1	0
1	9	35400	0	1	2	3	4
1	9	5.36986e+06	0	1	2	5	4
1	9	50	0	1	5	3	4
1	10	13952	0	1	2	1	0
1	10	34100	0	1	2	3	4
1	10	5.15686e+06	0	1	2	5	4
1	10	200	0	1	5	3	4
1	11	14784	0	1	2	1	0
1	11	31100	0	1	2	3	4
1	11	5.30842e+06	0	1	2	5	4
1	12	13568	0	1	2	1	0
1	12	32100	0	1	2	3	4
1	12	5.67706e+06	0	1	2	5	4
1	12	50	0	1	5	3	4
1	13	13120	0	1	2	1	0
1	13	34700	0	1	2	3	4
1	13	5.4272e+06	0	1	2	5	4
1	13	250	0	1	5	3	4
2	0	16256	0	1	2	1	0
2	0	29300	0	1	2	3	4
2	0	5.37395e+06	0	1	2	5	4
2	0	100	0	1	5	3	4
2	1	14208	0	1	2	1	0
2	1	35000	0	1	2	3	4
2	1	5.76717e+06	0	1	2	5	4
2	1	200	0	1	5	3	4
2	3	16512	0	1	2	1	0
2	3	36200	0	1	2	3	4
2	3	5.59923e+06	0	1	2	5	4
2	3	150	0	1	5	3	4
2	4	14976	0	1	2	1	0
2	4	35000	0	1	2	3	4
2	4	5.39443e+06	0	1	2	5	4
2	4	250	0	1	5	3	4
2	5	14144	0	1	2	1	0
2	5	37300	0	1	2	3	4
2	5	5.16915e+06	0	1	2	5	4
2	5	50	0	1	5	3	4
2	6	14080	0	1	2	1	0
2	6	35700	0	1	2	3	4
2	6	5.28384e+06	0	1	2	5	4
2	6	100	0	1	5	3	4
2	7	14464	0	1	2	1	0
2	7	32400	0	1	2	3	4
2	7	5.54189e+06	0	1	2	5	4
2	8	15488	0	1	2	1	0
2	8	32100	0	1	2	3	4
2	8	5.36166e+06	0	1	2	5	4
2	8	50	0	1	5	3	4
2	9	14016	0	1	2	1	0
2	9	36100	0	1	2	3	4
2	9	5.35347e+06	0	1	2	5	4
2	9	100	0	1	5	3	4
2	10	13760	0	1	2	1	0
2	10	33400	0	1	2	3	4
2	10	5.33299e+06	0	1	2	5	4
2	10	200	0	1	5	3	4
2	11	12736	0	1	2	1	0
2	11	36800	0	1	2	3	4
2	11	5.4272e+06	0	1	2	5	4
2	11	150	0	1	5	3	4
2	12	14592	0	1	2	1	0
2	12	38900	0	1	2	3	4
2	12	5.27565e+06	0	1	2	5	4
2	12	50	0	1	5	3	4
2	13	14272	0	1	2	1	0
2	13	33400	0	1	2	3	4
2	13	5.4313e+06	0	1	2	5	4
2	13	300	0	1	5	3	4
3	0	15296	0	1	2	1	0
3	0	32100	0	1	2	3	4
3	0	5.27565e+06	0	1	2	5	4
3	0	100	0	1	5	3	4
3	1	13888	0	1	2	1	0
3	1	35800	0	1	2	3	4
3	1	5.34938e+06	0	1	2	5	4
3	1	50	0	1	5	3	4
3	2	14912	0	1	2	1	0
3	2	36900	0	1	2	3	4
3	2	5.58694e+06	0	1	2	5	4
3	2	100	0	1	5	3	4
3	4	14656	0	1	2	1	0
3	4	33200	0	1	2	3	4
3	4	5.21421e+06	0	1	2	5	4
3	4	100	0	1	5	3	4
3	5	14208	0	1	2	1	0
3	5	35600	0	1	2	3	4
3	5	5.35347e+06	0	1	2	5	4
3	5	150	0	1	5	3	4
3	6	15808	0	1	2	1	0
3	6	34500	0	1	2	3	4
3	6	5.58694e+06	0	1	2	5	4
3	6	150	0	1	5	3	4
3	7	14848	0	1	2	1	0
3	7	36500	0	1	2	3	4
3	7	5.51322e+06	0	1	2	5	4
3	7	100	0	1	5	3	4
3	8	14016	0	1	2	1	0
3	8	35900	0	1	2	3	4
3	8	5.55008e+06	0	1	2	5	4
3	8	150	0	1	5	3	4
3	9	13632	0	1	2	1	0
3	9	35200	0	1	2	3	4
3	9	5.37395e+06	0	1	2	5	4
3	9	150	0	1	5	3	4
3	10	13248	0	1	2	1	0
3	10	36100	0	1	2	3	4
3	10	5.41491e+06	0	1	2	5	4
3	10	50	0	1	5	3	4
3	11	15680	0	1	2	1	0
3	11	31900	0	1	2	3	4
3	11	5.5337e+06	0	1	2	5	4
3	11	200	0	1	5	3	4
3	12	14080	0	1	2	1	0
3	12	34500	0	1	2	3	4
3	12	5.59514e+06	0	1	2	5	4
3	12	150	0	1	5	3	4
3	13	13440	0	1	2	1	0
3	13	34900	0	1	2	3	4
3	13	5.51322e+06	0	1	2	5	4
3	13	150	0	1	5	3	4
4	0	14464	0	1	2	1	0
4	0	34100	0	1	2	3	4
4	0	5.48045e+06	0	1	2	5	4
4	0	100	0	1	5	3	4
4	1	14144	0	1	2	1	0
4	1	33500	0	1	2	3	4
4	1	5.45178e+06	0	1	2	5	4
4	1	150	0	1	5	3	4
4	2	13376	0	1	2	1	0
4	2	32000	0	1	2	3	4
4	2	5.3289e+06	0	1	2	5	4
4	2	100	0	1	5	3	4
4	3	13568	0	1	2	1	0
4	3	37200	0	1	2	3	4
4	3	5.5337e+06	0	1	2	5	4
4	3	100	0	1	5	3	4
4	5	16320	0	1	2	1	0
4	5	35900	0	1	2	3	4
4	5	5.35757e+06	0	1	2	5	4
4	5	50	0	1	5	3	4
4	6	12608	0	1	2	1	0
4	6	35400	0	1	2	3	4
4	6	5.28794e+06	0	1	2	5	4
4	6	50	0	1	5	3	4
4	7	15872	0	1	2	1	0
4	7	35400	0	1	2	3	4
4	7	5.31251e+06	0	1	2	5	4
4	7	250	0	1	5	3	4
4	8	13440	0	1	2	1	0
4	8	31000	0	1	2	3	4
4	8	5.2183e+06	0	1	2	5	4
4	8	150	0	1	5	3	4
4	9	14784	0	1	2	1	0
4	9	36700	0	1	2	3	4
4	9	5.36986e+06	0	1	2	5	4
4	9	200	0	1	5	3	4
4	10	13568	0	1	2	1	0
4	10	32600	0	1	2	3	4
4	10	5.58694e+06	0	1	2	5	4
4	10	50	0	1	5	3	4
4	11	14912	0	1	2	1	0
4	11	33800	0	1	2	3	4
4	11	5.49683e+06	0	1	2	5	4
4	11	100	0	1	5	3	4
4	12	15616	0	1	2	1	0
4	12	36500	0	1	2	3	4
4	12	5.45178e+06	0	1	2	5	4
4	12	150	0	1	5	3	4
4	13	14464	0	1	2	1	0
4	13	33400	0	1	2	3	4
4	13	5.45178e+06	0	1	2	5	4
5	0	15168	0	1	2	1	0
5	0	38100	0	1	2	3	4
5	0	5.65248e+06	0	1	2	5	4
5	0	100	0	1	5	3	4
5	1	14016	0	1	2	1	0
5	1	38000	0	1	2	3	4
5	1	5.55008e+06	0	1	2	5	4
5	1	250	0	1	5	3	4
5	2	12736	0	1	2	1	0
5	2	35200	0	1	2	3	4
5	2	5.39853e+06	0	1	2	5	4
5	2	100	0	1	5	3	4
5	3	13696	0	1	2	1	0
5	3	32100	0	1	2	3	4
5	3	5.5296e+06	0	1	2	5	4
5	3	150	0	1	5	3	4
5	4	12928	0	1	2	1	0
5	4	35800	0	1	2	3	4
5	4	5.39034e+06	0	1	2	5	4
5	6	14272	0	1	2	1	0
5	6	37700	0	1	2	3	4
5	6	5.54598e+06	0	1	2	5	4
5	6	100	0	1	5	3	4
5	7	13056	0	1	2	1	0
5	7	34100	0	1	2	3	4
5	7	5.64429e+06	0	1	2	5	4
5	7	250	0	1	5	3	4
5	8	14144	0	1	2	1	0
5	8	37500	0	1	2	3	4
5	8	5.44768e+06	0	1	2	5	4
5	8	200	0	1	5	3	4
5	9	14144	0	1	2	1	0
5	9	36000	0	1	2	3	4
5	9	5.64838e+06	0	1	2	5	4
5	9	250	0	1	5	3	4
5	10	13376	0	1	2	1	0
5	10	38300	0	1	2	3	4
5	10	5.24288e+06	0	1	2	5	4
5	10	100	0	1	5	3	4
5	11	13504	0	1	2	1	0
5	11	37800	0	1	2	3	4
5	11	5.27565e+06	0	1	2	5	4
5	11	200	0	1	5	3	4
5	12	13248	0	1	2	1	0
5	12	34500	0	1	2	3	4
5	12	5.41901e+06	0	1	2	5	4
5	12	200	0	1	5	3	4
5	13	13760	0	1	2	1	0
5	13	35600	0	1	2	3	4
5	13	5.41491e+06	0	1	2	5	4
5	13	150	0	1	5	3	4
6	0	15360	0	1	2	1	0
6	0	37400	0	1	2	3	4
6	0	5.34118e+06	0	1	2	5	4
6	0	100	0	1	5	3	4
6	1	14656	0	1	2	1	0
6	1	32400	0	1	2	3	4
6	1	5.33709e+06	0	1	2	5	4
6	1	100	0	1	5	3	4
6	2	13632	0	1	2	1	0
6	2	34300	0	1	2	3	4
6	2	5.40262e+06	0	1	2	5	4
6	2	200	0	1	5	3	4
6	3	13696	0	1	2	1	0
6	3	34700	0	1	2	3	4
6	3	5.71392e+06	0	1	2	5	4
6	3	150	0	1	5	3	4
6	4	14464	0	1	2	1	0
6	4	34400	0	1	2	3	4
6	4	5.45587e+06	0	1	2	5	4
6	4	50	0	1	5	3	4
6	5	13952	0	1	2	1	0
6	5	35300	0	1	2	3	4
6	5	5.47635e+06	0	1	2	5	4
6	5	50	0	1	5	3	4
6	7	13568	0	1	2	1	0
6	7	37000	0	1	2	3	4
6	7	5.31661e+06	0	1	2	5	4
6	7	100	0	1	5	3	4
6	8	14336	0	1	2	1	0
6	8	32400	0	1	2	3	4
6	8	5.38624e+06	0	1	2	5	4
6	8	100	0	1	5	3	4
6	9	14464	0	1	2	1	0
6	9	36300	0	1	2	3	4
6	9	5.34938e+06	0	1	2	5	4
6	9	100	0	1	5	3	4
6	10	13632	0	1	2	1	0
6	10	36300	0	1	2	3	4
6	10	5.55827e+06	0	1	2	5	4
6	10	250	0	1	5	3	4
6	11	14976	0	1	2	1	0
6	11	35200	0	1	2	3	4
6	11	5.6361e+06	0	1	2	5	4
6	11	250	0	1	5	3	4
6	12	14592	0	1	2	1	0
6	12	33300	0	1	2	3	4
6	12	5.5337e+06	0	1	2	5	4
6	12	150	0	1	5	3	4
6	13	15296	0	1	2	1	0
6	13	35400	0	1	2	3	4
6	13	5.27974e+06	0	1	2	5	4
6	13	250	0	1	5	3	4
7	0	14336	0	1	2	1	0
7	0	34000	0	1	2	3	4
7	0	5.31251e+06	0	1	2	5	4
7	0	250	0	1	5	3	4
7	1	13120	0	1	2	1	0
7	1	32400	0	1	2	3	4
7	1	5.7344e+06	0	1	2	5	4
7	1	250	0	1	5	3	4
7	2	14464	0	1	2	1	0
7	2	32200	0	1	2	3	4
7	2	5.5337e+06	0	1	2	5	4
7	2	150	0	1	5	3	4
7	3	15744	0	1	2	1	0
7	3	35000	0	1	2	3	4
7	3	5.54598e+06	0	1	2	5	4
7	3	250	0	1	5	3	4
7	4	13440	0	1	2	1	0
7	4	30900	0	1	2	3	4
7	4	5.81222e+06	0	1	2	5	4
7	4	50	0	1	5	3	4
7	5	14720	0	1	2	1	0
7	5	37500	0	1	2	3	4
7	5	5.30842e+06	0	1	2	5	4
7	5	100	0	1	5	3	4
7	6	14784	0	1	2	1	0
7	6	32100	0	1	2	3	4
7	6	5.33709e+06	0	1	2	5	4
7	8	14592	0	1	2	1	0
7	8	32400	0	1	2	3	4
7	8	5.58694e+06	0	1	2	5	4
7	8	50	0	1	5	3	4
7	9	13312	0	1	2	1	0
7	9	34300	0	1	2	3	4
7	9	5.4272e+06	0	1	2	5	4
7	9	100	0	1	5	3	4
7	10	14976	0	1	2	1	0
7	10	35700	0	1	2	3	4
7	10	5.38214e+06	0	1	2	5	4
7	11	13568	0	1	2	1	0
7	11	37200	0	1	2	3	4
7	11	5.16915e+06	0	1	2	5	4
7	11	200	0	1	5	3	4
7	12	14592	0	1	2	1	0
7	12	35800	0	1	2	3	4
7	12	5.68115e+06	0	1	2	5	4
7	12	150	0	1	5	3	4
7	13	13056	0	1	2	1	0
7	13	36200	0	1	2	3	4
7	13	5.2265e+06	0	1	2	5	4
7	13	250	0	1	5	3	4
8	0	14592	0	1	2	1	0
8	0	34600	0	1	2	3	4
8	0	5.48045e+06	0	1	2	5	4
8	0	250	0	1	5	3	4
8	1	14144	0	1	2	1	0
8	1	34200	0	1	2	3	4
8	1	5.71392e+06	0	1	2	5	4
8	1	250	0	1	5	3	4
8	2	14784	0	1	2	1	0
8	2	33400	0	1	2	3	4
8	2	5.50093e+06	0	1	2	5	4
8	2	200	0	1	5	3	4
8	3	15552	0	1	2	1	0
8	3	34900	0	1	2	3	4
8	3	5.45178e+06	0	1	2	5	4
8	3	50	0	1	5	3	4
8	4	12352	0	1	2	1	0
8	4	36900	0	1	2	3	4
8	4	5.53779e+06	0	1	2	5	4
8	4	200	0	1	5	3	4
8	5	15680	0	1	2	1	0
8	5	34800	0	1	2	3	4
8	5	5.5296e+06	0	1	2	5	4
8	5	250	0	1	5	3	4
8	6	13248	0	1	2	1	0
8	6	34600	0	1	2	3	4
8	6	5.45587e+06	0	1	2	5	4
8	6	100	0	1	5	3	4
8	7	12096	0	1	2	1	0
8	7	34300	0	1	2	3	4
8	7	5.61152e+06	0	1	2	5	4
8	7	100	0	1	5	3	4
8	9	12224	0	1	2	1	0
8	9	37600	0	1	2	3	4
8	9	5.4313e+06	0	1	2	5	4
8	9	150	0	1	5	3	4
8	10	13632	0	1	2	1	0
8	10	36400	0	1	2	3	4
8	10	5.44358e+06	0	1	2	5	4
8	10	50	0	1	5	3	4
8	11	14784	0	1	2	1	0
8	11	33300	0	1	2	3	4
8	11	5.46816e+06	0	1	2	5	4
8	11	200	0	1	5	3	4
8	12	13056	0	1	2	1	0
8	12	35400	0	1	2	3	4
8	12	5.35757e+06	0	1	2	5	4
8	12	400	0	1	5	3	4
8	13	15168	0	1	2	1	0
8	13	33700	0	1	2	3	4
8	13	5.23878e+06	0	1	2	5	4
8	13	350	0	1	5	3	4
9	0	15168	0	1	2	1	0
9	0	34300	0	1	2	3	4
9	0	5.50093e+06	0	1	2	5	4
9	0	200	0	1	5	3	4
9	1	14592	0	1	2	1	0
9	1	34600	0	1	2	3	4
9	1	5.28794e+06	0	1	2	5	4
9	1	200	0	1	5	3	4
9	2	14528	0	1	2	1	0
9	2	36200	0	1	2	3	4
9	2	5.23059e+06	0	1	2	5	4
9	2	300	0	1	5	3	4
9	3	13312	0	1	2	1	0
9	3	34600	0	1	2	3	4
9	3	5.75488e+06	0	1	2	5	4
9	3	150	0	1	5	3	4
9	4	12864	0	1	2	1	0
9	4	34400	0	1	2	3	4
9	4	5.59104e+06	0	1	2	5	4
9	4	250	0	1	5	3	4
9	5	14784	0	1	2	1	0
9	5	30600	0	1	2	3	4
9	5	5.74669e+06	0	1	2	5	4
9	5	50	0	1	5	3	4
9	6	15040	0	1	2	1	0
9	6	34100	0	1	2	3	4
9	6	5.26336e+06	0	1	2	5	4
9	6	50	0	1	5	3	4
9	7	15424	0	1	2	1	0
9	7	34100	0	1	2	3	4
9	7	5.17734e+06	0	1	2	5	4
9	7	100	0	1	5	3	4
9	8	12800	0	1	2	1	0
9	8	34700	0	1	2	3	4
9	8	5.2224e+06	0	1	2	5	4
9	8	150	0	1	5	3	4
9	10	15616	0	1	2	1	0
9	10	35300	0	1	2	3	4
9	10	5.19373e+06	0	1	2	5	4
9	11	15104	0	1	2	1	0
9	11	34900	0	1	2	3	4
9	11	5.36986e+06	0	1	2	5	4
9	11	100	0	1	5	3	4
9	12	14912	0	1	2	1	0
9	12	37600	0	1	2	3	4
9	12	5.43949e+06	0	1	2	5	4
9	12	100	0	1	5	3	4
9	13	14400	0	1	2	1	0
9	13	37300	0	1	2	3	4
9	13	5.5296e+06	0	1	2	5	4
9	13	150	0	1	5	3	4
10	0	12864	0	1	2	1	0
10	0	33400	0	1	2	3	4
10	0	5.34118e+06	0	1	2	5	4
10	0	150	0	1	5	3	4
10	1	14848	0	1	2	1	0
10	1	35900	0	1	2	3	4
10	1	5.54598e+06	0	1	2	5	4
10	2	14784	0	1	2	1	0
10	2	33300	0	1	2	3	4
10	2	5.26336e+06	0	1	2	5	4
10	2	50	0	1	5	3	4
10	3	14912	0	1	2	1	0
10	3	35700	0	1	2	3	4
10	3	5.71802e+06	0	1	2	5	4
10	3	100	0	1	5	3	4
10	4	15104	0	1	2	1	0
10	4	34800	0	1	2	3	4
10	4	5.40262e+06	0	1	2	5	4
10	4	150	0	1	5	3	4
10	5	15488	0	1	2	1	0
10	5	33600	0	1	2	3	4
10	5	5.47226e+06	0	1	2	5	4
10	5	200	0	1	5	3	4
10	6	14464	0	1	2	1	0
10	6	38600	0	1	2	3	4
10	6	5.31661e+06	0	1	2	5	4
10	6	100	0	1	5	3	4
10	7	15744	0	1	2	1	0
10	7	33900	0	1	2	3	4
10	7	5.71802e+06	0	1	2	5	4
10	7	150	0	1	5	3	4
10	8	14528	0	1	2	1	0
10	8	34000	0	1	2	3	4
10	8	5.58694e+06	0	1	2	5	4
10	8	100	0	1	5	3	4
10	9	14208	0	1	2	1	0
10	9	33400	0	1	2	3	4
10	9	5.5296e+06	0	1	2	5	4
10	9	150	0	1	5	3	4
10	11	14656	0	1	2	1	0
10	11	35100	0	1	2	3	4
10	11	4.93978e+06	0	1	2	5	4
10	11	50	0	1	5	3	4
10	12	16128	0	1	2	1	0
10	12	34300	0	1	2	3	4
10	12	5.4272e+06	0	1	2	5	4
10	12	150	0	1	5	3	4
10	13	14016	0	1	2	1	0
10	13	34500	0	1	2	3	4
10	13	5.55008e+06	0	1	2	5	4
10	13	250	0	1	5	3	4
11	0	15232	0	1	2	1	0
11	0	37100	0	1	2	3	4
11	0	5.55827e+06	0	1	2	5	4
11	0	100	0	1	5	3	4
11	1	13824	0	1	2	1	0
11	1	36700	0	1	2	3	4
11	1	5.61971e+06	0	1	2	5	4
11	1	50	0	1	5	3	4
11	2	15808	0	1	2	1	0
11	2	33100	0	1	2	3	4
11	2	5.16096e+06	0	1	2	5	4
11	2	50	0	1	5	3	4
11	3	14720	0	1	2	1	0
11	3	35400	0	1	2	3	4
11	3	5.27155e+06	0	1	2	5	4
11	3	100	0	1	5	3	4
11	4	16128	0	1	2	1	0
11	4	33100	0	1	2	3	4
11	4	5.38214e+06	0	1	2	5	4
11	4	50	0	1	5	3	4
11	5	12672	0	1	2	1	0
11	5	35000	0	1	2	3	4
11	5	5.53779e+06	0	1	2	5	4
11	5	100	0	1	5	3	4
11	6	14848	0	1	2	1	0
11	6	34100	0	1	2	3	4
11	6	5.46406e+06	0	1	2	5	4
11	6	100	0	1	5	3	4
11	7	14336	0	1	2	1	0
11	7	35600	0	1	2	3	4
11	7	5.23878e+06	0	1	2	5	4
11	7	150	0	1	5	3	4
11	8	14144	0	1	2	1	0
11	8	37500	0	1	2	3	4
11	8	5.59514e+06	0	1	2	5	4
11	9	15296	0	1	2	1	0
11	9	31700	0	1	2	3	4
11	9	5.6361e+06	0	1	2	5	4
11	10	13440	0	1	2	1	0
11	10	34000	0	1	2	3	4
11	10	5.23878e+06	0	1	2	5	4
11	10	200	0	1	5	3	4
11	12	13568	0	1	2	1	0
11	12	36000	0	1	2	3	4
11	12	5.3207e+06	0	1	2	5	4
11	12	100	0	1	5	3	4
11	13	15232	0	1	2	1	0
11	13	35900	0	1	2	3	4
11	13	5.36576e+06	0	1	2	5	4
11	13	50	0	1	5	3	4
12	0	14848	0	1	2	1	0
12	0	39400	0	1	2	3	4
12	0	5.61562e+06	0	1	2	5	4
12	0	100	0	1	5	3	4
12	1	14592	0	1	2	1	0
12	1	35500	0	1	2	3	4
12	1	5.79584e+06	0	1	2	5	4
12	1	150	0	1	5	3	4
12	2	16000	0	1	2	1	0
12	2	34300	0	1	2	3	4
12	2	5.51731e+06	0	1	2	5	4
12	2	200	0	1	5	3	4
12	3	14400	0	1	2	1	0
12	3	32800	0	1	2	3	4
12	3	5.40672e+06	0	1	2	5	4
12	3	50	0	1	5	3	4
12	4	15488	0	1	2	1	0
12	4	32900	0	1	2	3	4
12	4	5.50912e+06	0	1	2	5	4
12	4	50	0	1	5	3	4
12	5	14912	0	1	2	1	0
12	5	34100	0	1	2	3	4
12	5	5.58694e+06	0	1	2	5	4
12	5	100	0	1	5	3	4
12	6	15232	0	1	2	1	0
12	6	35600	0	1	2	3	4
12	6	5.45587e+06	0	1	2	5	4
12	6	350	0	1	5	3	4
12	7	14912	0	1	2	1	0
12	7	35000	0	1	2	3	4
12	7	5.31251e+06	0	1	2	5	4
12	7	100	0	1	5	3	4
12	8	14336	0	1	2	1	0
12	8	36300	0	1	2	3	4
12	8	5.71392e+06	0	1	2	5	4
12	8	250	0	1	5	3	4
12	9	13120	0	1	2	1	0
12	9	34400	0	1	2	3	4
12	9	5.23469e+06	0	1	2	5	4
12	9	200	0	1	5	3	4
12	10	14784	0	1	2	1	0
12	10	33900	0	1	2	3	4
12	10	5.45178e+06	0	1	2	5	4
12	10	150	0	1	5	3	4
12	11	13120	0	1	2	1	0
12	11	36000	0	1	2	3	4
12	11	4.99712e+06	0	1	2	5	4
12	11	150	0	1	5	3	4
12	13	13056	0	1	2	1	0
12	13	36800	0	1	2	3	4
12	13	5.37395e+06	0	1	2	5	4
12	13	250	0	1	5	3	4
13	0	15168	0	1	2	1	0
13	0	34700	0	1	2	3	4
13	0	5.61152e+06	0	1	2	5	4
13	0	200	0	1	5	3	4
13	1	14336	0	1	2	1	0
13	1	35700	0	1	2	3	4
13	1	5.65658e+06	0	1	2	5	4
13	1	150	0	1	5	3	4
13	2	13376	0	1	2	1	0
13	2	33900	0	1	2	3	4
13	2	5.5296e+06	0	1	2	5	4
13	2	150	0	1	5	3	4
13	3	15680	0	1	2	1	0
13	3	31200	0	1	2	3	4
13	3	5.50093e+06	0	1	2	5	4
13	3	250	0	1	5	3	4
13	4	14016	0	1	2	1	0
13	4	33600	0	1	2	3	4
13	4	5.60742e+06	0	1	2	5	4
13	4	200	0	1	5	3	4
13	5	13568	0	1	2	1	0
13	5	31200	0	1	2	3	4
13	5	5.67296e+06	0	1	2	5	4
13	5	250	0	1	5	3	4
13	6	15360	0	1	2	1	0
13	6	35600	0	1	2	3	4
13	6	5.40262e+06	0	1	2	5	4
13	6	100	0	1	5	3	4
13	7	14784	0	1	2	1	0
13	7	31100	0	1	2	3	4
13	7	5.33709e+06	0	1	2	5	4
13	7	50	0	1	5	3	4
13	8	16512	0	1	2	1	0
13	8	33000	0	1	2	3	4
13	8	5.54189e+06	0	1	2	5	4
13	8	100	0	1	5	3	4
13	9	16384	0	1	2	1	0
13	9	35000	0	1	2	3	4
13	9	5.20192e+06	0	1	2	5	4
13	9	50	0	1	5	3	4
13	10	16256	0	1	2	1	0
13	10	36300	0	1	2	3	4
13	10	5.3207e+06	0	1	2	5	4
13	10	100	0	1	5	3	4
13	11	16064	0	1	2	1	0
13	11	37200	0	1	2	3	4
13	11	5.2265e+06	0	1	2	5	4
13	11	100	0	1	5	3	4
13	12	14592	0	1	2	1	0
13	12	30600	0	1	2	3	4
13	12	5.36166e+06	0	1	2	5	4
13	12	100	0	1	5	3	4
