20
0	2	1e+12
0	16	1e+12
1	3	1e+12
1	5	1e+12
1	14	1e+12
1	16	1e+12
2	0	1e+12
2	12	1e+12
2	15	1e+12
2	18	1e+12
3	1	1e+12
3	9	1e+12
4	9	1e+12
4	16	1e+12
5	1	1e+12
5	8	1e+12
5	14	1e+12
6	9	1e+12
6	13	1e+12
6	19	1e+12
7	12	1e+12
7	13	1e+12
7	15	1e+12
7	19	1e+12
8	5	1e+12
8	12	1e+12
8	14	1e+12
8	17	1e+12
9	3	1e+12
9	4	1e+12
9	6	1e+12
9	11	1e+12
9	16	1e+12
10	11	1e+12
10	15	1e+12
11	9	1e+12
11	10	1e+12
11	15	1e+12
11	17	1e+12
12	2	1e+12
12	7	1e+12
12	8	1e+12
13	6	1e+12
13	7	1e+12
14	1	1e+12
14	5	1e+12
14	8	1e+12
15	2	1e+12
15	7	1e+12
15	10	1e+12
15	11	1e+12
16	0	1e+12
16	1	1e+12
16	4	1e+12
16	9	1e+12
16	18	1e+12
17	8	1e+12
17	11	1e+12
18	2	1e+12
18	16	1e+12
18	19	1e+12
19	6	1e+12
19	7	1e+12
19	18	1e+12
