100000	100000	100000	10000	1000	1000
0	1	34944	0	1	2	1	0
0	1	81300	0	1	2	3	4
0	1	1.28901e+07	0	1	2	5	4
0	1	350	0	1	5	3	4
0	2	22656	0	1	2	1	0
0	2	52300	0	1	2	3	4
0	2	8.54016e+06	0	1	2	5	4
0	2	200	0	1	5	3	4
0	3	16768	0	1	2	1	0
0	3	39100	0	1	2	3	4
0	3	6.53722e+06	0	1	2	5	4
0	3	250	0	1	5	3	4
0	4	26432	0	1	2	1	0
0	4	66400	0	1	2	3	4
0	4	1.01499e+07	0	1	2	5	4
0	4	200	0	1	5	3	4
0	5	74496	0	1	2	1	0
0	5	182500	0	1	2	3	4
0	5	2.8631e+07	0	1	2	5	4
0	5	1250	0	1	5	3	4
0	6	14144	0	1	2	1	0
0	6	37300	0	1	2	3	4
0	6	5.59514e+06	0	1	2	5	4
0	6	100	0	1	5	3	4
0	7	35520	0	1	2	1	0
0	7	84600	0	1	2	3	4
0	7	1.3398e+07	0	1	2	5	4
0	7	150	0	1	5	3	4
0	8	18816	0	1	2	1	0
0	8	41900	0	1	2	3	4
0	8	6.48397e+06	0	1	2	5	4
0	8	100	0	1	5	3	4
0	9	13888	0	1	2	1	0
0	9	33700	0	1	2	3	4
0	9	5.10771e+06	0	1	2	5	4
0	9	150	0	1	5	3	4
1	0	37504	0	1	2	1	0
1	0	81900	0	1	2	3	4
1	0	1.25706e+07	0	1	2	5	4
1	0	300	0	1	5	3	4
1	2	25920	0	1	2	1	0
1	2	62900	0	1	2	3	4
1	2	9.61331e+06	0	1	2	5	4
1	2	300	0	1	5	3	4
1	3	18112	0	1	2	1	0
1	3	41300	0	1	2	3	4
1	3	6.58227e+06	0	1	2	5	4
1	3	250	0	1	5	3	4
1	4	32320	0	1	2	1	0
1	4	77800	0	1	2	3	4
1	4	1.2886e+07	0	1	2	5	4
1	4	350	0	1	5	3	4
1	5	34944	0	1	2	1	0
1	5	79500	0	1	2	3	4
1	5	1.19931e+07	0	1	2	5	4
1	5	300	0	1	5	3	4
1	6	14464	0	1	2	1	0
1	6	35900	0	1	2	3	4
1	6	5.90234e+06	0	1	2	5	4
1	6	150	0	1	5	3	4
1	7	59648	0	1	2	1	0
1	7	144500	0	1	2	3	4
1	7	2.2913e+07	0	1	2	5	4
1	7	900	0	1	5	3	4
1	8	20288	0	1	2	1	0
1	8	44800	0	1	2	3	4
1	8	7.32774e+06	0	1	2	5	4
1	8	300	0	1	5	3	4
1	9	13184	0	1	2	1	0
1	9	35900	0	1	2	3	4
1	9	5.38624e+06	0	1	2	5	4
1	9	50	0	1	5	3	4
2	0	22976	0	1	2	1	0
2	0	54100	0	1	2	3	4
2	0	8.73677e+06	0	1	2	5	4
2	0	550	0	1	5	3	4
2	1	26432	0	1	2	1	0
2	1	62200	0	1	2	3	4
2	1	9.83859e+06	0	1	2	5	4
2	1	350	0	1	5	3	4
2	3	65472	0	1	2	1	0
2	3	155400	0	1	2	3	4
2	3	2.4191e+07	0	1	2	5	4
2	3	250	0	1	5	3	4
2	4	59840	0	1	2	1	0
2	4	145800	0	1	2	3	4
2	4	2.2741e+07	0	1	2	5	4
2	4	700	0	1	5	3	4
2	5	21184	0	1	2	1	0
2	5	45100	0	1	2	3	4
2	5	7.39738e+06	0	1	2	5	4
2	5	50	0	1	5	3	4
2	6	28224	0	1	2	1	0
2	6	67600	0	1	2	3	4
2	6	1.10264e+07	0	1	2	5	4
2	6	250	0	1	5	3	4
2	7	27904	0	1	2	1	0
2	7	64700	0	1	2	3	4
2	7	9.88774e+06	0	1	2	5	4
2	7	350	0	1	5	3	4
2	8	26688	0	1	2	1	0
2	8	60900	0	1	2	3	4
2	8	9.92461e+06	0	1	2	5	4
2	8	400	0	1	5	3	4
2	9	49024	0	1	2	1	0
2	9	120300	0	1	2	3	4
2	9	1.95625e+07	0	1	2	5	4
2	9	350	0	1	5	3	4
3	0	16576	0	1	2	1	0
3	0	40600	0	1	2	3	4
3	0	6.69286e+06	0	1	2	5	4
3	0	300	0	1	5	3	4
3	1	18112	0	1	2	1	0
3	1	41900	0	1	2	3	4
3	1	6.97139e+06	0	1	2	5	4
3	1	150	0	1	5	3	4
3	2	62080	0	1	2	1	0
3	2	160400	0	1	2	3	4
3	2	2.44695e+07	0	1	2	5	4
3	2	650	0	1	5	3	4
3	4	29440	0	1	2	1	0
3	4	64900	0	1	2	3	4
3	4	1.06619e+07	0	1	2	5	4
3	4	400	0	1	5	3	4
3	5	12672	0	1	2	1	0
3	5	33200	0	1	2	3	4
3	5	5.00122e+06	0	1	2	5	4
3	5	100	0	1	5	3	4
3	6	50816	0	1	2	1	0
3	6	125400	0	1	2	3	4
3	6	1.98656e+07	0	1	2	5	4
3	6	750	0	1	5	3	4
3	7	15616	0	1	2	1	0
3	7	41600	0	1	2	3	4
3	7	6.21773e+06	0	1	2	5	4
3	7	300	0	1	5	3	4
3	8	48192	0	1	2	1	0
3	8	119600	0	1	2	3	4
3	8	1.86245e+07	0	1	2	5	4
3	8	200	0	1	5	3	4
3	9	24384	0	1	2	1	0
3	9	57200	0	1	2	3	4
3	9	9.24058e+06	0	1	2	5	4
4	0	28032	0	1	2	1	0
4	0	61800	0	1	2	3	4
4	0	9.8263e+06	0	1	2	5	4
4	0	300	0	1	5	3	4
4	1	36160	0	1	2	1	0
4	1	81300	0	1	2	3	4
4	1	1.24682e+07	0	1	2	5	4
4	1	350	0	1	5	3	4
4	2	60672	0	1	2	1	0
4	2	148900	0	1	2	3	4
4	2	2.26099e+07	0	1	2	5	4
4	2	800	0	1	5	3	4
4	3	29888	0	1	2	1	0
4	3	67700	0	1	2	3	4
4	3	1.08667e+07	0	1	2	5	4
4	3	300	0	1	5	3	4
4	5	26624	0	1	2	1	0
4	5	61200	0	1	2	3	4
4	5	9.80582e+06	0	1	2	5	4
4	5	300	0	1	5	3	4
4	6	24384	0	1	2	1	0
4	6	59100	0	1	2	3	4
4	6	9.4167e+06	0	1	2	5	4
4	6	200	0	1	5	3	4
4	7	49664	0	1	2	1	0
4	7	113100	0	1	2	3	4
4	7	1.81084e+07	0	1	2	5	4
4	7	600	0	1	5	3	4
4	8	45504	0	1	2	1	0
4	8	112700	0	1	2	3	4
4	8	1.74572e+07	0	1	2	5	4
4	8	600	0	1	5	3	4
4	9	22080	0	1	2	1	0
4	9	56600	0	1	2	3	4
4	9	8.67533e+06	0	1	2	5	4
4	9	300	0	1	5	3	4
5	0	77056	0	1	2	1	0
5	0	183500	0	1	2	3	4
5	0	2.88195e+07	0	1	2	5	4
5	0	550	0	1	5	3	4
5	1	29376	0	1	2	1	0
5	1	80300	0	1	2	3	4
5	1	1.2374e+07	0	1	2	5	4
5	1	450	0	1	5	3	4
5	2	19904	0	1	2	1	0
5	2	49100	0	1	2	3	4
5	2	7.28678e+06	0	1	2	5	4
5	2	150	0	1	5	3	4
5	3	13440	0	1	2	1	0
5	3	32900	0	1	2	3	4
5	3	5.39034e+06	0	1	2	5	4
5	3	150	0	1	5	3	4
5	4	25728	0	1	2	1	0
5	4	62000	0	1	2	3	4
5	4	1.01745e+07	0	1	2	5	4
5	4	50	0	1	5	3	4
5	6	11840	0	1	2	1	0
5	6	28300	0	1	2	3	4
5	6	4.32947e+06	0	1	2	5	4
5	6	200	0	1	5	3	4
5	7	47040	0	1	2	1	0
5	7	106800	0	1	2	3	4
5	7	1.76046e+07	0	1	2	5	4
5	7	300	0	1	5	3	4
5	8	14528	0	1	2	1	0
5	8	37100	0	1	2	3	4
5	8	5.632e+06	0	1	2	5	4
5	8	250	0	1	5	3	4
5	9	11200	0	1	2	1	0
5	9	24800	0	1	2	3	4
5	9	4.07962e+06	0	1	2	5	4
5	9	150	0	1	5	3	4
6	0	13952	0	1	2	1	0
6	0	38300	0	1	2	3	4
6	0	5.66067e+06	0	1	2	5	4
6	0	50	0	1	5	3	4
6	1	15104	0	1	2	1	0
6	1	38400	0	1	2	3	4
6	1	6.05798e+06	0	1	2	5	4
6	1	100	0	1	5	3	4
6	2	29888	0	1	2	1	0
6	2	65600	0	1	2	3	4
6	2	1.0199e+07	0	1	2	5	4
6	2	150	0	1	5	3	4
6	3	50880	0	1	2	1	0
6	3	127900	0	1	2	3	4
6	3	1.99516e+07	0	1	2	5	4
6	3	400	0	1	5	3	4
6	4	22784	0	1	2	1	0
6	4	61900	0	1	2	3	4
6	4	9.50272e+06	0	1	2	5	4
6	4	250	0	1	5	3	4
6	5	11968	0	1	2	1	0
6	5	28700	0	1	2	3	4
6	5	4.64077e+06	0	1	2	5	4
6	7	14208	0	1	2	1	0
6	7	34800	0	1	2	3	4
6	7	5.60742e+06	0	1	2	5	4
6	7	50	0	1	5	3	4
6	8	39744	0	1	2	1	0
6	8	102000	0	1	2	3	4
6	8	1.59498e+07	0	1	2	5	4
6	8	400	0	1	5	3	4
6	9	13568	0	1	2	1	0
6	9	32700	0	1	2	3	4
6	9	5.4272e+06	0	1	2	5	4
6	9	50	0	1	5	3	4
7	0	35136	0	1	2	1	0
7	0	83900	0	1	2	3	4
7	0	1.35619e+07	0	1	2	5	4
7	0	400	0	1	5	3	4
7	1	59456	0	1	2	1	0
7	1	143600	0	1	2	3	4
7	1	2.2827e+07	0	1	2	5	4
7	1	900	0	1	5	3	4
7	2	28800	0	1	2	1	0
7	2	66100	0	1	2	3	4
7	2	1.03997e+07	0	1	2	5	4
7	2	300	0	1	5	3	4
7	3	18624	0	1	2	1	0
7	3	42500	0	1	2	3	4
7	3	6.31603e+06	0	1	2	5	4
7	4	49408	0	1	2	1	0
7	4	117700	0	1	2	3	4
7	4	1.85549e+07	0	1	2	5	4
7	4	600	0	1	5	3	4
7	5	48192	0	1	2	1	0
7	5	109500	0	1	2	3	4
7	5	1.74612e+07	0	1	2	5	4
7	5	550	0	1	5	3	4
7	6	14592	0	1	2	1	0
7	6	34100	0	1	2	3	4
7	6	5.74669e+06	0	1	2	5	4
7	6	150	0	1	5	3	4
7	8	19200	0	1	2	1	0
7	8	51900	0	1	2	3	4
7	8	7.62675e+06	0	1	2	5	4
7	8	150	0	1	5	3	4
7	9	14528	0	1	2	1	0
7	9	30300	0	1	2	3	4
7	9	5.19782e+06	0	1	2	5	4
7	9	150	0	1	5	3	4
8	0	15872	0	1	2	1	0
8	0	40900	0	1	2	3	4
8	0	6.72973e+06	0	1	2	5	4
8	0	100	0	1	5	3	4
8	1	20032	0	1	2	1	0
8	1	47900	0	1	2	3	4
8	1	7.43834e+06	0	1	2	5	4
8	1	50	0	1	5	3	4
8	2	23616	0	1	2	1	0
8	2	65000	0	1	2	3	4
8	2	1.01171e+07	0	1	2	5	4
8	2	150	0	1	5	3	4
8	3	47872	0	1	2	1	0
8	3	116200	0	1	2	3	4
8	3	1.82149e+07	0	1	2	5	4
8	3	800	0	1	5	3	4
8	4	46912	0	1	2	1	0
8	4	113100	0	1	2	3	4
8	4	1.76415e+07	0	1	2	5	4
8	4	750	0	1	5	3	4
8	5	13952	0	1	2	1	0
8	5	35700	0	1	2	3	4
8	5	5.45587e+06	0	1	2	5	4
8	5	150	0	1	5	3	4
8	6	46208	0	1	2	1	0
8	6	104100	0	1	2	3	4
8	6	1.61546e+07	0	1	2	5	4
8	6	250	0	1	5	3	4
8	7	19648	0	1	2	1	0
8	7	52700	0	1	2	3	4
8	7	7.55712e+06	0	1	2	5	4
8	9	12416	0	1	2	1	0
8	9	32500	0	1	2	3	4
8	9	5.05446e+06	0	1	2	5	4
9	0	14208	0	1	2	1	0
9	0	34000	0	1	2	3	4
9	0	5.35757e+06	0	1	2	5	4
9	0	100	0	1	5	3	4
9	1	15552	0	1	2	1	0
9	1	35300	0	1	2	3	4
9	1	5.37805e+06	0	1	2	5	4
9	1	100	0	1	5	3	4
9	2	48192	0	1	2	1	0
9	2	116600	0	1	2	3	4
9	2	1.9583e+07	0	1	2	5	4
9	2	350	0	1	5	3	4
9	3	25024	0	1	2	1	0
9	3	59100	0	1	2	3	4
9	3	9.1136e+06	0	1	2	5	4
9	3	200	0	1	5	3	4
9	4	20416	0	1	2	1	0
9	4	51100	0	1	2	3	4
9	4	8.58931e+06	0	1	2	5	4
9	4	50	0	1	5	3	4
9	5	10304	0	1	2	1	0
9	5	25600	0	1	2	3	4
9	5	4.16563e+06	0	1	2	5	4
9	5	100	0	1	5	3	4
9	6	14528	0	1	2	1	0
9	6	33100	0	1	2	3	4
9	6	5.14048e+06	0	1	2	5	4
9	6	100	0	1	5	3	4
9	7	14080	0	1	2	1	0
9	7	30800	0	1	2	3	4
9	7	5.18554e+06	0	1	2	5	4
9	7	100	0	1	5	3	4
9	8	13696	0	1	2	1	0
9	8	27400	0	1	2	3	4
9	8	5.02579e+06	0	1	2	5	4
9	8	100	0	1	5	3	4
