12
0	5	1e+12
0	8	1e+12
1	7	1e+12
2	3	1e+12
2	6	1e+12
2	10	1e+12
3	2	1e+12
4	6	1e+12
5	0	1e+12
5	10	1e+12
5	11	1e+12
6	2	1e+12
6	4	1e+12
6	7	1e+12
6	10	1e+12
7	1	1e+12
7	6	1e+12
7	8	1e+12
7	10	1e+12
7	11	1e+12
8	0	1e+12
8	7	1e+12
9	11	1e+12
10	2	1e+12
10	5	1e+12
10	6	1e+12
10	7	1e+12
11	5	1e+12
11	7	1e+12
11	9	1e+12
