100000	100000	100000	10000	1000	1000
0	1	4096	0	1	2	5	4
0	2	4096	0	1	2	5	4
0	4	64	0	1	2	1	0
1	5	100	0	1	2	3	4
1	6	4096	0	1	2	5	4
1	7	4096	0	1	2	5	4
1	8	100	0	1	2	3	4
2	8	4096	0	1	2	5	4
2	9	4096	0	1	2	5	4
3	0	8192	0	1	2	5	4
3	2	64	0	1	2	1	0
3	8	64	0	1	2	1	0
4	0	4096	0	1	2	5	4
4	1	4096	0	1	2	5	4
4	3	4096	0	1	2	5	4
4	7	4096	0	1	2	5	4
4	8	4096	0	1	2	5	4
5	1	100	0	1	2	3	4
5	1	4096	0	1	2	5	4
5	4	100	0	1	2	3	4
5	8	64	0	1	2	1	0
6	1	4096	0	1	2	5	4
6	2	100	0	1	2	3	4
6	2	4096	0	1	2	5	4
6	3	100	0	1	2	3	4
6	8	4096	0	1	2	5	4
6	9	4096	0	1	2	5	4
7	0	100	0	1	2	3	4
7	1	4096	0	1	2	5	4
7	4	4096	0	1	2	5	4
7	8	4096	0	1	2	5	4
7	9	64	0	1	2	1	0
8	0	4096	0	1	2	5	4
8	1	100	0	1	2	3	4
8	4	4096	0	1	2	5	4
8	9	4096	0	1	2	5	4
9	6	100	0	1	2	3	4
9	7	64	0	1	2	1	0
9	7	4096	0	1	2	5	4
