16
0	5	1e+12
0	7	1e+12
0	10	1e+12
1	15	1e+12
2	4	1e+12
2	11	1e+12
3	13	1e+12
4	2	1e+12
4	11	1e+12
4	13	1e+12
5	0	1e+12
5	12	1e+12
6	14	1e+12
6	15	1e+12
7	0	1e+12
7	11	1e+12
8	9	1e+12
8	10	1e+12
9	8	1e+12
9	14	1e+12
9	15	1e+12
10	0	1e+12
10	8	1e+12
11	2	1e+12
11	4	1e+12
11	7	1e+12
11	13	1e+12
11	15	1e+12
12	5	1e+12
12	14	1e+12
13	3	1e+12
13	4	1e+12
13	11	1e+12
13	14	1e+12
14	6	1e+12
14	9	1e+12
14	12	1e+12
14	13	1e+12
15	1	1e+12
15	6	1e+12
15	9	1e+12
15	11	1e+12
