100000	1000	1000	1000	1000	1000
0	1	1.10142e+07	2	2	2	0	5	5	3	5	4
0	2	1.10078e+07	2	2	2	0	5	5	3	5	4
0	3	1.10465e+07	2	2	2	0	5	5	3	5	4
0	4	1.09318e+07	2	2	2	0	5	5	3	5	4
0	5	1.12551e+07	2	2	2	0	5	5	3	5	4
0	6	1.10061e+07	2	2	2	0	5	5	3	5	4
0	7	1.09156e+07	2	2	2	0	5	5	3	5	4
0	8	1.12341e+07	2	2	2	0	5	5	3	5	4
0	9	1.11888e+07	2	2	2	0	5	5	3	5	4
1	0	1.12793e+07	2	2	2	0	5	5	3	5	4
1	2	1.10482e+07	2	2	2	0	5	5	3	5	4
1	3	1.12971e+07	2	2	2	0	5	5	3	5	4
1	4	1.12922e+07	2	2	2	0	5	5	3	5	4
1	5	1.10272e+07	2	2	2	0	5	5	3	5	4
1	6	1.11516e+07	2	2	2	0	5	5	3	5	4
1	7	1.12017e+07	2	2	2	0	5	5	3	5	4
1	8	1.10061e+07	2	2	2	0	5	5	3	5	4
1	9	1.09463e+07	2	2	2	0	5	5	3	5	4
2	0	1.10627e+07	2	2	2	0	5	5	3	5	4
2	1	1.13343e+07	2	2	2	0	5	5	3	5	4
2	3	1.08493e+07	2	2	2	0	5	5	3	5	4
2	4	1.10401e+07	2	2	2	0	5	5	3	5	4
2	5	1.09544e+07	2	2	2	0	5	5	3	5	4
2	6	1.09544e+07	2	2	2	0	5	5	3	5	4
2	7	1.11047e+07	2	2	2	0	5	5	3	5	4
2	8	1.11694e+07	2	2	2	0	5	5	3	5	4
2	9	1.11225e+07	2	2	2	0	5	5	3	5	4
3	0	1.12308e+07	2	2	2	0	5	5	3	5	4
3	1	1.08898e+07	2	2	2	0	5	5	3	5	4
3	2	1.11532e+07	2	2	2	0	5	5	3	5	4
3	4	1.11694e+07	2	2	2	0	5	5	3	5	4
3	5	1.1032e+07	2	2	2	0	5	5	3	5	4
3	6	1.11791e+07	2	2	2	0	5	5	3	5	4
3	7	1.12809e+07	2	2	2	0	5	5	3	5	4
3	8	1.099e+07	2	2	2	0	5	5	3	5	4
3	9	1.1074e+07	2	2	2	0	5	5	3	5	4
4	0	1.11371e+07	2	2	2	0	5	5	3	5	4
4	1	1.09964e+07	2	2	2	0	5	5	3	5	4
4	2	1.11662e+07	2	2	2	0	5	5	3	5	4
4	3	1.11064e+07	2	2	2	0	5	5	3	5	4
4	5	1.10417e+07	2	2	2	0	5	5	3	5	4
4	6	1.11791e+07	2	2	2	0	5	5	3	5	4
4	7	1.1032e+07	2	2	2	0	5	5	3	5	4
4	8	1.12001e+07	2	2	2	0	5	5	3	5	4
4	9	1.11888e+07	2	2	2	0	5	5	3	5	4
5	0	1.11435e+07	2	2	2	0	5	5	3	5	4
5	1	1.1205e+07	2	2	2	0	5	5	3	5	4
5	2	1.08542e+07	2	2	2	0	5	5	3	5	4
5	3	1.11338e+07	2	2	2	0	5	5	3	5	4
5	4	1.10417e+07	2	2	2	0	5	5	3	5	4
5	6	1.11128e+07	2	2	2	0	5	5	3	5	4
5	7	1.11953e+07	2	2	2	0	5	5	3	5	4
5	8	1.11953e+07	2	2	2	0	5	5	3	5	4
5	9	1.11144e+07	2	2	2	0	5	5	3	5	4
6	0	1.10433e+07	2	2	2	0	5	5	3	5	4
6	1	1.10482e+07	2	2	2	0	5	5	3	5	4
6	2	1.10902e+07	2	2	2	0	5	5	3	5	4
6	3	1.12502e+07	2	2	2	0	5	5	3	5	4
6	4	1.11371e+07	2	2	2	0	5	5	3	5	4
6	5	1.10191e+07	2	2	2	0	5	5	3	5	4
6	7	1.12357e+07	2	2	2	0	5	5	3	5	4
6	8	1.13068e+07	2	2	2	0	5	5	3	5	4
6	9	1.11548e+07	2	2	2	0	5	5	3	5	4
7	0	1.11823e+07	2	2	2	0	5	5	3	5	4
7	1	1.10627e+07	2	2	2	0	5	5	3	5	4
7	2	1.11403e+07	2	2	2	0	5	5	3	5	4
7	3	1.12648e+07	2	2	2	0	5	5	3	5	4
7	4	1.13278e+07	2	2	2	0	5	5	3	5	4
7	5	1.10918e+07	2	2	2	0	5	5	3	5	4
7	6	1.09318e+07	2	2	2	0	5	5	3	5	4
7	8	1.12583e+07	2	2	2	0	5	5	3	5	4
7	9	1.08978e+07	2	2	2	0	5	5	3	5	4
8	0	1.11532e+07	2	2	2	0	5	5	3	5	4
8	1	1.10967e+07	2	2	2	0	5	5	3	5	4
8	2	1.13359e+07	2	2	2	0	5	5	3	5	4
8	3	1.12567e+07	2	2	2	0	5	5	3	5	4
8	4	1.1171e+07	2	2	2	0	5	5	3	5	4
8	5	1.08962e+07	2	2	2	0	5	5	3	5	4
8	6	1.11581e+07	2	2	2	0	5	5	3	5	4
8	7	1.09738e+07	2	2	2	0	5	5	3	5	4
8	9	1.11468e+07	2	2	2	0	5	5	3	5	4
9	0	1.11371e+07	2	2	2	0	5	5	3	5	4
9	1	1.10918e+07	2	2	2	0	5	5	3	5	4
9	2	1.1108e+07	2	2	2	0	5	5	3	5	4
9	3	1.11096e+07	2	2	2	0	5	5	3	5	4
9	4	1.11969e+07	2	2	2	0	5	5	3	5	4
9	5	1.0893e+07	2	2	2	0	5	5	3	5	4
9	6	1.10773e+07	2	2	2	0	5	5	3	5	4
9	7	1.10045e+07	2	2	2	0	5	5	3	5	4
9	8	1.12664e+07	2	2	2	0	5	5	3	5	4
