100000	100000	100000	10000	1000	1000
0	1	12032	0	1	2	1	0
0	1	32600	0	1	2	3	4
0	1	4.608e+06	0	1	2	5	4
0	1	100	0	1	5	3	4
0	2	13696	0	1	2	1	0
0	2	29800	0	1	2	3	4
0	2	4.46874e+06	0	1	2	5	4
0	2	100	0	1	5	3	4
0	3	12096	0	1	2	1	0
0	3	30400	0	1	2	3	4
0	3	4.53837e+06	0	1	2	5	4
0	3	100	0	1	5	3	4
0	4	12992	0	1	2	1	0
0	4	30900	0	1	2	3	4
0	4	4.69811e+06	0	1	2	5	4
0	4	150	0	1	5	3	4
0	5	13568	0	1	2	1	0
0	5	28600	0	1	2	3	4
0	5	4.76365e+06	0	1	2	5	4
0	5	100	0	1	5	3	4
0	6	11712	0	1	2	1	0
0	6	32100	0	1	2	3	4
0	6	4.49741e+06	0	1	2	5	4
0	6	200	0	1	5	3	4
0	7	11968	0	1	2	1	0
0	7	31200	0	1	2	3	4
0	7	4.62848e+06	0	1	2	5	4
0	7	50	0	1	5	3	4
0	8	13760	0	1	2	1	0
0	8	28600	0	1	2	3	4
0	8	4.75136e+06	0	1	2	5	4
0	8	200	0	1	5	3	4
0	9	10944	0	1	2	1	0
0	9	29600	0	1	2	3	4
0	9	4.98893e+06	0	1	2	5	4
0	9	250	0	1	5	3	4
0	10	13184	0	1	2	1	0
0	10	30900	0	1	2	3	4
0	10	4.64896e+06	0	1	2	5	4
0	10	50	0	1	5	3	4
0	11	12736	0	1	2	1	0
0	11	33200	0	1	2	3	4
0	11	4.68173e+06	0	1	2	5	4
0	11	100	0	1	5	3	4
0	12	12288	0	1	2	1	0
0	12	30200	0	1	2	3	4
0	12	4.7063e+06	0	1	2	5	4
0	12	100	0	1	5	3	4
0	13	11200	0	1	2	1	0
0	13	26400	0	1	2	3	4
0	13	4.75136e+06	0	1	2	5	4
0	14	11264	0	1	2	1	0
0	14	28500	0	1	2	3	4
0	14	4.96435e+06	0	1	2	5	4
0	14	100	0	1	5	3	4
1	0	11520	0	1	2	1	0
1	0	30100	0	1	2	3	4
1	0	4.69811e+06	0	1	2	5	4
1	2	10560	0	1	2	1	0
1	2	29800	0	1	2	3	4
1	2	4.63258e+06	0	1	2	5	4
1	2	50	0	1	5	3	4
1	3	12736	0	1	2	1	0
1	3	27600	0	1	2	3	4
1	3	4.5097e+06	0	1	2	5	4
1	3	50	0	1	5	3	4
1	4	12416	0	1	2	1	0
1	4	28200	0	1	2	3	4
1	4	4.52198e+06	0	1	2	5	4
1	4	200	0	1	5	3	4
1	5	11840	0	1	2	1	0
1	5	31000	0	1	2	3	4
1	5	4.78413e+06	0	1	2	5	4
1	5	100	0	1	5	3	4
1	6	12288	0	1	2	1	0
1	6	32200	0	1	2	3	4
1	6	4.76365e+06	0	1	2	5	4
1	7	12416	0	1	2	1	0
1	7	28800	0	1	2	3	4
1	7	4.8169e+06	0	1	2	5	4
1	7	200	0	1	5	3	4
1	8	12160	0	1	2	1	0
1	8	30400	0	1	2	3	4
1	8	4.68992e+06	0	1	2	5	4
1	8	100	0	1	5	3	4
1	9	12736	0	1	2	1	0
1	9	31400	0	1	2	3	4
1	9	4.71859e+06	0	1	2	5	4
1	9	350	0	1	5	3	4
1	10	12096	0	1	2	1	0
1	10	29400	0	1	2	3	4
1	10	4.73907e+06	0	1	2	5	4
1	10	300	0	1	5	3	4
1	11	11648	0	1	2	1	0
1	11	31900	0	1	2	3	4
1	11	4.58752e+06	0	1	2	5	4
1	11	50	0	1	5	3	4
1	12	12224	0	1	2	1	0
1	12	32600	0	1	2	3	4
1	12	4.80051e+06	0	1	2	5	4
1	12	200	0	1	5	3	4
1	13	11328	0	1	2	1	0
1	13	32000	0	1	2	3	4
1	13	4.64896e+06	0	1	2	5	4
1	13	250	0	1	5	3	4
1	14	12160	0	1	2	1	0
1	14	28200	0	1	2	3	4
1	14	4.73907e+06	0	1	2	5	4
1	14	200	0	1	5	3	4
2	0	13376	0	1	2	1	0
2	0	29000	0	1	2	3	4
2	0	4.75955e+06	0	1	2	5	4
2	0	100	0	1	5	3	4
2	1	10496	0	1	2	1	0
2	1	27200	0	1	2	3	4
2	1	4.82099e+06	0	1	2	5	4
2	1	250	0	1	5	3	4
2	3	10944	0	1	2	1	0
2	3	28900	0	1	2	3	4
2	3	4.86195e+06	0	1	2	5	4
2	3	50	0	1	5	3	4
2	4	12864	0	1	2	1	0
2	4	31300	0	1	2	3	4
2	4	4.64896e+06	0	1	2	5	4
2	5	11840	0	1	2	1	0
2	5	30300	0	1	2	3	4
2	5	4.48512e+06	0	1	2	5	4
2	5	100	0	1	5	3	4
2	6	12480	0	1	2	1	0
2	6	28800	0	1	2	3	4
2	6	4.53837e+06	0	1	2	5	4
2	6	150	0	1	5	3	4
2	7	12416	0	1	2	1	0
2	7	28900	0	1	2	3	4
2	7	4.80051e+06	0	1	2	5	4
2	7	50	0	1	5	3	4
2	8	12480	0	1	2	1	0
2	8	31800	0	1	2	3	4
2	8	4.86605e+06	0	1	2	5	4
2	8	50	0	1	5	3	4
2	9	11584	0	1	2	1	0
2	9	29500	0	1	2	3	4
2	9	4.89472e+06	0	1	2	5	4
2	9	200	0	1	5	3	4
2	10	13440	0	1	2	1	0
2	10	31600	0	1	2	3	4
2	10	4.608e+06	0	1	2	5	4
2	10	150	0	1	5	3	4
2	11	11072	0	1	2	1	0
2	11	29800	0	1	2	3	4
2	11	4.52198e+06	0	1	2	5	4
2	11	100	0	1	5	3	4
2	12	12288	0	1	2	1	0
2	12	32200	0	1	2	3	4
2	12	4.72678e+06	0	1	2	5	4
2	12	250	0	1	5	3	4
2	13	12736	0	1	2	1	0
2	13	26900	0	1	2	3	4
2	13	4.94387e+06	0	1	2	5	4
2	13	150	0	1	5	3	4
2	14	10944	0	1	2	1	0
2	14	32000	0	1	2	3	4
2	14	4.73907e+06	0	1	2	5	4
2	14	100	0	1	5	3	4
3	0	13184	0	1	2	1	0
3	0	30000	0	1	2	3	4
3	0	4.85376e+06	0	1	2	5	4
3	0	100	0	1	5	3	4
3	1	13824	0	1	2	1	0
3	1	29800	0	1	2	3	4
3	1	4.59981e+06	0	1	2	5	4
3	1	150	0	1	5	3	4
3	2	11904	0	1	2	1	0
3	2	31400	0	1	2	3	4
3	2	4.8087e+06	0	1	2	5	4
3	2	100	0	1	5	3	4
3	4	12160	0	1	2	1	0
3	4	30300	0	1	2	3	4
3	4	4.70221e+06	0	1	2	5	4
3	4	150	0	1	5	3	4
3	5	10944	0	1	2	1	0
3	5	29800	0	1	2	3	4
3	5	4.73907e+06	0	1	2	5	4
3	5	100	0	1	5	3	4
3	6	11840	0	1	2	1	0
3	6	29800	0	1	2	3	4
3	6	4.49331e+06	0	1	2	5	4
3	6	50	0	1	5	3	4
3	7	12608	0	1	2	1	0
3	7	30300	0	1	2	3	4
3	7	4.83738e+06	0	1	2	5	4
3	7	200	0	1	5	3	4
3	8	11968	0	1	2	1	0
3	8	30700	0	1	2	3	4
3	8	4.65306e+06	0	1	2	5	4
3	8	300	0	1	5	3	4
3	9	11968	0	1	2	1	0
3	9	31400	0	1	2	3	4
3	9	4.67354e+06	0	1	2	5	4
3	9	100	0	1	5	3	4
3	10	13056	0	1	2	1	0
3	10	30500	0	1	2	3	4
3	10	4.53837e+06	0	1	2	5	4
3	10	150	0	1	5	3	4
3	11	12480	0	1	2	1	0
3	11	32400	0	1	2	3	4
3	11	4.65306e+06	0	1	2	5	4
3	11	100	0	1	5	3	4
3	12	12032	0	1	2	1	0
3	12	31400	0	1	2	3	4
3	12	4.87014e+06	0	1	2	5	4
3	12	100	0	1	5	3	4
3	13	12032	0	1	2	1	0
3	13	29300	0	1	2	3	4
3	13	4.77594e+06	0	1	2	5	4
3	13	100	0	1	5	3	4
3	14	13824	0	1	2	1	0
3	14	26900	0	1	2	3	4
3	14	4.78822e+06	0	1	2	5	4
3	14	400	0	1	5	3	4
4	0	12416	0	1	2	1	0
4	0	29100	0	1	2	3	4
4	0	4.99712e+06	0	1	2	5	4
4	0	150	0	1	5	3	4
4	1	11136	0	1	2	1	0
4	1	32100	0	1	2	3	4
4	1	4.89882e+06	0	1	2	5	4
4	1	250	0	1	5	3	4
4	2	12672	0	1	2	1	0
4	2	28300	0	1	2	3	4
4	2	4.8169e+06	0	1	2	5	4
4	2	250	0	1	5	3	4
4	3	11200	0	1	2	1	0
4	3	31000	0	1	2	3	4
4	3	4.75546e+06	0	1	2	5	4
4	3	200	0	1	5	3	4
4	5	14784	0	1	2	1	0
4	5	27100	0	1	2	3	4
4	5	4.9152e+06	0	1	2	5	4
4	5	200	0	1	5	3	4
4	6	13312	0	1	2	1	0
4	6	33300	0	1	2	3	4
4	6	4.31718e+06	0	1	2	5	4
4	6	50	0	1	5	3	4
4	7	12096	0	1	2	1	0
4	7	29400	0	1	2	3	4
4	7	4.44006e+06	0	1	2	5	4
4	7	50	0	1	5	3	4
4	8	12608	0	1	2	1	0
4	8	32300	0	1	2	3	4
4	8	4.82509e+06	0	1	2	5	4
4	8	100	0	1	5	3	4
4	9	13312	0	1	2	1	0
4	9	29300	0	1	2	3	4
4	9	4.66944e+06	0	1	2	5	4
4	10	13248	0	1	2	1	0
4	10	30900	0	1	2	3	4
4	10	4.98483e+06	0	1	2	5	4
4	10	150	0	1	5	3	4
4	11	12544	0	1	2	1	0
4	11	30400	0	1	2	3	4
4	11	4.68173e+06	0	1	2	5	4
4	11	100	0	1	5	3	4
4	12	13248	0	1	2	1	0
4	12	30000	0	1	2	3	4
4	12	4.86195e+06	0	1	2	5	4
4	12	200	0	1	5	3	4
4	13	13504	0	1	2	1	0
4	13	31100	0	1	2	3	4
4	13	4.75955e+06	0	1	2	5	4
4	13	100	0	1	5	3	4
4	14	14208	0	1	2	1	0
4	14	30200	0	1	2	3	4
4	14	4.49331e+06	0	1	2	5	4
4	14	50	0	1	5	3	4
5	0	12288	0	1	2	1	0
5	0	30000	0	1	2	3	4
5	0	4.72678e+06	0	1	2	5	4
5	0	50	0	1	5	3	4
5	1	12672	0	1	2	1	0
5	1	30900	0	1	2	3	4
5	1	4.68582e+06	0	1	2	5	4
5	1	100	0	1	5	3	4
5	2	11392	0	1	2	1	0
5	2	31600	0	1	2	3	4
5	2	4.43187e+06	0	1	2	5	4
5	2	100	0	1	5	3	4
5	3	12352	0	1	2	1	0
5	3	30700	0	1	2	3	4
5	3	4.67763e+06	0	1	2	5	4
5	3	250	0	1	5	3	4
5	4	11968	0	1	2	1	0
5	4	35300	0	1	2	3	4
5	4	4.72269e+06	0	1	2	5	4
5	4	100	0	1	5	3	4
5	6	12032	0	1	2	1	0
5	6	29100	0	1	2	3	4
5	6	4.64077e+06	0	1	2	5	4
5	6	250	0	1	5	3	4
5	7	11840	0	1	2	1	0
5	7	31800	0	1	2	3	4
5	7	4.87014e+06	0	1	2	5	4
5	7	100	0	1	5	3	4
5	8	11904	0	1	2	1	0
5	8	28000	0	1	2	3	4
5	8	4.56294e+06	0	1	2	5	4
5	8	100	0	1	5	3	4
5	9	12800	0	1	2	1	0
5	9	30200	0	1	2	3	4
5	9	4.68992e+06	0	1	2	5	4
5	9	50	0	1	5	3	4
5	10	13248	0	1	2	1	0
5	10	33200	0	1	2	3	4
5	10	4.67763e+06	0	1	2	5	4
5	10	150	0	1	5	3	4
5	11	11712	0	1	2	1	0
5	11	31500	0	1	2	3	4
5	11	4.6121e+06	0	1	2	5	4
5	12	12160	0	1	2	1	0
5	12	29900	0	1	2	3	4
5	12	4.73498e+06	0	1	2	5	4
5	12	100	0	1	5	3	4
5	13	12160	0	1	2	1	0
5	13	31200	0	1	2	3	4
5	13	4.56704e+06	0	1	2	5	4
5	13	100	0	1	5	3	4
5	14	12096	0	1	2	1	0
5	14	28200	0	1	2	3	4
5	14	4.52608e+06	0	1	2	5	4
5	14	100	0	1	5	3	4
6	0	12480	0	1	2	1	0
6	0	31100	0	1	2	3	4
6	0	4.75136e+06	0	1	2	5	4
6	0	100	0	1	5	3	4
6	1	12032	0	1	2	1	0
6	1	29100	0	1	2	3	4
6	1	4.76365e+06	0	1	2	5	4
6	1	50	0	1	5	3	4
6	2	12928	0	1	2	1	0
6	2	29100	0	1	2	3	4
6	2	4.74726e+06	0	1	2	5	4
6	2	50	0	1	5	3	4
6	3	12032	0	1	2	1	0
6	3	30600	0	1	2	3	4
6	3	4.90291e+06	0	1	2	5	4
6	3	150	0	1	5	3	4
6	4	12544	0	1	2	1	0
6	4	31700	0	1	2	3	4
6	4	4.75955e+06	0	1	2	5	4
6	4	100	0	1	5	3	4
6	5	12096	0	1	2	1	0
6	5	29000	0	1	2	3	4
6	5	4.67354e+06	0	1	2	5	4
6	5	150	0	1	5	3	4
6	7	10752	0	1	2	1	0
6	7	33500	0	1	2	3	4
6	7	4.73498e+06	0	1	2	5	4
6	7	100	0	1	5	3	4
6	8	12672	0	1	2	1	0
6	8	29400	0	1	2	3	4
6	8	4.59981e+06	0	1	2	5	4
6	8	150	0	1	5	3	4
6	9	15744	0	1	2	1	0
6	9	29000	0	1	2	3	4
6	9	4.82509e+06	0	1	2	5	4
6	9	100	0	1	5	3	4
6	10	12864	0	1	2	1	0
6	10	29600	0	1	2	3	4
6	10	4.62029e+06	0	1	2	5	4
6	10	150	0	1	5	3	4
6	11	11968	0	1	2	1	0
6	11	27000	0	1	2	3	4
6	11	4.6121e+06	0	1	2	5	4
6	11	250	0	1	5	3	4
6	12	12032	0	1	2	1	0
6	12	28600	0	1	2	3	4
6	12	4.86195e+06	0	1	2	5	4
6	12	250	0	1	5	3	4
6	13	10496	0	1	2	1	0
6	13	29400	0	1	2	3	4
6	13	4.61619e+06	0	1	2	5	4
6	14	11904	0	1	2	1	0
6	14	30900	0	1	2	3	4
6	14	4.7104e+06	0	1	2	5	4
6	14	500	0	1	5	3	4
7	0	13184	0	1	2	1	0
7	0	29300	0	1	2	3	4
7	0	4.83328e+06	0	1	2	5	4
7	0	50	0	1	5	3	4
7	1	12032	0	1	2	1	0
7	1	28600	0	1	2	3	4
7	1	4.55475e+06	0	1	2	5	4
7	1	50	0	1	5	3	4
7	2	11904	0	1	2	1	0
7	2	30200	0	1	2	3	4
7	2	4.73498e+06	0	1	2	5	4
7	2	200	0	1	5	3	4
7	3	13888	0	1	2	1	0
7	3	29100	0	1	2	3	4
7	3	4.72678e+06	0	1	2	5	4
7	3	50	0	1	5	3	4
7	4	12736	0	1	2	1	0
7	4	28200	0	1	2	3	4
7	4	4.68582e+06	0	1	2	5	4
7	4	100	0	1	5	3	4
7	5	11904	0	1	2	1	0
7	5	34200	0	1	2	3	4
7	5	4.46054e+06	0	1	2	5	4
7	5	200	0	1	5	3	4
7	6	13824	0	1	2	1	0
7	6	32400	0	1	2	3	4
7	6	4.89062e+06	0	1	2	5	4
7	6	100	0	1	5	3	4
7	8	12928	0	1	2	1	0
7	8	30700	0	1	2	3	4
7	8	4.78822e+06	0	1	2	5	4
7	8	100	0	1	5	3	4
7	9	12352	0	1	2	1	0
7	9	31000	0	1	2	3	4
7	9	4.93978e+06	0	1	2	5	4
7	9	150	0	1	5	3	4
7	10	11840	0	1	2	1	0
7	10	30500	0	1	2	3	4
7	10	4.84966e+06	0	1	2	5	4
7	10	50	0	1	5	3	4
7	11	13952	0	1	2	1	0
7	11	29700	0	1	2	3	4
7	11	4.86605e+06	0	1	2	5	4
7	11	100	0	1	5	3	4
7	12	13184	0	1	2	1	0
7	12	33200	0	1	2	3	4
7	12	4.67763e+06	0	1	2	5	4
7	12	200	0	1	5	3	4
7	13	12992	0	1	2	1	0
7	13	29900	0	1	2	3	4
7	13	4.96026e+06	0	1	2	5	4
7	13	200	0	1	5	3	4
7	14	12096	0	1	2	1	0
7	14	30800	0	1	2	3	4
7	14	5.09952e+06	0	1	2	5	4
7	14	50	0	1	5	3	4
8	0	11904	0	1	2	1	0
8	0	27700	0	1	2	3	4
8	0	4.69811e+06	0	1	2	5	4
8	1	12992	0	1	2	1	0
8	1	29100	0	1	2	3	4
8	1	4.89882e+06	0	1	2	5	4
8	1	300	0	1	5	3	4
8	2	12736	0	1	2	1	0
8	2	33200	0	1	2	3	4
8	2	4.45235e+06	0	1	2	5	4
8	2	100	0	1	5	3	4
8	3	13952	0	1	2	1	0
8	3	31100	0	1	2	3	4
8	3	4.78413e+06	0	1	2	5	4
8	3	250	0	1	5	3	4
8	4	13312	0	1	2	1	0
8	4	30200	0	1	2	3	4
8	4	4.66944e+06	0	1	2	5	4
8	4	50	0	1	5	3	4
8	5	12800	0	1	2	1	0
8	5	28300	0	1	2	3	4
8	5	4.66534e+06	0	1	2	5	4
8	5	100	0	1	5	3	4
8	6	12736	0	1	2	1	0
8	6	25600	0	1	2	3	4
8	6	4.6039e+06	0	1	2	5	4
8	6	150	0	1	5	3	4
8	7	12352	0	1	2	1	0
8	7	30300	0	1	2	3	4
8	7	4.66125e+06	0	1	2	5	4
8	7	150	0	1	5	3	4
8	9	11328	0	1	2	1	0
8	9	33600	0	1	2	3	4
8	9	4.74726e+06	0	1	2	5	4
8	9	100	0	1	5	3	4
8	10	13952	0	1	2	1	0
8	10	29900	0	1	2	3	4
8	10	4.78003e+06	0	1	2	5	4
8	10	50	0	1	5	3	4
8	11	12608	0	1	2	1	0
8	11	31800	0	1	2	3	4
8	11	4.75136e+06	0	1	2	5	4
8	11	200	0	1	5	3	4
8	12	12160	0	1	2	1	0
8	12	28400	0	1	2	3	4
8	12	4.8087e+06	0	1	2	5	4
8	12	250	0	1	5	3	4
8	13	12160	0	1	2	1	0
8	13	30600	0	1	2	3	4
8	13	4.59571e+06	0	1	2	5	4
8	13	450	0	1	5	3	4
8	14	12224	0	1	2	1	0
8	14	31400	0	1	2	3	4
8	14	4.75955e+06	0	1	2	5	4
8	14	50	0	1	5	3	4
9	0	13760	0	1	2	1	0
9	0	29800	0	1	2	3	4
9	0	5.02579e+06	0	1	2	5	4
9	0	50	0	1	5	3	4
9	1	11584	0	1	2	1	0
9	1	33700	0	1	2	3	4
9	1	4.62438e+06	0	1	2	5	4
9	1	150	0	1	5	3	4
9	2	13056	0	1	2	1	0
9	2	32300	0	1	2	3	4
9	2	4.96435e+06	0	1	2	5	4
9	2	150	0	1	5	3	4
9	3	12480	0	1	2	1	0
9	3	28900	0	1	2	3	4
9	3	4.86605e+06	0	1	2	5	4
9	3	50	0	1	5	3	4
9	4	12736	0	1	2	1	0
9	4	29900	0	1	2	3	4
9	4	4.37862e+06	0	1	2	5	4
9	4	200	0	1	5	3	4
9	5	13120	0	1	2	1	0
9	5	31700	0	1	2	3	4
9	5	4.59571e+06	0	1	2	5	4
9	5	150	0	1	5	3	4
9	6	11008	0	1	2	1	0
9	6	31100	0	1	2	3	4
9	6	4.94797e+06	0	1	2	5	4
9	6	200	0	1	5	3	4
9	7	12224	0	1	2	1	0
9	7	32700	0	1	2	3	4
9	7	4.53837e+06	0	1	2	5	4
9	7	50	0	1	5	3	4
9	8	10816	0	1	2	1	0
9	8	26800	0	1	2	3	4
9	8	4.78822e+06	0	1	2	5	4
9	8	200	0	1	5	3	4
9	10	11264	0	1	2	1	0
9	10	34000	0	1	2	3	4
9	10	4.86605e+06	0	1	2	5	4
9	10	150	0	1	5	3	4
9	11	14080	0	1	2	1	0
9	11	28900	0	1	2	3	4
9	11	4.75136e+06	0	1	2	5	4
9	11	200	0	1	5	3	4
9	12	13184	0	1	2	1	0
9	12	28900	0	1	2	3	4
9	12	4.88653e+06	0	1	2	5	4
9	12	50	0	1	5	3	4
9	13	13760	0	1	2	1	0
9	13	29100	0	1	2	3	4
9	13	4.62029e+06	0	1	2	5	4
9	13	150	0	1	5	3	4
9	14	12224	0	1	2	1	0
9	14	30900	0	1	2	3	4
9	14	4.64896e+06	0	1	2	5	4
9	14	100	0	1	5	3	4
10	0	12544	0	1	2	1	0
10	0	29000	0	1	2	3	4
10	0	4.77594e+06	0	1	2	5	4
10	0	50	0	1	5	3	4
10	1	13056	0	1	2	1	0
10	1	30700	0	1	2	3	4
10	1	4.73088e+06	0	1	2	5	4
10	1	100	0	1	5	3	4
10	2	12928	0	1	2	1	0
10	2	29000	0	1	2	3	4
10	2	4.8087e+06	0	1	2	5	4
10	2	50	0	1	5	3	4
10	3	13696	0	1	2	1	0
10	3	30300	0	1	2	3	4
10	3	4.82099e+06	0	1	2	5	4
10	3	50	0	1	5	3	4
10	4	12800	0	1	2	1	0
10	4	30800	0	1	2	3	4
10	4	4.82509e+06	0	1	2	5	4
10	4	250	0	1	5	3	4
10	5	14784	0	1	2	1	0
10	5	30700	0	1	2	3	4
10	5	4.61619e+06	0	1	2	5	4
10	5	200	0	1	5	3	4
10	6	12352	0	1	2	1	0
10	6	32800	0	1	2	3	4
10	6	4.52608e+06	0	1	2	5	4
10	6	150	0	1	5	3	4
10	7	14592	0	1	2	1	0
10	7	28600	0	1	2	3	4
10	7	4.57933e+06	0	1	2	5	4
10	7	50	0	1	5	3	4
10	8	10880	0	1	2	1	0
10	8	24300	0	1	2	3	4
10	8	4.75955e+06	0	1	2	5	4
10	9	12288	0	1	2	1	0
10	9	30100	0	1	2	3	4
10	9	4.73907e+06	0	1	2	5	4
10	9	200	0	1	5	3	4
10	11	11840	0	1	2	1	0
10	11	28000	0	1	2	3	4
10	11	4.7145e+06	0	1	2	5	4
10	11	100	0	1	5	3	4
10	12	13632	0	1	2	1	0
10	12	27800	0	1	2	3	4
10	12	4.87014e+06	0	1	2	5	4
10	12	100	0	1	5	3	4
10	13	10816	0	1	2	1	0
10	13	28200	0	1	2	3	4
10	13	4.6121e+06	0	1	2	5	4
10	14	11584	0	1	2	1	0
10	14	29400	0	1	2	3	4
10	14	4.82099e+06	0	1	2	5	4
10	14	100	0	1	5	3	4
11	0	13248	0	1	2	1	0
11	0	29400	0	1	2	3	4
11	0	4.66125e+06	0	1	2	5	4
11	0	150	0	1	5	3	4
11	1	11520	0	1	2	1	0
11	1	29700	0	1	2	3	4
11	1	4.73088e+06	0	1	2	5	4
11	1	150	0	1	5	3	4
11	2	11328	0	1	2	1	0
11	2	30500	0	1	2	3	4
11	2	4.6121e+06	0	1	2	5	4
11	2	150	0	1	5	3	4
11	3	11264	0	1	2	1	0
11	3	28100	0	1	2	3	4
11	3	4.64486e+06	0	1	2	5	4
11	3	100	0	1	5	3	4
11	4	12352	0	1	2	1	0
11	4	28700	0	1	2	3	4
11	4	4.68582e+06	0	1	2	5	4
11	4	350	0	1	5	3	4
11	5	11456	0	1	2	1	0
11	5	31200	0	1	2	3	4
11	5	4.45645e+06	0	1	2	5	4
11	5	50	0	1	5	3	4
11	6	12288	0	1	2	1	0
11	6	29100	0	1	2	3	4
11	6	4.79642e+06	0	1	2	5	4
11	6	50	0	1	5	3	4
11	7	12544	0	1	2	1	0
11	7	30400	0	1	2	3	4
11	7	5.08723e+06	0	1	2	5	4
11	8	12224	0	1	2	1	0
11	8	28400	0	1	2	3	4
11	8	4.66534e+06	0	1	2	5	4
11	8	100	0	1	5	3	4
11	9	11392	0	1	2	1	0
11	9	28800	0	1	2	3	4
11	9	4.69811e+06	0	1	2	5	4
11	9	150	0	1	5	3	4
11	10	13632	0	1	2	1	0
11	10	27800	0	1	2	3	4
11	10	4.86605e+06	0	1	2	5	4
11	10	350	0	1	5	3	4
11	12	13056	0	1	2	1	0
11	12	31700	0	1	2	3	4
11	12	4.7104e+06	0	1	2	5	4
11	12	150	0	1	5	3	4
11	13	12224	0	1	2	1	0
11	13	31100	0	1	2	3	4
11	13	4.7104e+06	0	1	2	5	4
11	13	250	0	1	5	3	4
11	14	12352	0	1	2	1	0
11	14	29700	0	1	2	3	4
11	14	4.7063e+06	0	1	2	5	4
11	14	200	0	1	5	3	4
12	0	13952	0	1	2	1	0
12	0	28500	0	1	2	3	4
12	0	4.47693e+06	0	1	2	5	4
12	0	150	0	1	5	3	4
12	1	12416	0	1	2	1	0
12	1	29100	0	1	2	3	4
12	1	4.55066e+06	0	1	2	5	4
12	2	13056	0	1	2	1	0
12	2	30600	0	1	2	3	4
12	2	4.7104e+06	0	1	2	5	4
12	2	250	0	1	5	3	4
12	3	12224	0	1	2	1	0
12	3	29600	0	1	2	3	4
12	3	4.54656e+06	0	1	2	5	4
12	3	250	0	1	5	3	4
12	4	11904	0	1	2	1	0
12	4	29400	0	1	2	3	4
12	4	4.77594e+06	0	1	2	5	4
12	4	100	0	1	5	3	4
12	5	11968	0	1	2	1	0
12	5	30300	0	1	2	3	4
12	5	4.8169e+06	0	1	2	5	4
12	5	50	0	1	5	3	4
12	6	14016	0	1	2	1	0
12	6	30400	0	1	2	3	4
12	6	4.64896e+06	0	1	2	5	4
12	6	250	0	1	5	3	4
12	7	13824	0	1	2	1	0
12	7	30900	0	1	2	3	4
12	7	4.78822e+06	0	1	2	5	4
12	8	12480	0	1	2	1	0
12	8	30400	0	1	2	3	4
12	8	4.8128e+06	0	1	2	5	4
12	8	100	0	1	5	3	4
12	9	11840	0	1	2	1	0
12	9	29900	0	1	2	3	4
12	9	4.73498e+06	0	1	2	5	4
12	10	12864	0	1	2	1	0
12	10	27700	0	1	2	3	4
12	10	4.73498e+06	0	1	2	5	4
12	10	300	0	1	5	3	4
12	11	13632	0	1	2	1	0
12	11	28600	0	1	2	3	4
12	11	4.55885e+06	0	1	2	5	4
12	11	150	0	1	5	3	4
12	13	13440	0	1	2	1	0
12	13	29500	0	1	2	3	4
12	13	4.66944e+06	0	1	2	5	4
12	13	100	0	1	5	3	4
12	14	11328	0	1	2	1	0
12	14	33100	0	1	2	3	4
12	14	4.72678e+06	0	1	2	5	4
12	14	100	0	1	5	3	4
13	0	11328	0	1	2	1	0
13	0	32100	0	1	2	3	4
13	0	4.43597e+06	0	1	2	5	4
13	0	150	0	1	5	3	4
13	1	12864	0	1	2	1	0
13	1	29700	0	1	2	3	4
13	1	4.69402e+06	0	1	2	5	4
13	1	150	0	1	5	3	4
13	2	11136	0	1	2	1	0
13	2	29900	0	1	2	3	4
13	2	4.98483e+06	0	1	2	5	4
13	2	50	0	1	5	3	4
13	3	12096	0	1	2	1	0
13	3	28200	0	1	2	3	4
13	3	4.82918e+06	0	1	2	5	4
13	3	200	0	1	5	3	4
13	4	10240	0	1	2	1	0
13	4	28800	0	1	2	3	4
13	4	4.62848e+06	0	1	2	5	4
13	4	50	0	1	5	3	4
13	5	11584	0	1	2	1	0
13	5	30700	0	1	2	3	4
13	5	4.65715e+06	0	1	2	5	4
13	5	150	0	1	5	3	4
13	6	11776	0	1	2	1	0
13	6	30900	0	1	2	3	4
13	6	4.68173e+06	0	1	2	5	4
13	7	11904	0	1	2	1	0
13	7	28800	0	1	2	3	4
13	7	4.64896e+06	0	1	2	5	4
13	7	100	0	1	5	3	4
13	8	12480	0	1	2	1	0
13	8	32600	0	1	2	3	4
13	8	4.62029e+06	0	1	2	5	4
13	8	150	0	1	5	3	4
13	9	10816	0	1	2	1	0
13	9	31800	0	1	2	3	4
13	9	4.78822e+06	0	1	2	5	4
13	9	100	0	1	5	3	4
13	10	11072	0	1	2	1	0
13	10	28000	0	1	2	3	4
13	10	4.62438e+06	0	1	2	5	4
13	10	250	0	1	5	3	4
13	11	13440	0	1	2	1	0
13	11	28800	0	1	2	3	4
13	11	4.70221e+06	0	1	2	5	4
13	11	100	0	1	5	3	4
13	12	12608	0	1	2	1	0
13	12	30300	0	1	2	3	4
13	12	4.82509e+06	0	1	2	5	4
13	14	11840	0	1	2	1	0
13	14	31200	0	1	2	3	4
13	14	4.68992e+06	0	1	2	5	4
13	14	150	0	1	5	3	4
14	0	11264	0	1	2	1	0
14	0	30200	0	1	2	3	4
14	0	4.82918e+06	0	1	2	5	4
14	0	50	0	1	5	3	4
14	1	12864	0	1	2	1	0
14	1	31600	0	1	2	3	4
14	1	4.8087e+06	0	1	2	5	4
14	1	50	0	1	5	3	4
14	2	12992	0	1	2	1	0
14	2	30200	0	1	2	3	4
14	2	4.75955e+06	0	1	2	5	4
14	2	150	0	1	5	3	4
14	3	11840	0	1	2	1	0
14	3	32200	0	1	2	3	4
14	3	4.68173e+06	0	1	2	5	4
14	3	200	0	1	5	3	4
14	4	11840	0	1	2	1	0
14	4	30500	0	1	2	3	4
14	4	4.66534e+06	0	1	2	5	4
14	4	150	0	1	5	3	4
14	5	11456	0	1	2	1	0
14	5	27300	0	1	2	3	4
14	5	4.73907e+06	0	1	2	5	4
14	5	150	0	1	5	3	4
14	6	13504	0	1	2	1	0
14	6	27500	0	1	2	3	4
14	6	4.96435e+06	0	1	2	5	4
14	6	250	0	1	5	3	4
14	7	12672	0	1	2	1	0
14	7	32400	0	1	2	3	4
14	7	4.99302e+06	0	1	2	5	4
14	7	100	0	1	5	3	4
14	8	12288	0	1	2	1	0
14	8	28000	0	1	2	3	4
14	8	4.87014e+06	0	1	2	5	4
14	8	50	0	1	5	3	4
14	9	11264	0	1	2	1	0
14	9	32100	0	1	2	3	4
14	9	4.70221e+06	0	1	2	5	4
14	10	11456	0	1	2	1	0
14	10	28300	0	1	2	3	4
14	10	4.62029e+06	0	1	2	5	4
14	10	200	0	1	5	3	4
14	11	12160	0	1	2	1	0
14	11	29500	0	1	2	3	4
14	11	4.79642e+06	0	1	2	5	4
14	11	50	0	1	5	3	4
14	12	11840	0	1	2	1	0
14	12	31100	0	1	2	3	4
14	12	4.66944e+06	0	1	2	5	4
14	12	150	0	1	5	3	4
14	13	11584	0	1	2	1	0
14	13	32300	0	1	2	3	4
14	13	4.63667e+06	0	1	2	5	4
14	13	100	0	1	5	3	4
