100000
0	1	1.14378e+07	0	0	0	0	0
0	2	1.12444e+07	0	0	0	0	0
0	3	1.13241e+07	0	0	0	0	0
0	4	1.13202e+07	0	0	0	0	0
0	5	1.08459e+07	0	0	0	0	0
0	6	1.08864e+07	0	0	0	0	0
0	7	1.11386e+07	0	0	0	0	0
0	8	1.09831e+07	0	0	0	0	0
0	9	1.11203e+07	0	0	0	0	0
1	0	1.11333e+07	0	0	0	0	0
1	2	1.11477e+07	0	0	0	0	0
1	3	1.10654e+07	0	0	0	0	0
1	4	1.12967e+07	0	0	0	0	0
1	5	1.10249e+07	0	0	0	0	0
1	6	1.10628e+07	0	0	0	0	0
1	7	1.11007e+07	0	0	0	0	0
1	8	1.12196e+07	0	0	0	0	0
1	9	1.12653e+07	0	0	0	0	0
2	0	1.1038e+07	0	0	0	0	0
2	1	1.08812e+07	0	0	0	0	0
2	3	1.12235e+07	0	0	0	0	0
2	4	1.10615e+07	0	0	0	0	0
2	5	1.13202e+07	0	0	0	0	0
2	6	1.11333e+07	0	0	0	0	0
2	7	1.12052e+07	0	0	0	0	0
2	8	1.1102e+07	0	0	0	0	0
2	9	1.08968e+07	0	0	0	0	0
3	0	1.11007e+07	0	0	0	0	0
3	1	1.09883e+07	0	0	0	0	0
3	2	1.11281e+07	0	0	0	0	0
3	4	1.08982e+07	0	0	0	0	0
3	5	1.10131e+07	0	0	0	0	0
3	6	1.11412e+07	0	0	0	0	0
3	7	1.12209e+07	0	0	0	0	0
3	8	1.10184e+07	0	0	0	0	0
3	9	1.10589e+07	0	0	0	0	0
4	0	1.10863e+07	0	0	0	0	0
4	1	1.12143e+07	0	0	0	0	0
4	2	1.10471e+07	0	0	0	0	0
4	3	1.10693e+07	0	0	0	0	0
4	5	1.10824e+07	0	0	0	0	0
4	6	1.11516e+07	0	0	0	0	0
4	7	1.10523e+07	0	0	0	0	0
4	8	1.13724e+07	0	0	0	0	0
4	9	1.12078e+07	0	0	0	0	0
5	0	1.1051e+07	0	0	0	0	0
5	1	1.10393e+07	0	0	0	0	0
5	2	1.10288e+07	0	0	0	0	0
5	3	1.11137e+07	0	0	0	0	0
5	4	1.10471e+07	0	0	0	0	0
5	6	1.10079e+07	0	0	0	0	0
5	7	1.11124e+07	0	0	0	0	0
5	8	1.1004e+07	0	0	0	0	0
5	9	1.12522e+07	0	0	0	0	0
6	0	1.11203e+07	0	0	0	0	0
6	1	1.12379e+07	0	0	0	0	0
6	2	1.11647e+07	0	0	0	0	0
6	3	1.1149e+07	0	0	0	0	0
6	4	1.10066e+07	0	0	0	0	0
6	5	1.08093e+07	0	0	0	0	0
6	7	1.11791e+07	0	0	0	0	0
6	8	1.10406e+07	0	0	0	0	0
6	9	1.10471e+07	0	0	0	0	0
7	0	1.10941e+07	0	0	0	0	0
7	1	1.11686e+07	0	0	0	0	0
7	2	1.11346e+07	0	0	0	0	0
7	3	1.11425e+07	0	0	0	0	0
7	4	1.13045e+07	0	0	0	0	0
7	5	1.11791e+07	0	0	0	0	0
7	6	1.10536e+07	0	0	0	0	0
7	8	1.10732e+07	0	0	0	0	0
7	9	1.11725e+07	0	0	0	0	0
8	0	1.10576e+07	0	0	0	0	0
8	1	1.10811e+07	0	0	0	0	0
8	2	1.09308e+07	0	0	0	0	0
8	3	1.09792e+07	0	0	0	0	0
8	4	1.10915e+07	0	0	0	0	0
8	5	1.11712e+07	0	0	0	0	0
8	6	1.11399e+07	0	0	0	0	0
8	7	1.09413e+07	0	0	0	0	0
8	9	1.10889e+07	0	0	0	0	0
9	0	1.11477e+07	0	0	0	0	0
9	1	1.11542e+07	0	0	0	0	0
9	2	1.11216e+07	0	0	0	0	0
9	3	1.11882e+07	0	0	0	0	0
9	4	1.11268e+07	0	0	0	0	0
9	5	1.1183e+07	0	0	0	0	0
9	6	1.12222e+07	0	0	0	0	0
9	7	1.11595e+07	0	0	0	0	0
9	8	1.11529e+07	0	0	0	0	0
