18
0	1	1e+12
0	3	1e+12
0	4	1e+12
0	12	1e+12
1	0	1e+12
1	5	1e+12
1	7	1e+12
1	11	1e+12
1	13	1e+12
1	14	1e+12
2	5	1e+12
2	9	1e+12
2	17	1e+12
3	0	1e+12
3	4	1e+12
3	12	1e+12
4	0	1e+12
4	3	1e+12
4	16	1e+12
5	1	1e+12
5	2	1e+12
5	7	1e+12
5	11	1e+12
6	8	1e+12
6	9	1e+12
6	10	1e+12
6	11	1e+12
7	1	1e+12
7	5	1e+12
7	8	1e+12
7	14	1e+12
7	15	1e+12
7	16	1e+12
8	6	1e+12
8	7	1e+12
9	2	1e+12
9	6	1e+12
10	6	1e+12
11	1	1e+12
11	5	1e+12
11	6	1e+12
11	12	1e+12
11	13	1e+12
11	17	1e+12
12	0	1e+12
12	3	1e+12
12	11	1e+12
13	1	1e+12
13	11	1e+12
14	1	1e+12
14	7	1e+12
14	15	1e+12
14	17	1e+12
15	7	1e+12
15	14	1e+12
16	4	1e+12
16	7	1e+12
17	2	1e+12
17	11	1e+12
17	14	1e+12
