100000	100000	100000	10000	1000	1000
0	1	14656	0	1	2	1	0
0	1	34800	0	1	2	3	4
0	1	5.70982e+06	0	1	2	5	4
0	1	250	0	1	5	3	4
0	2	16704	0	1	2	1	0
0	2	34000	0	1	2	3	4
0	2	5.35347e+06	0	1	2	5	4
0	2	100	0	1	5	3	4
0	3	14592	0	1	2	1	0
0	3	31100	0	1	2	3	4
0	3	5.34938e+06	0	1	2	5	4
0	3	150	0	1	5	3	4
0	4	14144	0	1	2	1	0
0	4	35100	0	1	2	3	4
0	4	5.2183e+06	0	1	2	5	4
0	4	100	0	1	5	3	4
0	5	13888	0	1	2	1	0
0	5	33000	0	1	2	3	4
0	5	5.66886e+06	0	1	2	5	4
0	5	300	0	1	5	3	4
0	6	14976	0	1	2	1	0
0	6	36900	0	1	2	3	4
0	6	5.53779e+06	0	1	2	5	4
0	6	50	0	1	5	3	4
0	7	15168	0	1	2	1	0
0	7	35300	0	1	2	3	4
0	7	5.41491e+06	0	1	2	5	4
0	8	14080	0	1	2	1	0
0	8	33400	0	1	2	3	4
0	8	5.58285e+06	0	1	2	5	4
0	8	100	0	1	5	3	4
0	9	14464	0	1	2	1	0
0	9	34900	0	1	2	3	4
0	9	5.61562e+06	0	1	2	5	4
0	9	150	0	1	5	3	4
0	10	13376	0	1	2	1	0
0	10	33700	0	1	2	3	4
0	10	5.41491e+06	0	1	2	5	4
0	10	200	0	1	5	3	4
0	11	15360	0	1	2	1	0
0	11	31200	0	1	2	3	4
0	11	5.37805e+06	0	1	2	5	4
0	11	150	0	1	5	3	4
0	12	15808	0	1	2	1	0
0	12	34900	0	1	2	3	4
0	12	5.50502e+06	0	1	2	5	4
0	12	50	0	1	5	3	4
0	13	15552	0	1	2	1	0
0	13	34300	0	1	2	3	4
0	13	5.57056e+06	0	1	2	5	4
0	13	150	0	1	5	3	4
1	0	14912	0	1	2	1	0
1	0	34300	0	1	2	3	4
1	0	5.5296e+06	0	1	2	5	4
1	0	250	0	1	5	3	4
1	2	14016	0	1	2	1	0
1	2	32400	0	1	2	3	4
1	2	5.57056e+06	0	1	2	5	4
1	2	150	0	1	5	3	4
1	3	15488	0	1	2	1	0
1	3	34400	0	1	2	3	4
1	3	5.55418e+06	0	1	2	5	4
1	3	200	0	1	5	3	4
1	4	15488	0	1	2	1	0
1	4	35600	0	1	2	3	4
1	4	5.44768e+06	0	1	2	5	4
1	4	300	0	1	5	3	4
1	5	13952	0	1	2	1	0
1	5	34300	0	1	2	3	4
1	5	5.58694e+06	0	1	2	5	4
1	5	200	0	1	5	3	4
1	6	12544	0	1	2	1	0
1	6	37800	0	1	2	3	4
1	6	5.45587e+06	0	1	2	5	4
1	6	300	0	1	5	3	4
1	7	12800	0	1	2	1	0
1	7	36700	0	1	2	3	4
1	7	5.58694e+06	0	1	2	5	4
1	8	14464	0	1	2	1	0
1	8	37500	0	1	2	3	4
1	8	5.23469e+06	0	1	2	5	4
1	8	200	0	1	5	3	4
1	9	13504	0	1	2	1	0
1	9	35900	0	1	2	3	4
1	9	5.45997e+06	0	1	2	5	4
1	9	50	0	1	5	3	4
1	10	16576	0	1	2	1	0
1	10	35800	0	1	2	3	4
1	10	5.25926e+06	0	1	2	5	4
1	10	150	0	1	5	3	4
1	11	14144	0	1	2	1	0
1	11	33600	0	1	2	3	4
1	11	5.3248e+06	0	1	2	5	4
1	11	150	0	1	5	3	4
1	12	15296	0	1	2	1	0
1	12	33400	0	1	2	3	4
1	12	5.68115e+06	0	1	2	5	4
1	12	100	0	1	5	3	4
1	13	13376	0	1	2	1	0
1	13	33700	0	1	2	3	4
1	13	5.46816e+06	0	1	2	5	4
1	13	100	0	1	5	3	4
2	0	14144	0	1	2	1	0
2	0	36600	0	1	2	3	4
2	0	5.34118e+06	0	1	2	5	4
2	0	150	0	1	5	3	4
2	1	15040	0	1	2	1	0
2	1	36800	0	1	2	3	4
2	1	5.38214e+06	0	1	2	5	4
2	1	50	0	1	5	3	4
2	3	15936	0	1	2	1	0
2	3	35000	0	1	2	3	4
2	3	5.4272e+06	0	1	2	5	4
2	3	50	0	1	5	3	4
2	4	14592	0	1	2	1	0
2	4	33200	0	1	2	3	4
2	4	5.5337e+06	0	1	2	5	4
2	4	100	0	1	5	3	4
2	5	15680	0	1	2	1	0
2	5	31600	0	1	2	3	4
2	5	5.2183e+06	0	1	2	5	4
2	5	100	0	1	5	3	4
2	6	13952	0	1	2	1	0
2	6	36300	0	1	2	3	4
2	6	5.3248e+06	0	1	2	5	4
2	6	150	0	1	5	3	4
2	7	14400	0	1	2	1	0
2	7	38100	0	1	2	3	4
2	7	5.36166e+06	0	1	2	5	4
2	7	200	0	1	5	3	4
2	8	14784	0	1	2	1	0
2	8	36600	0	1	2	3	4
2	8	5.43539e+06	0	1	2	5	4
2	8	100	0	1	5	3	4
2	9	15424	0	1	2	1	0
2	9	37300	0	1	2	3	4
2	9	5.43949e+06	0	1	2	5	4
2	9	100	0	1	5	3	4
2	10	14144	0	1	2	1	0
2	10	35600	0	1	2	3	4
2	10	5.66067e+06	0	1	2	5	4
2	10	200	0	1	5	3	4
2	11	16128	0	1	2	1	0
2	11	36500	0	1	2	3	4
2	11	5.33299e+06	0	1	2	5	4
2	11	100	0	1	5	3	4
2	12	14528	0	1	2	1	0
2	12	33600	0	1	2	3	4
2	12	5.60742e+06	0	1	2	5	4
2	12	200	0	1	5	3	4
2	13	14080	0	1	2	1	0
2	13	36500	0	1	2	3	4
2	13	5.33709e+06	0	1	2	5	4
2	13	100	0	1	5	3	4
3	0	13696	0	1	2	1	0
3	0	35100	0	1	2	3	4
3	0	5.7385e+06	0	1	2	5	4
3	0	100	0	1	5	3	4
3	1	13888	0	1	2	1	0
3	1	33500	0	1	2	3	4
3	1	5.4313e+06	0	1	2	5	4
3	1	150	0	1	5	3	4
3	2	13824	0	1	2	1	0
3	2	35000	0	1	2	3	4
3	2	5.60742e+06	0	1	2	5	4
3	2	150	0	1	5	3	4
3	4	14912	0	1	2	1	0
3	4	35000	0	1	2	3	4
3	4	5.6279e+06	0	1	2	5	4
3	4	250	0	1	5	3	4
3	5	14912	0	1	2	1	0
3	5	33300	0	1	2	3	4
3	5	5.25517e+06	0	1	2	5	4
3	5	50	0	1	5	3	4
3	6	15040	0	1	2	1	0
3	6	33700	0	1	2	3	4
3	6	5.40262e+06	0	1	2	5	4
3	6	150	0	1	5	3	4
3	7	13696	0	1	2	1	0
3	7	35100	0	1	2	3	4
3	7	5.61971e+06	0	1	2	5	4
3	7	200	0	1	5	3	4
3	8	14848	0	1	2	1	0
3	8	31300	0	1	2	3	4
3	8	5.87776e+06	0	1	2	5	4
3	8	200	0	1	5	3	4
3	9	13120	0	1	2	1	0
3	9	35300	0	1	2	3	4
3	9	5.39853e+06	0	1	2	5	4
3	10	13952	0	1	2	1	0
3	10	36500	0	1	2	3	4
3	10	5.61562e+06	0	1	2	5	4
3	10	50	0	1	5	3	4
3	11	15744	0	1	2	1	0
3	11	35200	0	1	2	3	4
3	11	5.61152e+06	0	1	2	5	4
3	12	15040	0	1	2	1	0
3	12	34100	0	1	2	3	4
3	12	5.47635e+06	0	1	2	5	4
3	12	200	0	1	5	3	4
3	13	13184	0	1	2	1	0
3	13	36600	0	1	2	3	4
3	13	5.48454e+06	0	1	2	5	4
3	13	150	0	1	5	3	4
4	0	15616	0	1	2	1	0
4	0	37700	0	1	2	3	4
4	0	5.47226e+06	0	1	2	5	4
4	0	150	0	1	5	3	4
4	1	15104	0	1	2	1	0
4	1	38400	0	1	2	3	4
4	1	5.57466e+06	0	1	2	5	4
4	1	250	0	1	5	3	4
4	2	13376	0	1	2	1	0
4	2	35000	0	1	2	3	4
4	2	5.57875e+06	0	1	2	5	4
4	3	13568	0	1	2	1	0
4	3	34800	0	1	2	3	4
4	3	5.31251e+06	0	1	2	5	4
4	3	350	0	1	5	3	4
4	5	14720	0	1	2	1	0
4	5	32400	0	1	2	3	4
4	5	5.37805e+06	0	1	2	5	4
4	5	100	0	1	5	3	4
4	6	12992	0	1	2	1	0
4	6	32900	0	1	2	3	4
4	6	5.31251e+06	0	1	2	5	4
4	6	150	0	1	5	3	4
4	7	15040	0	1	2	1	0
4	7	35900	0	1	2	3	4
4	7	5.18554e+06	0	1	2	5	4
4	7	250	0	1	5	3	4
4	8	13632	0	1	2	1	0
4	8	33900	0	1	2	3	4
4	8	5.37805e+06	0	1	2	5	4
4	8	100	0	1	5	3	4
4	9	14528	0	1	2	1	0
4	9	33700	0	1	2	3	4
4	9	5.48045e+06	0	1	2	5	4
4	9	250	0	1	5	3	4
4	10	16064	0	1	2	1	0
4	10	32900	0	1	2	3	4
4	10	5.29613e+06	0	1	2	5	4
4	10	100	0	1	5	3	4
4	11	13312	0	1	2	1	0
4	11	35300	0	1	2	3	4
4	11	5.53779e+06	0	1	2	5	4
4	11	150	0	1	5	3	4
4	12	14976	0	1	2	1	0
4	12	34800	0	1	2	3	4
4	12	5.23469e+06	0	1	2	5	4
4	13	13312	0	1	2	1	0
4	13	36700	0	1	2	3	4
4	13	5.37395e+06	0	1	2	5	4
4	13	100	0	1	5	3	4
5	0	14144	0	1	2	1	0
5	0	34200	0	1	2	3	4
5	0	5.37805e+06	0	1	2	5	4
5	0	50	0	1	5	3	4
5	1	14656	0	1	2	1	0
5	1	36700	0	1	2	3	4
5	1	5.51731e+06	0	1	2	5	4
5	1	100	0	1	5	3	4
5	2	14592	0	1	2	1	0
5	2	34600	0	1	2	3	4
5	2	5.28794e+06	0	1	2	5	4
5	2	250	0	1	5	3	4
5	3	14336	0	1	2	1	0
5	3	35800	0	1	2	3	4
5	3	5.20602e+06	0	1	2	5	4
5	3	50	0	1	5	3	4
5	4	13568	0	1	2	1	0
5	4	32500	0	1	2	3	4
5	4	5.5255e+06	0	1	2	5	4
5	4	150	0	1	5	3	4
5	6	13056	0	1	2	1	0
5	6	31000	0	1	2	3	4
5	6	5.35757e+06	0	1	2	5	4
5	6	50	0	1	5	3	4
5	7	14784	0	1	2	1	0
5	7	33500	0	1	2	3	4
5	7	5.48045e+06	0	1	2	5	4
5	7	250	0	1	5	3	4
5	8	12096	0	1	2	1	0
5	8	36400	0	1	2	3	4
5	8	5.21011e+06	0	1	2	5	4
5	8	150	0	1	5	3	4
5	9	15424	0	1	2	1	0
5	9	36500	0	1	2	3	4
5	9	5.632e+06	0	1	2	5	4
5	9	400	0	1	5	3	4
5	10	13440	0	1	2	1	0
5	10	34600	0	1	2	3	4
5	10	5.24288e+06	0	1	2	5	4
5	10	150	0	1	5	3	4
5	11	12672	0	1	2	1	0
5	11	33000	0	1	2	3	4
5	11	5.56237e+06	0	1	2	5	4
5	11	50	0	1	5	3	4
5	12	14656	0	1	2	1	0
5	12	36400	0	1	2	3	4
5	12	5.4272e+06	0	1	2	5	4
5	12	250	0	1	5	3	4
5	13	14720	0	1	2	1	0
5	13	37600	0	1	2	3	4
5	13	5.46816e+06	0	1	2	5	4
5	13	200	0	1	5	3	4
6	0	14976	0	1	2	1	0
6	0	33200	0	1	2	3	4
6	0	5.68934e+06	0	1	2	5	4
6	0	150	0	1	5	3	4
6	1	14912	0	1	2	1	0
6	1	35500	0	1	2	3	4
6	1	5.14048e+06	0	1	2	5	4
6	1	200	0	1	5	3	4
6	2	15424	0	1	2	1	0
6	2	34700	0	1	2	3	4
6	2	5.47635e+06	0	1	2	5	4
6	2	200	0	1	5	3	4
6	3	14848	0	1	2	1	0
6	3	32800	0	1	2	3	4
6	3	5.30842e+06	0	1	2	5	4
6	3	250	0	1	5	3	4
6	4	14592	0	1	2	1	0
6	4	34100	0	1	2	3	4
6	4	5.36986e+06	0	1	2	5	4
6	4	150	0	1	5	3	4
6	5	14208	0	1	2	1	0
6	5	35200	0	1	2	3	4
6	5	5.34528e+06	0	1	2	5	4
6	7	13696	0	1	2	1	0
6	7	35900	0	1	2	3	4
6	7	5.43539e+06	0	1	2	5	4
6	7	150	0	1	5	3	4
6	8	13248	0	1	2	1	0
6	8	35800	0	1	2	3	4
6	8	5.61562e+06	0	1	2	5	4
6	8	250	0	1	5	3	4
6	9	14400	0	1	2	1	0
6	9	30900	0	1	2	3	4
6	9	5.46406e+06	0	1	2	5	4
6	9	150	0	1	5	3	4
6	10	14272	0	1	2	1	0
6	10	36200	0	1	2	3	4
6	10	5.60333e+06	0	1	2	5	4
6	10	100	0	1	5	3	4
6	11	14784	0	1	2	1	0
6	11	38600	0	1	2	3	4
6	11	5.55418e+06	0	1	2	5	4
6	11	250	0	1	5	3	4
6	12	13376	0	1	2	1	0
6	12	36500	0	1	2	3	4
6	12	5.45587e+06	0	1	2	5	4
6	12	100	0	1	5	3	4
6	13	14656	0	1	2	1	0
6	13	34200	0	1	2	3	4
6	13	5.84909e+06	0	1	2	5	4
6	13	250	0	1	5	3	4
7	0	16768	0	1	2	1	0
7	0	33400	0	1	2	3	4
7	0	5.3207e+06	0	1	2	5	4
7	0	200	0	1	5	3	4
7	1	13952	0	1	2	1	0
7	1	33900	0	1	2	3	4
7	1	5.25517e+06	0	1	2	5	4
7	1	100	0	1	5	3	4
7	2	14208	0	1	2	1	0
7	2	34500	0	1	2	3	4
7	2	5.48864e+06	0	1	2	5	4
7	2	50	0	1	5	3	4
7	3	15360	0	1	2	1	0
7	3	35200	0	1	2	3	4
7	3	5.23878e+06	0	1	2	5	4
7	3	50	0	1	5	3	4
7	4	16448	0	1	2	1	0
7	4	33700	0	1	2	3	4
7	4	5.34528e+06	0	1	2	5	4
7	4	200	0	1	5	3	4
7	5	14656	0	1	2	1	0
7	5	39200	0	1	2	3	4
7	5	5.23469e+06	0	1	2	5	4
7	5	50	0	1	5	3	4
7	6	13952	0	1	2	1	0
7	6	35100	0	1	2	3	4
7	6	5.47635e+06	0	1	2	5	4
7	6	200	0	1	5	3	4
7	8	13440	0	1	2	1	0
7	8	34100	0	1	2	3	4
7	8	5.39034e+06	0	1	2	5	4
7	8	100	0	1	5	3	4
7	9	13376	0	1	2	1	0
7	9	35100	0	1	2	3	4
7	9	5.5255e+06	0	1	2	5	4
7	9	150	0	1	5	3	4
7	10	14848	0	1	2	1	0
7	10	33300	0	1	2	3	4
7	10	5.70163e+06	0	1	2	5	4
7	10	150	0	1	5	3	4
7	11	15232	0	1	2	1	0
7	11	36300	0	1	2	3	4
7	11	5.34528e+06	0	1	2	5	4
7	11	50	0	1	5	3	4
7	12	13632	0	1	2	1	0
7	12	37000	0	1	2	3	4
7	12	5.25107e+06	0	1	2	5	4
7	13	13120	0	1	2	1	0
7	13	34100	0	1	2	3	4
7	13	5.28794e+06	0	1	2	5	4
7	13	100	0	1	5	3	4
8	0	13952	0	1	2	1	0
8	0	32400	0	1	2	3	4
8	0	5.44768e+06	0	1	2	5	4
8	1	12480	0	1	2	1	0
8	1	32900	0	1	2	3	4
8	1	5.3289e+06	0	1	2	5	4
8	1	150	0	1	5	3	4
8	2	15104	0	1	2	1	0
8	2	33500	0	1	2	3	4
8	2	5.61152e+06	0	1	2	5	4
8	2	150	0	1	5	3	4
8	3	14336	0	1	2	1	0
8	3	34400	0	1	2	3	4
8	3	5.3207e+06	0	1	2	5	4
8	3	300	0	1	5	3	4
8	4	14400	0	1	2	1	0
8	4	35500	0	1	2	3	4
8	4	5.48864e+06	0	1	2	5	4
8	4	100	0	1	5	3	4
8	5	14080	0	1	2	1	0
8	5	32800	0	1	2	3	4
8	5	5.47226e+06	0	1	2	5	4
8	5	200	0	1	5	3	4
8	6	15488	0	1	2	1	0
8	6	34300	0	1	2	3	4
8	6	5.6361e+06	0	1	2	5	4
8	6	200	0	1	5	3	4
8	7	16000	0	1	2	1	0
8	7	35800	0	1	2	3	4
8	7	5.4313e+06	0	1	2	5	4
8	9	14784	0	1	2	1	0
8	9	35700	0	1	2	3	4
8	9	5.34528e+06	0	1	2	5	4
8	9	100	0	1	5	3	4
8	10	11520	0	1	2	1	0
8	10	32600	0	1	2	3	4
8	10	5.33299e+06	0	1	2	5	4
8	10	350	0	1	5	3	4
8	11	15488	0	1	2	1	0
8	11	32200	0	1	2	3	4
8	11	5.44358e+06	0	1	2	5	4
8	11	50	0	1	5	3	4
8	12	14912	0	1	2	1	0
8	12	37600	0	1	2	3	4
8	12	5.3207e+06	0	1	2	5	4
8	12	200	0	1	5	3	4
8	13	14848	0	1	2	1	0
8	13	35200	0	1	2	3	4
8	13	5.54598e+06	0	1	2	5	4
8	13	200	0	1	5	3	4
9	0	15808	0	1	2	1	0
9	0	34800	0	1	2	3	4
9	0	5.61971e+06	0	1	2	5	4
9	0	150	0	1	5	3	4
9	1	15680	0	1	2	1	0
9	1	34100	0	1	2	3	4
9	1	5.41901e+06	0	1	2	5	4
9	1	50	0	1	5	3	4
9	2	14784	0	1	2	1	0
9	2	33300	0	1	2	3	4
9	2	5.72621e+06	0	1	2	5	4
9	2	150	0	1	5	3	4
9	3	14016	0	1	2	1	0
9	3	34400	0	1	2	3	4
9	3	5.45997e+06	0	1	2	5	4
9	3	250	0	1	5	3	4
9	4	14144	0	1	2	1	0
9	4	34500	0	1	2	3	4
9	4	5.4313e+06	0	1	2	5	4
9	4	150	0	1	5	3	4
9	5	13824	0	1	2	1	0
9	5	34800	0	1	2	3	4
9	5	5.4313e+06	0	1	2	5	4
9	5	100	0	1	5	3	4
9	6	14848	0	1	2	1	0
9	6	32100	0	1	2	3	4
9	6	5.28384e+06	0	1	2	5	4
9	6	100	0	1	5	3	4
9	7	14144	0	1	2	1	0
9	7	33300	0	1	2	3	4
9	7	5.33709e+06	0	1	2	5	4
9	7	300	0	1	5	3	4
9	8	13888	0	1	2	1	0
9	8	36400	0	1	2	3	4
9	8	5.2183e+06	0	1	2	5	4
9	8	100	0	1	5	3	4
9	10	15424	0	1	2	1	0
9	10	37000	0	1	2	3	4
9	10	5.58694e+06	0	1	2	5	4
9	10	150	0	1	5	3	4
9	11	14336	0	1	2	1	0
9	11	32800	0	1	2	3	4
9	11	5.54598e+06	0	1	2	5	4
9	11	50	0	1	5	3	4
9	12	14464	0	1	2	1	0
9	12	33500	0	1	2	3	4
9	12	5.71802e+06	0	1	2	5	4
9	12	100	0	1	5	3	4
9	13	14208	0	1	2	1	0
9	13	34600	0	1	2	3	4
9	13	5.75078e+06	0	1	2	5	4
9	13	200	0	1	5	3	4
10	0	14528	0	1	2	1	0
10	0	33900	0	1	2	3	4
10	0	5.48045e+06	0	1	2	5	4
10	0	150	0	1	5	3	4
10	1	14400	0	1	2	1	0
10	1	34200	0	1	2	3	4
10	1	5.50912e+06	0	1	2	5	4
10	1	200	0	1	5	3	4
10	2	13824	0	1	2	1	0
10	2	33300	0	1	2	3	4
10	2	5.17734e+06	0	1	2	5	4
10	2	100	0	1	5	3	4
10	3	14336	0	1	2	1	0
10	3	36700	0	1	2	3	4
10	3	5.54189e+06	0	1	2	5	4
10	4	13952	0	1	2	1	0
10	4	36000	0	1	2	3	4
10	4	5.52141e+06	0	1	2	5	4
10	4	250	0	1	5	3	4
10	5	13952	0	1	2	1	0
10	5	30300	0	1	2	3	4
10	5	5.58694e+06	0	1	2	5	4
10	5	100	0	1	5	3	4
10	6	15552	0	1	2	1	0
10	6	34500	0	1	2	3	4
10	6	5.50912e+06	0	1	2	5	4
10	6	100	0	1	5	3	4
10	7	13248	0	1	2	1	0
10	7	32400	0	1	2	3	4
10	7	5.30022e+06	0	1	2	5	4
10	7	50	0	1	5	3	4
10	8	15168	0	1	2	1	0
10	8	34100	0	1	2	3	4
10	8	5.57875e+06	0	1	2	5	4
10	8	300	0	1	5	3	4
10	9	13568	0	1	2	1	0
10	9	33900	0	1	2	3	4
10	9	5.64019e+06	0	1	2	5	4
10	9	150	0	1	5	3	4
10	11	15552	0	1	2	1	0
10	11	29300	0	1	2	3	4
10	11	5.40262e+06	0	1	2	5	4
10	11	200	0	1	5	3	4
10	12	13376	0	1	2	1	0
10	12	33500	0	1	2	3	4
10	12	5.36986e+06	0	1	2	5	4
10	12	150	0	1	5	3	4
10	13	13312	0	1	2	1	0
10	13	35800	0	1	2	3	4
10	13	5.41901e+06	0	1	2	5	4
10	13	200	0	1	5	3	4
11	0	16192	0	1	2	1	0
11	0	38400	0	1	2	3	4
11	0	5.26336e+06	0	1	2	5	4
11	0	200	0	1	5	3	4
11	1	13696	0	1	2	1	0
11	1	35700	0	1	2	3	4
11	1	5.55827e+06	0	1	2	5	4
11	2	14528	0	1	2	1	0
11	2	35900	0	1	2	3	4
11	2	5.35757e+06	0	1	2	5	4
11	2	150	0	1	5	3	4
11	3	13312	0	1	2	1	0
11	3	33800	0	1	2	3	4
11	3	5.23469e+06	0	1	2	5	4
11	3	200	0	1	5	3	4
11	4	13696	0	1	2	1	0
11	4	35500	0	1	2	3	4
11	4	5.17734e+06	0	1	2	5	4
11	4	150	0	1	5	3	4
11	5	15616	0	1	2	1	0
11	5	34200	0	1	2	3	4
11	5	5.34118e+06	0	1	2	5	4
11	5	200	0	1	5	3	4
11	6	13760	0	1	2	1	0
11	6	35700	0	1	2	3	4
11	6	5.27974e+06	0	1	2	5	4
11	6	50	0	1	5	3	4
11	7	13440	0	1	2	1	0
11	7	33400	0	1	2	3	4
11	7	5.0217e+06	0	1	2	5	4
11	7	150	0	1	5	3	4
11	8	15296	0	1	2	1	0
11	8	38600	0	1	2	3	4
11	8	5.70982e+06	0	1	2	5	4
11	8	200	0	1	5	3	4
11	9	13568	0	1	2	1	0
11	9	32600	0	1	2	3	4
11	9	5.55418e+06	0	1	2	5	4
11	9	50	0	1	5	3	4
11	10	13248	0	1	2	1	0
11	10	33000	0	1	2	3	4
11	10	5.64429e+06	0	1	2	5	4
11	10	100	0	1	5	3	4
11	12	14848	0	1	2	1	0
11	12	34900	0	1	2	3	4
11	12	5.59514e+06	0	1	2	5	4
11	12	150	0	1	5	3	4
11	13	13440	0	1	2	1	0
11	13	34100	0	1	2	3	4
11	13	5.5337e+06	0	1	2	5	4
11	13	150	0	1	5	3	4
12	0	15232	0	1	2	1	0
12	0	37000	0	1	2	3	4
12	0	5.37805e+06	0	1	2	5	4
12	0	50	0	1	5	3	4
12	1	14784	0	1	2	1	0
12	1	35000	0	1	2	3	4
12	1	5.31661e+06	0	1	2	5	4
12	1	250	0	1	5	3	4
12	2	15488	0	1	2	1	0
12	2	37200	0	1	2	3	4
12	2	5.27155e+06	0	1	2	5	4
12	2	50	0	1	5	3	4
12	3	14464	0	1	2	1	0
12	3	34800	0	1	2	3	4
12	3	5.46816e+06	0	1	2	5	4
12	3	100	0	1	5	3	4
12	4	15808	0	1	2	1	0
12	4	35700	0	1	2	3	4
12	4	5.47226e+06	0	1	2	5	4
12	4	100	0	1	5	3	4
12	5	15552	0	1	2	1	0
12	5	33400	0	1	2	3	4
12	5	5.30432e+06	0	1	2	5	4
12	5	200	0	1	5	3	4
12	6	14592	0	1	2	1	0
12	6	34800	0	1	2	3	4
12	6	5.2224e+06	0	1	2	5	4
12	6	150	0	1	5	3	4
12	7	14336	0	1	2	1	0
12	7	36800	0	1	2	3	4
12	7	5.45997e+06	0	1	2	5	4
12	7	50	0	1	5	3	4
12	8	13632	0	1	2	1	0
12	8	34000	0	1	2	3	4
12	8	5.33709e+06	0	1	2	5	4
12	8	50	0	1	5	3	4
12	9	15104	0	1	2	1	0
12	9	35800	0	1	2	3	4
12	9	5.47635e+06	0	1	2	5	4
12	9	200	0	1	5	3	4
12	10	15168	0	1	2	1	0
12	10	37800	0	1	2	3	4
12	10	5.44358e+06	0	1	2	5	4
12	11	15104	0	1	2	1	0
12	11	35200	0	1	2	3	4
12	11	5.66067e+06	0	1	2	5	4
12	13	13504	0	1	2	1	0
12	13	38800	0	1	2	3	4
12	13	5.57056e+06	0	1	2	5	4
12	13	50	0	1	5	3	4
13	0	14272	0	1	2	1	0
13	0	32400	0	1	2	3	4
13	0	5.41901e+06	0	1	2	5	4
13	0	150	0	1	5	3	4
13	1	14784	0	1	2	1	0
13	1	36500	0	1	2	3	4
13	1	5.4313e+06	0	1	2	5	4
13	1	200	0	1	5	3	4
13	2	14784	0	1	2	1	0
13	2	33800	0	1	2	3	4
13	2	5.37395e+06	0	1	2	5	4
13	2	50	0	1	5	3	4
13	3	14400	0	1	2	1	0
13	3	31500	0	1	2	3	4
13	3	5.19782e+06	0	1	2	5	4
13	3	150	0	1	5	3	4
13	4	13696	0	1	2	1	0
13	4	32700	0	1	2	3	4
13	4	5.71802e+06	0	1	2	5	4
13	4	100	0	1	5	3	4
13	5	12864	0	1	2	1	0
13	5	34700	0	1	2	3	4
13	5	5.53779e+06	0	1	2	5	4
13	5	100	0	1	5	3	4
13	6	14848	0	1	2	1	0
13	6	34400	0	1	2	3	4
13	6	5.36986e+06	0	1	2	5	4
13	6	150	0	1	5	3	4
13	7	13888	0	1	2	1	0
13	7	35000	0	1	2	3	4
13	7	5.48864e+06	0	1	2	5	4
13	7	200	0	1	5	3	4
13	8	12480	0	1	2	1	0
13	8	34200	0	1	2	3	4
13	8	5.44768e+06	0	1	2	5	4
13	8	200	0	1	5	3	4
13	9	15040	0	1	2	1	0
13	9	35100	0	1	2	3	4
13	9	5.16915e+06	0	1	2	5	4
13	9	200	0	1	5	3	4
13	10	15744	0	1	2	1	0
13	10	39500	0	1	2	3	4
13	10	5.27974e+06	0	1	2	5	4
13	10	100	0	1	5	3	4
13	11	17216	0	1	2	1	0
13	11	32800	0	1	2	3	4
13	11	5.6279e+06	0	1	2	5	4
13	11	100	0	1	5	3	4
13	12	15552	0	1	2	1	0
13	12	35300	0	1	2	3	4
13	12	5.40672e+06	0	1	2	5	4
