100000	100000	100000	10000	1000	1000
0	1	6976	0	1	2	1	0
0	1	19400	0	1	2	3	4
0	1	2.5559e+06	0	1	2	5	4
0	2	7744	0	1	2	1	0
0	2	15900	0	1	2	3	4
0	2	2.42483e+06	0	1	2	5	4
0	2	50	0	1	5	3	4
0	3	7104	0	1	2	1	0
0	3	15900	0	1	2	3	4
0	3	2.64602e+06	0	1	2	5	4
0	3	150	0	1	5	3	4
0	4	7296	0	1	2	1	0
0	4	15700	0	1	2	3	4
0	4	2.31424e+06	0	1	2	5	4
0	4	50	0	1	5	3	4
0	5	6080	0	1	2	1	0
0	5	16200	0	1	2	3	4
0	5	2.70336e+06	0	1	2	5	4
0	5	100	0	1	5	3	4
0	6	8128	0	1	2	1	0
0	6	16300	0	1	2	3	4
0	6	2.58458e+06	0	1	2	5	4
0	6	150	0	1	5	3	4
0	7	6144	0	1	2	1	0
0	7	16600	0	1	2	3	4
0	7	2.51494e+06	0	1	2	5	4
0	7	50	0	1	5	3	4
0	8	7488	0	1	2	1	0
0	8	14800	0	1	2	3	4
0	8	2.52723e+06	0	1	2	5	4
0	9	7744	0	1	2	1	0
0	9	15100	0	1	2	3	4
0	9	2.78118e+06	0	1	2	5	4
0	9	50	0	1	5	3	4
0	10	7040	0	1	2	1	0
0	10	15200	0	1	2	3	4
0	10	2.57638e+06	0	1	2	5	4
0	10	50	0	1	5	3	4
0	11	6144	0	1	2	1	0
0	11	18800	0	1	2	3	4
0	11	2.75251e+06	0	1	2	5	4
0	11	150	0	1	5	3	4
0	12	7616	0	1	2	1	0
0	12	15100	0	1	2	3	4
0	12	2.41254e+06	0	1	2	5	4
0	12	150	0	1	5	3	4
0	13	7168	0	1	2	1	0
0	13	16400	0	1	2	3	4
0	13	2.73613e+06	0	1	2	5	4
0	13	50	0	1	5	3	4
0	14	6528	0	1	2	1	0
0	14	16600	0	1	2	3	4
0	14	2.59277e+06	0	1	2	5	4
0	14	150	0	1	5	3	4
0	15	7872	0	1	2	1	0
0	15	16800	0	1	2	3	4
0	15	2.71974e+06	0	1	2	5	4
0	15	50	0	1	5	3	4
0	16	6208	0	1	2	1	0
0	16	15400	0	1	2	3	4
0	16	2.74022e+06	0	1	2	5	4
0	16	50	0	1	5	3	4
0	17	7040	0	1	2	1	0
0	17	16900	0	1	2	3	4
0	17	2.64192e+06	0	1	2	5	4
0	18	6976	0	1	2	1	0
0	18	16700	0	1	2	3	4
0	18	2.6665e+06	0	1	2	5	4
0	18	50	0	1	5	3	4
0	19	6592	0	1	2	1	0
0	19	15000	0	1	2	3	4
0	19	2.71565e+06	0	1	2	5	4
1	0	6336	0	1	2	1	0
1	0	14800	0	1	2	3	4
1	0	2.50675e+06	0	1	2	5	4
1	0	50	0	1	5	3	4
1	2	7488	0	1	2	1	0
1	2	16300	0	1	2	3	4
1	2	2.52723e+06	0	1	2	5	4
1	2	150	0	1	5	3	4
1	3	7104	0	1	2	1	0
1	3	16500	0	1	2	3	4
1	3	2.69926e+06	0	1	2	5	4
1	3	50	0	1	5	3	4
1	4	5824	0	1	2	1	0
1	4	15300	0	1	2	3	4
1	4	2.48218e+06	0	1	2	5	4
1	5	8576	0	1	2	1	0
1	5	16000	0	1	2	3	4
1	5	2.43712e+06	0	1	2	5	4
1	5	50	0	1	5	3	4
1	6	6464	0	1	2	1	0
1	6	16000	0	1	2	3	4
1	6	2.61325e+06	0	1	2	5	4
1	7	8192	0	1	2	1	0
1	7	17400	0	1	2	3	4
1	7	2.72384e+06	0	1	2	5	4
1	7	50	0	1	5	3	4
1	8	6272	0	1	2	1	0
1	8	16200	0	1	2	3	4
1	8	2.72384e+06	0	1	2	5	4
1	8	50	0	1	5	3	4
1	9	7232	0	1	2	1	0
1	9	17300	0	1	2	3	4
1	9	2.75251e+06	0	1	2	5	4
1	9	100	0	1	5	3	4
1	10	8000	0	1	2	1	0
1	10	15000	0	1	2	3	4
1	10	2.54362e+06	0	1	2	5	4
1	10	50	0	1	5	3	4
1	11	6400	0	1	2	1	0
1	11	15000	0	1	2	3	4
1	11	2.54771e+06	0	1	2	5	4
1	12	7808	0	1	2	1	0
1	12	18300	0	1	2	3	4
1	12	2.6624e+06	0	1	2	5	4
1	12	50	0	1	5	3	4
1	13	6592	0	1	2	1	0
1	13	15700	0	1	2	3	4
1	13	2.57638e+06	0	1	2	5	4
1	13	100	0	1	5	3	4
1	14	7168	0	1	2	1	0
1	14	16900	0	1	2	3	4
1	14	2.51494e+06	0	1	2	5	4
1	14	150	0	1	5	3	4
1	15	6336	0	1	2	1	0
1	15	17100	0	1	2	3	4
1	15	2.62144e+06	0	1	2	5	4
1	15	50	0	1	5	3	4
1	16	6784	0	1	2	1	0
1	16	16300	0	1	2	3	4
1	16	2.78938e+06	0	1	2	5	4
1	17	5376	0	1	2	1	0
1	17	17000	0	1	2	3	4
1	17	2.61734e+06	0	1	2	5	4
1	17	50	0	1	5	3	4
1	18	6272	0	1	2	1	0
1	18	17400	0	1	2	3	4
1	18	2.65011e+06	0	1	2	5	4
1	19	6528	0	1	2	1	0
1	19	14200	0	1	2	3	4
1	19	2.63373e+06	0	1	2	5	4
1	19	100	0	1	5	3	4
2	0	7744	0	1	2	1	0
2	0	15900	0	1	2	3	4
2	0	2.49856e+06	0	1	2	5	4
2	0	50	0	1	5	3	4
2	1	7232	0	1	2	1	0
2	1	16500	0	1	2	3	4
2	1	2.61325e+06	0	1	2	5	4
2	1	50	0	1	5	3	4
2	3	7040	0	1	2	1	0
2	3	18000	0	1	2	3	4
2	3	2.69107e+06	0	1	2	5	4
2	3	100	0	1	5	3	4
2	4	6784	0	1	2	1	0
2	4	16500	0	1	2	3	4
2	4	2.50675e+06	0	1	2	5	4
2	4	50	0	1	5	3	4
2	5	6336	0	1	2	1	0
2	5	14200	0	1	2	3	4
2	5	2.64192e+06	0	1	2	5	4
2	5	100	0	1	5	3	4
2	6	7808	0	1	2	1	0
2	6	16900	0	1	2	3	4
2	6	2.51494e+06	0	1	2	5	4
2	6	100	0	1	5	3	4
2	7	7296	0	1	2	1	0
2	7	16200	0	1	2	3	4
2	7	2.62554e+06	0	1	2	5	4
2	7	50	0	1	5	3	4
2	8	5952	0	1	2	1	0
2	8	17600	0	1	2	3	4
2	8	2.62144e+06	0	1	2	5	4
2	8	50	0	1	5	3	4
2	9	5888	0	1	2	1	0
2	9	15600	0	1	2	3	4
2	9	2.65421e+06	0	1	2	5	4
2	9	50	0	1	5	3	4
2	10	7232	0	1	2	1	0
2	10	16600	0	1	2	3	4
2	10	2.38387e+06	0	1	2	5	4
2	10	50	0	1	5	3	4
2	11	7872	0	1	2	1	0
2	11	17400	0	1	2	3	4
2	11	2.57638e+06	0	1	2	5	4
2	11	200	0	1	5	3	4
2	12	7040	0	1	2	1	0
2	12	15700	0	1	2	3	4
2	12	2.71565e+06	0	1	2	5	4
2	12	100	0	1	5	3	4
2	13	6976	0	1	2	1	0
2	13	15700	0	1	2	3	4
2	13	2.71155e+06	0	1	2	5	4
2	14	7360	0	1	2	1	0
2	14	16200	0	1	2	3	4
2	14	2.4617e+06	0	1	2	5	4
2	15	5824	0	1	2	1	0
2	15	16900	0	1	2	3	4
2	15	2.71155e+06	0	1	2	5	4
2	15	50	0	1	5	3	4
2	16	7104	0	1	2	1	0
2	16	16700	0	1	2	3	4
2	16	2.55181e+06	0	1	2	5	4
2	16	50	0	1	5	3	4
2	17	7552	0	1	2	1	0
2	17	16700	0	1	2	3	4
2	17	2.78528e+06	0	1	2	5	4
2	17	50	0	1	5	3	4
2	18	5696	0	1	2	1	0
2	18	16100	0	1	2	3	4
2	18	2.56819e+06	0	1	2	5	4
2	18	100	0	1	5	3	4
2	19	6144	0	1	2	1	0
2	19	14200	0	1	2	3	4
2	19	2.70336e+06	0	1	2	5	4
2	19	50	0	1	5	3	4
3	0	6336	0	1	2	1	0
3	0	18400	0	1	2	3	4
3	0	2.64192e+06	0	1	2	5	4
3	0	100	0	1	5	3	4
3	1	6336	0	1	2	1	0
3	1	15800	0	1	2	3	4
3	1	2.59277e+06	0	1	2	5	4
3	1	150	0	1	5	3	4
3	2	6592	0	1	2	1	0
3	2	16900	0	1	2	3	4
3	2	2.71155e+06	0	1	2	5	4
3	2	50	0	1	5	3	4
3	4	7680	0	1	2	1	0
3	4	17700	0	1	2	3	4
3	4	2.73613e+06	0	1	2	5	4
3	4	50	0	1	5	3	4
3	5	6848	0	1	2	1	0
3	5	17600	0	1	2	3	4
3	5	2.57229e+06	0	1	2	5	4
3	5	150	0	1	5	3	4
3	6	7808	0	1	2	1	0
3	6	15900	0	1	2	3	4
3	6	2.58458e+06	0	1	2	5	4
3	6	50	0	1	5	3	4
3	7	6848	0	1	2	1	0
3	7	14400	0	1	2	3	4
3	7	2.74842e+06	0	1	2	5	4
3	7	100	0	1	5	3	4
3	8	7744	0	1	2	1	0
3	8	16900	0	1	2	3	4
3	8	2.52314e+06	0	1	2	5	4
3	8	50	0	1	5	3	4
3	9	7616	0	1	2	1	0
3	9	17900	0	1	2	3	4
3	9	2.50266e+06	0	1	2	5	4
3	9	50	0	1	5	3	4
3	10	7360	0	1	2	1	0
3	10	18300	0	1	2	3	4
3	10	2.3552e+06	0	1	2	5	4
3	11	7168	0	1	2	1	0
3	11	19100	0	1	2	3	4
3	11	2.69107e+06	0	1	2	5	4
3	11	150	0	1	5	3	4
3	12	7168	0	1	2	1	0
3	12	16900	0	1	2	3	4
3	12	2.75661e+06	0	1	2	5	4
3	12	50	0	1	5	3	4
3	13	6208	0	1	2	1	0
3	13	16000	0	1	2	3	4
3	13	2.44941e+06	0	1	2	5	4
3	14	6016	0	1	2	1	0
3	14	16200	0	1	2	3	4
3	14	2.74842e+06	0	1	2	5	4
3	14	100	0	1	5	3	4
3	15	7232	0	1	2	1	0
3	15	16900	0	1	2	3	4
3	15	2.62144e+06	0	1	2	5	4
3	15	200	0	1	5	3	4
3	16	6592	0	1	2	1	0
3	16	16500	0	1	2	3	4
3	16	2.75661e+06	0	1	2	5	4
3	16	50	0	1	5	3	4
3	17	7040	0	1	2	1	0
3	17	14900	0	1	2	3	4
3	17	2.68288e+06	0	1	2	5	4
3	17	100	0	1	5	3	4
3	18	6848	0	1	2	1	0
3	18	14200	0	1	2	3	4
3	18	2.60506e+06	0	1	2	5	4
3	18	50	0	1	5	3	4
3	19	7360	0	1	2	1	0
3	19	16000	0	1	2	3	4
3	19	2.62554e+06	0	1	2	5	4
3	19	50	0	1	5	3	4
4	0	7168	0	1	2	1	0
4	0	17200	0	1	2	3	4
4	0	2.69926e+06	0	1	2	5	4
4	0	50	0	1	5	3	4
4	1	7040	0	1	2	1	0
4	1	16100	0	1	2	3	4
4	1	2.59686e+06	0	1	2	5	4
4	1	50	0	1	5	3	4
4	2	6464	0	1	2	1	0
4	2	15000	0	1	2	3	4
4	2	2.69926e+06	0	1	2	5	4
4	2	50	0	1	5	3	4
4	3	6528	0	1	2	1	0
4	3	17600	0	1	2	3	4
4	3	2.64192e+06	0	1	2	5	4
4	3	50	0	1	5	3	4
4	5	7168	0	1	2	1	0
4	5	16800	0	1	2	3	4
4	5	2.68698e+06	0	1	2	5	4
4	5	150	0	1	5	3	4
4	6	7104	0	1	2	1	0
4	6	16000	0	1	2	3	4
4	6	2.77299e+06	0	1	2	5	4
4	6	100	0	1	5	3	4
4	7	6464	0	1	2	1	0
4	7	16100	0	1	2	3	4
4	7	2.53542e+06	0	1	2	5	4
4	7	50	0	1	5	3	4
4	8	6336	0	1	2	1	0
4	8	15900	0	1	2	3	4
4	8	2.7689e+06	0	1	2	5	4
4	8	50	0	1	5	3	4
4	9	7616	0	1	2	1	0
4	9	18100	0	1	2	3	4
4	9	2.65421e+06	0	1	2	5	4
4	9	100	0	1	5	3	4
4	10	7296	0	1	2	1	0
4	10	14600	0	1	2	3	4
4	10	2.74842e+06	0	1	2	5	4
4	11	6336	0	1	2	1	0
4	11	17100	0	1	2	3	4
4	11	2.71155e+06	0	1	2	5	4
4	11	50	0	1	5	3	4
4	12	6208	0	1	2	1	0
4	12	15300	0	1	2	3	4
4	12	2.83853e+06	0	1	2	5	4
4	12	50	0	1	5	3	4
4	13	7872	0	1	2	1	0
4	13	15700	0	1	2	3	4
4	13	2.64602e+06	0	1	2	5	4
4	13	100	0	1	5	3	4
4	14	6464	0	1	2	1	0
4	14	17200	0	1	2	3	4
4	14	2.72384e+06	0	1	2	5	4
4	14	100	0	1	5	3	4
4	15	8064	0	1	2	1	0
4	15	14600	0	1	2	3	4
4	15	2.7648e+06	0	1	2	5	4
4	15	200	0	1	5	3	4
4	16	7616	0	1	2	1	0
4	16	17900	0	1	2	3	4
4	16	2.49446e+06	0	1	2	5	4
4	16	100	0	1	5	3	4
4	17	6976	0	1	2	1	0
4	17	15400	0	1	2	3	4
4	17	2.53133e+06	0	1	2	5	4
4	17	200	0	1	5	3	4
4	18	6208	0	1	2	1	0
4	18	15500	0	1	2	3	4
4	18	2.59277e+06	0	1	2	5	4
4	18	100	0	1	5	3	4
4	19	6656	0	1	2	1	0
4	19	15600	0	1	2	3	4
4	19	2.56819e+06	0	1	2	5	4
5	0	6528	0	1	2	1	0
5	0	19400	0	1	2	3	4
5	0	2.53542e+06	0	1	2	5	4
5	0	50	0	1	5	3	4
5	1	5376	0	1	2	1	0
5	1	18000	0	1	2	3	4
5	1	2.51085e+06	0	1	2	5	4
5	2	7808	0	1	2	1	0
5	2	14500	0	1	2	3	4
5	2	2.61325e+06	0	1	2	5	4
5	2	150	0	1	5	3	4
5	3	7168	0	1	2	1	0
5	3	17300	0	1	2	3	4
5	3	2.62554e+06	0	1	2	5	4
5	3	150	0	1	5	3	4
5	4	7040	0	1	2	1	0
5	4	18100	0	1	2	3	4
5	4	2.56819e+06	0	1	2	5	4
5	4	50	0	1	5	3	4
5	6	6912	0	1	2	1	0
5	6	14300	0	1	2	3	4
5	6	2.57229e+06	0	1	2	5	4
5	6	50	0	1	5	3	4
5	7	7808	0	1	2	1	0
5	7	15200	0	1	2	3	4
5	7	2.52723e+06	0	1	2	5	4
5	7	100	0	1	5	3	4
5	8	6784	0	1	2	1	0
5	8	14600	0	1	2	3	4
5	8	2.53133e+06	0	1	2	5	4
5	8	100	0	1	5	3	4
5	9	6464	0	1	2	1	0
5	9	18000	0	1	2	3	4
5	9	2.67469e+06	0	1	2	5	4
5	9	50	0	1	5	3	4
5	10	7424	0	1	2	1	0
5	10	16100	0	1	2	3	4
5	10	2.63373e+06	0	1	2	5	4
5	10	100	0	1	5	3	4
5	11	6784	0	1	2	1	0
5	11	18200	0	1	2	3	4
5	11	2.60096e+06	0	1	2	5	4
5	11	50	0	1	5	3	4
5	12	7168	0	1	2	1	0
5	12	16000	0	1	2	3	4
5	12	2.47398e+06	0	1	2	5	4
5	12	50	0	1	5	3	4
5	13	6848	0	1	2	1	0
5	13	17400	0	1	2	3	4
5	13	2.6665e+06	0	1	2	5	4
5	14	6656	0	1	2	1	0
5	14	15600	0	1	2	3	4
5	14	2.59686e+06	0	1	2	5	4
5	14	50	0	1	5	3	4
5	15	5632	0	1	2	1	0
5	15	20400	0	1	2	3	4
5	15	2.71565e+06	0	1	2	5	4
5	16	7232	0	1	2	1	0
5	16	16900	0	1	2	3	4
5	16	2.62144e+06	0	1	2	5	4
5	16	50	0	1	5	3	4
5	17	6592	0	1	2	1	0
5	17	15700	0	1	2	3	4
5	17	2.49446e+06	0	1	2	5	4
5	17	100	0	1	5	3	4
5	18	7168	0	1	2	1	0
5	18	15500	0	1	2	3	4
5	18	2.58458e+06	0	1	2	5	4
5	18	50	0	1	5	3	4
5	19	6528	0	1	2	1	0
5	19	16800	0	1	2	3	4
5	19	2.67878e+06	0	1	2	5	4
5	19	50	0	1	5	3	4
6	0	5888	0	1	2	1	0
6	0	18100	0	1	2	3	4
6	0	2.68288e+06	0	1	2	5	4
6	0	150	0	1	5	3	4
6	1	6848	0	1	2	1	0
6	1	16500	0	1	2	3	4
6	1	2.4535e+06	0	1	2	5	4
6	1	200	0	1	5	3	4
6	2	7296	0	1	2	1	0
6	2	16300	0	1	2	3	4
6	2	2.52314e+06	0	1	2	5	4
6	3	6784	0	1	2	1	0
6	3	15800	0	1	2	3	4
6	3	2.75251e+06	0	1	2	5	4
6	3	150	0	1	5	3	4
6	4	8256	0	1	2	1	0
6	4	18300	0	1	2	3	4
6	4	2.71974e+06	0	1	2	5	4
6	4	50	0	1	5	3	4
6	5	6464	0	1	2	1	0
6	5	16100	0	1	2	3	4
6	5	2.48627e+06	0	1	2	5	4
6	5	100	0	1	5	3	4
6	7	6144	0	1	2	1	0
6	7	15000	0	1	2	3	4
6	7	2.51904e+06	0	1	2	5	4
6	7	100	0	1	5	3	4
6	8	7040	0	1	2	1	0
6	8	15500	0	1	2	3	4
6	8	2.50266e+06	0	1	2	5	4
6	8	150	0	1	5	3	4
6	9	7552	0	1	2	1	0
6	9	14400	0	1	2	3	4
6	9	2.52723e+06	0	1	2	5	4
6	10	7104	0	1	2	1	0
6	10	15500	0	1	2	3	4
6	10	2.53542e+06	0	1	2	5	4
6	11	7680	0	1	2	1	0
6	11	17600	0	1	2	3	4
6	11	2.46579e+06	0	1	2	5	4
6	11	100	0	1	5	3	4
6	12	7744	0	1	2	1	0
6	12	16500	0	1	2	3	4
6	12	2.59277e+06	0	1	2	5	4
6	12	50	0	1	5	3	4
6	13	6848	0	1	2	1	0
6	13	16000	0	1	2	3	4
6	13	2.67469e+06	0	1	2	5	4
6	13	50	0	1	5	3	4
6	14	7040	0	1	2	1	0
6	14	13400	0	1	2	3	4
6	14	2.78938e+06	0	1	2	5	4
6	14	100	0	1	5	3	4
6	15	6016	0	1	2	1	0
6	15	17900	0	1	2	3	4
6	15	2.51904e+06	0	1	2	5	4
6	15	150	0	1	5	3	4
6	16	7104	0	1	2	1	0
6	16	15000	0	1	2	3	4
6	16	2.67469e+06	0	1	2	5	4
6	16	100	0	1	5	3	4
6	17	7232	0	1	2	1	0
6	17	15300	0	1	2	3	4
6	17	2.36749e+06	0	1	2	5	4
6	17	100	0	1	5	3	4
6	18	7104	0	1	2	1	0
6	18	17200	0	1	2	3	4
6	18	2.49856e+06	0	1	2	5	4
6	18	150	0	1	5	3	4
6	19	6464	0	1	2	1	0
6	19	17700	0	1	2	3	4
6	19	2.64192e+06	0	1	2	5	4
7	0	6272	0	1	2	1	0
7	0	19100	0	1	2	3	4
7	0	2.54771e+06	0	1	2	5	4
7	0	100	0	1	5	3	4
7	1	7040	0	1	2	1	0
7	1	18100	0	1	2	3	4
7	1	2.61325e+06	0	1	2	5	4
7	2	6272	0	1	2	1	0
7	2	16100	0	1	2	3	4
7	2	2.59277e+06	0	1	2	5	4
7	2	100	0	1	5	3	4
7	3	7680	0	1	2	1	0
7	3	17000	0	1	2	3	4
7	3	2.58458e+06	0	1	2	5	4
7	3	100	0	1	5	3	4
7	4	7744	0	1	2	1	0
7	4	17900	0	1	2	3	4
7	4	2.63782e+06	0	1	2	5	4
7	4	150	0	1	5	3	4
7	5	7040	0	1	2	1	0
7	5	16600	0	1	2	3	4
7	5	2.53952e+06	0	1	2	5	4
7	6	6912	0	1	2	1	0
7	6	18100	0	1	2	3	4
7	6	2.5559e+06	0	1	2	5	4
7	6	50	0	1	5	3	4
7	8	6144	0	1	2	1	0
7	8	17200	0	1	2	3	4
7	8	2.63782e+06	0	1	2	5	4
7	9	7616	0	1	2	1	0
7	9	15400	0	1	2	3	4
7	9	2.54362e+06	0	1	2	5	4
7	9	100	0	1	5	3	4
7	10	8128	0	1	2	1	0
7	10	14900	0	1	2	3	4
7	10	2.72794e+06	0	1	2	5	4
7	10	100	0	1	5	3	4
7	11	6720	0	1	2	1	0
7	11	18200	0	1	2	3	4
7	11	2.51904e+06	0	1	2	5	4
7	11	50	0	1	5	3	4
7	12	6592	0	1	2	1	0
7	12	14900	0	1	2	3	4
7	12	2.54771e+06	0	1	2	5	4
7	12	50	0	1	5	3	4
7	13	8064	0	1	2	1	0
7	13	15000	0	1	2	3	4
7	13	2.55181e+06	0	1	2	5	4
7	13	100	0	1	5	3	4
7	14	6912	0	1	2	1	0
7	14	17900	0	1	2	3	4
7	14	2.65421e+06	0	1	2	5	4
7	14	50	0	1	5	3	4
7	15	7552	0	1	2	1	0
7	15	16100	0	1	2	3	4
7	15	2.81805e+06	0	1	2	5	4
7	16	6208	0	1	2	1	0
7	16	16800	0	1	2	3	4
7	16	2.4535e+06	0	1	2	5	4
7	16	100	0	1	5	3	4
7	17	7488	0	1	2	1	0
7	17	15200	0	1	2	3	4
7	17	2.42893e+06	0	1	2	5	4
7	17	50	0	1	5	3	4
7	18	7424	0	1	2	1	0
7	18	14800	0	1	2	3	4
7	18	2.40435e+06	0	1	2	5	4
7	18	100	0	1	5	3	4
7	19	8000	0	1	2	1	0
7	19	17500	0	1	2	3	4
7	19	2.53133e+06	0	1	2	5	4
7	19	150	0	1	5	3	4
8	0	6528	0	1	2	1	0
8	0	18300	0	1	2	3	4
8	0	2.90816e+06	0	1	2	5	4
8	0	50	0	1	5	3	4
8	1	7744	0	1	2	1	0
8	1	14300	0	1	2	3	4
8	1	2.73613e+06	0	1	2	5	4
8	2	7360	0	1	2	1	0
8	2	16200	0	1	2	3	4
8	2	2.61734e+06	0	1	2	5	4
8	3	6336	0	1	2	1	0
8	3	15500	0	1	2	3	4
8	3	2.56819e+06	0	1	2	5	4
8	3	150	0	1	5	3	4
8	4	6016	0	1	2	1	0
8	4	15000	0	1	2	3	4
8	4	2.59277e+06	0	1	2	5	4
8	5	6720	0	1	2	1	0
8	5	17300	0	1	2	3	4
8	5	2.58458e+06	0	1	2	5	4
8	5	100	0	1	5	3	4
8	6	7360	0	1	2	1	0
8	6	17700	0	1	2	3	4
8	6	2.57638e+06	0	1	2	5	4
8	6	50	0	1	5	3	4
8	7	6528	0	1	2	1	0
8	7	15600	0	1	2	3	4
8	7	2.49856e+06	0	1	2	5	4
8	7	50	0	1	5	3	4
8	9	6016	0	1	2	1	0
8	9	16400	0	1	2	3	4
8	9	2.58867e+06	0	1	2	5	4
8	9	200	0	1	5	3	4
8	10	6080	0	1	2	1	0
8	10	18000	0	1	2	3	4
8	10	2.85901e+06	0	1	2	5	4
8	10	50	0	1	5	3	4
8	11	6720	0	1	2	1	0
8	11	18200	0	1	2	3	4
8	11	2.64192e+06	0	1	2	5	4
8	11	100	0	1	5	3	4
8	12	7616	0	1	2	1	0
8	12	15800	0	1	2	3	4
8	12	2.75251e+06	0	1	2	5	4
8	12	200	0	1	5	3	4
8	13	6784	0	1	2	1	0
8	13	15800	0	1	2	3	4
8	13	2.57229e+06	0	1	2	5	4
8	13	50	0	1	5	3	4
8	14	8064	0	1	2	1	0
8	14	14100	0	1	2	3	4
8	14	2.7689e+06	0	1	2	5	4
8	14	50	0	1	5	3	4
8	15	7680	0	1	2	1	0
8	15	17900	0	1	2	3	4
8	15	2.62554e+06	0	1	2	5	4
8	16	6592	0	1	2	1	0
8	16	16200	0	1	2	3	4
8	16	2.9696e+06	0	1	2	5	4
8	16	50	0	1	5	3	4
8	17	7168	0	1	2	1	0
8	17	16700	0	1	2	3	4
8	17	2.64602e+06	0	1	2	5	4
8	17	100	0	1	5	3	4
8	18	7808	0	1	2	1	0
8	18	17900	0	1	2	3	4
8	18	2.53542e+06	0	1	2	5	4
8	18	50	0	1	5	3	4
8	19	6592	0	1	2	1	0
8	19	16600	0	1	2	3	4
8	19	2.71155e+06	0	1	2	5	4
8	19	150	0	1	5	3	4
9	0	6720	0	1	2	1	0
9	0	16300	0	1	2	3	4
9	0	2.55181e+06	0	1	2	5	4
9	0	100	0	1	5	3	4
9	1	7040	0	1	2	1	0
9	1	19800	0	1	2	3	4
9	1	2.65421e+06	0	1	2	5	4
9	2	7680	0	1	2	1	0
9	2	17500	0	1	2	3	4
9	2	2.8713e+06	0	1	2	5	4
9	2	100	0	1	5	3	4
9	3	7808	0	1	2	1	0
9	3	14900	0	1	2	3	4
9	3	2.61325e+06	0	1	2	5	4
9	3	50	0	1	5	3	4
9	4	7104	0	1	2	1	0
9	4	14700	0	1	2	3	4
9	4	2.58867e+06	0	1	2	5	4
9	4	150	0	1	5	3	4
9	5	6912	0	1	2	1	0
9	5	16600	0	1	2	3	4
9	5	2.56819e+06	0	1	2	5	4
9	5	150	0	1	5	3	4
9	6	6272	0	1	2	1	0
9	6	17800	0	1	2	3	4
9	6	2.58048e+06	0	1	2	5	4
9	6	50	0	1	5	3	4
9	7	6016	0	1	2	1	0
9	7	18000	0	1	2	3	4
9	7	2.68288e+06	0	1	2	5	4
9	7	50	0	1	5	3	4
9	8	8064	0	1	2	1	0
9	8	13700	0	1	2	3	4
9	8	2.50675e+06	0	1	2	5	4
9	8	50	0	1	5	3	4
9	10	6464	0	1	2	1	0
9	10	15000	0	1	2	3	4
9	10	2.64602e+06	0	1	2	5	4
9	11	6528	0	1	2	1	0
9	11	15100	0	1	2	3	4
9	11	2.51904e+06	0	1	2	5	4
9	11	150	0	1	5	3	4
9	12	6208	0	1	2	1	0
9	12	16600	0	1	2	3	4
9	12	2.64192e+06	0	1	2	5	4
9	12	100	0	1	5	3	4
9	13	6784	0	1	2	1	0
9	13	18100	0	1	2	3	4
9	13	2.6624e+06	0	1	2	5	4
9	14	8128	0	1	2	1	0
9	14	16800	0	1	2	3	4
9	14	2.74022e+06	0	1	2	5	4
9	14	50	0	1	5	3	4
9	15	5952	0	1	2	1	0
9	15	18100	0	1	2	3	4
9	15	2.72384e+06	0	1	2	5	4
9	15	200	0	1	5	3	4
9	16	8064	0	1	2	1	0
9	16	15900	0	1	2	3	4
9	16	2.8631e+06	0	1	2	5	4
9	16	100	0	1	5	3	4
9	17	6336	0	1	2	1	0
9	17	19900	0	1	2	3	4
9	17	2.41664e+06	0	1	2	5	4
9	17	150	0	1	5	3	4
9	18	7168	0	1	2	1	0
9	18	15400	0	1	2	3	4
9	18	2.75661e+06	0	1	2	5	4
9	18	100	0	1	5	3	4
9	19	7168	0	1	2	1	0
9	19	16100	0	1	2	3	4
9	19	2.52314e+06	0	1	2	5	4
9	19	50	0	1	5	3	4
10	0	8384	0	1	2	1	0
10	0	15100	0	1	2	3	4
10	0	2.52723e+06	0	1	2	5	4
10	0	50	0	1	5	3	4
10	1	5952	0	1	2	1	0
10	1	17200	0	1	2	3	4
10	1	2.6583e+06	0	1	2	5	4
10	2	7616	0	1	2	1	0
10	2	17400	0	1	2	3	4
10	2	2.59277e+06	0	1	2	5	4
10	2	50	0	1	5	3	4
10	3	6208	0	1	2	1	0
10	3	16600	0	1	2	3	4
10	3	2.58458e+06	0	1	2	5	4
10	3	50	0	1	5	3	4
10	4	6272	0	1	2	1	0
10	4	17200	0	1	2	3	4
10	4	2.40026e+06	0	1	2	5	4
10	4	200	0	1	5	3	4
10	5	5504	0	1	2	1	0
10	5	14900	0	1	2	3	4
10	5	2.63782e+06	0	1	2	5	4
10	5	100	0	1	5	3	4
10	6	6400	0	1	2	1	0
10	6	16000	0	1	2	3	4
10	6	2.65421e+06	0	1	2	5	4
10	6	50	0	1	5	3	4
10	7	6848	0	1	2	1	0
10	7	17200	0	1	2	3	4
10	7	2.50266e+06	0	1	2	5	4
10	7	300	0	1	5	3	4
10	8	6464	0	1	2	1	0
10	8	16400	0	1	2	3	4
10	8	2.6665e+06	0	1	2	5	4
10	8	100	0	1	5	3	4
10	9	6080	0	1	2	1	0
10	9	18900	0	1	2	3	4
10	9	2.70746e+06	0	1	2	5	4
10	9	100	0	1	5	3	4
10	11	7488	0	1	2	1	0
10	11	15300	0	1	2	3	4
10	11	2.60096e+06	0	1	2	5	4
10	12	7552	0	1	2	1	0
10	12	18000	0	1	2	3	4
10	12	2.5641e+06	0	1	2	5	4
10	12	150	0	1	5	3	4
10	13	7232	0	1	2	1	0
10	13	16100	0	1	2	3	4
10	13	2.55181e+06	0	1	2	5	4
10	14	6528	0	1	2	1	0
10	14	19400	0	1	2	3	4
10	14	2.47808e+06	0	1	2	5	4
10	14	50	0	1	5	3	4
10	15	7616	0	1	2	1	0
10	15	18200	0	1	2	3	4
10	15	2.48627e+06	0	1	2	5	4
10	15	50	0	1	5	3	4
10	16	6528	0	1	2	1	0
10	16	18000	0	1	2	3	4
10	16	2.60096e+06	0	1	2	5	4
10	16	100	0	1	5	3	4
10	17	6720	0	1	2	1	0
10	17	17000	0	1	2	3	4
10	17	2.71974e+06	0	1	2	5	4
10	17	200	0	1	5	3	4
10	18	7168	0	1	2	1	0
10	18	17200	0	1	2	3	4
10	18	2.58867e+06	0	1	2	5	4
10	18	50	0	1	5	3	4
10	19	8064	0	1	2	1	0
10	19	16500	0	1	2	3	4
10	19	2.51904e+06	0	1	2	5	4
10	19	100	0	1	5	3	4
11	0	6400	0	1	2	1	0
11	0	18300	0	1	2	3	4
11	0	2.6624e+06	0	1	2	5	4
11	0	100	0	1	5	3	4
11	1	6848	0	1	2	1	0
11	1	16700	0	1	2	3	4
11	1	2.46989e+06	0	1	2	5	4
11	1	50	0	1	5	3	4
11	2	6848	0	1	2	1	0
11	2	16000	0	1	2	3	4
11	2	2.58867e+06	0	1	2	5	4
11	2	50	0	1	5	3	4
11	3	6784	0	1	2	1	0
11	3	13200	0	1	2	3	4
11	3	2.62963e+06	0	1	2	5	4
11	4	7744	0	1	2	1	0
11	4	14600	0	1	2	3	4
11	4	2.53542e+06	0	1	2	5	4
11	4	100	0	1	5	3	4
11	5	5504	0	1	2	1	0
11	5	15400	0	1	2	3	4
11	5	2.7648e+06	0	1	2	5	4
11	5	50	0	1	5	3	4
11	6	6528	0	1	2	1	0
11	6	17400	0	1	2	3	4
11	6	2.40026e+06	0	1	2	5	4
11	6	200	0	1	5	3	4
11	7	6016	0	1	2	1	0
11	7	18100	0	1	2	3	4
11	7	2.68288e+06	0	1	2	5	4
11	7	50	0	1	5	3	4
11	8	6784	0	1	2	1	0
11	8	17300	0	1	2	3	4
11	8	2.6624e+06	0	1	2	5	4
11	9	7104	0	1	2	1	0
11	9	18000	0	1	2	3	4
11	9	2.6624e+06	0	1	2	5	4
11	9	50	0	1	5	3	4
11	10	7552	0	1	2	1	0
11	10	15100	0	1	2	3	4
11	10	2.6624e+06	0	1	2	5	4
11	10	50	0	1	5	3	4
11	12	6720	0	1	2	1	0
11	12	17500	0	1	2	3	4
11	12	2.60915e+06	0	1	2	5	4
11	13	6848	0	1	2	1	0
11	13	17300	0	1	2	3	4
11	13	2.67469e+06	0	1	2	5	4
11	13	100	0	1	5	3	4
11	14	8064	0	1	2	1	0
11	14	14500	0	1	2	3	4
11	14	2.59277e+06	0	1	2	5	4
11	14	100	0	1	5	3	4
11	15	6400	0	1	2	1	0
11	15	16700	0	1	2	3	4
11	15	2.70746e+06	0	1	2	5	4
11	15	50	0	1	5	3	4
11	16	7936	0	1	2	1	0
11	16	14600	0	1	2	3	4
11	16	2.64192e+06	0	1	2	5	4
11	16	50	0	1	5	3	4
11	17	7744	0	1	2	1	0
11	17	16000	0	1	2	3	4
11	17	2.51085e+06	0	1	2	5	4
11	17	100	0	1	5	3	4
11	18	6464	0	1	2	1	0
11	18	17000	0	1	2	3	4
11	18	2.64602e+06	0	1	2	5	4
11	19	6848	0	1	2	1	0
11	19	17400	0	1	2	3	4
11	19	2.53133e+06	0	1	2	5	4
11	19	100	0	1	5	3	4
12	0	5760	0	1	2	1	0
12	0	14500	0	1	2	3	4
12	0	2.53133e+06	0	1	2	5	4
12	0	100	0	1	5	3	4
12	1	6784	0	1	2	1	0
12	1	17900	0	1	2	3	4
12	1	2.58458e+06	0	1	2	5	4
12	1	150	0	1	5	3	4
12	2	6976	0	1	2	1	0
12	2	15800	0	1	2	3	4
12	2	2.54771e+06	0	1	2	5	4
12	2	50	0	1	5	3	4
12	3	6720	0	1	2	1	0
12	3	16600	0	1	2	3	4
12	3	2.61734e+06	0	1	2	5	4
12	3	100	0	1	5	3	4
12	4	6848	0	1	2	1	0
12	4	14800	0	1	2	3	4
12	4	2.5641e+06	0	1	2	5	4
12	4	50	0	1	5	3	4
12	5	6208	0	1	2	1	0
12	5	17500	0	1	2	3	4
12	5	2.50266e+06	0	1	2	5	4
12	5	50	0	1	5	3	4
12	6	6400	0	1	2	1	0
12	6	13200	0	1	2	3	4
12	6	2.74842e+06	0	1	2	5	4
12	6	100	0	1	5	3	4
12	7	6592	0	1	2	1	0
12	7	17000	0	1	2	3	4
12	7	2.62144e+06	0	1	2	5	4
12	7	250	0	1	5	3	4
12	8	6976	0	1	2	1	0
12	8	17000	0	1	2	3	4
12	8	2.67469e+06	0	1	2	5	4
12	8	50	0	1	5	3	4
12	9	6592	0	1	2	1	0
12	9	17100	0	1	2	3	4
12	9	2.58048e+06	0	1	2	5	4
12	9	150	0	1	5	3	4
12	10	6272	0	1	2	1	0
12	10	15700	0	1	2	3	4
12	10	2.64602e+06	0	1	2	5	4
12	10	50	0	1	5	3	4
12	11	6848	0	1	2	1	0
12	11	16600	0	1	2	3	4
12	11	2.69926e+06	0	1	2	5	4
12	11	100	0	1	5	3	4
12	13	8256	0	1	2	1	0
12	13	16800	0	1	2	3	4
12	13	2.60096e+06	0	1	2	5	4
12	13	150	0	1	5	3	4
12	14	7296	0	1	2	1	0
12	14	15000	0	1	2	3	4
12	14	2.5559e+06	0	1	2	5	4
12	14	100	0	1	5	3	4
12	15	7552	0	1	2	1	0
12	15	15100	0	1	2	3	4
12	15	2.55181e+06	0	1	2	5	4
12	15	150	0	1	5	3	4
12	16	6080	0	1	2	1	0
12	16	17800	0	1	2	3	4
12	16	2.61325e+06	0	1	2	5	4
12	16	50	0	1	5	3	4
12	17	6336	0	1	2	1	0
12	17	16500	0	1	2	3	4
12	17	2.60915e+06	0	1	2	5	4
12	17	50	0	1	5	3	4
12	18	8384	0	1	2	1	0
12	18	15200	0	1	2	3	4
12	18	2.7648e+06	0	1	2	5	4
12	18	100	0	1	5	3	4
12	19	7744	0	1	2	1	0
12	19	15600	0	1	2	3	4
12	19	2.63373e+06	0	1	2	5	4
12	19	100	0	1	5	3	4
13	0	6976	0	1	2	1	0
13	0	17300	0	1	2	3	4
13	0	2.7648e+06	0	1	2	5	4
13	0	100	0	1	5	3	4
13	1	8448	0	1	2	1	0
13	1	17500	0	1	2	3	4
13	1	2.5559e+06	0	1	2	5	4
13	2	7040	0	1	2	1	0
13	2	16700	0	1	2	3	4
13	2	2.5559e+06	0	1	2	5	4
13	2	50	0	1	5	3	4
13	3	6912	0	1	2	1	0
13	3	16500	0	1	2	3	4
13	3	2.5559e+06	0	1	2	5	4
13	3	50	0	1	5	3	4
13	4	6720	0	1	2	1	0
13	4	16200	0	1	2	3	4
13	4	2.5641e+06	0	1	2	5	4
13	5	6848	0	1	2	1	0
13	5	16500	0	1	2	3	4
13	5	2.74022e+06	0	1	2	5	4
13	5	50	0	1	5	3	4
13	6	6784	0	1	2	1	0
13	6	18100	0	1	2	3	4
13	6	2.62144e+06	0	1	2	5	4
13	7	7744	0	1	2	1	0
13	7	14200	0	1	2	3	4
13	7	2.64192e+06	0	1	2	5	4
13	8	7360	0	1	2	1	0
13	8	15800	0	1	2	3	4
13	8	2.65421e+06	0	1	2	5	4
13	8	50	0	1	5	3	4
13	9	8000	0	1	2	1	0
13	9	16000	0	1	2	3	4
13	9	2.49856e+06	0	1	2	5	4
13	9	150	0	1	5	3	4
13	10	6144	0	1	2	1	0
13	10	17300	0	1	2	3	4
13	10	2.53133e+06	0	1	2	5	4
13	11	6784	0	1	2	1	0
13	11	15500	0	1	2	3	4
13	11	2.67059e+06	0	1	2	5	4
13	11	50	0	1	5	3	4
13	12	5952	0	1	2	1	0
13	12	15400	0	1	2	3	4
13	12	2.56e+06	0	1	2	5	4
13	12	150	0	1	5	3	4
13	14	8192	0	1	2	1	0
13	14	16800	0	1	2	3	4
13	14	2.58048e+06	0	1	2	5	4
13	14	50	0	1	5	3	4
13	15	7680	0	1	2	1	0
13	15	16100	0	1	2	3	4
13	15	2.55181e+06	0	1	2	5	4
13	15	100	0	1	5	3	4
13	16	6720	0	1	2	1	0
13	16	15200	0	1	2	3	4
13	16	2.64192e+06	0	1	2	5	4
13	16	50	0	1	5	3	4
13	17	7040	0	1	2	1	0
13	17	15800	0	1	2	3	4
13	17	2.40845e+06	0	1	2	5	4
13	17	50	0	1	5	3	4
13	18	6528	0	1	2	1	0
13	18	17000	0	1	2	3	4
13	18	2.60506e+06	0	1	2	5	4
13	18	100	0	1	5	3	4
13	19	7808	0	1	2	1	0
13	19	13800	0	1	2	3	4
13	19	2.55181e+06	0	1	2	5	4
13	19	150	0	1	5	3	4
14	0	8192	0	1	2	1	0
14	0	14600	0	1	2	3	4
14	0	2.58048e+06	0	1	2	5	4
14	1	6848	0	1	2	1	0
14	1	16700	0	1	2	3	4
14	1	2.60096e+06	0	1	2	5	4
14	2	7552	0	1	2	1	0
14	2	17500	0	1	2	3	4
14	2	2.61734e+06	0	1	2	5	4
14	2	50	0	1	5	3	4
14	3	6272	0	1	2	1	0
14	3	15900	0	1	2	3	4
14	3	2.56e+06	0	1	2	5	4
14	4	6336	0	1	2	1	0
14	4	16400	0	1	2	3	4
14	4	2.59686e+06	0	1	2	5	4
14	4	50	0	1	5	3	4
14	5	6272	0	1	2	1	0
14	5	15800	0	1	2	3	4
14	5	2.53542e+06	0	1	2	5	4
14	5	100	0	1	5	3	4
14	6	7424	0	1	2	1	0
14	6	16200	0	1	2	3	4
14	6	2.62963e+06	0	1	2	5	4
14	6	50	0	1	5	3	4
14	7	6976	0	1	2	1	0
14	7	15900	0	1	2	3	4
14	7	2.40845e+06	0	1	2	5	4
14	8	8256	0	1	2	1	0
14	8	17500	0	1	2	3	4
14	8	2.64602e+06	0	1	2	5	4
14	8	50	0	1	5	3	4
14	9	6848	0	1	2	1	0
14	9	19900	0	1	2	3	4
14	9	2.73203e+06	0	1	2	5	4
14	9	50	0	1	5	3	4
14	10	7104	0	1	2	1	0
14	10	17500	0	1	2	3	4
14	10	2.60915e+06	0	1	2	5	4
14	10	50	0	1	5	3	4
14	11	7616	0	1	2	1	0
14	11	15600	0	1	2	3	4
14	11	2.58048e+06	0	1	2	5	4
14	11	50	0	1	5	3	4
14	12	6848	0	1	2	1	0
14	12	17700	0	1	2	3	4
14	12	2.57229e+06	0	1	2	5	4
14	12	50	0	1	5	3	4
14	13	5632	0	1	2	1	0
14	13	16900	0	1	2	3	4
14	13	2.73613e+06	0	1	2	5	4
14	15	6272	0	1	2	1	0
14	15	16200	0	1	2	3	4
14	15	2.56819e+06	0	1	2	5	4
14	15	100	0	1	5	3	4
14	16	5760	0	1	2	1	0
14	16	17600	0	1	2	3	4
14	16	2.48627e+06	0	1	2	5	4
14	16	100	0	1	5	3	4
14	17	6656	0	1	2	1	0
14	17	15500	0	1	2	3	4
14	17	2.60506e+06	0	1	2	5	4
14	17	100	0	1	5	3	4
14	18	8704	0	1	2	1	0
14	18	15600	0	1	2	3	4
14	18	2.42074e+06	0	1	2	5	4
14	19	6464	0	1	2	1	0
14	19	17500	0	1	2	3	4
14	19	2.65011e+06	0	1	2	5	4
15	0	8128	0	1	2	1	0
15	0	12700	0	1	2	3	4
15	0	2.79757e+06	0	1	2	5	4
15	0	50	0	1	5	3	4
15	1	6912	0	1	2	1	0
15	1	16300	0	1	2	3	4
15	1	2.64602e+06	0	1	2	5	4
15	2	5632	0	1	2	1	0
15	2	14700	0	1	2	3	4
15	2	2.55181e+06	0	1	2	5	4
15	2	100	0	1	5	3	4
15	3	6464	0	1	2	1	0
15	3	16500	0	1	2	3	4
15	3	2.4617e+06	0	1	2	5	4
15	3	100	0	1	5	3	4
15	4	6976	0	1	2	1	0
15	4	17400	0	1	2	3	4
15	4	2.73613e+06	0	1	2	5	4
15	5	6400	0	1	2	1	0
15	5	16500	0	1	2	3	4
15	5	2.58048e+06	0	1	2	5	4
15	5	50	0	1	5	3	4
15	6	7040	0	1	2	1	0
15	6	15200	0	1	2	3	4
15	6	2.72794e+06	0	1	2	5	4
15	6	200	0	1	5	3	4
15	7	6144	0	1	2	1	0
15	7	15200	0	1	2	3	4
15	7	2.69517e+06	0	1	2	5	4
15	8	7296	0	1	2	1	0
15	8	15500	0	1	2	3	4
15	8	2.64192e+06	0	1	2	5	4
15	9	6784	0	1	2	1	0
15	9	17200	0	1	2	3	4
15	9	2.48627e+06	0	1	2	5	4
15	9	50	0	1	5	3	4
15	10	6080	0	1	2	1	0
15	10	15200	0	1	2	3	4
15	10	2.5559e+06	0	1	2	5	4
15	11	5568	0	1	2	1	0
15	11	16600	0	1	2	3	4
15	11	2.42074e+06	0	1	2	5	4
15	11	150	0	1	5	3	4
15	12	5824	0	1	2	1	0
15	12	15400	0	1	2	3	4
15	12	2.59277e+06	0	1	2	5	4
15	12	50	0	1	5	3	4
15	13	6528	0	1	2	1	0
15	13	14100	0	1	2	3	4
15	13	2.6583e+06	0	1	2	5	4
15	13	100	0	1	5	3	4
15	14	6336	0	1	2	1	0
15	14	19200	0	1	2	3	4
15	14	2.62554e+06	0	1	2	5	4
15	16	6208	0	1	2	1	0
15	16	15700	0	1	2	3	4
15	16	2.7689e+06	0	1	2	5	4
15	16	50	0	1	5	3	4
15	17	7232	0	1	2	1	0
15	17	16500	0	1	2	3	4
15	17	2.55181e+06	0	1	2	5	4
15	17	100	0	1	5	3	4
15	18	5888	0	1	2	1	0
15	18	14000	0	1	2	3	4
15	18	2.58867e+06	0	1	2	5	4
15	19	6656	0	1	2	1	0
15	19	15800	0	1	2	3	4
15	19	2.70336e+06	0	1	2	5	4
15	19	50	0	1	5	3	4
16	0	6208	0	1	2	1	0
16	0	15300	0	1	2	3	4
16	0	2.79757e+06	0	1	2	5	4
16	1	7488	0	1	2	1	0
16	1	15300	0	1	2	3	4
16	1	2.7648e+06	0	1	2	5	4
16	1	100	0	1	5	3	4
16	2	7168	0	1	2	1	0
16	2	18000	0	1	2	3	4
16	2	2.63373e+06	0	1	2	5	4
16	2	100	0	1	5	3	4
16	3	5888	0	1	2	1	0
16	3	15400	0	1	2	3	4
16	3	2.67059e+06	0	1	2	5	4
16	3	50	0	1	5	3	4
16	4	6976	0	1	2	1	0
16	4	17300	0	1	2	3	4
16	4	2.65421e+06	0	1	2	5	4
16	4	100	0	1	5	3	4
16	5	6912	0	1	2	1	0
16	5	15500	0	1	2	3	4
16	5	2.58867e+06	0	1	2	5	4
16	5	100	0	1	5	3	4
16	6	8704	0	1	2	1	0
16	6	16200	0	1	2	3	4
16	6	2.69926e+06	0	1	2	5	4
16	6	50	0	1	5	3	4
16	7	6784	0	1	2	1	0
16	7	16400	0	1	2	3	4
16	7	2.44122e+06	0	1	2	5	4
16	7	100	0	1	5	3	4
16	8	6080	0	1	2	1	0
16	8	15100	0	1	2	3	4
16	8	2.55181e+06	0	1	2	5	4
16	8	150	0	1	5	3	4
16	9	6720	0	1	2	1	0
16	9	17200	0	1	2	3	4
16	9	2.59686e+06	0	1	2	5	4
16	9	50	0	1	5	3	4
16	10	7808	0	1	2	1	0
16	10	18300	0	1	2	3	4
16	10	2.71155e+06	0	1	2	5	4
16	10	150	0	1	5	3	4
16	11	6400	0	1	2	1	0
16	11	16300	0	1	2	3	4
16	11	2.52723e+06	0	1	2	5	4
16	12	6336	0	1	2	1	0
16	12	18700	0	1	2	3	4
16	12	2.71155e+06	0	1	2	5	4
16	13	6336	0	1	2	1	0
16	13	16900	0	1	2	3	4
16	13	2.50266e+06	0	1	2	5	4
16	14	7808	0	1	2	1	0
16	14	15100	0	1	2	3	4
16	14	2.62554e+06	0	1	2	5	4
16	14	200	0	1	5	3	4
16	15	7232	0	1	2	1	0
16	15	15700	0	1	2	3	4
16	15	2.65011e+06	0	1	2	5	4
16	15	50	0	1	5	3	4
16	17	6016	0	1	2	1	0
16	17	19000	0	1	2	3	4
16	17	2.71565e+06	0	1	2	5	4
16	18	6080	0	1	2	1	0
16	18	16900	0	1	2	3	4
16	18	2.62144e+06	0	1	2	5	4
16	19	6208	0	1	2	1	0
16	19	16300	0	1	2	3	4
16	19	2.43712e+06	0	1	2	5	4
16	19	50	0	1	5	3	4
17	0	6656	0	1	2	1	0
17	0	17300	0	1	2	3	4
17	0	2.51085e+06	0	1	2	5	4
17	1	6720	0	1	2	1	0
17	1	16000	0	1	2	3	4
17	1	2.67878e+06	0	1	2	5	4
17	1	50	0	1	5	3	4
17	2	6400	0	1	2	1	0
17	2	17800	0	1	2	3	4
17	2	2.47398e+06	0	1	2	5	4
17	2	50	0	1	5	3	4
17	3	6976	0	1	2	1	0
17	3	15900	0	1	2	3	4
17	3	2.41254e+06	0	1	2	5	4
17	3	200	0	1	5	3	4
17	4	7936	0	1	2	1	0
17	4	15500	0	1	2	3	4
17	4	2.6665e+06	0	1	2	5	4
17	4	100	0	1	5	3	4
17	5	6400	0	1	2	1	0
17	5	17000	0	1	2	3	4
17	5	2.84262e+06	0	1	2	5	4
17	5	100	0	1	5	3	4
17	6	6208	0	1	2	1	0
17	6	16100	0	1	2	3	4
17	6	2.53542e+06	0	1	2	5	4
17	7	7296	0	1	2	1	0
17	7	16800	0	1	2	3	4
17	7	2.5641e+06	0	1	2	5	4
17	7	100	0	1	5	3	4
17	8	6080	0	1	2	1	0
17	8	17000	0	1	2	3	4
17	8	2.58048e+06	0	1	2	5	4
17	8	50	0	1	5	3	4
17	9	6336	0	1	2	1	0
17	9	17000	0	1	2	3	4
17	9	2.58867e+06	0	1	2	5	4
17	9	100	0	1	5	3	4
17	10	7104	0	1	2	1	0
17	10	16600	0	1	2	3	4
17	10	2.61734e+06	0	1	2	5	4
17	11	6144	0	1	2	1	0
17	11	19100	0	1	2	3	4
17	11	2.60096e+06	0	1	2	5	4
17	12	7104	0	1	2	1	0
17	12	14100	0	1	2	3	4
17	12	2.43302e+06	0	1	2	5	4
17	12	100	0	1	5	3	4
17	13	6208	0	1	2	1	0
17	13	16200	0	1	2	3	4
17	13	2.73203e+06	0	1	2	5	4
17	13	150	0	1	5	3	4
17	14	7488	0	1	2	1	0
17	14	18300	0	1	2	3	4
17	14	2.73613e+06	0	1	2	5	4
17	14	50	0	1	5	3	4
17	15	8128	0	1	2	1	0
17	15	16100	0	1	2	3	4
17	15	2.46989e+06	0	1	2	5	4
17	15	50	0	1	5	3	4
17	16	7360	0	1	2	1	0
17	16	16700	0	1	2	3	4
17	16	2.49037e+06	0	1	2	5	4
17	16	50	0	1	5	3	4
17	18	7296	0	1	2	1	0
17	18	17400	0	1	2	3	4
17	18	2.5641e+06	0	1	2	5	4
17	18	150	0	1	5	3	4
17	19	8640	0	1	2	1	0
17	19	15200	0	1	2	3	4
17	19	2.58867e+06	0	1	2	5	4
18	0	6272	0	1	2	1	0
18	0	17600	0	1	2	3	4
18	0	2.59277e+06	0	1	2	5	4
18	1	6208	0	1	2	1	0
18	1	18700	0	1	2	3	4
18	1	2.65421e+06	0	1	2	5	4
18	1	100	0	1	5	3	4
18	2	8128	0	1	2	1	0
18	2	17400	0	1	2	3	4
18	2	2.53952e+06	0	1	2	5	4
18	2	50	0	1	5	3	4
18	3	6400	0	1	2	1	0
18	3	15800	0	1	2	3	4
18	3	2.71974e+06	0	1	2	5	4
18	3	100	0	1	5	3	4
18	4	7360	0	1	2	1	0
18	4	15800	0	1	2	3	4
18	4	2.51494e+06	0	1	2	5	4
18	5	8128	0	1	2	1	0
18	5	16700	0	1	2	3	4
18	5	2.36339e+06	0	1	2	5	4
18	5	50	0	1	5	3	4
18	6	6848	0	1	2	1	0
18	6	16800	0	1	2	3	4
18	6	2.64602e+06	0	1	2	5	4
18	6	50	0	1	5	3	4
18	7	8640	0	1	2	1	0
18	7	17800	0	1	2	3	4
18	7	2.59277e+06	0	1	2	5	4
18	7	50	0	1	5	3	4
18	8	7232	0	1	2	1	0
18	8	19000	0	1	2	3	4
18	8	2.63782e+06	0	1	2	5	4
18	8	50	0	1	5	3	4
18	9	7040	0	1	2	1	0
18	9	17100	0	1	2	3	4
18	9	2.52314e+06	0	1	2	5	4
18	9	50	0	1	5	3	4
18	10	7040	0	1	2	1	0
18	10	16600	0	1	2	3	4
18	10	2.60096e+06	0	1	2	5	4
18	11	6912	0	1	2	1	0
18	11	16000	0	1	2	3	4
18	11	2.42893e+06	0	1	2	5	4
18	11	150	0	1	5	3	4
18	12	6336	0	1	2	1	0
18	12	16100	0	1	2	3	4
18	12	2.6665e+06	0	1	2	5	4
18	12	50	0	1	5	3	4
18	13	6400	0	1	2	1	0
18	13	15600	0	1	2	3	4
18	13	2.74842e+06	0	1	2	5	4
18	13	50	0	1	5	3	4
18	14	7488	0	1	2	1	0
18	14	17300	0	1	2	3	4
18	14	2.60915e+06	0	1	2	5	4
18	15	6400	0	1	2	1	0
18	15	16800	0	1	2	3	4
18	15	2.51494e+06	0	1	2	5	4
18	15	100	0	1	5	3	4
18	16	6016	0	1	2	1	0
18	16	16500	0	1	2	3	4
18	16	2.61734e+06	0	1	2	5	4
18	17	7424	0	1	2	1	0
18	17	17200	0	1	2	3	4
18	17	2.4576e+06	0	1	2	5	4
18	19	6784	0	1	2	1	0
18	19	17700	0	1	2	3	4
18	19	2.59277e+06	0	1	2	5	4
18	19	200	0	1	5	3	4
19	0	6336	0	1	2	1	0
19	0	18400	0	1	2	3	4
19	0	2.50266e+06	0	1	2	5	4
19	0	50	0	1	5	3	4
19	1	6976	0	1	2	1	0
19	1	16500	0	1	2	3	4
19	1	2.67878e+06	0	1	2	5	4
19	2	7104	0	1	2	1	0
19	2	16400	0	1	2	3	4
19	2	2.4535e+06	0	1	2	5	4
19	2	200	0	1	5	3	4
19	3	7104	0	1	2	1	0
19	3	18400	0	1	2	3	4
19	3	2.57229e+06	0	1	2	5	4
19	3	100	0	1	5	3	4
19	4	7936	0	1	2	1	0
19	4	17500	0	1	2	3	4
19	4	2.58867e+06	0	1	2	5	4
19	4	100	0	1	5	3	4
19	5	6656	0	1	2	1	0
19	5	15500	0	1	2	3	4
19	5	2.59277e+06	0	1	2	5	4
19	6	7232	0	1	2	1	0
19	6	18700	0	1	2	3	4
19	6	2.46989e+06	0	1	2	5	4
19	7	5888	0	1	2	1	0
19	7	18000	0	1	2	3	4
19	7	2.61325e+06	0	1	2	5	4
19	7	50	0	1	5	3	4
19	8	5696	0	1	2	1	0
19	8	16700	0	1	2	3	4
19	8	2.61734e+06	0	1	2	5	4
19	8	50	0	1	5	3	4
19	9	7296	0	1	2	1	0
19	9	15100	0	1	2	3	4
19	9	2.54771e+06	0	1	2	5	4
19	9	100	0	1	5	3	4
19	10	6080	0	1	2	1	0
19	10	16800	0	1	2	3	4
19	10	2.5559e+06	0	1	2	5	4
19	10	50	0	1	5	3	4
19	11	7936	0	1	2	1	0
19	11	16000	0	1	2	3	4
19	11	2.74432e+06	0	1	2	5	4
19	11	150	0	1	5	3	4
19	12	7104	0	1	2	1	0
19	12	16400	0	1	2	3	4
19	12	2.53133e+06	0	1	2	5	4
19	12	50	0	1	5	3	4
19	13	6080	0	1	2	1	0
19	13	14300	0	1	2	3	4
19	13	2.57229e+06	0	1	2	5	4
19	13	150	0	1	5	3	4
19	14	6720	0	1	2	1	0
19	14	17000	0	1	2	3	4
19	14	2.57229e+06	0	1	2	5	4
19	14	50	0	1	5	3	4
19	15	6848	0	1	2	1	0
19	15	18300	0	1	2	3	4
19	15	2.4617e+06	0	1	2	5	4
19	16	7296	0	1	2	1	0
19	16	16300	0	1	2	3	4
19	16	2.65011e+06	0	1	2	5	4
19	16	100	0	1	5	3	4
19	17	6144	0	1	2	1	0
19	17	15600	0	1	2	3	4
19	17	2.85082e+06	0	1	2	5	4
19	17	100	0	1	5	3	4
19	18	7168	0	1	2	1	0
19	18	15800	0	1	2	3	4
19	18	2.74022e+06	0	1	2	5	4
19	18	50	0	1	5	3	4
