100000	100000	100000	10000	1000	1000
0	1	1.12371e+06	0	1	2	1	0
0	1	2.6972e+06	0	1	2	3	4
0	1	4.24735e+08	0	1	2	5	4
0	1	10100	0	1	5	3	4
0	2	177216	0	1	2	1	0
0	2	416900	0	1	2	3	4
0	2	6.66214e+07	0	1	2	5	4
0	2	2200	0	1	5	3	4
0	3	7424	0	1	2	1	0
0	3	20400	0	1	2	3	4
0	3	3.35872e+06	0	1	2	5	4
0	3	100	0	1	5	3	4
0	4	1216	0	1	2	1	0
0	4	2700	0	1	2	3	4
0	4	557056	0	1	2	5	4
0	4	50	0	1	5	3	4
0	5	576	0	1	2	1	0
0	5	1500	0	1	2	3	4
0	5	315392	0	1	2	5	4
0	6	64	0	1	2	1	0
0	6	100	0	1	2	3	4
0	6	24576	0	1	2	5	4
0	7	64	0	1	2	1	0
0	7	16384	0	1	2	5	4
0	8	100	0	1	2	3	4
0	9	64	0	1	2	1	0
0	9	100	0	1	2	3	4
0	9	4096	0	1	2	5	4
1	0	1.12992e+06	0	1	2	1	0
1	0	2.7154e+06	0	1	2	3	4
1	0	4.2324e+08	0	1	2	5	4
1	0	10700	0	1	5	3	4
1	2	128	0	1	2	1	0
1	2	300	0	1	2	3	4
1	2	36864	0	1	2	5	4
1	3	64	0	1	2	1	0
1	6	4096	0	1	2	5	4
2	0	171584	0	1	2	1	0
2	0	414300	0	1	2	3	4
2	0	6.76823e+07	0	1	2	5	4
2	0	1700	0	1	5	3	4
2	1	256	0	1	2	1	0
2	1	300	0	1	2	3	4
2	1	86016	0	1	2	5	4
3	0	8704	0	1	2	1	0
3	0	19900	0	1	2	3	4
3	0	3.4775e+06	0	1	2	5	4
3	0	100	0	1	5	3	4
3	1	12288	0	1	2	5	4
3	2	4096	0	1	2	5	4
4	0	1408	0	1	2	1	0
4	0	2700	0	1	2	3	4
4	0	569344	0	1	2	5	4
4	0	50	0	1	5	3	4
5	0	640	0	1	2	1	0
5	0	1800	0	1	2	3	4
5	0	262144	0	1	2	5	4
6	0	256	0	1	2	1	0
6	0	100	0	1	2	3	4
6	0	24576	0	1	2	5	4
7	0	128	0	1	2	1	0
7	0	100	0	1	2	3	4
7	0	24576	0	1	2	5	4
8	0	64	0	1	2	1	0
9	0	4096	0	1	2	5	4
