16
0	3	1e+12
0	4	1e+12
1	11	1e+12
1	15	1e+12
2	12	1e+12
3	0	1e+12
3	5	1e+12
3	9	1e+12
4	0	1e+12
4	6	1e+12
4	12	1e+12
5	3	1e+12
5	11	1e+12
6	4	1e+12
6	9	1e+12
7	14	1e+12
7	15	1e+12
8	11	1e+12
8	12	1e+12
8	14	1e+12
9	3	1e+12
9	6	1e+12
9	10	1e+12
9	14	1e+12
9	15	1e+12
10	9	1e+12
10	12	1e+12
11	1	1e+12
11	5	1e+12
11	8	1e+12
12	2	1e+12
12	4	1e+12
12	8	1e+12
12	10	1e+12
12	13	1e+12
13	12	1e+12
14	7	1e+12
14	8	1e+12
14	9	1e+12
15	1	1e+12
15	7	1e+12
15	9	1e+12
