100000	100000	100000	10000	1000	1000
0	1	9088	0	1	2	1	0
0	1	22000	0	1	2	3	4
0	1	3.40787e+06	0	1	2	5	4
0	1	50	0	1	5	3	4
0	2	9024	0	1	2	1	0
0	2	20300	0	1	2	3	4
0	2	3.19488e+06	0	1	2	5	4
0	3	8064	0	1	2	1	0
0	3	20400	0	1	2	3	4
0	3	3.35462e+06	0	1	2	5	4
0	3	50	0	1	5	3	4
0	4	10048	0	1	2	1	0
0	4	22300	0	1	2	3	4
0	4	3.02694e+06	0	1	2	5	4
0	4	50	0	1	5	3	4
0	5	9344	0	1	2	1	0
0	5	24400	0	1	2	3	4
0	5	3.21126e+06	0	1	2	5	4
0	5	250	0	1	5	3	4
0	6	8704	0	1	2	1	0
0	6	24100	0	1	2	3	4
0	6	3.02694e+06	0	1	2	5	4
0	6	50	0	1	5	3	4
0	7	8064	0	1	2	1	0
0	7	19000	0	1	2	3	4
0	7	3.41197e+06	0	1	2	5	4
0	8	7808	0	1	2	1	0
0	8	19900	0	1	2	3	4
0	8	3.62086e+06	0	1	2	5	4
0	8	50	0	1	5	3	4
0	9	8064	0	1	2	1	0
0	9	21100	0	1	2	3	4
0	9	3.21126e+06	0	1	2	5	4
0	9	100	0	1	5	3	4
0	10	8576	0	1	2	1	0
0	10	20800	0	1	2	3	4
0	10	3.23994e+06	0	1	2	5	4
0	10	50	0	1	5	3	4
0	11	8256	0	1	2	1	0
0	11	17900	0	1	2	3	4
0	11	3.39558e+06	0	1	2	5	4
0	11	50	0	1	5	3	4
0	12	9280	0	1	2	1	0
0	12	21300	0	1	2	3	4
0	12	3.072e+06	0	1	2	5	4
0	12	50	0	1	5	3	4
0	13	9216	0	1	2	1	0
0	13	19500	0	1	2	3	4
0	13	3.35872e+06	0	1	2	5	4
0	13	50	0	1	5	3	4
0	14	7680	0	1	2	1	0
0	14	20900	0	1	2	3	4
0	14	3.23584e+06	0	1	2	5	4
0	14	50	0	1	5	3	4
0	15	7680	0	1	2	1	0
0	15	17700	0	1	2	3	4
0	15	3.29728e+06	0	1	2	5	4
0	15	100	0	1	5	3	4
0	16	8640	0	1	2	1	0
0	16	21600	0	1	2	3	4
0	16	3.41606e+06	0	1	2	5	4
0	16	300	0	1	5	3	4
0	17	9408	0	1	2	1	0
0	17	19700	0	1	2	3	4
0	17	3.39558e+06	0	1	2	5	4
0	17	100	0	1	5	3	4
1	0	8064	0	1	2	1	0
1	0	20600	0	1	2	3	4
1	0	3.39968e+06	0	1	2	5	4
1	0	150	0	1	5	3	4
1	2	9344	0	1	2	1	0
1	2	24500	0	1	2	3	4
1	2	3.44474e+06	0	1	2	5	4
1	2	150	0	1	5	3	4
1	3	7872	0	1	2	1	0
1	3	21100	0	1	2	3	4
1	3	3.36691e+06	0	1	2	5	4
1	3	100	0	1	5	3	4
1	4	8000	0	1	2	1	0
1	4	21300	0	1	2	3	4
1	4	3.33005e+06	0	1	2	5	4
1	4	150	0	1	5	3	4
1	5	8448	0	1	2	1	0
1	5	20100	0	1	2	3	4
1	5	3.23994e+06	0	1	2	5	4
1	6	10112	0	1	2	1	0
1	6	21600	0	1	2	3	4
1	6	3.19078e+06	0	1	2	5	4
1	6	150	0	1	5	3	4
1	7	7488	0	1	2	1	0
1	7	20200	0	1	2	3	4
1	7	3.26042e+06	0	1	2	5	4
1	7	50	0	1	5	3	4
1	8	9664	0	1	2	1	0
1	8	19700	0	1	2	3	4
1	8	3.3792e+06	0	1	2	5	4
1	9	8704	0	1	2	1	0
1	9	20600	0	1	2	3	4
1	9	3.24813e+06	0	1	2	5	4
1	9	50	0	1	5	3	4
1	10	8512	0	1	2	1	0
1	10	22400	0	1	2	3	4
1	10	3.28499e+06	0	1	2	5	4
1	11	9216	0	1	2	1	0
1	11	19100	0	1	2	3	4
1	11	3.24813e+06	0	1	2	5	4
1	11	100	0	1	5	3	4
1	12	9728	0	1	2	1	0
1	12	21100	0	1	2	3	4
1	12	3.25222e+06	0	1	2	5	4
1	13	8512	0	1	2	1	0
1	13	18700	0	1	2	3	4
1	13	3.36691e+06	0	1	2	5	4
1	13	100	0	1	5	3	4
1	14	8576	0	1	2	1	0
1	14	20000	0	1	2	3	4
1	14	3.02285e+06	0	1	2	5	4
1	15	9408	0	1	2	1	0
1	15	24400	0	1	2	3	4
1	15	3.16211e+06	0	1	2	5	4
1	15	200	0	1	5	3	4
1	16	8576	0	1	2	1	0
1	16	22700	0	1	2	3	4
1	16	3.20717e+06	0	1	2	5	4
1	16	50	0	1	5	3	4
1	17	9472	0	1	2	1	0
1	17	20600	0	1	2	3	4
1	17	3.2727e+06	0	1	2	5	4
1	17	100	0	1	5	3	4
2	0	8640	0	1	2	1	0
2	0	22800	0	1	2	3	4
2	0	3.1744e+06	0	1	2	5	4
2	0	150	0	1	5	3	4
2	1	9536	0	1	2	1	0
2	1	18300	0	1	2	3	4
2	1	3.30138e+06	0	1	2	5	4
2	1	50	0	1	5	3	4
2	3	9856	0	1	2	1	0
2	3	22200	0	1	2	3	4
2	3	3.12115e+06	0	1	2	5	4
2	3	150	0	1	5	3	4
2	4	8896	0	1	2	1	0
2	4	20500	0	1	2	3	4
2	4	3.30547e+06	0	1	2	5	4
2	4	200	0	1	5	3	4
2	5	9216	0	1	2	1	0
2	5	22600	0	1	2	3	4
2	5	3.3833e+06	0	1	2	5	4
2	5	100	0	1	5	3	4
2	6	7424	0	1	2	1	0
2	6	18800	0	1	2	3	4
2	6	3.40378e+06	0	1	2	5	4
2	6	150	0	1	5	3	4
2	7	8320	0	1	2	1	0
2	7	20800	0	1	2	3	4
2	7	3.02285e+06	0	1	2	5	4
2	7	50	0	1	5	3	4
2	8	9344	0	1	2	1	0
2	8	18200	0	1	2	3	4
2	8	3.30547e+06	0	1	2	5	4
2	8	100	0	1	5	3	4
2	9	8832	0	1	2	1	0
2	9	23500	0	1	2	3	4
2	9	3.19488e+06	0	1	2	5	4
2	9	150	0	1	5	3	4
2	10	8832	0	1	2	1	0
2	10	17900	0	1	2	3	4
2	10	3.08019e+06	0	1	2	5	4
2	11	9472	0	1	2	1	0
2	11	19300	0	1	2	3	4
2	11	3.2809e+06	0	1	2	5	4
2	11	150	0	1	5	3	4
2	12	8704	0	1	2	1	0
2	12	22400	0	1	2	3	4
2	12	3.19488e+06	0	1	2	5	4
2	12	50	0	1	5	3	4
2	13	7936	0	1	2	1	0
2	13	19800	0	1	2	3	4
2	13	3.29318e+06	0	1	2	5	4
2	13	50	0	1	5	3	4
2	14	9024	0	1	2	1	0
2	14	18700	0	1	2	3	4
2	14	3.21946e+06	0	1	2	5	4
2	14	100	0	1	5	3	4
2	15	7424	0	1	2	1	0
2	15	21200	0	1	2	3	4
2	15	3.24813e+06	0	1	2	5	4
2	15	100	0	1	5	3	4
2	16	8384	0	1	2	1	0
2	16	22300	0	1	2	3	4
2	16	3.25222e+06	0	1	2	5	4
2	16	50	0	1	5	3	4
2	17	8704	0	1	2	1	0
2	17	21700	0	1	2	3	4
2	17	3.1744e+06	0	1	2	5	4
2	17	50	0	1	5	3	4
3	0	7488	0	1	2	1	0
3	0	19300	0	1	2	3	4
3	0	3.14163e+06	0	1	2	5	4
3	0	100	0	1	5	3	4
3	1	9984	0	1	2	1	0
3	1	19400	0	1	2	3	4
3	1	3.38739e+06	0	1	2	5	4
3	1	200	0	1	5	3	4
3	2	9664	0	1	2	1	0
3	2	22200	0	1	2	3	4
3	2	3.18259e+06	0	1	2	5	4
3	2	50	0	1	5	3	4
3	4	8064	0	1	2	1	0
3	4	22600	0	1	2	3	4
3	4	3.3833e+06	0	1	2	5	4
3	4	50	0	1	5	3	4
3	5	8512	0	1	2	1	0
3	5	22900	0	1	2	3	4
3	5	3.09658e+06	0	1	2	5	4
3	5	150	0	1	5	3	4
3	6	8064	0	1	2	1	0
3	6	20500	0	1	2	3	4
3	6	3.19078e+06	0	1	2	5	4
3	6	200	0	1	5	3	4
3	7	8192	0	1	2	1	0
3	7	18500	0	1	2	3	4
3	7	3.22765e+06	0	1	2	5	4
3	7	50	0	1	5	3	4
3	8	8320	0	1	2	1	0
3	8	20400	0	1	2	3	4
3	8	3.20307e+06	0	1	2	5	4
3	8	100	0	1	5	3	4
3	9	8128	0	1	2	1	0
3	9	18600	0	1	2	3	4
3	9	3.23994e+06	0	1	2	5	4
3	9	50	0	1	5	3	4
3	10	8704	0	1	2	1	0
3	10	20800	0	1	2	3	4
3	10	3.22355e+06	0	1	2	5	4
3	10	50	0	1	5	3	4
3	11	9216	0	1	2	1	0
3	11	22300	0	1	2	3	4
3	11	3.10886e+06	0	1	2	5	4
3	11	50	0	1	5	3	4
3	12	7424	0	1	2	1	0
3	12	21100	0	1	2	3	4
3	12	3.35872e+06	0	1	2	5	4
3	12	50	0	1	5	3	4
3	13	8896	0	1	2	1	0
3	13	21100	0	1	2	3	4
3	13	3.18259e+06	0	1	2	5	4
3	13	50	0	1	5	3	4
3	14	8192	0	1	2	1	0
3	14	22600	0	1	2	3	4
3	14	3.14573e+06	0	1	2	5	4
3	14	50	0	1	5	3	4
3	15	8768	0	1	2	1	0
3	15	22000	0	1	2	3	4
3	15	3.24403e+06	0	1	2	5	4
3	16	7680	0	1	2	1	0
3	16	21600	0	1	2	3	4
3	16	3.32595e+06	0	1	2	5	4
3	17	8960	0	1	2	1	0
3	17	20300	0	1	2	3	4
3	17	3.08019e+06	0	1	2	5	4
3	17	50	0	1	5	3	4
4	0	8384	0	1	2	1	0
4	0	21400	0	1	2	3	4
4	0	3.06381e+06	0	1	2	5	4
4	0	50	0	1	5	3	4
4	1	9600	0	1	2	1	0
4	1	18700	0	1	2	3	4
4	1	3.32186e+06	0	1	2	5	4
4	1	150	0	1	5	3	4
4	2	8256	0	1	2	1	0
4	2	19500	0	1	2	3	4
4	2	3.20717e+06	0	1	2	5	4
4	2	50	0	1	5	3	4
4	3	8640	0	1	2	1	0
4	3	21700	0	1	2	3	4
4	3	3.30957e+06	0	1	2	5	4
4	3	150	0	1	5	3	4
4	5	8704	0	1	2	1	0
4	5	22200	0	1	2	3	4
4	5	3.01875e+06	0	1	2	5	4
4	5	50	0	1	5	3	4
4	6	9152	0	1	2	1	0
4	6	20900	0	1	2	3	4
4	6	3.37101e+06	0	1	2	5	4
4	6	150	0	1	5	3	4
4	7	8000	0	1	2	1	0
4	7	22000	0	1	2	3	4
4	7	3.29728e+06	0	1	2	5	4
4	7	150	0	1	5	3	4
4	8	7424	0	1	2	1	0
4	8	21400	0	1	2	3	4
4	8	3.3751e+06	0	1	2	5	4
4	9	9024	0	1	2	1	0
4	9	22800	0	1	2	3	4
4	9	3.1785e+06	0	1	2	5	4
4	9	50	0	1	5	3	4
4	10	9152	0	1	2	1	0
4	10	19100	0	1	2	3	4
4	10	3.04333e+06	0	1	2	5	4
4	10	150	0	1	5	3	4
4	11	8448	0	1	2	1	0
4	11	21800	0	1	2	3	4
4	11	3.26042e+06	0	1	2	5	4
4	11	150	0	1	5	3	4
4	12	9088	0	1	2	1	0
4	12	20900	0	1	2	3	4
4	12	3.13344e+06	0	1	2	5	4
4	12	200	0	1	5	3	4
4	13	8832	0	1	2	1	0
4	13	20500	0	1	2	3	4
4	13	3.03923e+06	0	1	2	5	4
4	13	100	0	1	5	3	4
4	14	9728	0	1	2	1	0
4	14	19200	0	1	2	3	4
4	14	3.22765e+06	0	1	2	5	4
4	14	150	0	1	5	3	4
4	15	8256	0	1	2	1	0
4	15	22400	0	1	2	3	4
4	15	3.19898e+06	0	1	2	5	4
4	15	100	0	1	5	3	4
4	16	9664	0	1	2	1	0
4	16	20600	0	1	2	3	4
4	16	3.24813e+06	0	1	2	5	4
4	17	7616	0	1	2	1	0
4	17	21000	0	1	2	3	4
4	17	3.26451e+06	0	1	2	5	4
4	17	200	0	1	5	3	4
5	0	7296	0	1	2	1	0
5	0	21200	0	1	2	3	4
5	0	3.43654e+06	0	1	2	5	4
5	0	50	0	1	5	3	4
5	1	9088	0	1	2	1	0
5	1	18100	0	1	2	3	4
5	1	3.32186e+06	0	1	2	5	4
5	1	200	0	1	5	3	4
5	2	7488	0	1	2	1	0
5	2	21400	0	1	2	3	4
5	2	3.14982e+06	0	1	2	5	4
5	2	100	0	1	5	3	4
5	3	8128	0	1	2	1	0
5	3	22800	0	1	2	3	4
5	3	3.39968e+06	0	1	2	5	4
5	3	150	0	1	5	3	4
5	4	9024	0	1	2	1	0
5	4	20400	0	1	2	3	4
5	4	3.21946e+06	0	1	2	5	4
5	4	50	0	1	5	3	4
5	6	8256	0	1	2	1	0
5	6	21300	0	1	2	3	4
5	6	3.51027e+06	0	1	2	5	4
5	6	200	0	1	5	3	4
5	7	8768	0	1	2	1	0
5	7	19900	0	1	2	3	4
5	7	3.05152e+06	0	1	2	5	4
5	8	9088	0	1	2	1	0
5	8	19600	0	1	2	3	4
5	8	3.21946e+06	0	1	2	5	4
5	8	50	0	1	5	3	4
5	9	8576	0	1	2	1	0
5	9	19800	0	1	2	3	4
5	9	3.03923e+06	0	1	2	5	4
5	9	50	0	1	5	3	4
5	10	9152	0	1	2	1	0
5	10	21700	0	1	2	3	4
5	10	3.30138e+06	0	1	2	5	4
5	10	100	0	1	5	3	4
5	11	10112	0	1	2	1	0
5	11	20600	0	1	2	3	4
5	11	3.1703e+06	0	1	2	5	4
5	11	100	0	1	5	3	4
5	12	7808	0	1	2	1	0
5	12	23500	0	1	2	3	4
5	12	3.09658e+06	0	1	2	5	4
5	13	8832	0	1	2	1	0
5	13	19100	0	1	2	3	4
5	13	3.32186e+06	0	1	2	5	4
5	13	50	0	1	5	3	4
5	14	9216	0	1	2	1	0
5	14	21500	0	1	2	3	4
5	14	3.32595e+06	0	1	2	5	4
5	15	9152	0	1	2	1	0
5	15	20600	0	1	2	3	4
5	15	3.16211e+06	0	1	2	5	4
5	15	100	0	1	5	3	4
5	16	9216	0	1	2	1	0
5	16	19300	0	1	2	3	4
5	16	3.42835e+06	0	1	2	5	4
5	16	150	0	1	5	3	4
5	17	9408	0	1	2	1	0
5	17	21400	0	1	2	3	4
5	17	3.1785e+06	0	1	2	5	4
5	17	50	0	1	5	3	4
6	0	8512	0	1	2	1	0
6	0	20600	0	1	2	3	4
6	0	3.25222e+06	0	1	2	5	4
6	0	100	0	1	5	3	4
6	1	7360	0	1	2	1	0
6	1	21000	0	1	2	3	4
6	1	3.21536e+06	0	1	2	5	4
6	1	100	0	1	5	3	4
6	2	8640	0	1	2	1	0
6	2	21400	0	1	2	3	4
6	2	3.23584e+06	0	1	2	5	4
6	2	50	0	1	5	3	4
6	3	9024	0	1	2	1	0
6	3	18600	0	1	2	3	4
6	3	3.18669e+06	0	1	2	5	4
6	3	150	0	1	5	3	4
6	4	9344	0	1	2	1	0
6	4	17400	0	1	2	3	4
6	4	3.29728e+06	0	1	2	5	4
6	5	8704	0	1	2	1	0
6	5	18800	0	1	2	3	4
6	5	3.15802e+06	0	1	2	5	4
6	5	100	0	1	5	3	4
6	7	7936	0	1	2	1	0
6	7	21200	0	1	2	3	4
6	7	3.2809e+06	0	1	2	5	4
6	7	200	0	1	5	3	4
6	8	8000	0	1	2	1	0
6	8	20300	0	1	2	3	4
6	8	3.02285e+06	0	1	2	5	4
6	8	150	0	1	5	3	4
6	9	8768	0	1	2	1	0
6	9	21700	0	1	2	3	4
6	9	3.3751e+06	0	1	2	5	4
6	9	50	0	1	5	3	4
6	10	8192	0	1	2	1	0
6	10	21400	0	1	2	3	4
6	10	3.45702e+06	0	1	2	5	4
6	11	8128	0	1	2	1	0
6	11	23200	0	1	2	3	4
6	11	3.22355e+06	0	1	2	5	4
6	11	50	0	1	5	3	4
6	12	8640	0	1	2	1	0
6	12	21700	0	1	2	3	4
6	12	3.15392e+06	0	1	2	5	4
6	12	100	0	1	5	3	4
6	13	9664	0	1	2	1	0
6	13	19000	0	1	2	3	4
6	13	3.31776e+06	0	1	2	5	4
6	14	7872	0	1	2	1	0
6	14	22300	0	1	2	3	4
6	14	2.94093e+06	0	1	2	5	4
6	14	50	0	1	5	3	4
6	15	8384	0	1	2	1	0
6	15	19000	0	1	2	3	4
6	15	3.23174e+06	0	1	2	5	4
6	15	50	0	1	5	3	4
6	16	8704	0	1	2	1	0
6	16	20900	0	1	2	3	4
6	16	3.21946e+06	0	1	2	5	4
6	16	150	0	1	5	3	4
6	17	8512	0	1	2	1	0
6	17	19800	0	1	2	3	4
6	17	3.38739e+06	0	1	2	5	4
6	17	100	0	1	5	3	4
7	0	9024	0	1	2	1	0
7	0	16700	0	1	2	3	4
7	0	3.39558e+06	0	1	2	5	4
7	0	100	0	1	5	3	4
7	1	7168	0	1	2	1	0
7	1	19900	0	1	2	3	4
7	1	3.1703e+06	0	1	2	5	4
7	1	50	0	1	5	3	4
7	2	8000	0	1	2	1	0
7	2	19600	0	1	2	3	4
7	2	3.37101e+06	0	1	2	5	4
7	2	150	0	1	5	3	4
7	3	7936	0	1	2	1	0
7	3	20300	0	1	2	3	4
7	3	3.19898e+06	0	1	2	5	4
7	3	50	0	1	5	3	4
7	4	9920	0	1	2	1	0
7	4	19700	0	1	2	3	4
7	4	3.15392e+06	0	1	2	5	4
7	5	9920	0	1	2	1	0
7	5	19700	0	1	2	3	4
7	5	3.05562e+06	0	1	2	5	4
7	5	50	0	1	5	3	4
7	6	9344	0	1	2	1	0
7	6	22600	0	1	2	3	4
7	6	3.18259e+06	0	1	2	5	4
7	6	150	0	1	5	3	4
7	8	8512	0	1	2	1	0
7	8	20700	0	1	2	3	4
7	8	3.23994e+06	0	1	2	5	4
7	8	50	0	1	5	3	4
7	9	8768	0	1	2	1	0
7	9	21900	0	1	2	3	4
7	9	3.30138e+06	0	1	2	5	4
7	9	50	0	1	5	3	4
7	10	9024	0	1	2	1	0
7	10	19500	0	1	2	3	4
7	10	3.23174e+06	0	1	2	5	4
7	10	150	0	1	5	3	4
7	11	8128	0	1	2	1	0
7	11	22700	0	1	2	3	4
7	11	3.23584e+06	0	1	2	5	4
7	11	150	0	1	5	3	4
7	12	10240	0	1	2	1	0
7	12	21300	0	1	2	3	4
7	12	3.1703e+06	0	1	2	5	4
7	12	150	0	1	5	3	4
7	13	8512	0	1	2	1	0
7	13	19000	0	1	2	3	4
7	13	3.30957e+06	0	1	2	5	4
7	13	50	0	1	5	3	4
7	14	8448	0	1	2	1	0
7	14	18700	0	1	2	3	4
7	14	3.30138e+06	0	1	2	5	4
7	14	100	0	1	5	3	4
7	15	9344	0	1	2	1	0
7	15	20800	0	1	2	3	4
7	15	3.30138e+06	0	1	2	5	4
7	15	150	0	1	5	3	4
7	16	8768	0	1	2	1	0
7	16	20300	0	1	2	3	4
7	16	3.23994e+06	0	1	2	5	4
7	16	300	0	1	5	3	4
7	17	8576	0	1	2	1	0
7	17	20300	0	1	2	3	4
7	17	3.13754e+06	0	1	2	5	4
8	0	7872	0	1	2	1	0
8	0	18500	0	1	2	3	4
8	0	3.15392e+06	0	1	2	5	4
8	0	200	0	1	5	3	4
8	1	8448	0	1	2	1	0
8	1	22100	0	1	2	3	4
8	1	3.09658e+06	0	1	2	5	4
8	2	8512	0	1	2	1	0
8	2	21200	0	1	2	3	4
8	2	3.34643e+06	0	1	2	5	4
8	2	100	0	1	5	3	4
8	3	9600	0	1	2	1	0
8	3	20300	0	1	2	3	4
8	3	3.08429e+06	0	1	2	5	4
8	3	100	0	1	5	3	4
8	4	8448	0	1	2	1	0
8	4	15800	0	1	2	3	4
8	4	3.08019e+06	0	1	2	5	4
8	4	200	0	1	5	3	4
8	5	9024	0	1	2	1	0
8	5	18900	0	1	2	3	4
8	5	3.33824e+06	0	1	2	5	4
8	5	50	0	1	5	3	4
8	6	8192	0	1	2	1	0
8	6	21500	0	1	2	3	4
8	6	3.29728e+06	0	1	2	5	4
8	6	150	0	1	5	3	4
8	7	7808	0	1	2	1	0
8	7	25000	0	1	2	3	4
8	7	3.09248e+06	0	1	2	5	4
8	7	50	0	1	5	3	4
8	9	7360	0	1	2	1	0
8	9	21000	0	1	2	3	4
8	9	3.04333e+06	0	1	2	5	4
8	10	9472	0	1	2	1	0
8	10	22000	0	1	2	3	4
8	10	3.26042e+06	0	1	2	5	4
8	10	50	0	1	5	3	4
8	11	8640	0	1	2	1	0
8	11	18900	0	1	2	3	4
8	11	3.12525e+06	0	1	2	5	4
8	11	50	0	1	5	3	4
8	12	9280	0	1	2	1	0
8	12	21200	0	1	2	3	4
8	12	3.1744e+06	0	1	2	5	4
8	12	150	0	1	5	3	4
8	13	8064	0	1	2	1	0
8	13	20800	0	1	2	3	4
8	13	3.1703e+06	0	1	2	5	4
8	13	50	0	1	5	3	4
8	14	8192	0	1	2	1	0
8	14	22900	0	1	2	3	4
8	14	3.18259e+06	0	1	2	5	4
8	14	50	0	1	5	3	4
8	15	6784	0	1	2	1	0
8	15	22600	0	1	2	3	4
8	15	3.08019e+06	0	1	2	5	4
8	15	50	0	1	5	3	4
8	16	9088	0	1	2	1	0
8	16	21500	0	1	2	3	4
8	16	3.31776e+06	0	1	2	5	4
8	16	150	0	1	5	3	4
8	17	8128	0	1	2	1	0
8	17	19000	0	1	2	3	4
8	17	3.33824e+06	0	1	2	5	4
8	17	50	0	1	5	3	4
9	0	9536	0	1	2	1	0
9	0	20100	0	1	2	3	4
9	0	3.49798e+06	0	1	2	5	4
9	1	8000	0	1	2	1	0
9	1	22900	0	1	2	3	4
9	1	3.23584e+06	0	1	2	5	4
9	1	100	0	1	5	3	4
9	2	7744	0	1	2	1	0
9	2	21000	0	1	2	3	4
9	2	3.19488e+06	0	1	2	5	4
9	2	150	0	1	5	3	4
9	3	8512	0	1	2	1	0
9	3	20700	0	1	2	3	4
9	3	3.19898e+06	0	1	2	5	4
9	3	50	0	1	5	3	4
9	4	8960	0	1	2	1	0
9	4	22600	0	1	2	3	4
9	4	3.22765e+06	0	1	2	5	4
9	4	50	0	1	5	3	4
9	5	8256	0	1	2	1	0
9	5	21000	0	1	2	3	4
9	5	3.03514e+06	0	1	2	5	4
9	5	100	0	1	5	3	4
9	6	8448	0	1	2	1	0
9	6	17600	0	1	2	3	4
9	6	3.31776e+06	0	1	2	5	4
9	6	200	0	1	5	3	4
9	7	8128	0	1	2	1	0
9	7	20500	0	1	2	3	4
9	7	2.9737e+06	0	1	2	5	4
9	7	50	0	1	5	3	4
9	8	9664	0	1	2	1	0
9	8	20600	0	1	2	3	4
9	8	3.14573e+06	0	1	2	5	4
9	8	100	0	1	5	3	4
9	10	8704	0	1	2	1	0
9	10	21900	0	1	2	3	4
9	10	3.21536e+06	0	1	2	5	4
9	10	50	0	1	5	3	4
9	11	8448	0	1	2	1	0
9	11	17900	0	1	2	3	4
9	11	3.16621e+06	0	1	2	5	4
9	11	100	0	1	5	3	4
9	12	8832	0	1	2	1	0
9	12	20200	0	1	2	3	4
9	12	3.24403e+06	0	1	2	5	4
9	13	8000	0	1	2	1	0
9	13	20300	0	1	2	3	4
9	13	3.31776e+06	0	1	2	5	4
9	13	50	0	1	5	3	4
9	14	8448	0	1	2	1	0
9	14	22600	0	1	2	3	4
9	14	3.23994e+06	0	1	2	5	4
9	14	50	0	1	5	3	4
9	15	8832	0	1	2	1	0
9	15	23000	0	1	2	3	4
9	15	3.36691e+06	0	1	2	5	4
9	15	200	0	1	5	3	4
9	16	7744	0	1	2	1	0
9	16	21500	0	1	2	3	4
9	16	3.072e+06	0	1	2	5	4
9	16	100	0	1	5	3	4
9	17	10368	0	1	2	1	0
9	17	19900	0	1	2	3	4
9	17	3.16211e+06	0	1	2	5	4
9	17	50	0	1	5	3	4
10	0	7936	0	1	2	1	0
10	0	21300	0	1	2	3	4
10	0	3.15392e+06	0	1	2	5	4
10	0	50	0	1	5	3	4
10	1	8256	0	1	2	1	0
10	1	19000	0	1	2	3	4
10	1	3.06381e+06	0	1	2	5	4
10	1	50	0	1	5	3	4
10	2	9792	0	1	2	1	0
10	2	22200	0	1	2	3	4
10	2	3.30547e+06	0	1	2	5	4
10	3	8000	0	1	2	1	0
10	3	21300	0	1	2	3	4
10	3	3.25222e+06	0	1	2	5	4
10	3	200	0	1	5	3	4
10	4	7680	0	1	2	1	0
10	4	21500	0	1	2	3	4
10	4	3.30547e+06	0	1	2	5	4
10	5	8640	0	1	2	1	0
10	5	21200	0	1	2	3	4
10	5	3.06381e+06	0	1	2	5	4
10	5	100	0	1	5	3	4
10	6	9024	0	1	2	1	0
10	6	20600	0	1	2	3	4
10	6	3.15392e+06	0	1	2	5	4
10	7	7616	0	1	2	1	0
10	7	20900	0	1	2	3	4
10	7	3.24813e+06	0	1	2	5	4
10	7	100	0	1	5	3	4
10	8	8832	0	1	2	1	0
10	8	20800	0	1	2	3	4
10	8	2.98598e+06	0	1	2	5	4
10	8	200	0	1	5	3	4
10	9	8704	0	1	2	1	0
10	9	23300	0	1	2	3	4
10	9	3.30138e+06	0	1	2	5	4
10	11	9856	0	1	2	1	0
10	11	18500	0	1	2	3	4
10	11	3.34643e+06	0	1	2	5	4
10	11	150	0	1	5	3	4
10	12	8128	0	1	2	1	0
10	12	19800	0	1	2	3	4
10	12	3.09658e+06	0	1	2	5	4
10	12	50	0	1	5	3	4
10	13	8000	0	1	2	1	0
10	13	20800	0	1	2	3	4
10	13	3.19078e+06	0	1	2	5	4
10	13	150	0	1	5	3	4
10	14	9856	0	1	2	1	0
10	14	19200	0	1	2	3	4
10	14	3.18259e+06	0	1	2	5	4
10	15	9024	0	1	2	1	0
10	15	20700	0	1	2	3	4
10	15	3.1744e+06	0	1	2	5	4
10	15	50	0	1	5	3	4
10	16	8256	0	1	2	1	0
10	16	19500	0	1	2	3	4
10	16	3.23994e+06	0	1	2	5	4
10	16	100	0	1	5	3	4
10	17	8576	0	1	2	1	0
10	17	20400	0	1	2	3	4
10	17	3.33005e+06	0	1	2	5	4
11	0	8512	0	1	2	1	0
11	0	20100	0	1	2	3	4
11	0	3.22355e+06	0	1	2	5	4
11	0	50	0	1	5	3	4
11	1	8960	0	1	2	1	0
11	1	20500	0	1	2	3	4
11	1	3.42835e+06	0	1	2	5	4
11	1	100	0	1	5	3	4
11	2	8064	0	1	2	1	0
11	2	20800	0	1	2	3	4
11	2	3.1785e+06	0	1	2	5	4
11	2	100	0	1	5	3	4
11	3	8128	0	1	2	1	0
11	3	20600	0	1	2	3	4
11	3	3.2727e+06	0	1	2	5	4
11	3	100	0	1	5	3	4
11	4	7168	0	1	2	1	0
11	4	21700	0	1	2	3	4
11	4	3.39558e+06	0	1	2	5	4
11	4	150	0	1	5	3	4
11	5	8256	0	1	2	1	0
11	5	18200	0	1	2	3	4
11	5	3.11706e+06	0	1	2	5	4
11	6	8256	0	1	2	1	0
11	6	19400	0	1	2	3	4
11	6	3.19898e+06	0	1	2	5	4
11	6	150	0	1	5	3	4
11	7	8320	0	1	2	1	0
11	7	19300	0	1	2	3	4
11	7	3.10477e+06	0	1	2	5	4
11	7	100	0	1	5	3	4
11	8	9024	0	1	2	1	0
11	8	19600	0	1	2	3	4
11	8	3.12115e+06	0	1	2	5	4
11	9	8448	0	1	2	1	0
11	9	19100	0	1	2	3	4
11	9	3.25632e+06	0	1	2	5	4
11	9	100	0	1	5	3	4
11	10	8960	0	1	2	1	0
11	10	21400	0	1	2	3	4
11	10	3.11296e+06	0	1	2	5	4
11	12	9728	0	1	2	1	0
11	12	23100	0	1	2	3	4
11	12	3.36282e+06	0	1	2	5	4
11	12	250	0	1	5	3	4
11	13	9280	0	1	2	1	0
11	13	20500	0	1	2	3	4
11	13	3.14163e+06	0	1	2	5	4
11	13	100	0	1	5	3	4
11	14	9152	0	1	2	1	0
11	14	22800	0	1	2	3	4
11	14	3.28499e+06	0	1	2	5	4
11	14	250	0	1	5	3	4
11	15	8320	0	1	2	1	0
11	15	21800	0	1	2	3	4
11	15	3.29318e+06	0	1	2	5	4
11	15	100	0	1	5	3	4
11	16	8512	0	1	2	1	0
11	16	19000	0	1	2	3	4
11	16	3.32595e+06	0	1	2	5	4
11	16	50	0	1	5	3	4
11	17	7936	0	1	2	1	0
11	17	19400	0	1	2	3	4
11	17	3.18259e+06	0	1	2	5	4
11	17	50	0	1	5	3	4
12	0	7424	0	1	2	1	0
12	0	19300	0	1	2	3	4
12	0	3.29728e+06	0	1	2	5	4
12	0	50	0	1	5	3	4
12	1	6720	0	1	2	1	0
12	1	23200	0	1	2	3	4
12	1	3.20717e+06	0	1	2	5	4
12	1	50	0	1	5	3	4
12	2	8832	0	1	2	1	0
12	2	18900	0	1	2	3	4
12	2	3.21536e+06	0	1	2	5	4
12	3	8512	0	1	2	1	0
12	3	22800	0	1	2	3	4
12	3	3.43654e+06	0	1	2	5	4
12	4	7360	0	1	2	1	0
12	4	20600	0	1	2	3	4
12	4	3.08429e+06	0	1	2	5	4
12	4	50	0	1	5	3	4
12	5	8448	0	1	2	1	0
12	5	19500	0	1	2	3	4
12	5	2.92454e+06	0	1	2	5	4
12	5	50	0	1	5	3	4
12	6	8896	0	1	2	1	0
12	6	21000	0	1	2	3	4
12	6	3.26861e+06	0	1	2	5	4
12	6	50	0	1	5	3	4
12	7	7616	0	1	2	1	0
12	7	21100	0	1	2	3	4
12	7	3.23174e+06	0	1	2	5	4
12	7	200	0	1	5	3	4
12	8	8704	0	1	2	1	0
12	8	20100	0	1	2	3	4
12	8	3.25222e+06	0	1	2	5	4
12	8	50	0	1	5	3	4
12	9	7872	0	1	2	1	0
12	9	21000	0	1	2	3	4
12	9	3.2768e+06	0	1	2	5	4
12	10	8704	0	1	2	1	0
12	10	21500	0	1	2	3	4
12	10	3.21946e+06	0	1	2	5	4
12	10	50	0	1	5	3	4
12	11	8256	0	1	2	1	0
12	11	18600	0	1	2	3	4
12	11	3.29728e+06	0	1	2	5	4
12	11	50	0	1	5	3	4
12	13	9664	0	1	2	1	0
12	13	19300	0	1	2	3	4
12	13	3.3792e+06	0	1	2	5	4
12	14	9280	0	1	2	1	0
12	14	22700	0	1	2	3	4
12	14	3.39968e+06	0	1	2	5	4
12	14	100	0	1	5	3	4
12	15	9088	0	1	2	1	0
12	15	21300	0	1	2	3	4
12	15	3.23584e+06	0	1	2	5	4
12	15	100	0	1	5	3	4
12	16	9152	0	1	2	1	0
12	16	20500	0	1	2	3	4
12	16	3.2727e+06	0	1	2	5	4
12	16	250	0	1	5	3	4
12	17	8896	0	1	2	1	0
12	17	17400	0	1	2	3	4
12	17	3.53485e+06	0	1	2	5	4
12	17	200	0	1	5	3	4
13	0	7872	0	1	2	1	0
13	0	19600	0	1	2	3	4
13	0	3.39558e+06	0	1	2	5	4
13	0	100	0	1	5	3	4
13	1	9536	0	1	2	1	0
13	1	22400	0	1	2	3	4
13	1	3.21126e+06	0	1	2	5	4
13	1	50	0	1	5	3	4
13	2	8064	0	1	2	1	0
13	2	23300	0	1	2	3	4
13	2	3.22355e+06	0	1	2	5	4
13	2	100	0	1	5	3	4
13	3	8640	0	1	2	1	0
13	3	19500	0	1	2	3	4
13	3	3.32595e+06	0	1	2	5	4
13	3	50	0	1	5	3	4
13	4	7744	0	1	2	1	0
13	4	18700	0	1	2	3	4
13	4	3.40378e+06	0	1	2	5	4
13	5	8256	0	1	2	1	0
13	5	21900	0	1	2	3	4
13	5	3.4816e+06	0	1	2	5	4
13	5	150	0	1	5	3	4
13	6	7552	0	1	2	1	0
13	6	19000	0	1	2	3	4
13	6	3.22765e+06	0	1	2	5	4
13	6	100	0	1	5	3	4
13	7	8640	0	1	2	1	0
13	7	18900	0	1	2	3	4
13	7	3.30547e+06	0	1	2	5	4
13	7	50	0	1	5	3	4
13	8	9280	0	1	2	1	0
13	8	18400	0	1	2	3	4
13	8	3.36282e+06	0	1	2	5	4
13	8	50	0	1	5	3	4
13	9	8320	0	1	2	1	0
13	9	21100	0	1	2	3	4
13	9	3.28499e+06	0	1	2	5	4
13	10	7616	0	1	2	1	0
13	10	21900	0	1	2	3	4
13	10	3.19898e+06	0	1	2	5	4
13	10	50	0	1	5	3	4
13	11	7808	0	1	2	1	0
13	11	21900	0	1	2	3	4
13	11	3.20307e+06	0	1	2	5	4
13	11	150	0	1	5	3	4
13	12	8192	0	1	2	1	0
13	12	23400	0	1	2	3	4
13	12	3.39149e+06	0	1	2	5	4
13	12	150	0	1	5	3	4
13	14	9600	0	1	2	1	0
13	14	20800	0	1	2	3	4
13	14	3.45293e+06	0	1	2	5	4
13	15	9408	0	1	2	1	0
13	15	22500	0	1	2	3	4
13	15	3.3751e+06	0	1	2	5	4
13	15	50	0	1	5	3	4
13	16	8000	0	1	2	1	0
13	16	19200	0	1	2	3	4
13	16	3.2768e+06	0	1	2	5	4
13	17	8320	0	1	2	1	0
13	17	20300	0	1	2	3	4
13	17	3.08838e+06	0	1	2	5	4
14	0	7808	0	1	2	1	0
14	0	21900	0	1	2	3	4
14	0	3.36282e+06	0	1	2	5	4
14	0	50	0	1	5	3	4
14	1	8256	0	1	2	1	0
14	1	21300	0	1	2	3	4
14	1	3.22765e+06	0	1	2	5	4
14	1	100	0	1	5	3	4
14	2	8064	0	1	2	1	0
14	2	22900	0	1	2	3	4
14	2	3.28909e+06	0	1	2	5	4
14	2	100	0	1	5	3	4
14	3	8896	0	1	2	1	0
14	3	19500	0	1	2	3	4
14	3	3.23584e+06	0	1	2	5	4
14	3	50	0	1	5	3	4
14	4	9472	0	1	2	1	0
14	4	22000	0	1	2	3	4
14	4	3.16211e+06	0	1	2	5	4
14	4	50	0	1	5	3	4
14	5	8320	0	1	2	1	0
14	5	20600	0	1	2	3	4
14	5	3.11296e+06	0	1	2	5	4
14	5	150	0	1	5	3	4
14	6	9664	0	1	2	1	0
14	6	19600	0	1	2	3	4
14	6	3.24813e+06	0	1	2	5	4
14	6	150	0	1	5	3	4
14	7	7360	0	1	2	1	0
14	7	22700	0	1	2	3	4
14	7	3.14163e+06	0	1	2	5	4
14	7	50	0	1	5	3	4
14	8	7104	0	1	2	1	0
14	8	20600	0	1	2	3	4
14	8	3.22355e+06	0	1	2	5	4
14	8	150	0	1	5	3	4
14	9	9152	0	1	2	1	0
14	9	22100	0	1	2	3	4
14	9	3.34234e+06	0	1	2	5	4
14	9	100	0	1	5	3	4
14	10	10048	0	1	2	1	0
14	10	22200	0	1	2	3	4
14	10	3.11296e+06	0	1	2	5	4
14	10	250	0	1	5	3	4
14	11	7232	0	1	2	1	0
14	11	20000	0	1	2	3	4
14	11	3.12115e+06	0	1	2	5	4
14	11	150	0	1	5	3	4
14	12	8000	0	1	2	1	0
14	12	20100	0	1	2	3	4
14	12	3.32186e+06	0	1	2	5	4
14	12	50	0	1	5	3	4
14	13	9984	0	1	2	1	0
14	13	20700	0	1	2	3	4
14	13	3.12525e+06	0	1	2	5	4
14	13	150	0	1	5	3	4
14	15	8512	0	1	2	1	0
14	15	19900	0	1	2	3	4
14	15	3.32186e+06	0	1	2	5	4
14	15	50	0	1	5	3	4
14	16	10112	0	1	2	1	0
14	16	21500	0	1	2	3	4
14	16	3.26861e+06	0	1	2	5	4
14	17	7680	0	1	2	1	0
14	17	19600	0	1	2	3	4
14	17	3.15802e+06	0	1	2	5	4
14	17	50	0	1	5	3	4
15	0	8704	0	1	2	1	0
15	0	19300	0	1	2	3	4
15	0	3.31366e+06	0	1	2	5	4
15	0	100	0	1	5	3	4
15	1	9216	0	1	2	1	0
15	1	20000	0	1	2	3	4
15	1	3.20717e+06	0	1	2	5	4
15	1	100	0	1	5	3	4
15	2	9152	0	1	2	1	0
15	2	23700	0	1	2	3	4
15	2	3.30547e+06	0	1	2	5	4
15	2	50	0	1	5	3	4
15	3	9984	0	1	2	1	0
15	3	19300	0	1	2	3	4
15	3	3.10886e+06	0	1	2	5	4
15	3	100	0	1	5	3	4
15	4	9344	0	1	2	1	0
15	4	20500	0	1	2	3	4
15	4	3.30957e+06	0	1	2	5	4
15	4	100	0	1	5	3	4
15	5	8448	0	1	2	1	0
15	5	21500	0	1	2	3	4
15	5	3.23994e+06	0	1	2	5	4
15	5	250	0	1	5	3	4
15	6	9600	0	1	2	1	0
15	6	18200	0	1	2	3	4
15	6	3.13754e+06	0	1	2	5	4
15	6	50	0	1	5	3	4
15	7	8832	0	1	2	1	0
15	7	20400	0	1	2	3	4
15	7	3.25632e+06	0	1	2	5	4
15	7	50	0	1	5	3	4
15	8	8448	0	1	2	1	0
15	8	20500	0	1	2	3	4
15	8	3.10067e+06	0	1	2	5	4
15	8	50	0	1	5	3	4
15	9	8832	0	1	2	1	0
15	9	21000	0	1	2	3	4
15	9	3.20717e+06	0	1	2	5	4
15	9	100	0	1	5	3	4
15	10	8384	0	1	2	1	0
15	10	23600	0	1	2	3	4
15	10	3.18669e+06	0	1	2	5	4
15	10	150	0	1	5	3	4
15	11	7616	0	1	2	1	0
15	11	18800	0	1	2	3	4
15	11	3.18259e+06	0	1	2	5	4
15	11	150	0	1	5	3	4
15	12	9536	0	1	2	1	0
15	12	19000	0	1	2	3	4
15	12	3.48979e+06	0	1	2	5	4
15	12	100	0	1	5	3	4
15	13	8256	0	1	2	1	0
15	13	20900	0	1	2	3	4
15	13	3.24813e+06	0	1	2	5	4
15	13	100	0	1	5	3	4
15	14	8192	0	1	2	1	0
15	14	18800	0	1	2	3	4
15	14	3.24813e+06	0	1	2	5	4
15	14	200	0	1	5	3	4
15	16	7680	0	1	2	1	0
15	16	23100	0	1	2	3	4
15	16	3.2809e+06	0	1	2	5	4
15	16	150	0	1	5	3	4
15	17	9344	0	1	2	1	0
15	17	20700	0	1	2	3	4
15	17	3.25632e+06	0	1	2	5	4
15	17	100	0	1	5	3	4
16	0	8256	0	1	2	1	0
16	0	20000	0	1	2	3	4
16	0	3.18259e+06	0	1	2	5	4
16	0	150	0	1	5	3	4
16	1	8896	0	1	2	1	0
16	1	18600	0	1	2	3	4
16	1	3.26861e+06	0	1	2	5	4
16	1	150	0	1	5	3	4
16	2	8256	0	1	2	1	0
16	2	21900	0	1	2	3	4
16	2	3.19488e+06	0	1	2	5	4
16	2	200	0	1	5	3	4
16	3	8128	0	1	2	1	0
16	3	20800	0	1	2	3	4
16	3	3.1785e+06	0	1	2	5	4
16	4	8448	0	1	2	1	0
16	4	21700	0	1	2	3	4
16	4	3.34643e+06	0	1	2	5	4
16	4	150	0	1	5	3	4
16	5	7488	0	1	2	1	0
16	5	23200	0	1	2	3	4
16	5	3.00646e+06	0	1	2	5	4
16	5	50	0	1	5	3	4
16	6	9536	0	1	2	1	0
16	6	20500	0	1	2	3	4
16	6	3.10067e+06	0	1	2	5	4
16	6	150	0	1	5	3	4
16	7	7424	0	1	2	1	0
16	7	21000	0	1	2	3	4
16	7	3.16211e+06	0	1	2	5	4
16	7	50	0	1	5	3	4
16	8	8576	0	1	2	1	0
16	8	19800	0	1	2	3	4
16	8	3.1703e+06	0	1	2	5	4
16	8	100	0	1	5	3	4
16	9	8448	0	1	2	1	0
16	9	22200	0	1	2	3	4
16	9	3.11706e+06	0	1	2	5	4
16	9	50	0	1	5	3	4
16	10	9664	0	1	2	1	0
16	10	17400	0	1	2	3	4
16	10	3.26451e+06	0	1	2	5	4
16	10	150	0	1	5	3	4
16	11	6784	0	1	2	1	0
16	11	21400	0	1	2	3	4
16	11	3.19488e+06	0	1	2	5	4
16	11	50	0	1	5	3	4
16	12	8320	0	1	2	1	0
16	12	22600	0	1	2	3	4
16	12	3.32186e+06	0	1	2	5	4
16	13	8640	0	1	2	1	0
16	13	18600	0	1	2	3	4
16	13	3.28499e+06	0	1	2	5	4
16	14	8896	0	1	2	1	0
16	14	19200	0	1	2	3	4
16	14	3.1785e+06	0	1	2	5	4
16	14	100	0	1	5	3	4
16	15	8576	0	1	2	1	0
16	15	21800	0	1	2	3	4
16	15	3.10067e+06	0	1	2	5	4
16	15	150	0	1	5	3	4
16	17	8448	0	1	2	1	0
16	17	21600	0	1	2	3	4
16	17	3.31366e+06	0	1	2	5	4
16	17	100	0	1	5	3	4
17	0	8768	0	1	2	1	0
17	0	21400	0	1	2	3	4
17	0	3.19898e+06	0	1	2	5	4
17	0	100	0	1	5	3	4
17	1	9344	0	1	2	1	0
17	1	21300	0	1	2	3	4
17	1	3.30138e+06	0	1	2	5	4
17	1	100	0	1	5	3	4
17	2	7552	0	1	2	1	0
17	2	22900	0	1	2	3	4
17	2	3.29318e+06	0	1	2	5	4
17	3	9792	0	1	2	1	0
17	3	21400	0	1	2	3	4
17	3	3.2727e+06	0	1	2	5	4
17	3	50	0	1	5	3	4
17	4	10112	0	1	2	1	0
17	4	21300	0	1	2	3	4
17	4	3.31366e+06	0	1	2	5	4
17	4	150	0	1	5	3	4
17	5	9088	0	1	2	1	0
17	5	19800	0	1	2	3	4
17	5	3.19488e+06	0	1	2	5	4
17	6	8512	0	1	2	1	0
17	6	21100	0	1	2	3	4
17	6	3.29318e+06	0	1	2	5	4
17	6	50	0	1	5	3	4
17	7	9344	0	1	2	1	0
17	7	19600	0	1	2	3	4
17	7	3.1785e+06	0	1	2	5	4
17	7	150	0	1	5	3	4
17	8	7936	0	1	2	1	0
17	8	19500	0	1	2	3	4
17	8	3.30138e+06	0	1	2	5	4
17	9	9088	0	1	2	1	0
17	9	21000	0	1	2	3	4
17	9	3.3792e+06	0	1	2	5	4
17	9	100	0	1	5	3	4
17	10	8128	0	1	2	1	0
17	10	18600	0	1	2	3	4
17	10	3.09658e+06	0	1	2	5	4
17	10	50	0	1	5	3	4
17	11	8000	0	1	2	1	0
17	11	18600	0	1	2	3	4
17	11	3.32595e+06	0	1	2	5	4
17	11	50	0	1	5	3	4
17	12	7872	0	1	2	1	0
17	12	20000	0	1	2	3	4
17	12	3.21946e+06	0	1	2	5	4
17	12	100	0	1	5	3	4
17	13	10048	0	1	2	1	0
17	13	19600	0	1	2	3	4
17	13	3.52256e+06	0	1	2	5	4
17	13	100	0	1	5	3	4
17	14	7232	0	1	2	1	0
17	14	22400	0	1	2	3	4
17	14	3.18259e+06	0	1	2	5	4
17	15	8512	0	1	2	1	0
17	15	21400	0	1	2	3	4
17	15	3.35053e+06	0	1	2	5	4
17	16	10432	0	1	2	1	0
17	16	20800	0	1	2	3	4
17	16	3.33005e+06	0	1	2	5	4
17	16	100	0	1	5	3	4
