100000	100000	100000	10000	1000	1000
0	1	647168	0	1	2	1	0
0	1	1.5515e+06	0	1	2	3	4
0	1	2.41959e+08	0	1	2	5	4
0	1	6300	0	1	5	3	4
0	2	293120	0	1	2	1	0
0	2	680200	0	1	2	3	4
0	2	1.07393e+08	0	1	2	5	4
0	2	2350	0	1	5	3	4
0	3	55552	0	1	2	1	0
0	3	123400	0	1	2	3	4
0	3	1.9796e+07	0	1	2	5	4
0	3	700	0	1	5	3	4
0	4	50304	0	1	2	1	0
0	4	123600	0	1	2	3	4
0	4	1.92717e+07	0	1	2	5	4
0	4	800	0	1	5	3	4
0	5	36544	0	1	2	1	0
0	5	88200	0	1	2	3	4
0	5	1.4123e+07	0	1	2	5	4
0	5	350	0	1	5	3	4
0	6	16320	0	1	2	1	0
0	6	40500	0	1	2	3	4
0	6	6.3488e+06	0	1	2	5	4
0	6	250	0	1	5	3	4
0	7	13376	0	1	2	1	0
0	7	31400	0	1	2	3	4
0	7	5.05856e+06	0	1	2	5	4
0	7	50	0	1	5	3	4
0	8	33472	0	1	2	1	0
0	8	75200	0	1	2	3	4
0	8	1.25993e+07	0	1	2	5	4
0	8	500	0	1	5	3	4
0	9	11264	0	1	2	1	0
0	9	31400	0	1	2	3	4
0	9	5.05856e+06	0	1	2	5	4
0	9	150	0	1	5	3	4
1	0	639360	0	1	2	1	0
1	0	1.5112e+06	0	1	2	3	4
1	0	2.41578e+08	0	1	2	5	4
1	0	6850	0	1	5	3	4
1	2	36544	0	1	2	1	0
1	2	83700	0	1	2	3	4
1	2	1.36479e+07	0	1	2	5	4
1	2	350	0	1	5	3	4
1	3	19520	0	1	2	1	0
1	3	49100	0	1	2	3	4
1	3	7.08608e+06	0	1	2	5	4
1	3	350	0	1	5	3	4
1	4	25792	0	1	2	1	0
1	4	60400	0	1	2	3	4
1	4	9.44128e+06	0	1	2	5	4
1	4	300	0	1	5	3	4
1	5	20736	0	1	2	1	0
1	5	40200	0	1	2	3	4
1	5	6.37747e+06	0	1	2	5	4
1	5	100	0	1	5	3	4
1	6	3520	0	1	2	1	0
1	6	8300	0	1	2	3	4
1	6	1.2288e+06	0	1	2	5	4
1	7	4864	0	1	2	1	0
1	7	10100	0	1	2	3	4
1	7	1.77766e+06	0	1	2	5	4
1	8	4288	0	1	2	1	0
1	8	9000	0	1	2	3	4
1	8	1.58106e+06	0	1	2	5	4
1	8	50	0	1	5	3	4
1	9	3008	0	1	2	1	0
1	9	5000	0	1	2	3	4
1	9	856064	0	1	2	5	4
2	0	281792	0	1	2	1	0
2	0	696300	0	1	2	3	4
2	0	1.08356e+08	0	1	2	5	4
2	0	2550	0	1	5	3	4
2	1	33920	0	1	2	1	0
2	1	87800	0	1	2	3	4
2	1	1.33202e+07	0	1	2	5	4
2	1	300	0	1	5	3	4
2	3	9216	0	1	2	1	0
2	3	18400	0	1	2	3	4
2	3	3.52256e+06	0	1	2	5	4
2	3	50	0	1	5	3	4
2	4	9664	0	1	2	1	0
2	4	26900	0	1	2	3	4
2	4	4.24755e+06	0	1	2	5	4
2	4	100	0	1	5	3	4
2	5	3328	0	1	2	1	0
2	5	6300	0	1	2	3	4
2	5	1.00762e+06	0	1	2	5	4
2	6	3136	0	1	2	1	0
2	6	6000	0	1	2	3	4
2	6	1.08954e+06	0	1	2	5	4
2	7	2560	0	1	2	1	0
2	7	5500	0	1	2	3	4
2	7	983040	0	1	2	5	4
2	8	3264	0	1	2	1	0
2	8	7800	0	1	2	3	4
2	8	1.36397e+06	0	1	2	5	4
2	9	2944	0	1	2	1	0
2	9	6500	0	1	2	3	4
2	9	1.03219e+06	0	1	2	5	4
3	0	54592	0	1	2	1	0
3	0	130000	0	1	2	3	4
3	0	2.00827e+07	0	1	2	5	4
3	0	550	0	1	5	3	4
3	1	19712	0	1	2	1	0
3	1	46100	0	1	2	3	4
3	1	7.71277e+06	0	1	2	5	4
3	1	100	0	1	5	3	4
3	2	9984	0	1	2	1	0
3	2	22400	0	1	2	3	4
3	2	3.59219e+06	0	1	2	5	4
3	2	100	0	1	5	3	4
3	4	5248	0	1	2	1	0
3	4	13900	0	1	2	3	4
3	4	2.41254e+06	0	1	2	5	4
3	4	100	0	1	5	3	4
3	5	1728	0	1	2	1	0
3	5	3300	0	1	2	3	4
3	5	528384	0	1	2	5	4
3	5	50	0	1	5	3	4
3	6	1408	0	1	2	1	0
3	6	3800	0	1	2	3	4
3	6	581632	0	1	2	5	4
3	7	1280	0	1	2	1	0
3	7	2300	0	1	2	3	4
3	7	499712	0	1	2	5	4
3	8	512	0	1	2	1	0
3	8	2500	0	1	2	3	4
3	8	442368	0	1	2	5	4
3	8	50	0	1	5	3	4
3	9	1152	0	1	2	1	0
3	9	4400	0	1	2	3	4
3	9	544768	0	1	2	5	4
4	0	52992	0	1	2	1	0
4	0	124700	0	1	2	3	4
4	0	1.91283e+07	0	1	2	5	4
4	0	600	0	1	5	3	4
4	1	24640	0	1	2	1	0
4	1	61700	0	1	2	3	4
4	1	9.92051e+06	0	1	2	5	4
4	1	250	0	1	5	3	4
4	2	10944	0	1	2	1	0
4	2	26900	0	1	2	3	4
4	2	4.35814e+06	0	1	2	5	4
4	3	5888	0	1	2	1	0
4	3	16600	0	1	2	3	4
4	3	2.29786e+06	0	1	2	5	4
4	5	1600	0	1	2	1	0
4	5	3200	0	1	2	3	4
4	5	495616	0	1	2	5	4
4	6	704	0	1	2	1	0
4	6	1500	0	1	2	3	4
4	6	315392	0	1	2	5	4
4	7	768	0	1	2	1	0
4	7	1400	0	1	2	3	4
4	7	217088	0	1	2	5	4
4	7	50	0	1	5	3	4
4	8	1472	0	1	2	1	0
4	8	3100	0	1	2	3	4
4	8	516096	0	1	2	5	4
4	9	576	0	1	2	1	0
4	9	1600	0	1	2	3	4
4	9	184320	0	1	2	5	4
5	0	35520	0	1	2	1	0
5	0	87700	0	1	2	3	4
5	0	1.35291e+07	0	1	2	5	4
5	0	500	0	1	5	3	4
5	1	17280	0	1	2	1	0
5	1	42500	0	1	2	3	4
5	1	6.89357e+06	0	1	2	5	4
5	1	200	0	1	5	3	4
5	2	2944	0	1	2	1	0
5	2	6200	0	1	2	3	4
5	2	1.01171e+06	0	1	2	5	4
5	2	50	0	1	5	3	4
5	3	1152	0	1	2	1	0
5	3	4000	0	1	2	3	4
5	3	565248	0	1	2	5	4
5	4	768	0	1	2	1	0
5	4	2700	0	1	2	3	4
5	4	544768	0	1	2	5	4
5	4	50	0	1	5	3	4
5	6	512	0	1	2	1	0
5	6	600	0	1	2	3	4
5	6	159744	0	1	2	5	4
5	7	1024	0	1	2	1	0
5	7	2600	0	1	2	3	4
5	7	421888	0	1	2	5	4
5	8	192	0	1	2	1	0
5	8	800	0	1	2	3	4
5	8	110592	0	1	2	5	4
5	9	320	0	1	2	1	0
5	9	700	0	1	2	3	4
5	9	208896	0	1	2	5	4
6	0	17600	0	1	2	1	0
6	0	41000	0	1	2	3	4
6	0	6.72563e+06	0	1	2	5	4
6	0	50	0	1	5	3	4
6	1	2624	0	1	2	1	0
6	1	5900	0	1	2	3	4
6	1	1.25338e+06	0	1	2	5	4
6	1	50	0	1	5	3	4
6	2	2880	0	1	2	1	0
6	2	6800	0	1	2	3	4
6	2	1.08544e+06	0	1	2	5	4
6	3	1792	0	1	2	1	0
6	3	3400	0	1	2	3	4
6	3	618496	0	1	2	5	4
6	4	576	0	1	2	1	0
6	4	1300	0	1	2	3	4
6	4	274432	0	1	2	5	4
6	5	512	0	1	2	1	0
6	5	1200	0	1	2	3	4
6	5	176128	0	1	2	5	4
6	7	448	0	1	2	1	0
6	7	1700	0	1	2	3	4
6	7	139264	0	1	2	5	4
6	8	128	0	1	2	1	0
6	8	200	0	1	2	3	4
6	8	94208	0	1	2	5	4
6	9	256	0	1	2	1	0
6	9	1100	0	1	2	3	4
6	9	221184	0	1	2	5	4
7	0	12928	0	1	2	1	0
7	0	31900	0	1	2	3	4
7	0	5.30022e+06	0	1	2	5	4
7	0	150	0	1	5	3	4
7	1	3904	0	1	2	1	0
7	1	12500	0	1	2	3	4
7	1	1.91693e+06	0	1	2	5	4
7	1	50	0	1	5	3	4
7	2	1792	0	1	2	1	0
7	2	6000	0	1	2	3	4
7	2	782336	0	1	2	5	4
7	2	100	0	1	5	3	4
7	3	1088	0	1	2	1	0
7	3	3400	0	1	2	3	4
7	3	409600	0	1	2	5	4
7	4	832	0	1	2	1	0
7	4	1300	0	1	2	3	4
7	4	143360	0	1	2	5	4
7	5	896	0	1	2	1	0
7	5	2600	0	1	2	3	4
7	5	409600	0	1	2	5	4
7	6	576	0	1	2	1	0
7	6	500	0	1	2	3	4
7	6	126976	0	1	2	5	4
7	8	192	0	1	2	1	0
7	8	300	0	1	2	3	4
7	8	45056	0	1	2	5	4
7	9	384	0	1	2	1	0
7	9	1100	0	1	2	3	4
7	9	155648	0	1	2	5	4
8	0	30848	0	1	2	1	0
8	0	78300	0	1	2	3	4
8	0	1.17309e+07	0	1	2	5	4
8	0	300	0	1	5	3	4
8	1	4480	0	1	2	1	0
8	1	9500	0	1	2	3	4
8	1	1.46637e+06	0	1	2	5	4
8	2	3648	0	1	2	1	0
8	2	8000	0	1	2	3	4
8	2	1.27386e+06	0	1	2	5	4
8	3	1088	0	1	2	1	0
8	3	2600	0	1	2	3	4
8	3	319488	0	1	2	5	4
8	3	50	0	1	5	3	4
8	4	1280	0	1	2	1	0
8	4	3200	0	1	2	3	4
8	4	450560	0	1	2	5	4
8	5	320	0	1	2	1	0
8	5	800	0	1	2	3	4
8	5	122880	0	1	2	5	4
8	6	192	0	1	2	1	0
8	6	500	0	1	2	3	4
8	6	98304	0	1	2	5	4
8	7	64	0	1	2	1	0
8	7	300	0	1	2	3	4
8	7	53248	0	1	2	5	4
8	9	192	0	1	2	1	0
8	9	100	0	1	2	3	4
8	9	65536	0	1	2	5	4
9	0	11904	0	1	2	1	0
9	0	30100	0	1	2	3	4
9	0	4.78413e+06	0	1	2	5	4
9	0	150	0	1	5	3	4
9	1	2176	0	1	2	1	0
9	1	5700	0	1	2	3	4
9	1	851968	0	1	2	5	4
9	1	50	0	1	5	3	4
9	2	3328	0	1	2	1	0
9	2	8200	0	1	2	3	4
9	2	1.14278e+06	0	1	2	5	4
9	2	50	0	1	5	3	4
9	3	1472	0	1	2	1	0
9	3	4000	0	1	2	3	4
9	3	659456	0	1	2	5	4
9	4	512	0	1	2	1	0
9	4	1400	0	1	2	3	4
9	4	176128	0	1	2	5	4
9	5	320	0	1	2	1	0
9	5	700	0	1	2	3	4
9	5	176128	0	1	2	5	4
9	6	384	0	1	2	1	0
9	6	1900	0	1	2	3	4
9	6	225280	0	1	2	5	4
9	7	192	0	1	2	1	0
9	7	400	0	1	2	3	4
9	7	147456	0	1	2	5	4
9	8	192	0	1	2	1	0
9	8	300	0	1	2	3	4
9	8	61440	0	1	2	5	4
