12
0	5	1e+12
0	8	1e+12
1	10	1e+12
2	3	1e+12
2	4	1e+12
3	2	1e+12
3	7	1e+12
4	2	1e+12
4	6	1e+12
4	8	1e+12
4	10	1e+12
4	11	1e+12
5	0	1e+12
5	7	1e+12
5	9	1e+12
6	4	1e+12
6	7	1e+12
6	10	1e+12
6	11	1e+12
7	3	1e+12
7	5	1e+12
7	6	1e+12
7	9	1e+12
8	0	1e+12
8	4	1e+12
8	10	1e+12
9	5	1e+12
9	7	1e+12
10	1	1e+12
10	4	1e+12
10	6	1e+12
10	8	1e+12
11	4	1e+12
11	6	1e+12
