100000	100000	100000	10000	1000	1000
0	1	2944	0	1	2	1	0
0	1	8000	0	1	2	3	4
0	1	1.25338e+06	0	1	2	5	4
0	2	2944	0	1	2	1	0
0	2	8700	0	1	2	3	4
0	2	1.11411e+06	0	1	2	5	4
0	3	3136	0	1	2	1	0
0	3	5400	0	1	2	3	4
0	3	1.11411e+06	0	1	2	5	4
0	3	50	0	1	5	3	4
0	4	3392	0	1	2	1	0
0	4	7100	0	1	2	3	4
0	4	1.2329e+06	0	1	2	5	4
0	4	50	0	1	5	3	4
0	5	3264	0	1	2	1	0
0	5	7300	0	1	2	3	4
0	5	1.01581e+06	0	1	2	5	4
0	6	2432	0	1	2	1	0
0	6	8200	0	1	2	3	4
0	6	1.10592e+06	0	1	2	5	4
0	7	2752	0	1	2	1	0
0	7	8100	0	1	2	3	4
0	7	1.1305e+06	0	1	2	5	4
0	8	2944	0	1	2	1	0
0	8	6900	0	1	2	3	4
0	8	1.1264e+06	0	1	2	5	4
0	9	2752	0	1	2	1	0
0	9	8000	0	1	2	3	4
0	9	1.11002e+06	0	1	2	5	4
0	9	150	0	1	5	3	4
1	0	2944	0	1	2	1	0
1	0	6800	0	1	2	3	4
1	0	1.1223e+06	0	1	2	5	4
1	2	3456	0	1	2	1	0
1	2	7700	0	1	2	3	4
1	2	995328	0	1	2	5	4
1	2	50	0	1	5	3	4
1	3	3456	0	1	2	1	0
1	3	6400	0	1	2	3	4
1	3	1.10182e+06	0	1	2	5	4
1	3	150	0	1	5	3	4
1	4	2368	0	1	2	1	0
1	4	6300	0	1	2	3	4
1	4	1.22061e+06	0	1	2	5	4
1	5	2624	0	1	2	1	0
1	5	5900	0	1	2	3	4
1	5	1.10592e+06	0	1	2	5	4
1	5	50	0	1	5	3	4
1	6	2240	0	1	2	1	0
1	6	6100	0	1	2	3	4
1	6	1.22061e+06	0	1	2	5	4
1	6	50	0	1	5	3	4
1	7	3072	0	1	2	1	0
1	7	6400	0	1	2	3	4
1	7	1.11411e+06	0	1	2	5	4
1	8	3072	0	1	2	1	0
1	8	7900	0	1	2	3	4
1	8	1.08954e+06	0	1	2	5	4
1	8	100	0	1	5	3	4
1	9	3136	0	1	2	1	0
1	9	7800	0	1	2	3	4
1	9	1.10182e+06	0	1	2	5	4
2	0	2048	0	1	2	1	0
2	0	6800	0	1	2	3	4
2	0	1.00352e+06	0	1	2	5	4
2	0	100	0	1	5	3	4
2	1	2816	0	1	2	1	0
2	1	8000	0	1	2	3	4
2	1	1.05677e+06	0	1	2	5	4
2	1	100	0	1	5	3	4
2	3	2560	0	1	2	1	0
2	3	7500	0	1	2	3	4
2	3	1.11411e+06	0	1	2	5	4
2	4	3264	0	1	2	1	0
2	4	7900	0	1	2	3	4
2	4	1.0281e+06	0	1	2	5	4
2	4	50	0	1	5	3	4
2	5	3264	0	1	2	1	0
2	5	6800	0	1	2	3	4
2	5	1.07725e+06	0	1	2	5	4
2	5	100	0	1	5	3	4
2	6	2880	0	1	2	1	0
2	6	7700	0	1	2	3	4
2	6	1.14278e+06	0	1	2	5	4
2	6	50	0	1	5	3	4
2	7	3392	0	1	2	1	0
2	7	8800	0	1	2	3	4
2	7	1.06906e+06	0	1	2	5	4
2	7	50	0	1	5	3	4
2	8	2944	0	1	2	1	0
2	8	6700	0	1	2	3	4
2	8	1.16326e+06	0	1	2	5	4
2	9	3072	0	1	2	1	0
2	9	6800	0	1	2	3	4
2	9	1.14278e+06	0	1	2	5	4
3	0	3136	0	1	2	1	0
3	0	5900	0	1	2	3	4
3	0	1.03629e+06	0	1	2	5	4
3	0	50	0	1	5	3	4
3	1	2688	0	1	2	1	0
3	1	7400	0	1	2	3	4
3	1	1.10592e+06	0	1	2	5	4
3	1	50	0	1	5	3	4
3	2	2688	0	1	2	1	0
3	2	6800	0	1	2	3	4
3	2	1.06906e+06	0	1	2	5	4
3	4	2560	0	1	2	1	0
3	4	6300	0	1	2	3	4
3	4	1.16736e+06	0	1	2	5	4
3	5	2880	0	1	2	1	0
3	5	5700	0	1	2	3	4
3	5	962560	0	1	2	5	4
3	6	2944	0	1	2	1	0
3	6	7400	0	1	2	3	4
3	6	1.20013e+06	0	1	2	5	4
3	6	50	0	1	5	3	4
3	7	2048	0	1	2	1	0
3	7	7500	0	1	2	3	4
3	7	1.07315e+06	0	1	2	5	4
3	8	2496	0	1	2	1	0
3	8	7700	0	1	2	3	4
3	8	1.31891e+06	0	1	2	5	4
3	9	3456	0	1	2	1	0
3	9	5700	0	1	2	3	4
3	9	1.04858e+06	0	1	2	5	4
4	0	3520	0	1	2	1	0
4	0	8200	0	1	2	3	4
4	0	1.00762e+06	0	1	2	5	4
4	1	3072	0	1	2	1	0
4	1	7500	0	1	2	3	4
4	1	1.09773e+06	0	1	2	5	4
4	2	2880	0	1	2	1	0
4	2	8900	0	1	2	3	4
4	2	1.05267e+06	0	1	2	5	4
4	2	50	0	1	5	3	4
4	3	3136	0	1	2	1	0
4	3	7000	0	1	2	3	4
4	3	1.03629e+06	0	1	2	5	4
4	3	50	0	1	5	3	4
4	5	3392	0	1	2	1	0
4	5	6700	0	1	2	3	4
4	5	1.07725e+06	0	1	2	5	4
4	5	50	0	1	5	3	4
4	6	3904	0	1	2	1	0
4	6	6400	0	1	2	3	4
4	6	1.17146e+06	0	1	2	5	4
4	6	100	0	1	5	3	4
4	7	2176	0	1	2	1	0
4	7	6100	0	1	2	3	4
4	7	1.13459e+06	0	1	2	5	4
4	8	2176	0	1	2	1	0
4	8	7200	0	1	2	3	4
4	8	1.01581e+06	0	1	2	5	4
4	8	50	0	1	5	3	4
4	9	3328	0	1	2	1	0
4	9	7900	0	1	2	3	4
4	9	1.03219e+06	0	1	2	5	4
4	9	50	0	1	5	3	4
5	0	2240	0	1	2	1	0
5	0	7900	0	1	2	3	4
5	0	1.1223e+06	0	1	2	5	4
5	0	100	0	1	5	3	4
5	1	2880	0	1	2	1	0
5	1	6100	0	1	2	3	4
5	1	1.06496e+06	0	1	2	5	4
5	2	2240	0	1	2	1	0
5	2	5500	0	1	2	3	4
5	2	999424	0	1	2	5	4
5	3	3328	0	1	2	1	0
5	3	7300	0	1	2	3	4
5	3	1.17146e+06	0	1	2	5	4
5	3	50	0	1	5	3	4
5	4	2880	0	1	2	1	0
5	4	8000	0	1	2	3	4
5	4	1.07315e+06	0	1	2	5	4
5	6	3264	0	1	2	1	0
5	6	6000	0	1	2	3	4
5	6	1.17965e+06	0	1	2	5	4
5	6	50	0	1	5	3	4
5	7	2240	0	1	2	1	0
5	7	7700	0	1	2	3	4
5	7	1.15098e+06	0	1	2	5	4
5	7	150	0	1	5	3	4
5	8	2816	0	1	2	1	0
5	8	5900	0	1	2	3	4
5	8	1.16326e+06	0	1	2	5	4
5	9	3072	0	1	2	1	0
5	9	7500	0	1	2	3	4
5	9	1.15917e+06	0	1	2	5	4
6	0	2496	0	1	2	1	0
6	0	6400	0	1	2	3	4
6	0	1.15917e+06	0	1	2	5	4
6	0	50	0	1	5	3	4
6	1	2432	0	1	2	1	0
6	1	7500	0	1	2	3	4
6	1	1.16326e+06	0	1	2	5	4
6	1	50	0	1	5	3	4
6	2	3392	0	1	2	1	0
6	2	6800	0	1	2	3	4
6	2	1.03629e+06	0	1	2	5	4
6	2	50	0	1	5	3	4
6	3	3712	0	1	2	1	0
6	3	8000	0	1	2	3	4
6	3	1.06086e+06	0	1	2	5	4
6	4	2112	0	1	2	1	0
6	4	5900	0	1	2	3	4
6	4	1.16326e+06	0	1	2	5	4
6	4	50	0	1	5	3	4
6	5	3392	0	1	2	1	0
6	5	7000	0	1	2	3	4
6	5	1.09363e+06	0	1	2	5	4
6	7	2496	0	1	2	1	0
6	7	6400	0	1	2	3	4
6	7	1.21651e+06	0	1	2	5	4
6	8	2880	0	1	2	1	0
6	8	7900	0	1	2	3	4
6	8	1.09363e+06	0	1	2	5	4
6	9	3520	0	1	2	1	0
6	9	7500	0	1	2	3	4
6	9	1.09363e+06	0	1	2	5	4
7	0	2880	0	1	2	1	0
7	0	6500	0	1	2	3	4
7	0	1.15917e+06	0	1	2	5	4
7	1	2240	0	1	2	1	0
7	1	8600	0	1	2	3	4
7	1	1.14278e+06	0	1	2	5	4
7	2	3072	0	1	2	1	0
7	2	7600	0	1	2	3	4
7	2	1.07315e+06	0	1	2	5	4
7	3	2624	0	1	2	1	0
7	3	5900	0	1	2	3	4
7	3	1.15098e+06	0	1	2	5	4
7	3	50	0	1	5	3	4
7	4	2880	0	1	2	1	0
7	4	6800	0	1	2	3	4
7	4	1.05677e+06	0	1	2	5	4
7	5	2112	0	1	2	1	0
7	5	6300	0	1	2	3	4
7	5	1.14688e+06	0	1	2	5	4
7	5	50	0	1	5	3	4
7	6	3328	0	1	2	1	0
7	6	5800	0	1	2	3	4
7	6	1.11002e+06	0	1	2	5	4
7	8	3264	0	1	2	1	0
7	8	7200	0	1	2	3	4
7	8	1.01171e+06	0	1	2	5	4
7	8	50	0	1	5	3	4
7	9	2432	0	1	2	1	0
7	9	9100	0	1	2	3	4
7	9	1.13869e+06	0	1	2	5	4
7	9	50	0	1	5	3	4
8	0	3200	0	1	2	1	0
8	0	8600	0	1	2	3	4
8	0	966656	0	1	2	5	4
8	1	2944	0	1	2	1	0
8	1	5300	0	1	2	3	4
8	1	1.15098e+06	0	1	2	5	4
8	1	50	0	1	5	3	4
8	2	2240	0	1	2	1	0
8	2	6800	0	1	2	3	4
8	2	1.05677e+06	0	1	2	5	4
8	2	50	0	1	5	3	4
8	3	3136	0	1	2	1	0
8	3	6500	0	1	2	3	4
8	3	1.11411e+06	0	1	2	5	4
8	3	150	0	1	5	3	4
8	4	3200	0	1	2	1	0
8	4	7600	0	1	2	3	4
8	4	1.10182e+06	0	1	2	5	4
8	5	3200	0	1	2	1	0
8	5	7400	0	1	2	3	4
8	5	1.00762e+06	0	1	2	5	4
8	6	2816	0	1	2	1	0
8	6	6700	0	1	2	3	4
8	6	1.01581e+06	0	1	2	5	4
8	7	3008	0	1	2	1	0
8	7	6700	0	1	2	3	4
8	7	958464	0	1	2	5	4
8	7	50	0	1	5	3	4
8	9	3008	0	1	2	1	0
8	9	7600	0	1	2	3	4
8	9	999424	0	1	2	5	4
8	9	100	0	1	5	3	4
9	0	2688	0	1	2	1	0
9	0	7400	0	1	2	3	4
9	0	1.0199e+06	0	1	2	5	4
9	0	50	0	1	5	3	4
9	1	2752	0	1	2	1	0
9	1	6600	0	1	2	3	4
9	1	1.15917e+06	0	1	2	5	4
9	2	2560	0	1	2	1	0
9	2	7100	0	1	2	3	4
9	2	995328	0	1	2	5	4
9	2	50	0	1	5	3	4
9	3	2944	0	1	2	1	0
9	3	7500	0	1	2	3	4
9	3	1.1264e+06	0	1	2	5	4
9	3	100	0	1	5	3	4
9	4	2240	0	1	2	1	0
9	4	6700	0	1	2	3	4
9	4	1.11002e+06	0	1	2	5	4
9	5	2816	0	1	2	1	0
9	5	6600	0	1	2	3	4
9	5	1.17555e+06	0	1	2	5	4
9	6	3008	0	1	2	1	0
9	6	7700	0	1	2	3	4
9	6	1.17965e+06	0	1	2	5	4
9	6	50	0	1	5	3	4
9	7	3072	0	1	2	1	0
9	7	7200	0	1	2	3	4
9	7	1.10182e+06	0	1	2	5	4
9	7	50	0	1	5	3	4
9	8	3136	0	1	2	1	0
9	8	8000	0	1	2	3	4
9	8	1.024e+06	0	1	2	5	4
9	8	50	0	1	5	3	4
