100000	100000	100000	10000	1000	1000
0	1	10112	0	1	2	1	0
0	1	22900	0	1	2	3	4
0	1	3.26451e+06	0	1	2	5	4
0	1	50	0	1	5	3	4
0	2	7552	0	1	2	1	0
0	2	20300	0	1	2	3	4
0	2	3.36282e+06	0	1	2	5	4
0	2	250	0	1	5	3	4
0	3	10496	0	1	2	1	0
0	3	19800	0	1	2	3	4
0	3	3.29728e+06	0	1	2	5	4
0	4	7424	0	1	2	1	0
0	4	24500	0	1	2	3	4
0	4	3.29318e+06	0	1	2	5	4
0	5	9280	0	1	2	1	0
0	5	20600	0	1	2	3	4
0	5	3.4816e+06	0	1	2	5	4
0	6	7424	0	1	2	1	0
0	6	17500	0	1	2	3	4
0	6	3.20717e+06	0	1	2	5	4
0	6	100	0	1	5	3	4
0	7	8320	0	1	2	1	0
0	7	19500	0	1	2	3	4
0	7	3.05971e+06	0	1	2	5	4
0	8	8192	0	1	2	1	0
0	8	20600	0	1	2	3	4
0	8	3.12115e+06	0	1	2	5	4
0	8	100	0	1	5	3	4
0	9	8384	0	1	2	1	0
0	9	17900	0	1	2	3	4
0	9	3.09248e+06	0	1	2	5	4
0	9	100	0	1	5	3	4
0	10	8320	0	1	2	1	0
0	10	20200	0	1	2	3	4
0	10	3.4816e+06	0	1	2	5	4
0	10	50	0	1	5	3	4
0	11	7552	0	1	2	1	0
0	11	22000	0	1	2	3	4
0	11	3.16621e+06	0	1	2	5	4
0	11	100	0	1	5	3	4
0	12	7680	0	1	2	1	0
0	12	20200	0	1	2	3	4
0	12	3.2768e+06	0	1	2	5	4
0	12	50	0	1	5	3	4
0	13	8320	0	1	2	1	0
0	13	18000	0	1	2	3	4
0	13	3.24403e+06	0	1	2	5	4
0	13	100	0	1	5	3	4
0	14	8000	0	1	2	1	0
0	14	20800	0	1	2	3	4
0	14	3.42835e+06	0	1	2	5	4
0	14	50	0	1	5	3	4
0	15	8640	0	1	2	1	0
0	15	21200	0	1	2	3	4
0	15	3.20717e+06	0	1	2	5	4
0	15	50	0	1	5	3	4
0	16	8960	0	1	2	1	0
0	16	20500	0	1	2	3	4
0	16	3.32186e+06	0	1	2	5	4
0	16	50	0	1	5	3	4
0	17	10048	0	1	2	1	0
0	17	17600	0	1	2	3	4
0	17	3.53485e+06	0	1	2	5	4
1	0	7936	0	1	2	1	0
1	0	18900	0	1	2	3	4
1	0	3.25632e+06	0	1	2	5	4
1	0	150	0	1	5	3	4
1	2	9984	0	1	2	1	0
1	2	19800	0	1	2	3	4
1	2	3.24403e+06	0	1	2	5	4
1	2	50	0	1	5	3	4
1	3	8768	0	1	2	1	0
1	3	19100	0	1	2	3	4
1	3	3.21536e+06	0	1	2	5	4
1	3	100	0	1	5	3	4
1	4	8640	0	1	2	1	0
1	4	19200	0	1	2	3	4
1	4	3.1703e+06	0	1	2	5	4
1	4	50	0	1	5	3	4
1	5	8640	0	1	2	1	0
1	5	22200	0	1	2	3	4
1	5	3.33824e+06	0	1	2	5	4
1	5	100	0	1	5	3	4
1	6	8832	0	1	2	1	0
1	6	18500	0	1	2	3	4
1	6	3.0761e+06	0	1	2	5	4
1	6	50	0	1	5	3	4
1	7	8832	0	1	2	1	0
1	7	16300	0	1	2	3	4
1	7	3.06381e+06	0	1	2	5	4
1	8	8768	0	1	2	1	0
1	8	21900	0	1	2	3	4
1	8	3.12115e+06	0	1	2	5	4
1	8	150	0	1	5	3	4
1	9	7104	0	1	2	1	0
1	9	19300	0	1	2	3	4
1	9	3.35872e+06	0	1	2	5	4
1	9	50	0	1	5	3	4
1	10	9152	0	1	2	1	0
1	10	22500	0	1	2	3	4
1	10	3.23584e+06	0	1	2	5	4
1	10	50	0	1	5	3	4
1	11	7552	0	1	2	1	0
1	11	22500	0	1	2	3	4
1	11	3.30138e+06	0	1	2	5	4
1	11	50	0	1	5	3	4
1	12	8448	0	1	2	1	0
1	12	23400	0	1	2	3	4
1	12	3.1744e+06	0	1	2	5	4
1	12	150	0	1	5	3	4
1	13	8576	0	1	2	1	0
1	13	20500	0	1	2	3	4
1	13	3.13344e+06	0	1	2	5	4
1	13	100	0	1	5	3	4
1	14	8064	0	1	2	1	0
1	14	22800	0	1	2	3	4
1	14	3.08429e+06	0	1	2	5	4
1	14	50	0	1	5	3	4
1	15	9152	0	1	2	1	0
1	15	20300	0	1	2	3	4
1	15	3.21126e+06	0	1	2	5	4
1	15	200	0	1	5	3	4
1	16	8128	0	1	2	1	0
1	16	19600	0	1	2	3	4
1	16	3.19078e+06	0	1	2	5	4
1	17	10304	0	1	2	1	0
1	17	20600	0	1	2	3	4
1	17	3.19898e+06	0	1	2	5	4
1	17	50	0	1	5	3	4
2	0	8896	0	1	2	1	0
2	0	19300	0	1	2	3	4
2	0	3.24813e+06	0	1	2	5	4
2	0	50	0	1	5	3	4
2	1	7616	0	1	2	1	0
2	1	18900	0	1	2	3	4
2	1	3.31776e+06	0	1	2	5	4
2	1	50	0	1	5	3	4
2	3	9024	0	1	2	1	0
2	3	22400	0	1	2	3	4
2	3	3.12934e+06	0	1	2	5	4
2	3	50	0	1	5	3	4
2	4	8960	0	1	2	1	0
2	4	21700	0	1	2	3	4
2	4	3.1703e+06	0	1	2	5	4
2	4	100	0	1	5	3	4
2	5	8384	0	1	2	1	0
2	5	18900	0	1	2	3	4
2	5	3.2768e+06	0	1	2	5	4
2	5	100	0	1	5	3	4
2	6	8832	0	1	2	1	0
2	6	22900	0	1	2	3	4
2	6	3.16621e+06	0	1	2	5	4
2	7	8128	0	1	2	1	0
2	7	19900	0	1	2	3	4
2	7	3.2727e+06	0	1	2	5	4
2	8	7680	0	1	2	1	0
2	8	21200	0	1	2	3	4
2	8	3.20307e+06	0	1	2	5	4
2	8	50	0	1	5	3	4
2	9	8768	0	1	2	1	0
2	9	20900	0	1	2	3	4
2	9	3.1744e+06	0	1	2	5	4
2	10	8384	0	1	2	1	0
2	10	20100	0	1	2	3	4
2	10	3.072e+06	0	1	2	5	4
2	10	200	0	1	5	3	4
2	11	8704	0	1	2	1	0
2	11	23300	0	1	2	3	4
2	11	3.12115e+06	0	1	2	5	4
2	12	8320	0	1	2	1	0
2	12	20100	0	1	2	3	4
2	12	3.24403e+06	0	1	2	5	4
2	12	50	0	1	5	3	4
2	13	8384	0	1	2	1	0
2	13	20500	0	1	2	3	4
2	13	3.08019e+06	0	1	2	5	4
2	13	50	0	1	5	3	4
2	14	7680	0	1	2	1	0
2	14	21800	0	1	2	3	4
2	14	3.13344e+06	0	1	2	5	4
2	14	150	0	1	5	3	4
2	15	6400	0	1	2	1	0
2	15	21700	0	1	2	3	4
2	15	3.0761e+06	0	1	2	5	4
2	15	50	0	1	5	3	4
2	16	8192	0	1	2	1	0
2	16	19200	0	1	2	3	4
2	16	3.41197e+06	0	1	2	5	4
2	16	150	0	1	5	3	4
2	17	8256	0	1	2	1	0
2	17	19800	0	1	2	3	4
2	17	3.5881e+06	0	1	2	5	4
2	17	100	0	1	5	3	4
3	0	8000	0	1	2	1	0
3	0	22100	0	1	2	3	4
3	0	3.20717e+06	0	1	2	5	4
3	0	100	0	1	5	3	4
3	1	7936	0	1	2	1	0
3	1	21800	0	1	2	3	4
3	1	3.23584e+06	0	1	2	5	4
3	1	100	0	1	5	3	4
3	2	8832	0	1	2	1	0
3	2	19800	0	1	2	3	4
3	2	3.19898e+06	0	1	2	5	4
3	2	100	0	1	5	3	4
3	4	8320	0	1	2	1	0
3	4	20000	0	1	2	3	4
3	4	3.1703e+06	0	1	2	5	4
3	4	50	0	1	5	3	4
3	5	8064	0	1	2	1	0
3	5	21500	0	1	2	3	4
3	5	3.1744e+06	0	1	2	5	4
3	5	100	0	1	5	3	4
3	6	9472	0	1	2	1	0
3	6	20200	0	1	2	3	4
3	6	3.1703e+06	0	1	2	5	4
3	6	50	0	1	5	3	4
3	7	7808	0	1	2	1	0
3	7	20100	0	1	2	3	4
3	7	3.20307e+06	0	1	2	5	4
3	7	50	0	1	5	3	4
3	8	9792	0	1	2	1	0
3	8	22100	0	1	2	3	4
3	8	3.15802e+06	0	1	2	5	4
3	8	200	0	1	5	3	4
3	9	8448	0	1	2	1	0
3	9	19500	0	1	2	3	4
3	9	3.19488e+06	0	1	2	5	4
3	10	8320	0	1	2	1	0
3	10	23000	0	1	2	3	4
3	10	3.31366e+06	0	1	2	5	4
3	10	100	0	1	5	3	4
3	11	9408	0	1	2	1	0
3	11	16300	0	1	2	3	4
3	11	3.30138e+06	0	1	2	5	4
3	11	50	0	1	5	3	4
3	12	8128	0	1	2	1	0
3	12	23300	0	1	2	3	4
3	12	3.14573e+06	0	1	2	5	4
3	12	50	0	1	5	3	4
3	13	8000	0	1	2	1	0
3	13	19600	0	1	2	3	4
3	13	3.4775e+06	0	1	2	5	4
3	13	200	0	1	5	3	4
3	14	8704	0	1	2	1	0
3	14	18100	0	1	2	3	4
3	14	3.23584e+06	0	1	2	5	4
3	14	50	0	1	5	3	4
3	15	8064	0	1	2	1	0
3	15	21800	0	1	2	3	4
3	15	3.40787e+06	0	1	2	5	4
3	15	100	0	1	5	3	4
3	16	9280	0	1	2	1	0
3	16	20900	0	1	2	3	4
3	16	3.43654e+06	0	1	2	5	4
3	16	100	0	1	5	3	4
3	17	7232	0	1	2	1	0
3	17	21400	0	1	2	3	4
3	17	3.28909e+06	0	1	2	5	4
3	17	50	0	1	5	3	4
4	0	8128	0	1	2	1	0
4	0	18100	0	1	2	3	4
4	0	3.11706e+06	0	1	2	5	4
4	0	50	0	1	5	3	4
4	1	9024	0	1	2	1	0
4	1	20300	0	1	2	3	4
4	1	3.21536e+06	0	1	2	5	4
4	1	50	0	1	5	3	4
4	2	7744	0	1	2	1	0
4	2	22000	0	1	2	3	4
4	2	3.24813e+06	0	1	2	5	4
4	2	100	0	1	5	3	4
4	3	8448	0	1	2	1	0
4	3	18800	0	1	2	3	4
4	3	3.30957e+06	0	1	2	5	4
4	3	100	0	1	5	3	4
4	5	9280	0	1	2	1	0
4	5	19600	0	1	2	3	4
4	5	3.25222e+06	0	1	2	5	4
4	5	100	0	1	5	3	4
4	6	8064	0	1	2	1	0
4	6	20400	0	1	2	3	4
4	6	3.24403e+06	0	1	2	5	4
4	6	200	0	1	5	3	4
4	7	8128	0	1	2	1	0
4	7	23100	0	1	2	3	4
4	7	3.14982e+06	0	1	2	5	4
4	7	50	0	1	5	3	4
4	8	7488	0	1	2	1	0
4	8	20300	0	1	2	3	4
4	8	3.30547e+06	0	1	2	5	4
4	8	50	0	1	5	3	4
4	9	8896	0	1	2	1	0
4	9	19300	0	1	2	3	4
4	9	3.21536e+06	0	1	2	5	4
4	10	8384	0	1	2	1	0
4	10	21800	0	1	2	3	4
4	10	3.14163e+06	0	1	2	5	4
4	10	100	0	1	5	3	4
4	11	8384	0	1	2	1	0
4	11	18700	0	1	2	3	4
4	11	3.1703e+06	0	1	2	5	4
4	11	50	0	1	5	3	4
4	12	8064	0	1	2	1	0
4	12	16200	0	1	2	3	4
4	12	3.1744e+06	0	1	2	5	4
4	12	200	0	1	5	3	4
4	13	8448	0	1	2	1	0
4	13	21000	0	1	2	3	4
4	13	3.16621e+06	0	1	2	5	4
4	13	50	0	1	5	3	4
4	14	8064	0	1	2	1	0
4	14	19900	0	1	2	3	4
4	14	3.28499e+06	0	1	2	5	4
4	14	100	0	1	5	3	4
4	15	10176	0	1	2	1	0
4	15	19200	0	1	2	3	4
4	15	3.32186e+06	0	1	2	5	4
4	15	50	0	1	5	3	4
4	16	9664	0	1	2	1	0
4	16	20200	0	1	2	3	4
4	16	3.2768e+06	0	1	2	5	4
4	17	7936	0	1	2	1	0
4	17	20600	0	1	2	3	4
4	17	3.21536e+06	0	1	2	5	4
4	17	150	0	1	5	3	4
5	0	7936	0	1	2	1	0
5	0	19400	0	1	2	3	4
5	0	3.14573e+06	0	1	2	5	4
5	0	50	0	1	5	3	4
5	1	8960	0	1	2	1	0
5	1	20200	0	1	2	3	4
5	1	3.14982e+06	0	1	2	5	4
5	1	50	0	1	5	3	4
5	2	7552	0	1	2	1	0
5	2	21600	0	1	2	3	4
5	2	3.22355e+06	0	1	2	5	4
5	2	100	0	1	5	3	4
5	3	8960	0	1	2	1	0
5	3	20600	0	1	2	3	4
5	3	3.25222e+06	0	1	2	5	4
5	3	250	0	1	5	3	4
5	4	7808	0	1	2	1	0
5	4	18900	0	1	2	3	4
5	4	3.18259e+06	0	1	2	5	4
5	6	8640	0	1	2	1	0
5	6	20400	0	1	2	3	4
5	6	2.98189e+06	0	1	2	5	4
5	6	150	0	1	5	3	4
5	7	8448	0	1	2	1	0
5	7	21700	0	1	2	3	4
5	7	3.12525e+06	0	1	2	5	4
5	7	200	0	1	5	3	4
5	8	8768	0	1	2	1	0
5	8	19600	0	1	2	3	4
5	8	3.22355e+06	0	1	2	5	4
5	8	50	0	1	5	3	4
5	9	7872	0	1	2	1	0
5	9	22500	0	1	2	3	4
5	9	3.03514e+06	0	1	2	5	4
5	9	50	0	1	5	3	4
5	10	8320	0	1	2	1	0
5	10	19300	0	1	2	3	4
5	10	3.35872e+06	0	1	2	5	4
5	11	7808	0	1	2	1	0
5	11	20300	0	1	2	3	4
5	11	3.23174e+06	0	1	2	5	4
5	11	150	0	1	5	3	4
5	12	8832	0	1	2	1	0
5	12	20200	0	1	2	3	4
5	12	3.3792e+06	0	1	2	5	4
5	12	100	0	1	5	3	4
5	13	8128	0	1	2	1	0
5	13	18700	0	1	2	3	4
5	13	3.30957e+06	0	1	2	5	4
5	14	8192	0	1	2	1	0
5	14	19900	0	1	2	3	4
5	14	3.32595e+06	0	1	2	5	4
5	14	100	0	1	5	3	4
5	15	7872	0	1	2	1	0
5	15	20500	0	1	2	3	4
5	15	3.0679e+06	0	1	2	5	4
5	15	50	0	1	5	3	4
5	16	8384	0	1	2	1	0
5	16	20200	0	1	2	3	4
5	16	3.24813e+06	0	1	2	5	4
5	16	100	0	1	5	3	4
5	17	9472	0	1	2	1	0
5	17	21800	0	1	2	3	4
5	17	3.05152e+06	0	1	2	5	4
6	0	8064	0	1	2	1	0
6	0	20100	0	1	2	3	4
6	0	3.1744e+06	0	1	2	5	4
6	0	50	0	1	5	3	4
6	1	8640	0	1	2	1	0
6	1	20200	0	1	2	3	4
6	1	3.12525e+06	0	1	2	5	4
6	1	50	0	1	5	3	4
6	2	8768	0	1	2	1	0
6	2	20700	0	1	2	3	4
6	2	3.39558e+06	0	1	2	5	4
6	2	50	0	1	5	3	4
6	3	7296	0	1	2	1	0
6	3	21900	0	1	2	3	4
6	3	3.33414e+06	0	1	2	5	4
6	3	100	0	1	5	3	4
6	4	7680	0	1	2	1	0
6	4	18600	0	1	2	3	4
6	4	3.49798e+06	0	1	2	5	4
6	5	8448	0	1	2	1	0
6	5	20700	0	1	2	3	4
6	5	3.11706e+06	0	1	2	5	4
6	7	8256	0	1	2	1	0
6	7	20900	0	1	2	3	4
6	7	3.08429e+06	0	1	2	5	4
6	7	50	0	1	5	3	4
6	8	8192	0	1	2	1	0
6	8	17200	0	1	2	3	4
6	8	3.21946e+06	0	1	2	5	4
6	9	7424	0	1	2	1	0
6	9	22200	0	1	2	3	4
6	9	3.32595e+06	0	1	2	5	4
6	10	9344	0	1	2	1	0
6	10	19100	0	1	2	3	4
6	10	3.26861e+06	0	1	2	5	4
6	10	50	0	1	5	3	4
6	11	7296	0	1	2	1	0
6	11	22900	0	1	2	3	4
6	11	3.21536e+06	0	1	2	5	4
6	11	50	0	1	5	3	4
6	12	8320	0	1	2	1	0
6	12	20700	0	1	2	3	4
6	12	3.05562e+06	0	1	2	5	4
6	12	50	0	1	5	3	4
6	13	9920	0	1	2	1	0
6	13	21000	0	1	2	3	4
6	13	3.22355e+06	0	1	2	5	4
6	13	100	0	1	5	3	4
6	14	8128	0	1	2	1	0
6	14	23900	0	1	2	3	4
6	14	3.11706e+06	0	1	2	5	4
6	14	50	0	1	5	3	4
6	15	9216	0	1	2	1	0
6	15	20300	0	1	2	3	4
6	15	3.31776e+06	0	1	2	5	4
6	15	150	0	1	5	3	4
6	16	9280	0	1	2	1	0
6	16	22000	0	1	2	3	4
6	16	3.03923e+06	0	1	2	5	4
6	16	50	0	1	5	3	4
6	17	7616	0	1	2	1	0
6	17	20300	0	1	2	3	4
6	17	3.21126e+06	0	1	2	5	4
6	17	150	0	1	5	3	4
7	0	8768	0	1	2	1	0
7	0	21500	0	1	2	3	4
7	0	3.2727e+06	0	1	2	5	4
7	0	100	0	1	5	3	4
7	1	7744	0	1	2	1	0
7	1	23600	0	1	2	3	4
7	1	3.2809e+06	0	1	2	5	4
7	1	100	0	1	5	3	4
7	2	9216	0	1	2	1	0
7	2	19300	0	1	2	3	4
7	2	3.34234e+06	0	1	2	5	4
7	3	9728	0	1	2	1	0
7	3	19700	0	1	2	3	4
7	3	3.41197e+06	0	1	2	5	4
7	4	8128	0	1	2	1	0
7	4	21100	0	1	2	3	4
7	4	3.06381e+06	0	1	2	5	4
7	4	50	0	1	5	3	4
7	5	9280	0	1	2	1	0
7	5	20100	0	1	2	3	4
7	5	3.1785e+06	0	1	2	5	4
7	5	150	0	1	5	3	4
7	6	9152	0	1	2	1	0
7	6	22100	0	1	2	3	4
7	6	3.21946e+06	0	1	2	5	4
7	6	100	0	1	5	3	4
7	8	10624	0	1	2	1	0
7	8	20100	0	1	2	3	4
7	8	3.01875e+06	0	1	2	5	4
7	8	50	0	1	5	3	4
7	9	8640	0	1	2	1	0
7	9	20200	0	1	2	3	4
7	9	3.20717e+06	0	1	2	5	4
7	9	100	0	1	5	3	4
7	10	8704	0	1	2	1	0
7	10	23700	0	1	2	3	4
7	10	3.25222e+06	0	1	2	5	4
7	10	50	0	1	5	3	4
7	11	9600	0	1	2	1	0
7	11	20400	0	1	2	3	4
7	11	3.33414e+06	0	1	2	5	4
7	11	100	0	1	5	3	4
7	12	7936	0	1	2	1	0
7	12	18300	0	1	2	3	4
7	12	3.03923e+06	0	1	2	5	4
7	13	8448	0	1	2	1	0
7	13	20700	0	1	2	3	4
7	13	3.19488e+06	0	1	2	5	4
7	13	50	0	1	5	3	4
7	14	7744	0	1	2	1	0
7	14	21900	0	1	2	3	4
7	14	3.0679e+06	0	1	2	5	4
7	14	150	0	1	5	3	4
7	15	8512	0	1	2	1	0
7	15	19700	0	1	2	3	4
7	15	3.1785e+06	0	1	2	5	4
7	15	50	0	1	5	3	4
7	16	8128	0	1	2	1	0
7	16	20200	0	1	2	3	4
7	16	3.13344e+06	0	1	2	5	4
7	16	50	0	1	5	3	4
7	17	9088	0	1	2	1	0
7	17	20000	0	1	2	3	4
7	17	3.44474e+06	0	1	2	5	4
7	17	100	0	1	5	3	4
8	0	8768	0	1	2	1	0
8	0	19900	0	1	2	3	4
8	0	3.21126e+06	0	1	2	5	4
8	0	50	0	1	5	3	4
8	1	9728	0	1	2	1	0
8	1	20400	0	1	2	3	4
8	1	3.34643e+06	0	1	2	5	4
8	1	150	0	1	5	3	4
8	2	8704	0	1	2	1	0
8	2	21200	0	1	2	3	4
8	2	3.13344e+06	0	1	2	5	4
8	3	8128	0	1	2	1	0
8	3	20000	0	1	2	3	4
8	3	3.12115e+06	0	1	2	5	4
8	3	100	0	1	5	3	4
8	4	9536	0	1	2	1	0
8	4	22200	0	1	2	3	4
8	4	3.12525e+06	0	1	2	5	4
8	4	150	0	1	5	3	4
8	5	9536	0	1	2	1	0
8	5	19600	0	1	2	3	4
8	5	3.13754e+06	0	1	2	5	4
8	5	50	0	1	5	3	4
8	6	8704	0	1	2	1	0
8	6	20800	0	1	2	3	4
8	6	3.23174e+06	0	1	2	5	4
8	6	100	0	1	5	3	4
8	7	8384	0	1	2	1	0
8	7	21700	0	1	2	3	4
8	7	3.21536e+06	0	1	2	5	4
8	9	7680	0	1	2	1	0
8	9	20700	0	1	2	3	4
8	9	3.44883e+06	0	1	2	5	4
8	9	50	0	1	5	3	4
8	10	8448	0	1	2	1	0
8	10	18800	0	1	2	3	4
8	10	3.32595e+06	0	1	2	5	4
8	11	8000	0	1	2	1	0
8	11	17900	0	1	2	3	4
8	11	3.20717e+06	0	1	2	5	4
8	11	50	0	1	5	3	4
8	12	8960	0	1	2	1	0
8	12	21900	0	1	2	3	4
8	12	3.23994e+06	0	1	2	5	4
8	13	6976	0	1	2	1	0
8	13	21000	0	1	2	3	4
8	13	3.072e+06	0	1	2	5	4
8	13	50	0	1	5	3	4
8	14	9280	0	1	2	1	0
8	14	23500	0	1	2	3	4
8	14	3.15392e+06	0	1	2	5	4
8	14	100	0	1	5	3	4
8	15	8192	0	1	2	1	0
8	15	20200	0	1	2	3	4
8	15	3.20717e+06	0	1	2	5	4
8	15	50	0	1	5	3	4
8	16	9088	0	1	2	1	0
8	16	22300	0	1	2	3	4
8	16	3.3833e+06	0	1	2	5	4
8	17	9856	0	1	2	1	0
8	17	21900	0	1	2	3	4
8	17	3.28499e+06	0	1	2	5	4
9	0	8768	0	1	2	1	0
9	0	18500	0	1	2	3	4
9	0	3.1744e+06	0	1	2	5	4
9	0	50	0	1	5	3	4
9	1	9344	0	1	2	1	0
9	1	18200	0	1	2	3	4
9	1	3.05562e+06	0	1	2	5	4
9	1	100	0	1	5	3	4
9	2	8384	0	1	2	1	0
9	2	21800	0	1	2	3	4
9	2	3.30957e+06	0	1	2	5	4
9	2	250	0	1	5	3	4
9	3	8832	0	1	2	1	0
9	3	22000	0	1	2	3	4
9	3	3.40787e+06	0	1	2	5	4
9	3	100	0	1	5	3	4
9	4	8192	0	1	2	1	0
9	4	21000	0	1	2	3	4
9	4	3.29728e+06	0	1	2	5	4
9	4	250	0	1	5	3	4
9	5	9024	0	1	2	1	0
9	5	19100	0	1	2	3	4
9	5	3.2768e+06	0	1	2	5	4
9	5	150	0	1	5	3	4
9	6	9344	0	1	2	1	0
9	6	20900	0	1	2	3	4
9	6	3.19078e+06	0	1	2	5	4
9	6	100	0	1	5	3	4
9	7	9088	0	1	2	1	0
9	7	18700	0	1	2	3	4
9	7	3.22765e+06	0	1	2	5	4
9	7	100	0	1	5	3	4
9	8	8832	0	1	2	1	0
9	8	21200	0	1	2	3	4
9	8	3.23584e+06	0	1	2	5	4
9	8	50	0	1	5	3	4
9	10	9216	0	1	2	1	0
9	10	21600	0	1	2	3	4
9	10	3.23584e+06	0	1	2	5	4
9	10	150	0	1	5	3	4
9	11	8640	0	1	2	1	0
9	11	20300	0	1	2	3	4
9	11	2.94093e+06	0	1	2	5	4
9	11	150	0	1	5	3	4
9	12	8128	0	1	2	1	0
9	12	21000	0	1	2	3	4
9	12	3.2809e+06	0	1	2	5	4
9	12	150	0	1	5	3	4
9	13	8320	0	1	2	1	0
9	13	20400	0	1	2	3	4
9	13	3.18669e+06	0	1	2	5	4
9	13	50	0	1	5	3	4
9	14	9088	0	1	2	1	0
9	14	20700	0	1	2	3	4
9	14	3.20307e+06	0	1	2	5	4
9	14	100	0	1	5	3	4
9	15	7616	0	1	2	1	0
9	15	21600	0	1	2	3	4
9	15	3.09658e+06	0	1	2	5	4
9	15	50	0	1	5	3	4
9	16	7616	0	1	2	1	0
9	16	20900	0	1	2	3	4
9	16	3.44474e+06	0	1	2	5	4
9	16	100	0	1	5	3	4
9	17	7616	0	1	2	1	0
9	17	21200	0	1	2	3	4
9	17	3.19078e+06	0	1	2	5	4
9	17	200	0	1	5	3	4
10	0	7872	0	1	2	1	0
10	0	21600	0	1	2	3	4
10	0	3.11296e+06	0	1	2	5	4
10	0	50	0	1	5	3	4
10	1	8128	0	1	2	1	0
10	1	19300	0	1	2	3	4
10	1	3.36691e+06	0	1	2	5	4
10	1	50	0	1	5	3	4
10	2	8768	0	1	2	1	0
10	2	19700	0	1	2	3	4
10	2	3.25632e+06	0	1	2	5	4
10	2	150	0	1	5	3	4
10	3	9152	0	1	2	1	0
10	3	18200	0	1	2	3	4
10	3	3.2727e+06	0	1	2	5	4
10	3	100	0	1	5	3	4
10	4	9536	0	1	2	1	0
10	4	19400	0	1	2	3	4
10	4	3.51027e+06	0	1	2	5	4
10	5	8640	0	1	2	1	0
10	5	19700	0	1	2	3	4
10	5	3.23174e+06	0	1	2	5	4
10	5	100	0	1	5	3	4
10	6	8576	0	1	2	1	0
10	6	22600	0	1	2	3	4
10	6	3.35462e+06	0	1	2	5	4
10	6	100	0	1	5	3	4
10	7	8448	0	1	2	1	0
10	7	19500	0	1	2	3	4
10	7	3.24813e+06	0	1	2	5	4
10	7	50	0	1	5	3	4
10	8	9408	0	1	2	1	0
10	8	23300	0	1	2	3	4
10	8	3.23994e+06	0	1	2	5	4
10	8	200	0	1	5	3	4
10	9	8960	0	1	2	1	0
10	9	19700	0	1	2	3	4
10	9	3.18259e+06	0	1	2	5	4
10	9	100	0	1	5	3	4
10	11	9408	0	1	2	1	0
10	11	20800	0	1	2	3	4
10	11	3.21946e+06	0	1	2	5	4
10	12	9536	0	1	2	1	0
10	12	16200	0	1	2	3	4
10	12	3.39149e+06	0	1	2	5	4
10	13	8320	0	1	2	1	0
10	13	21700	0	1	2	3	4
10	13	3.33414e+06	0	1	2	5	4
10	14	7680	0	1	2	1	0
10	14	20800	0	1	2	3	4
10	14	3.1703e+06	0	1	2	5	4
10	14	50	0	1	5	3	4
10	15	8576	0	1	2	1	0
10	15	20400	0	1	2	3	4
10	15	3.25222e+06	0	1	2	5	4
10	15	100	0	1	5	3	4
10	16	8576	0	1	2	1	0
10	16	22300	0	1	2	3	4
10	16	3.22765e+06	0	1	2	5	4
10	16	100	0	1	5	3	4
10	17	8000	0	1	2	1	0
10	17	20500	0	1	2	3	4
10	17	3.23584e+06	0	1	2	5	4
11	0	8512	0	1	2	1	0
11	0	19800	0	1	2	3	4
11	0	3.29728e+06	0	1	2	5	4
11	1	8128	0	1	2	1	0
11	1	20000	0	1	2	3	4
11	1	3.26451e+06	0	1	2	5	4
11	1	150	0	1	5	3	4
11	2	9664	0	1	2	1	0
11	2	21900	0	1	2	3	4
11	2	3.14982e+06	0	1	2	5	4
11	2	150	0	1	5	3	4
11	3	8512	0	1	2	1	0
11	3	18200	0	1	2	3	4
11	3	3.36691e+06	0	1	2	5	4
11	3	50	0	1	5	3	4
11	4	8448	0	1	2	1	0
11	4	21300	0	1	2	3	4
11	4	3.36691e+06	0	1	2	5	4
11	5	9344	0	1	2	1	0
11	5	19400	0	1	2	3	4
11	5	3.11706e+06	0	1	2	5	4
11	5	50	0	1	5	3	4
11	6	7808	0	1	2	1	0
11	6	21100	0	1	2	3	4
11	6	3.2727e+06	0	1	2	5	4
11	6	100	0	1	5	3	4
11	7	7616	0	1	2	1	0
11	7	21300	0	1	2	3	4
11	7	3.2727e+06	0	1	2	5	4
11	7	50	0	1	5	3	4
11	8	9536	0	1	2	1	0
11	8	20900	0	1	2	3	4
11	8	3.29728e+06	0	1	2	5	4
11	9	8832	0	1	2	1	0
11	9	21400	0	1	2	3	4
11	9	3.42835e+06	0	1	2	5	4
11	9	50	0	1	5	3	4
11	10	7680	0	1	2	1	0
11	10	21900	0	1	2	3	4
11	10	3.39968e+06	0	1	2	5	4
11	10	100	0	1	5	3	4
11	12	7808	0	1	2	1	0
11	12	20200	0	1	2	3	4
11	12	3.33824e+06	0	1	2	5	4
11	13	9088	0	1	2	1	0
11	13	18500	0	1	2	3	4
11	13	3.22355e+06	0	1	2	5	4
11	13	50	0	1	5	3	4
11	14	8704	0	1	2	1	0
11	14	22900	0	1	2	3	4
11	14	3.12934e+06	0	1	2	5	4
11	14	100	0	1	5	3	4
11	15	8000	0	1	2	1	0
11	15	18700	0	1	2	3	4
11	15	3.32186e+06	0	1	2	5	4
11	15	100	0	1	5	3	4
11	16	7872	0	1	2	1	0
11	16	22300	0	1	2	3	4
11	16	3.18669e+06	0	1	2	5	4
11	16	150	0	1	5	3	4
11	17	8640	0	1	2	1	0
11	17	19000	0	1	2	3	4
11	17	3.36691e+06	0	1	2	5	4
12	0	7360	0	1	2	1	0
12	0	19800	0	1	2	3	4
12	0	3.10477e+06	0	1	2	5	4
12	0	100	0	1	5	3	4
12	1	7872	0	1	2	1	0
12	1	20200	0	1	2	3	4
12	1	3.48979e+06	0	1	2	5	4
12	1	150	0	1	5	3	4
12	2	7616	0	1	2	1	0
12	2	20400	0	1	2	3	4
12	2	3.32186e+06	0	1	2	5	4
12	3	8512	0	1	2	1	0
12	3	20500	0	1	2	3	4
12	3	3.16621e+06	0	1	2	5	4
12	3	100	0	1	5	3	4
12	4	8576	0	1	2	1	0
12	4	20800	0	1	2	3	4
12	4	3.56762e+06	0	1	2	5	4
12	4	100	0	1	5	3	4
12	5	8832	0	1	2	1	0
12	5	23200	0	1	2	3	4
12	5	3.18669e+06	0	1	2	5	4
12	5	300	0	1	5	3	4
12	6	8960	0	1	2	1	0
12	6	20900	0	1	2	3	4
12	6	3.11706e+06	0	1	2	5	4
12	7	7552	0	1	2	1	0
12	7	19800	0	1	2	3	4
12	7	3.22765e+06	0	1	2	5	4
12	8	8640	0	1	2	1	0
12	8	21900	0	1	2	3	4
12	8	3.31776e+06	0	1	2	5	4
12	8	100	0	1	5	3	4
12	9	7488	0	1	2	1	0
12	9	22300	0	1	2	3	4
12	9	3.10067e+06	0	1	2	5	4
12	9	300	0	1	5	3	4
12	10	9088	0	1	2	1	0
12	10	17400	0	1	2	3	4
12	10	3.44883e+06	0	1	2	5	4
12	10	100	0	1	5	3	4
12	11	8576	0	1	2	1	0
12	11	20400	0	1	2	3	4
12	11	3.41606e+06	0	1	2	5	4
12	13	9024	0	1	2	1	0
12	13	22400	0	1	2	3	4
12	13	3.43245e+06	0	1	2	5	4
12	13	50	0	1	5	3	4
12	14	8832	0	1	2	1	0
12	14	21800	0	1	2	3	4
12	14	3.26451e+06	0	1	2	5	4
12	14	150	0	1	5	3	4
12	15	8832	0	1	2	1	0
12	15	23800	0	1	2	3	4
12	15	3.13754e+06	0	1	2	5	4
12	15	50	0	1	5	3	4
12	16	8320	0	1	2	1	0
12	16	20300	0	1	2	3	4
12	16	3.16621e+06	0	1	2	5	4
12	16	100	0	1	5	3	4
12	17	9920	0	1	2	1	0
12	17	21500	0	1	2	3	4
12	17	3.29728e+06	0	1	2	5	4
12	17	200	0	1	5	3	4
13	0	8640	0	1	2	1	0
13	0	23100	0	1	2	3	4
13	0	3.11296e+06	0	1	2	5	4
13	0	150	0	1	5	3	4
13	1	9536	0	1	2	1	0
13	1	17800	0	1	2	3	4
13	1	3.49389e+06	0	1	2	5	4
13	1	200	0	1	5	3	4
13	2	7360	0	1	2	1	0
13	2	22000	0	1	2	3	4
13	2	3.23584e+06	0	1	2	5	4
13	2	50	0	1	5	3	4
13	3	10112	0	1	2	1	0
13	3	22300	0	1	2	3	4
13	3	3.2809e+06	0	1	2	5	4
13	3	150	0	1	5	3	4
13	4	8640	0	1	2	1	0
13	4	19500	0	1	2	3	4
13	4	3.51437e+06	0	1	2	5	4
13	4	150	0	1	5	3	4
13	5	8320	0	1	2	1	0
13	5	19700	0	1	2	3	4
13	5	3.36691e+06	0	1	2	5	4
13	6	8320	0	1	2	1	0
13	6	19000	0	1	2	3	4
13	6	3.18669e+06	0	1	2	5	4
13	6	50	0	1	5	3	4
13	7	9472	0	1	2	1	0
13	7	23200	0	1	2	3	4
13	7	3.2809e+06	0	1	2	5	4
13	7	100	0	1	5	3	4
13	8	9472	0	1	2	1	0
13	8	17800	0	1	2	3	4
13	8	3.03104e+06	0	1	2	5	4
13	8	50	0	1	5	3	4
13	9	7552	0	1	2	1	0
13	9	19500	0	1	2	3	4
13	9	3.42426e+06	0	1	2	5	4
13	9	100	0	1	5	3	4
13	10	7808	0	1	2	1	0
13	10	22100	0	1	2	3	4
13	10	3.072e+06	0	1	2	5	4
13	11	8512	0	1	2	1	0
13	11	21500	0	1	2	3	4
13	11	3.41606e+06	0	1	2	5	4
13	12	7552	0	1	2	1	0
13	12	20300	0	1	2	3	4
13	12	3.30547e+06	0	1	2	5	4
13	12	50	0	1	5	3	4
13	14	9664	0	1	2	1	0
13	14	22200	0	1	2	3	4
13	14	3.39149e+06	0	1	2	5	4
13	14	50	0	1	5	3	4
13	15	8512	0	1	2	1	0
13	15	21700	0	1	2	3	4
13	15	3.20307e+06	0	1	2	5	4
13	15	150	0	1	5	3	4
13	16	7808	0	1	2	1	0
13	16	20000	0	1	2	3	4
13	16	3.34643e+06	0	1	2	5	4
13	16	50	0	1	5	3	4
13	17	9344	0	1	2	1	0
13	17	21000	0	1	2	3	4
13	17	3.08838e+06	0	1	2	5	4
13	17	200	0	1	5	3	4
14	0	9152	0	1	2	1	0
14	0	20200	0	1	2	3	4
14	0	3.16621e+06	0	1	2	5	4
14	0	200	0	1	5	3	4
14	1	10816	0	1	2	1	0
14	1	18400	0	1	2	3	4
14	1	3.35053e+06	0	1	2	5	4
14	1	50	0	1	5	3	4
14	2	8512	0	1	2	1	0
14	2	18700	0	1	2	3	4
14	2	3.19488e+06	0	1	2	5	4
14	3	8128	0	1	2	1	0
14	3	21800	0	1	2	3	4
14	3	3.32186e+06	0	1	2	5	4
14	3	50	0	1	5	3	4
14	4	9600	0	1	2	1	0
14	4	18400	0	1	2	3	4
14	4	3.35872e+06	0	1	2	5	4
14	4	200	0	1	5	3	4
14	5	7936	0	1	2	1	0
14	5	19700	0	1	2	3	4
14	5	3.1785e+06	0	1	2	5	4
14	5	100	0	1	5	3	4
14	6	9920	0	1	2	1	0
14	6	20700	0	1	2	3	4
14	6	3.22355e+06	0	1	2	5	4
14	6	150	0	1	5	3	4
14	7	7552	0	1	2	1	0
14	7	19600	0	1	2	3	4
14	7	3.2727e+06	0	1	2	5	4
14	7	100	0	1	5	3	4
14	8	7232	0	1	2	1	0
14	8	22800	0	1	2	3	4
14	8	3.29728e+06	0	1	2	5	4
14	8	50	0	1	5	3	4
14	9	8640	0	1	2	1	0
14	9	21000	0	1	2	3	4
14	9	3.26861e+06	0	1	2	5	4
14	9	50	0	1	5	3	4
14	10	8384	0	1	2	1	0
14	10	21200	0	1	2	3	4
14	10	3.44064e+06	0	1	2	5	4
14	10	50	0	1	5	3	4
14	11	8192	0	1	2	1	0
14	11	21500	0	1	2	3	4
14	11	3.16211e+06	0	1	2	5	4
14	11	50	0	1	5	3	4
14	12	8320	0	1	2	1	0
14	12	23000	0	1	2	3	4
14	12	3.24403e+06	0	1	2	5	4
14	12	100	0	1	5	3	4
14	13	8192	0	1	2	1	0
14	13	20900	0	1	2	3	4
14	13	3.21536e+06	0	1	2	5	4
14	13	100	0	1	5	3	4
14	15	9024	0	1	2	1	0
14	15	22100	0	1	2	3	4
14	15	3.14982e+06	0	1	2	5	4
14	15	50	0	1	5	3	4
14	16	8512	0	1	2	1	0
14	16	21400	0	1	2	3	4
14	16	2.95731e+06	0	1	2	5	4
14	17	9280	0	1	2	1	0
14	17	22500	0	1	2	3	4
14	17	3.12934e+06	0	1	2	5	4
15	0	8512	0	1	2	1	0
15	0	20000	0	1	2	3	4
15	0	3.11296e+06	0	1	2	5	4
15	0	200	0	1	5	3	4
15	1	7296	0	1	2	1	0
15	1	20500	0	1	2	3	4
15	1	3.29318e+06	0	1	2	5	4
15	1	100	0	1	5	3	4
15	2	9024	0	1	2	1	0
15	2	20300	0	1	2	3	4
15	2	3.26861e+06	0	1	2	5	4
15	2	200	0	1	5	3	4
15	3	9024	0	1	2	1	0
15	3	23700	0	1	2	3	4
15	3	3.21946e+06	0	1	2	5	4
15	3	150	0	1	5	3	4
15	4	7744	0	1	2	1	0
15	4	21800	0	1	2	3	4
15	4	3.29728e+06	0	1	2	5	4
15	5	8768	0	1	2	1	0
15	5	20200	0	1	2	3	4
15	5	3.15392e+06	0	1	2	5	4
15	5	100	0	1	5	3	4
15	6	9344	0	1	2	1	0
15	6	19200	0	1	2	3	4
15	6	3.42426e+06	0	1	2	5	4
15	6	150	0	1	5	3	4
15	7	7616	0	1	2	1	0
15	7	20800	0	1	2	3	4
15	7	3.16211e+06	0	1	2	5	4
15	7	100	0	1	5	3	4
15	8	8192	0	1	2	1	0
15	8	20600	0	1	2	3	4
15	8	3.20717e+06	0	1	2	5	4
15	8	150	0	1	5	3	4
15	9	8128	0	1	2	1	0
15	9	18900	0	1	2	3	4
15	9	3.3833e+06	0	1	2	5	4
15	9	50	0	1	5	3	4
15	10	7744	0	1	2	1	0
15	10	20700	0	1	2	3	4
15	10	3.2768e+06	0	1	2	5	4
15	10	200	0	1	5	3	4
15	11	8320	0	1	2	1	0
15	11	20100	0	1	2	3	4
15	11	3.15392e+06	0	1	2	5	4
15	12	9216	0	1	2	1	0
15	12	21200	0	1	2	3	4
15	12	3.3751e+06	0	1	2	5	4
15	13	8128	0	1	2	1	0
15	13	18500	0	1	2	3	4
15	13	3.03104e+06	0	1	2	5	4
15	13	100	0	1	5	3	4
15	14	9536	0	1	2	1	0
15	14	21500	0	1	2	3	4
15	14	3.3833e+06	0	1	2	5	4
15	14	200	0	1	5	3	4
15	16	8832	0	1	2	1	0
15	16	19800	0	1	2	3	4
15	16	3.1785e+06	0	1	2	5	4
15	16	50	0	1	5	3	4
15	17	8192	0	1	2	1	0
15	17	21300	0	1	2	3	4
15	17	3.21946e+06	0	1	2	5	4
15	17	150	0	1	5	3	4
16	0	7488	0	1	2	1	0
16	0	21600	0	1	2	3	4
16	0	3.12525e+06	0	1	2	5	4
16	0	150	0	1	5	3	4
16	1	6912	0	1	2	1	0
16	1	21400	0	1	2	3	4
16	1	3.32186e+06	0	1	2	5	4
16	1	150	0	1	5	3	4
16	2	9088	0	1	2	1	0
16	2	21700	0	1	2	3	4
16	2	3.50618e+06	0	1	2	5	4
16	3	8960	0	1	2	1	0
16	3	19800	0	1	2	3	4
16	3	3.23994e+06	0	1	2	5	4
16	3	100	0	1	5	3	4
16	4	8512	0	1	2	1	0
16	4	21400	0	1	2	3	4
16	4	3.072e+06	0	1	2	5	4
16	5	8256	0	1	2	1	0
16	5	18600	0	1	2	3	4
16	5	3.28499e+06	0	1	2	5	4
16	5	100	0	1	5	3	4
16	6	8896	0	1	2	1	0
16	6	19200	0	1	2	3	4
16	6	3.23174e+06	0	1	2	5	4
16	6	100	0	1	5	3	4
16	7	9088	0	1	2	1	0
16	7	20400	0	1	2	3	4
16	7	3.13344e+06	0	1	2	5	4
16	8	9344	0	1	2	1	0
16	8	17700	0	1	2	3	4
16	8	3.3833e+06	0	1	2	5	4
16	8	50	0	1	5	3	4
16	9	8320	0	1	2	1	0
16	9	20000	0	1	2	3	4
16	9	3.31366e+06	0	1	2	5	4
16	9	100	0	1	5	3	4
16	10	7616	0	1	2	1	0
16	10	18300	0	1	2	3	4
16	10	3.25222e+06	0	1	2	5	4
16	10	50	0	1	5	3	4
16	11	9088	0	1	2	1	0
16	11	22000	0	1	2	3	4
16	11	3.05971e+06	0	1	2	5	4
16	11	50	0	1	5	3	4
16	12	8896	0	1	2	1	0
16	12	22300	0	1	2	3	4
16	12	3.30138e+06	0	1	2	5	4
16	12	200	0	1	5	3	4
16	13	8576	0	1	2	1	0
16	13	20600	0	1	2	3	4
16	13	3.41606e+06	0	1	2	5	4
16	13	150	0	1	5	3	4
16	14	8576	0	1	2	1	0
16	14	20900	0	1	2	3	4
16	14	3.26042e+06	0	1	2	5	4
16	14	100	0	1	5	3	4
16	15	8896	0	1	2	1	0
16	15	19300	0	1	2	3	4
16	15	3.23174e+06	0	1	2	5	4
16	15	50	0	1	5	3	4
16	17	9280	0	1	2	1	0
16	17	18900	0	1	2	3	4
16	17	3.41606e+06	0	1	2	5	4
17	0	8320	0	1	2	1	0
17	0	20400	0	1	2	3	4
17	0	3.19078e+06	0	1	2	5	4
17	1	7744	0	1	2	1	0
17	1	23000	0	1	2	3	4
17	1	3.10886e+06	0	1	2	5	4
17	1	100	0	1	5	3	4
17	2	8320	0	1	2	1	0
17	2	22700	0	1	2	3	4
17	2	3.14163e+06	0	1	2	5	4
17	2	250	0	1	5	3	4
17	3	8064	0	1	2	1	0
17	3	18400	0	1	2	3	4
17	3	3.18259e+06	0	1	2	5	4
17	3	100	0	1	5	3	4
17	4	8448	0	1	2	1	0
17	4	20900	0	1	2	3	4
17	4	3.35053e+06	0	1	2	5	4
17	5	7616	0	1	2	1	0
17	5	21300	0	1	2	3	4
17	5	3.26042e+06	0	1	2	5	4
17	6	7424	0	1	2	1	0
17	6	20800	0	1	2	3	4
17	6	3.10886e+06	0	1	2	5	4
17	6	100	0	1	5	3	4
17	7	8960	0	1	2	1	0
17	7	20000	0	1	2	3	4
17	7	3.18669e+06	0	1	2	5	4
17	7	100	0	1	5	3	4
17	8	7744	0	1	2	1	0
17	8	21100	0	1	2	3	4
17	8	3.35462e+06	0	1	2	5	4
17	9	8960	0	1	2	1	0
17	9	18900	0	1	2	3	4
17	9	3.01466e+06	0	1	2	5	4
17	9	100	0	1	5	3	4
17	10	7936	0	1	2	1	0
17	10	20500	0	1	2	3	4
17	10	3.21126e+06	0	1	2	5	4
17	10	150	0	1	5	3	4
17	11	7808	0	1	2	1	0
17	11	22000	0	1	2	3	4
17	11	3.23174e+06	0	1	2	5	4
17	12	7616	0	1	2	1	0
17	12	20100	0	1	2	3	4
17	12	3.01056e+06	0	1	2	5	4
17	12	100	0	1	5	3	4
17	13	7680	0	1	2	1	0
17	13	21800	0	1	2	3	4
17	13	3.34234e+06	0	1	2	5	4
17	13	50	0	1	5	3	4
17	14	8128	0	1	2	1	0
17	14	22600	0	1	2	3	4
17	14	3.09658e+06	0	1	2	5	4
17	14	50	0	1	5	3	4
17	15	7936	0	1	2	1	0
17	15	19800	0	1	2	3	4
17	15	3.18669e+06	0	1	2	5	4
17	15	50	0	1	5	3	4
17	16	9088	0	1	2	1	0
17	16	19200	0	1	2	3	4
17	16	3.2727e+06	0	1	2	5	4
17	16	100	0	1	5	3	4
