100000	100000	100000	10000	1000	1000
0	1	134080	0	1	2	1	0
0	1	316600	0	1	2	3	4
0	1	4.91889e+07	0	1	2	5	4
0	1	1650	0	1	5	3	4
0	2	50944	0	1	2	1	0
0	2	127000	0	1	2	3	4
0	2	2.03612e+07	0	1	2	5	4
0	2	600	0	1	5	3	4
0	3	28736	0	1	2	1	0
0	3	74500	0	1	2	3	4
0	3	1.17146e+07	0	1	2	5	4
0	3	600	0	1	5	3	4
0	4	85184	0	1	2	1	0
0	4	201000	0	1	2	3	4
0	4	3.13917e+07	0	1	2	5	4
0	4	650	0	1	5	3	4
0	5	36864	0	1	2	1	0
0	5	89500	0	1	2	3	4
0	5	1.43114e+07	0	1	2	5	4
0	5	250	0	1	5	3	4
0	6	35264	0	1	2	1	0
0	6	77500	0	1	2	3	4
0	6	1.36888e+07	0	1	2	5	4
0	6	450	0	1	5	3	4
0	7	23296	0	1	2	1	0
0	7	54900	0	1	2	3	4
0	7	8.20429e+06	0	1	2	5	4
0	7	150	0	1	5	3	4
0	8	20480	0	1	2	1	0
0	8	51100	0	1	2	3	4
0	8	7.63904e+06	0	1	2	5	4
0	8	350	0	1	5	3	4
0	9	31424	0	1	2	1	0
0	9	69500	0	1	2	3	4
0	9	1.13295e+07	0	1	2	5	4
0	9	150	0	1	5	3	4
1	0	129344	0	1	2	1	0
1	0	313000	0	1	2	3	4
1	0	4.94879e+07	0	1	2	5	4
1	0	1150	0	1	5	3	4
1	2	36736	0	1	2	1	0
1	2	90400	0	1	2	3	4
1	2	1.39469e+07	0	1	2	5	4
1	2	300	0	1	5	3	4
1	3	21440	0	1	2	1	0
1	3	51200	0	1	2	3	4
1	3	8.23706e+06	0	1	2	5	4
1	3	200	0	1	5	3	4
1	4	56320	0	1	2	1	0
1	4	144800	0	1	2	3	4
1	4	2.24502e+07	0	1	2	5	4
1	4	1000	0	1	5	3	4
1	5	52352	0	1	2	1	0
1	5	130800	0	1	2	3	4
1	5	2.048e+07	0	1	2	5	4
1	5	400	0	1	5	3	4
1	6	24768	0	1	2	1	0
1	6	61000	0	1	2	3	4
1	6	9.43718e+06	0	1	2	5	4
1	6	350	0	1	5	3	4
1	7	24064	0	1	2	1	0
1	7	58300	0	1	2	3	4
1	7	8.91699e+06	0	1	2	5	4
1	7	250	0	1	5	3	4
1	8	22528	0	1	2	1	0
1	8	52800	0	1	2	3	4
1	8	8.52378e+06	0	1	2	5	4
1	8	250	0	1	5	3	4
1	9	17664	0	1	2	1	0
1	9	48700	0	1	2	3	4
1	9	8.15104e+06	0	1	2	5	4
1	9	150	0	1	5	3	4
2	0	54976	0	1	2	1	0
2	0	125600	0	1	2	3	4
2	0	1.97468e+07	0	1	2	5	4
2	0	800	0	1	5	3	4
2	1	40512	0	1	2	1	0
2	1	91500	0	1	2	3	4
2	1	1.43278e+07	0	1	2	5	4
2	1	150	0	1	5	3	4
2	3	53760	0	1	2	1	0
2	3	129700	0	1	2	3	4
2	3	2.05128e+07	0	1	2	5	4
2	3	550	0	1	5	3	4
2	4	43904	0	1	2	1	0
2	4	112100	0	1	2	3	4
2	4	1.78299e+07	0	1	2	5	4
2	4	500	0	1	5	3	4
2	5	21504	0	1	2	1	0
2	5	52400	0	1	2	3	4
2	5	8.35174e+06	0	1	2	5	4
2	5	400	0	1	5	3	4
2	6	22528	0	1	2	1	0
2	6	48000	0	1	2	3	4
2	6	7.93395e+06	0	1	2	5	4
2	6	250	0	1	5	3	4
2	7	17536	0	1	2	1	0
2	7	43900	0	1	2	3	4
2	7	7.10246e+06	0	1	2	5	4
2	7	100	0	1	5	3	4
2	8	35136	0	1	2	1	0
2	8	90800	0	1	2	3	4
2	8	1.34799e+07	0	1	2	5	4
2	8	300	0	1	5	3	4
2	9	16512	0	1	2	1	0
2	9	41400	0	1	2	3	4
2	9	6.66829e+06	0	1	2	5	4
2	9	300	0	1	5	3	4
3	0	30144	0	1	2	1	0
3	0	76500	0	1	2	3	4
3	0	1.20095e+07	0	1	2	5	4
3	0	600	0	1	5	3	4
3	1	20032	0	1	2	1	0
3	1	53800	0	1	2	3	4
3	1	8.31488e+06	0	1	2	5	4
3	1	100	0	1	5	3	4
3	2	52288	0	1	2	1	0
3	2	132500	0	1	2	3	4
3	2	1.97755e+07	0	1	2	5	4
3	2	450	0	1	5	3	4
3	4	18368	0	1	2	1	0
3	4	50800	0	1	2	3	4
3	4	7.77011e+06	0	1	2	5	4
3	4	200	0	1	5	3	4
3	5	17984	0	1	2	1	0
3	5	46900	0	1	2	3	4
3	5	6.89357e+06	0	1	2	5	4
3	5	350	0	1	5	3	4
3	6	17280	0	1	2	1	0
3	6	40300	0	1	2	3	4
3	6	6.4471e+06	0	1	2	5	4
3	6	250	0	1	5	3	4
3	7	35392	0	1	2	1	0
3	7	78000	0	1	2	3	4
3	7	1.26198e+07	0	1	2	5	4
3	7	200	0	1	5	3	4
3	8	18176	0	1	2	1	0
3	8	41400	0	1	2	3	4
3	8	5.79584e+06	0	1	2	5	4
3	8	150	0	1	5	3	4
3	9	9856	0	1	2	1	0
3	9	24900	0	1	2	3	4
3	9	3.95264e+06	0	1	2	5	4
3	9	150	0	1	5	3	4
4	0	83072	0	1	2	1	0
4	0	197100	0	1	2	3	4
4	0	3.13303e+07	0	1	2	5	4
4	0	650	0	1	5	3	4
4	1	58048	0	1	2	1	0
4	1	142800	0	1	2	3	4
4	1	2.18481e+07	0	1	2	5	4
4	1	500	0	1	5	3	4
4	2	48704	0	1	2	1	0
4	2	113100	0	1	2	3	4
4	2	1.82313e+07	0	1	2	5	4
4	2	350	0	1	5	3	4
4	3	21632	0	1	2	1	0
4	3	50000	0	1	2	3	4
4	3	7.73734e+06	0	1	2	5	4
4	3	200	0	1	5	3	4
4	5	17024	0	1	2	1	0
4	5	44200	0	1	2	3	4
4	5	6.37747e+06	0	1	2	5	4
4	6	32320	0	1	2	1	0
4	6	72600	0	1	2	3	4
4	6	1.18088e+07	0	1	2	5	4
4	6	200	0	1	5	3	4
4	7	14528	0	1	2	1	0
4	7	36200	0	1	2	3	4
4	7	5.75898e+06	0	1	2	5	4
4	7	150	0	1	5	3	4
4	8	14016	0	1	2	1	0
4	8	31000	0	1	2	3	4
4	8	5.40672e+06	0	1	2	5	4
4	8	100	0	1	5	3	4
4	9	26688	0	1	2	1	0
4	9	64200	0	1	2	3	4
4	9	1.00434e+07	0	1	2	5	4
4	9	350	0	1	5	3	4
5	0	37888	0	1	2	1	0
5	0	88100	0	1	2	3	4
5	0	1.45572e+07	0	1	2	5	4
5	0	350	0	1	5	3	4
5	1	52352	0	1	2	1	0
5	1	131100	0	1	2	3	4
5	1	2.00049e+07	0	1	2	5	4
5	1	650	0	1	5	3	4
5	2	21056	0	1	2	1	0
5	2	52700	0	1	2	3	4
5	2	8.09779e+06	0	1	2	5	4
5	2	300	0	1	5	3	4
5	3	19712	0	1	2	1	0
5	3	42900	0	1	2	3	4
5	3	7.10656e+06	0	1	2	5	4
5	3	100	0	1	5	3	4
5	4	18496	0	1	2	1	0
5	4	41800	0	1	2	3	4
5	4	6.40614e+06	0	1	2	5	4
5	4	250	0	1	5	3	4
5	6	29248	0	1	2	1	0
5	6	67200	0	1	2	3	4
5	6	1.058e+07	0	1	2	5	4
5	6	450	0	1	5	3	4
5	7	25856	0	1	2	1	0
5	7	63400	0	1	2	3	4
5	7	9.9287e+06	0	1	2	5	4
5	7	400	0	1	5	3	4
5	8	22976	0	1	2	1	0
5	8	57400	0	1	2	3	4
5	8	9.50272e+06	0	1	2	5	4
5	8	150	0	1	5	3	4
5	9	6720	0	1	2	1	0
5	9	17600	0	1	2	3	4
5	9	2.9655e+06	0	1	2	5	4
6	0	34304	0	1	2	1	0
6	0	82500	0	1	2	3	4
6	0	1.28492e+07	0	1	2	5	4
6	0	500	0	1	5	3	4
6	1	25984	0	1	2	1	0
6	1	60600	0	1	2	3	4
6	1	9.33069e+06	0	1	2	5	4
6	1	150	0	1	5	3	4
6	2	20800	0	1	2	1	0
6	2	44600	0	1	2	3	4
6	2	7.69229e+06	0	1	2	5	4
6	2	350	0	1	5	3	4
6	3	18432	0	1	2	1	0
6	3	43300	0	1	2	3	4
6	3	6.72154e+06	0	1	2	5	4
6	3	200	0	1	5	3	4
6	4	31744	0	1	2	1	0
6	4	76800	0	1	2	3	4
6	4	1.22102e+07	0	1	2	5	4
6	4	300	0	1	5	3	4
6	5	28800	0	1	2	1	0
6	5	68000	0	1	2	3	4
6	5	1.09322e+07	0	1	2	5	4
6	5	350	0	1	5	3	4
6	7	24384	0	1	2	1	0
6	7	57600	0	1	2	3	4
6	7	9.20371e+06	0	1	2	5	4
6	7	400	0	1	5	3	4
6	8	12800	0	1	2	1	0
6	8	27200	0	1	2	3	4
6	8	4.14106e+06	0	1	2	5	4
6	9	10752	0	1	2	1	0
6	9	27100	0	1	2	3	4
6	9	4.03046e+06	0	1	2	5	4
7	0	22656	0	1	2	1	0
7	0	47900	0	1	2	3	4
7	0	8.36813e+06	0	1	2	5	4
7	0	300	0	1	5	3	4
7	1	23424	0	1	2	1	0
7	1	54600	0	1	2	3	4
7	1	8.9129e+06	0	1	2	5	4
7	1	50	0	1	5	3	4
7	2	18496	0	1	2	1	0
7	2	41900	0	1	2	3	4
7	2	6.93043e+06	0	1	2	5	4
7	2	50	0	1	5	3	4
7	3	32000	0	1	2	1	0
7	3	78200	0	1	2	3	4
7	3	1.26935e+07	0	1	2	5	4
7	3	200	0	1	5	3	4
7	4	14848	0	1	2	1	0
7	4	36000	0	1	2	3	4
7	4	5.45587e+06	0	1	2	5	4
7	4	150	0	1	5	3	4
7	5	27712	0	1	2	1	0
7	5	62600	0	1	2	3	4
7	5	9.99424e+06	0	1	2	5	4
7	5	150	0	1	5	3	4
7	6	23936	0	1	2	1	0
7	6	57400	0	1	2	3	4
7	6	9.35526e+06	0	1	2	5	4
7	6	300	0	1	5	3	4
7	8	19584	0	1	2	1	0
7	8	49300	0	1	2	3	4
7	8	8.24115e+06	0	1	2	5	4
7	8	200	0	1	5	3	4
7	9	5824	0	1	2	1	0
7	9	16700	0	1	2	3	4
7	9	2.57229e+06	0	1	2	5	4
7	9	50	0	1	5	3	4
8	0	21248	0	1	2	1	0
8	0	48600	0	1	2	3	4
8	0	8.02816e+06	0	1	2	5	4
8	0	50	0	1	5	3	4
8	1	21120	0	1	2	1	0
8	1	49700	0	1	2	3	4
8	1	8.26573e+06	0	1	2	5	4
8	1	150	0	1	5	3	4
8	2	34432	0	1	2	1	0
8	2	85300	0	1	2	3	4
8	2	1.38691e+07	0	1	2	5	4
8	2	300	0	1	5	3	4
8	3	17216	0	1	2	1	0
8	3	37700	0	1	2	3	4
8	3	5.66067e+06	0	1	2	5	4
8	3	150	0	1	5	3	4
8	4	14912	0	1	2	1	0
8	4	32700	0	1	2	3	4
8	4	4.9193e+06	0	1	2	5	4
8	4	200	0	1	5	3	4
8	5	25024	0	1	2	1	0
8	5	62300	0	1	2	3	4
8	5	9.25286e+06	0	1	2	5	4
8	5	150	0	1	5	3	4
8	6	10880	0	1	2	1	0
8	6	28300	0	1	2	3	4
8	6	4.4073e+06	0	1	2	5	4
8	6	200	0	1	5	3	4
8	7	22592	0	1	2	1	0
8	7	53000	0	1	2	3	4
8	7	8.08141e+06	0	1	2	5	4
8	7	250	0	1	5	3	4
8	9	6848	0	1	2	1	0
8	9	15800	0	1	2	3	4
8	9	2.3552e+06	0	1	2	5	4
9	0	30272	0	1	2	1	0
9	0	67300	0	1	2	3	4
9	0	1.11411e+07	0	1	2	5	4
9	0	500	0	1	5	3	4
9	1	19968	0	1	2	1	0
9	1	49400	0	1	2	3	4
9	1	7.67181e+06	0	1	2	5	4
9	1	250	0	1	5	3	4
9	2	15680	0	1	2	1	0
9	2	40700	0	1	2	3	4
9	2	6.09894e+06	0	1	2	5	4
9	2	150	0	1	5	3	4
9	3	11392	0	1	2	1	0
9	3	24700	0	1	2	3	4
9	3	4.14925e+06	0	1	2	5	4
9	3	50	0	1	5	3	4
9	4	26176	0	1	2	1	0
9	4	63600	0	1	2	3	4
9	4	1.01663e+07	0	1	2	5	4
9	4	300	0	1	5	3	4
9	5	7680	0	1	2	1	0
9	5	19400	0	1	2	3	4
9	5	3.01875e+06	0	1	2	5	4
9	6	11264	0	1	2	1	0
9	6	23600	0	1	2	3	4
9	6	4.3991e+06	0	1	2	5	4
9	6	200	0	1	5	3	4
9	7	6656	0	1	2	1	0
9	7	16500	0	1	2	3	4
9	7	2.57638e+06	0	1	2	5	4
9	8	6400	0	1	2	1	0
9	8	15400	0	1	2	3	4
9	8	2.70746e+06	0	1	2	5	4
9	8	50	0	1	5	3	4
