100000	100000	100000	10000	1000	1000
0	1	1.28243e+06	0	1	2	1	0
0	1	3.0537e+06	0	1	2	3	4
0	1	4.82894e+08	0	1	2	5	4
0	1	11500	0	1	5	3	4
0	2	32192	0	1	2	1	0
0	2	69600	0	1	2	3	4
0	2	1.14278e+07	0	1	2	5	4
0	2	200	0	1	5	3	4
0	3	4288	0	1	2	1	0
0	3	8500	0	1	2	3	4
0	3	1.40083e+06	0	1	2	5	4
0	3	50	0	1	5	3	4
0	4	640	0	1	2	1	0
0	4	1100	0	1	2	3	4
0	4	208896	0	1	2	5	4
0	5	512	0	1	2	1	0
0	5	1300	0	1	2	3	4
0	5	184320	0	1	2	5	4
0	6	128	0	1	2	1	0
0	6	200	0	1	2	3	4
0	6	24576	0	1	2	5	4
0	7	100	0	1	2	3	4
0	7	8192	0	1	2	5	4
1	0	1.27923e+06	0	1	2	1	0
1	0	3.0859e+06	0	1	2	3	4
1	0	4.81636e+08	0	1	2	5	4
1	0	12800	0	1	5	3	4
1	2	192	0	1	2	1	0
1	2	500	0	1	2	3	4
1	2	81920	0	1	2	5	4
1	3	128	0	1	2	1	0
1	3	300	0	1	2	3	4
1	3	40960	0	1	2	5	4
1	4	4096	0	1	2	5	4
1	5	4096	0	1	2	5	4
2	0	30144	0	1	2	1	0
2	0	72300	0	1	2	3	4
2	0	1.1223e+07	0	1	2	5	4
2	0	50	0	1	5	3	4
2	1	64	0	1	2	1	0
2	1	1100	0	1	2	3	4
2	1	57344	0	1	2	5	4
3	0	4864	0	1	2	1	0
3	0	7600	0	1	2	3	4
3	0	1.31482e+06	0	1	2	5	4
3	0	100	0	1	5	3	4
3	1	64	0	1	2	1	0
3	1	200	0	1	2	3	4
3	1	28672	0	1	2	5	4
4	0	576	0	1	2	1	0
4	0	1900	0	1	2	3	4
4	0	225280	0	1	2	5	4
4	1	8192	0	1	2	5	4
5	0	704	0	1	2	1	0
5	0	1000	0	1	2	3	4
5	0	204800	0	1	2	5	4
5	0	50	0	1	5	3	4
6	0	200	0	1	2	3	4
6	0	40960	0	1	2	5	4
7	0	300	0	1	2	3	4
7	0	8192	0	1	2	5	4
8	0	50	0	1	5	3	4
9	0	100	0	1	2	3	4
9	0	8192	0	1	2	5	4
