100000	100000	100000	10000	1000	1000
0	1	1.12954e+06	0	1	2	1	0
0	1	2.6916e+06	0	1	2	3	4
0	1	4.24534e+08	0	1	2	5	4
0	1	10850	0	1	5	3	4
0	2	171840	0	1	2	1	0
0	2	417700	0	1	2	3	4
0	2	6.56056e+07	0	1	2	5	4
0	2	2100	0	1	5	3	4
0	3	9600	0	1	2	1	0
0	3	21300	0	1	2	3	4
0	3	3.31776e+06	0	1	2	5	4
0	3	150	0	1	5	3	4
0	4	1024	0	1	2	1	0
0	4	1600	0	1	2	3	4
0	4	360448	0	1	2	5	4
0	5	576	0	1	2	1	0
0	5	1700	0	1	2	3	4
0	5	278528	0	1	2	5	4
0	6	128	0	1	2	1	0
0	6	500	0	1	2	3	4
0	6	32768	0	1	2	5	4
0	7	8192	0	1	2	5	4
0	8	8192	0	1	2	5	4
0	9	100	0	1	2	3	4
1	0	1.12621e+06	0	1	2	1	0
1	0	2.7085e+06	0	1	2	3	4
1	0	4.25554e+08	0	1	2	5	4
1	0	11550	0	1	5	3	4
1	2	640	0	1	2	1	0
1	2	700	0	1	2	3	4
1	2	106496	0	1	2	5	4
1	2	50	0	1	5	3	4
1	6	64	0	1	2	1	0
2	0	171136	0	1	2	1	0
2	0	425300	0	1	2	3	4
2	0	6.71171e+07	0	1	2	5	4
2	0	1800	0	1	5	3	4
2	1	256	0	1	2	1	0
2	1	300	0	1	2	3	4
2	1	114688	0	1	2	5	4
3	0	7488	0	1	2	1	0
3	0	22400	0	1	2	3	4
3	0	3.29318e+06	0	1	2	5	4
3	0	50	0	1	5	3	4
3	2	8192	0	1	2	5	4
4	0	448	0	1	2	1	0
4	0	3000	0	1	2	3	4
4	0	413696	0	1	2	5	4
4	1	100	0	1	2	3	4
5	0	640	0	1	2	1	0
5	0	1200	0	1	2	3	4
5	0	262144	0	1	2	5	4
6	0	64	0	1	2	1	0
6	0	600	0	1	2	3	4
6	0	20480	0	1	2	5	4
7	0	128	0	1	2	1	0
7	0	100	0	1	2	3	4
7	0	16384	0	1	2	5	4
8	0	4096	0	1	2	5	4
9	0	4096	0	1	2	5	4
