1000	10000	10000	10000	10000	1000	1000	1000	10000	1000	1000	1000	100000	1000	10000	100000
0	1	1.14365e+07	3	12	14	6	10
0	2	1.12444e+07	3	12	14	6	10
0	3	1.13241e+07	3	12	14	6	10
0	4	1.13202e+07	3	12	14	6	10
0	5	1.08459e+07	3	12	14	6	10
0	6	1.08864e+07	3	12	14	6	10
0	7	1.11386e+07	3	12	14	6	10
0	8	1.09831e+07	3	12	14	6	10
0	9	1.11203e+07	3	12	14	6	10
1	0	1.11333e+07	3	12	14	6	10
1	2	1.11464e+07	3	12	14	6	10
1	3	1.10654e+07	3	12	14	6	10
1	4	1.1298e+07	3	12	14	6	10
1	5	1.10249e+07	3	12	14	6	10
1	6	1.10628e+07	3	12	14	6	10
1	7	1.10994e+07	3	12	14	6	10
1	8	1.12196e+07	3	12	14	6	10
1	9	1.1264e+07	3	12	14	6	10
2	0	1.1038e+07	3	12	14	6	10
2	1	1.08799e+07	3	12	14	6	10
2	3	1.12235e+07	3	12	14	6	10
2	4	1.10602e+07	3	12	14	6	10
2	5	1.13189e+07	3	12	14	6	10
2	6	1.11333e+07	3	12	14	6	10
2	7	1.12052e+07	3	12	14	6	10
2	8	1.11033e+07	3	12	14	6	10
2	9	1.08968e+07	3	12	14	6	10
3	0	1.1102e+07	3	12	14	6	10
3	1	1.09883e+07	3	12	14	6	10
3	2	1.11281e+07	3	12	14	6	10
3	4	1.08995e+07	3	12	14	6	10
3	5	1.10131e+07	3	12	14	6	10
3	6	1.11412e+07	3	12	14	6	10
3	7	1.12209e+07	3	12	14	6	10
3	8	1.10184e+07	3	12	14	6	10
3	9	1.10589e+07	3	12	14	6	10
4	0	1.10863e+07	3	12	14	6	10
4	1	1.12143e+07	3	12	14	6	10
4	2	1.10471e+07	3	12	14	6	10
4	3	1.10667e+07	3	12	14	6	10
4	5	1.10824e+07	3	12	14	6	10
4	6	1.11529e+07	3	12	14	6	10
4	7	1.10523e+07	3	12	14	6	10
4	8	1.13724e+07	3	12	14	6	10
4	9	1.12078e+07	3	12	14	6	10
5	0	1.1051e+07	3	12	14	6	10
5	1	1.1038e+07	3	12	14	6	10
5	2	1.10288e+07	3	12	14	6	10
5	3	1.11124e+07	3	12	14	6	10
5	4	1.10484e+07	3	12	14	6	10
5	6	1.10079e+07	3	12	14	6	10
5	7	1.11124e+07	3	12	14	6	10
5	8	1.10053e+07	3	12	14	6	10
5	9	1.12522e+07	3	12	14	6	10
6	0	1.11203e+07	3	12	14	6	10
6	1	1.12379e+07	3	12	14	6	10
6	2	1.11647e+07	3	12	14	6	10
6	3	1.1149e+07	3	12	14	6	10
6	4	1.10079e+07	3	12	14	6	10
6	5	1.08106e+07	3	12	14	6	10
6	7	1.11804e+07	3	12	14	6	10
6	8	1.10406e+07	3	12	14	6	10
6	9	1.10458e+07	3	12	14	6	10
7	0	1.10941e+07	3	12	14	6	10
7	1	1.11686e+07	3	12	14	6	10
7	2	1.11333e+07	3	12	14	6	10
7	3	1.11425e+07	3	12	14	6	10
7	4	1.13045e+07	3	12	14	6	10
7	5	1.11804e+07	3	12	14	6	10
7	6	1.10536e+07	3	12	14	6	10
7	8	1.10732e+07	3	12	14	6	10
7	9	1.11725e+07	3	12	14	6	10
8	0	1.10576e+07	3	12	14	6	10
8	1	1.10811e+07	3	12	14	6	10
8	2	1.09308e+07	3	12	14	6	10
8	3	1.09792e+07	3	12	14	6	10
8	4	1.10915e+07	3	12	14	6	10
8	5	1.11712e+07	3	12	14	6	10
8	6	1.11399e+07	3	12	14	6	10
8	7	1.09413e+07	3	12	14	6	10
8	9	1.10889e+07	3	12	14	6	10
9	0	1.11477e+07	3	12	14	6	10
9	1	1.11542e+07	3	12	14	6	10
9	2	1.11216e+07	3	12	14	6	10
9	3	1.11882e+07	3	12	14	6	10
9	4	1.11281e+07	3	12	14	6	10
9	5	1.11843e+07	3	12	14	6	10
9	6	1.12222e+07	3	12	14	6	10
9	7	1.11595e+07	3	12	14	6	10
9	8	1.11529e+07	3	12	14	6	10
