20
0	3	1e+12
1	3	1e+12
1	6	1e+12
1	12	1e+12
2	4	1e+12
2	7	1e+12
2	9	1e+12
3	0	1e+12
3	1	1e+12
3	11	1e+12
3	19	1e+12
4	2	1e+12
5	10	1e+12
5	13	1e+12
5	14	1e+12
5	16	1e+12
6	1	1e+12
6	8	1e+12
6	15	1e+12
7	2	1e+12
7	8	1e+12
7	11	1e+12
7	14	1e+12
7	18	1e+12
8	6	1e+12
8	7	1e+12
8	12	1e+12
8	18	1e+12
9	2	1e+12
9	10	1e+12
9	11	1e+12
9	14	1e+12
10	5	1e+12
10	9	1e+12
10	12	1e+12
11	3	1e+12
11	7	1e+12
11	9	1e+12
11	13	1e+12
12	1	1e+12
12	8	1e+12
12	10	1e+12
12	17	1e+12
13	5	1e+12
13	11	1e+12
13	19	1e+12
14	5	1e+12
14	7	1e+12
14	9	1e+12
15	6	1e+12
15	16	1e+12
15	18	1e+12
16	5	1e+12
16	15	1e+12
17	12	1e+12
17	18	1e+12
18	7	1e+12
18	8	1e+12
18	15	1e+12
18	17	1e+12
18	19	1e+12
19	3	1e+12
19	13	1e+12
19	18	1e+12
